{
    "1090": {
        "21/03/2020 15:59:00": [
            53,
            -289,
            -139,
            -122
        ],
        "21/03/2020 15:59:34": [
            53,
            -289,
            -139,
            -122
        ],
        "21/03/2020 17:43:13": [
            -498,
            -438,
            -456,
            -161
        ],
        "21/03/2020 20:37:46": [
            -56,
            -196,
            -122
        ],
        "21/03/2020 22:40:44": [
            -22
        ]
    },
    "1278": {
        "21/03/2020 15:59:00": [
            -284,
            -108,
            12,
            12
        ],
        "21/03/2020 15:59:29": [
            -284,
            -108,
            12,
            12
        ],
        "21/03/2020 17:43:08": [
            -443,
            -148,
            -17,
            17
        ],
        "21/03/2020 20:37:39": [
            -127,
            -3
        ],
        "21/03/2020 22:40:37": [
            -15,
            -15
        ]
    },
    "1282": {
        "21/03/2020 15:59:00": [
            -310,
            -134,
            -14
        ],
        "21/03/2020 15:59:29": [
            -310,
            -134,
            -14
        ],
        "21/03/2020 17:43:09": [
            -385,
            -127,
            4
        ],
        "21/03/2020 20:37:40": [
            -117,
            7
        ],
        "21/03/2020 22:40:37": [
            -8,
            -8
        ]
    },
    "1284": {
        "21/03/2020 15:59:01": [
            -311,
            -135,
            -15
        ],
        "21/03/2020 15:59:30": [
            -311,
            -135,
            -15
        ],
        "21/03/2020 17:43:09": [
            -446,
            -151,
            -20
        ],
        "21/03/2020 20:37:41": [
            -198,
            -124,
            0
        ],
        "21/03/2020 22:40:38": [
            -26,
            -26
        ]
    },
    "1285": {
        "21/03/2020 15:59:01": [
            -385,
            -302,
            -126,
            -6
        ],
        "21/03/2020 15:59:30": [
            -385,
            -302,
            -126,
            -6
        ],
        "21/03/2020 17:43:10": [
            -453,
            -158,
            -27
        ],
        "21/03/2020 20:37:41": [
            -228,
            -154,
            -30
        ],
        "21/03/2020 22:40:39": [
            27
        ]
    },
    "1286": {
        "21/03/2020 15:59:01": [
            -339,
            -290,
            -114,
            6
        ],
        "21/03/2020 15:59:30": [
            -339,
            -290,
            -114,
            6
        ],
        "21/03/2020 17:43:10": [
            -451,
            -156,
            -25
        ],
        "21/03/2020 20:37:42": [
            -180,
            -106,
            18
        ],
        "21/03/2020 22:40:39": [
            10
        ]
    },
    "136": {
        "21/03/2020 15:59:01": [
            -9,
            -9,
            -9,
            -9
        ],
        "21/03/2020 15:59:21": [
            -9,
            -9,
            -9,
            -9
        ],
        "21/03/2020 15:59:40": [
            -9,
            -9,
            -9,
            -9
        ],
        "21/03/2020 17:43:19": [
            -10,
            -29,
            -29
        ],
        "21/03/2020 20:37:55": [
            -5,
            -5,
            11
        ],
        "21/03/2020 22:40:54": [
            11,
            -12
        ]
    },
    "137": {
        "21/03/2020 15:59:02": [
            -17,
            -17,
            -17,
            -17
        ],
        "21/03/2020 15:59:21": [
            -17,
            -17,
            -17,
            -17
        ],
        "21/03/2020 15:59:40": [
            -17,
            -17,
            -17,
            -17
        ],
        "21/03/2020 17:43:19": [
            -21,
            23,
            23
        ],
        "21/03/2020 20:37:55": [
            -18,
            -18,
            -12
        ],
        "21/03/2020 22:40:54": [
            -12,
            23
        ]
    },
    "146": {
        "21/03/2020 15:59:02": [
            -167,
            -24,
            -24,
            -24
        ],
        "21/03/2020 15:59:25": [
            -167,
            -24,
            -24,
            -24
        ],
        "21/03/2020 15:59:44": [
            -167,
            -24,
            -24,
            -24
        ],
        "21/03/2020 17:43:23": [
            -134,
            -18,
            -1,
            -1
        ],
        "21/03/2020 20:38:01": [
            -11,
            -11
        ],
        "21/03/2020 22:41:01": [
            55,
            13
        ]
    },
    "1288": {
        "21/03/2020 15:59:02": [
            -330,
            -281,
            -105,
            15
        ],
        "21/03/2020 15:59:31": [
            -330,
            -281,
            -105,
            15
        ],
        "21/03/2020 17:43:10": [
            -447,
            -152,
            -21
        ],
        "21/03/2020 20:37:42": [
            -185,
            -111,
            13
        ],
        "21/03/2020 22:40:39": [
            4
        ]
    },
    "1289": {
        "21/03/2020 15:59:02": [
            -367,
            -284,
            -108,
            12
        ],
        "21/03/2020 15:59:31": [
            -367,
            -284,
            -108,
            12
        ],
        "21/03/2020 17:43:11": [
            -517,
            -454,
            -159,
            -28
        ],
        "21/03/2020 20:37:42": [
            -198,
            -124,
            0
        ],
        "21/03/2020 22:40:40": [
            -11
        ]
    },
    "1290": {
        "21/03/2020 15:59:03": [
            73,
            -361,
            -278,
            -102,
            18
        ],
        "21/03/2020 15:59:31": [
            -361,
            -278,
            -102,
            18
        ],
        "21/03/2020 17:43:11": [
            -505,
            -412,
            -117,
            14
        ],
        "21/03/2020 20:37:43": [
            -215,
            -141,
            -17
        ],
        "21/03/2020 22:40:40": [
            12
        ]
    },
    "1291": {
        "21/03/2020 15:59:03": [
            61,
            -373,
            -290,
            -114
        ],
        "21/03/2020 15:59:32": [
            61,
            -373,
            -290,
            -114
        ],
        "21/03/2020 17:43:11": [
            -538,
            -445,
            -150,
            -19
        ],
        "21/03/2020 20:37:43": [
            -187,
            -113,
            11
        ],
        "21/03/2020 22:40:41": [
            23
        ]
    },
    "115": {
        "21/03/2020 15:59:03": [
            -7,
            -7,
            -7
        ],
        "21/03/2020 15:59:24": [
            -7,
            -7,
            -7
        ],
        "21/03/2020 15:59:43": [
            -7,
            -7,
            -7
        ],
        "21/03/2020 17:43:22": [
            19,
            -27,
            -27
        ],
        "21/03/2020 20:37:59": [
            -1,
            -1
        ],
        "21/03/2020 22:40:58": [
            -24,
            -10
        ]
    },
    "138": {
        "21/03/2020 15:59:04": [
            -1,
            -1,
            -1,
            -1
        ],
        "21/03/2020 15:59:21": [
            -1,
            -1,
            -1,
            -1
        ],
        "21/03/2020 15:59:41": [
            -1,
            -1,
            -1,
            -1
        ],
        "21/03/2020 17:43:20": [
            -10,
            -21,
            -21
        ],
        "21/03/2020 20:37:56": [
            -11,
            -11,
            -18
        ],
        "21/03/2020 22:40:55": [
            -18,
            14
        ]
    },
    "167": {
        "21/03/2020 15:59:04": [
            5,
            5,
            5,
            5
        ],
        "21/03/2020 15:59:22": [
            5,
            5,
            5,
            5
        ],
        "21/03/2020 15:59:41": [
            5,
            5,
            5,
            5
        ],
        "21/03/2020 17:43:20": [
            -8,
            -15,
            -15
        ],
        "21/03/2020 20:37:57": [
            -12,
            -12,
            28
        ],
        "21/03/2020 22:40:56": [
            28,
            -2
        ]
    },
    "142": {
        "21/03/2020 15:59:04": [
            -26,
            -26,
            -26,
            -26
        ],
        "21/03/2020 15:59:23": [
            -26,
            -26,
            -26,
            -26
        ],
        "21/03/2020 15:59:42": [
            -26,
            -26,
            -26,
            -26
        ],
        "21/03/2020 17:43:21": [
            8,
            14,
            14
        ],
        "21/03/2020 20:37:58": [
            -5,
            -5
        ],
        "21/03/2020 22:40:57": [
            -3,
            17
        ]
    },
    "143": {
        "21/03/2020 15:59:04": [
            -28,
            -28,
            -28,
            -28
        ],
        "21/03/2020 15:59:23": [
            -28,
            -28,
            -28,
            -28
        ],
        "21/03/2020 15:59:43": [
            -28,
            -28,
            -28,
            -28
        ],
        "21/03/2020 17:43:22": [
            3,
            12,
            12
        ],
        "21/03/2020 20:37:59": [
            -13,
            -13
        ],
        "21/03/2020 22:40:58": [
            -22,
            -4
        ]
    },
    "185": {
        "21/03/2020 15:59:05": [
            -151,
            8,
            8,
            8
        ],
        "21/03/2020 15:59:26": [
            -151,
            8,
            8,
            8
        ],
        "21/03/2020 15:59:45": [
            -151,
            8,
            8,
            8
        ],
        "21/03/2020 17:43:24": [
            -111,
            5,
            11,
            11
        ],
        "21/03/2020 20:38:03": [
            -17,
            -17
        ],
        "21/03/2020 22:41:02": [
            33,
            -9
        ]
    },
    "186": {
        "21/03/2020 15:59:05": [
            -145,
            14,
            14,
            14
        ],
        "21/03/2020 15:59:26": [
            -145,
            14,
            14,
            14
        ],
        "21/03/2020 15:59:45": [
            -145,
            14,
            14,
            14
        ],
        "21/03/2020 17:43:24": [
            -119,
            12,
            15,
            15
        ],
        "21/03/2020 20:38:03": [
            -21,
            -21
        ],
        "21/03/2020 22:41:02": [
            -20,
            -20
        ]
    },
    "168": {
        "21/03/2020 15:59:05": [
            -18,
            -18,
            -18,
            -18
        ],
        "21/03/2020 15:59:22": [
            -18,
            -18,
            -18,
            -18
        ],
        "21/03/2020 15:59:41": [
            -18,
            -18,
            -18,
            -18
        ],
        "21/03/2020 17:43:20": [
            26,
            22,
            22
        ],
        "21/03/2020 20:37:57": [
            21,
            21,
            -5
        ],
        "21/03/2020 22:40:56": [
            -5,
            22
        ]
    },
    "169": {
        "21/03/2020 15:59:06": [
            -25,
            -25,
            -25,
            -25
        ],
        "21/03/2020 15:59:22": [
            -25,
            -25,
            -25,
            -25
        ],
        "21/03/2020 15:59:42": [
            -25,
            -25,
            -25,
            -25
        ],
        "21/03/2020 17:43:21": [
            16,
            15,
            15
        ],
        "21/03/2020 20:37:57": [
            8,
            8,
            -28
        ],
        "21/03/2020 22:40:57": [
            -28,
            -2
        ]
    },
    "189": {
        "21/03/2020 15:59:06": [
            -105,
            15,
            15,
            15
        ],
        "21/03/2020 15:59:27": [
            -105,
            15,
            15,
            15
        ],
        "21/03/2020 15:59:46": [
            -105,
            15,
            15,
            15
        ],
        "21/03/2020 17:43:25": [
            -123,
            8,
            -23
        ],
        "21/03/2020 20:38:04": [
            -116,
            8,
            8
        ],
        "21/03/2020 22:41:04": [
            24,
            24
        ]
    },
    "190": {
        "21/03/2020 15:59:07": [
            -114,
            6,
            6,
            6
        ],
        "21/03/2020 15:59:27": [
            -114,
            6,
            6,
            6
        ],
        "21/03/2020 15:59:47": [
            -114,
            6,
            6,
            6
        ],
        "21/03/2020 17:43:26": [
            -138,
            -7,
            27
        ],
        "21/03/2020 20:38:05": [
            -123,
            1,
            1
        ],
        "21/03/2020 22:41:04": [
            2,
            2
        ]
    },
    "147": {
        "21/03/2020 15:59:07": [
            -116,
            27,
            27
        ],
        "21/03/2020 15:59:25": [
            -116,
            27,
            27
        ],
        "21/03/2020 15:59:45": [
            -116,
            27,
            27
        ],
        "21/03/2020 17:43:24": [
            -18,
            -18
        ],
        "21/03/2020 20:38:02": [
            26,
            26
        ],
        "21/03/2020 22:41:01": [
            26,
            -16
        ]
    },
    "184": {
        "21/03/2020 15:59:08": [
            -189,
            -30,
            -30,
            -30
        ],
        "21/03/2020 15:59:26": [
            -189,
            -30,
            -30,
            -30
        ],
        "21/03/2020 15:59:45": [
            -189,
            -30,
            -30,
            -30
        ],
        "21/03/2020 17:43:24": [
            -104,
            27,
            -25,
            -25
        ],
        "21/03/2020 20:38:02": [
            11,
            11
        ],
        "21/03/2020 22:41:01": [
            65,
            23
        ]
    },
    "2390": {
        "21/03/2020 15:59:08": [
            26,
            -316,
            -166,
            -149
        ],
        "21/03/2020 15:59:32": [
            26,
            -316,
            -166,
            -149
        ],
        "21/03/2020 17:43:12": [
            -496,
            -450,
            -155
        ],
        "21/03/2020 20:37:44": [
            -217,
            -143,
            -19
        ],
        "21/03/2020 22:40:41": [
            -27
        ]
    },
    "2391": {
        "21/03/2020 15:59:08": [
            74,
            -268,
            -118,
            -101
        ],
        "21/03/2020 15:59:33": [
            74,
            -268,
            -118,
            -101
        ],
        "21/03/2020 17:43:12": [
            -472,
            -409,
            -114
        ],
        "21/03/2020 20:37:45": [
            -182,
            -108,
            16
        ],
        "21/03/2020 22:40:42": [
            4
        ]
    },
    "2392": {
        "21/03/2020 15:59:08": [
            34,
            -308,
            -158,
            -141
        ],
        "21/03/2020 15:59:33": [
            34,
            -308,
            -158,
            -141
        ],
        "21/03/2020 17:43:12": [
            -493,
            -400,
            -105
        ],
        "21/03/2020 20:37:45": [
            -183,
            -109,
            15
        ],
        "21/03/2020 22:40:42": [
            -5
        ]
    },
    "2393": {
        "21/03/2020 15:59:09": [
            60,
            -282,
            -132,
            -115
        ],
        "21/03/2020 15:59:33": [
            60,
            -282,
            -132,
            -115
        ],
        "21/03/2020 17:43:13": [
            -491,
            -530,
            -437,
            -142
        ],
        "21/03/2020 20:37:46": [
            -170,
            -96
        ],
        "21/03/2020 22:40:43": [
            4
        ]
    },
    "2394": {
        "21/03/2020 15:59:09": [
            47,
            -295,
            -145,
            -128
        ],
        "21/03/2020 15:59:33": [
            47,
            -295,
            -145,
            -128
        ],
        "21/03/2020 17:43:13": [
            -504,
            -434,
            -452,
            -157
        ],
        "21/03/2020 20:37:46": [
            -191,
            -117
        ],
        "21/03/2020 22:40:43": [
            -18
        ]
    },
    "191": {
        "21/03/2020 15:59:09": [
            -148,
            -28,
            -28,
            -28
        ],
        "21/03/2020 15:59:27": [
            -148,
            -28,
            -28,
            -28
        ],
        "21/03/2020 15:59:47": [
            -148,
            -28,
            -28,
            -28
        ],
        "21/03/2020 17:43:26": [
            -121,
            10,
            -7
        ],
        "21/03/2020 20:38:05": [
            -151,
            -27,
            -27
        ],
        "21/03/2020 22:41:05": [
            8,
            8
        ]
    },
    "193": {
        "21/03/2020 15:59:09": [
            11,
            11,
            11,
            11
        ],
        "21/03/2020 15:59:21": [
            11,
            11,
            11,
            11
        ],
        "21/03/2020 15:59:41": [
            11,
            11,
            11,
            11
        ],
        "21/03/2020 17:43:20": [
            5,
            -9,
            -9
        ],
        "21/03/2020 20:37:56": [
            6,
            6,
            8
        ],
        "21/03/2020 22:40:55": [
            8,
            -18
        ]
    },
    "2389": {
        "21/03/2020 15:59:10": [
            35,
            -307,
            -157,
            -140
        ],
        "21/03/2020 15:59:32": [
            35,
            -307,
            -157,
            -140
        ],
        "21/03/2020 17:43:11": [
            -518,
            -425,
            -130,
            1
        ],
        "21/03/2020 20:37:44": [
            -179,
            -105,
            19
        ],
        "21/03/2020 22:40:41": [
            22
        ]
    },
    "2413": {
        "21/03/2020 15:59:10": [
            43,
            -299,
            -149,
            -132
        ],
        "21/03/2020 15:59:34": [
            43,
            -299,
            -149,
            -132
        ],
        "21/03/2020 17:43:13": [
            -508,
            -395,
            -413,
            -118
        ],
        "21/03/2020 20:37:47": [
            -74,
            -214,
            -140
        ],
        "21/03/2020 22:40:44": [
            16
        ]
    },
    "141": {
        "21/03/2020 15:59:10": [
            -12,
            -12,
            -12,
            -12
        ],
        "21/03/2020 15:59:23": [
            -12,
            -12,
            -12,
            -12
        ],
        "21/03/2020 15:59:42": [
            -12,
            -12,
            -12,
            -12
        ],
        "21/03/2020 17:43:21": [
            25,
            28,
            28
        ],
        "21/03/2020 20:37:58": [
            14,
            14
        ],
        "21/03/2020 22:40:57": [
            24,
            -14
        ]
    },
    "2452": {
        "21/03/2020 15:59:11": [
            53,
            -289,
            -139
        ],
        "21/03/2020 15:59:36": [
            53,
            -289,
            -139
        ],
        "21/03/2020 17:43:15": [
            54,
            -498,
            -410,
            -428,
            -133
        ],
        "21/03/2020 20:37:50": [
            -79,
            -219,
            -145
        ],
        "21/03/2020 22:40:47": [
            0
        ]
    },
    "2453": {
        "21/03/2020 15:59:11": [
            26,
            -316,
            -166
        ],
        "21/03/2020 15:59:36": [
            26,
            -316,
            -166
        ],
        "21/03/2020 17:43:16": [
            27,
            -525,
            -438,
            -456,
            -161
        ],
        "21/03/2020 20:37:50": [
            -48,
            -188,
            -114
        ],
        "21/03/2020 22:40:47": [
            28
        ]
    },
    "2415": {
        "21/03/2020 15:59:11": [
            53,
            -289,
            -139,
            -122
        ],
        "21/03/2020 15:59:35": [
            53,
            -289,
            -139,
            -122
        ],
        "21/03/2020 17:43:14": [
            -498,
            -400,
            -418,
            -123
        ],
        "21/03/2020 20:37:48": [
            -43,
            -183,
            -109
        ],
        "21/03/2020 22:40:45": [
            -18
        ]
    },
    "2416": {
        "21/03/2020 15:59:12": [
            64,
            -278,
            -128,
            -111
        ],
        "21/03/2020 15:59:35": [
            64,
            -278,
            -128,
            -111
        ],
        "21/03/2020 17:43:14": [
            65,
            -487,
            -396,
            -414,
            -119
        ],
        "21/03/2020 20:37:48": [
            -53,
            -193,
            -119
        ],
        "21/03/2020 22:40:45": [
            29
        ]
    },
    "2417": {
        "21/03/2020 15:59:12": [
            52,
            -290,
            -140,
            -123
        ],
        "21/03/2020 15:59:35": [
            52,
            -290,
            -140,
            -123
        ],
        "21/03/2020 17:43:15": [
            53,
            -499,
            -408,
            -426,
            -131
        ],
        "21/03/2020 20:37:49": [
            -70,
            -210,
            -136
        ],
        "21/03/2020 22:40:46": [
            13
        ]
    },
    "2455": {
        "21/03/2020 15:59:12": [
            27,
            -315,
            -165
        ],
        "21/03/2020 15:59:37": [
            27,
            -315,
            -165
        ],
        "21/03/2020 17:43:16": [
            28,
            -524,
            -382,
            -400,
            -105
        ],
        "21/03/2020 20:37:51": [
            -55,
            -195,
            -121
        ],
        "21/03/2020 22:40:48": [
            -1151,
            16
        ]
    },
    "2418": {
        "21/03/2020 15:59:12": [
            29,
            -313,
            -163,
            -146
        ],
        "21/03/2020 15:59:36": [
            29,
            -313,
            -163,
            -146
        ],
        "21/03/2020 17:43:15": [
            30,
            -522,
            -432,
            -450,
            -155
        ],
        "21/03/2020 20:37:49": [
            -37,
            -177,
            -103
        ],
        "21/03/2020 22:40:46": [
            -13
        ]
    },
    "2419": {
        "21/03/2020 15:59:13": [
            59,
            -283,
            -133,
            -116
        ],
        "21/03/2020 15:59:36": [
            59,
            -283,
            -133,
            -116
        ],
        "21/03/2020 17:43:15": [
            60,
            -492,
            -402,
            -420,
            -125
        ],
        "21/03/2020 20:37:49": [
            -70,
            -210,
            -136
        ],
        "21/03/2020 22:40:47": [
            15
        ]
    },
    "2445": {
        "21/03/2020 15:59:13": [
            40,
            -302,
            -152
        ],
        "21/03/2020 15:59:38": [
            40,
            -302,
            -152
        ],
        "21/03/2020 17:43:17": [
            41,
            -511,
            -434,
            -452,
            -157
        ],
        "21/03/2020 20:37:52": [
            -47,
            -187,
            -113
        ],
        "21/03/2020 22:40:49": [
            -1159,
            23
        ]
    },
    "187": {
        "21/03/2020 15:59:13": [
            -124,
            -4,
            -4,
            -4
        ],
        "21/03/2020 15:59:26": [
            -124,
            -4,
            -4,
            -4
        ],
        "21/03/2020 15:59:46": [
            -124,
            -4,
            -4,
            -4
        ],
        "21/03/2020 17:43:25": [
            -156,
            -25,
            12,
            12
        ],
        "21/03/2020 20:38:03": [
            -2,
            -2
        ],
        "21/03/2020 22:41:03": [
            -26,
            -26
        ]
    },
    "188": {
        "21/03/2020 15:59:14": [
            -119,
            1,
            1,
            1
        ],
        "21/03/2020 15:59:27": [
            -119,
            1,
            1,
            1
        ],
        "21/03/2020 15:59:46": [
            -119,
            1,
            1,
            1
        ],
        "21/03/2020 17:43:25": [
            -145,
            -14,
            20
        ],
        "21/03/2020 20:38:04": [
            -1,
            -1
        ],
        "21/03/2020 22:41:03": [
            25,
            25
        ]
    },
    "2414": {
        "21/03/2020 15:59:14": [
            66,
            -276,
            -126,
            -109
        ],
        "21/03/2020 15:59:34": [
            66,
            -276,
            -126,
            -109
        ],
        "21/03/2020 17:43:14": [
            -485,
            -381,
            -399,
            -104
        ],
        "21/03/2020 20:37:47": [
            -76,
            -216,
            -142
        ],
        "21/03/2020 22:40:45": [
            11
        ]
    },
    "263": {
        "21/03/2020 15:59:14": [
            -103,
            17,
            17
        ],
        "21/03/2020 15:59:28": [
            -103,
            17,
            17
        ],
        "21/03/2020 15:59:48": [
            -103,
            17,
            17
        ],
        "21/03/2020 17:43:26": [
            -149,
            -18,
            -18
        ],
        "21/03/2020 20:38:06": [
            -152,
            -28,
            -28
        ],
        "21/03/2020 22:41:05": [
            -15,
            -15
        ]
    },
    "336": {
        "21/03/2020 15:59:14": [
            -214,
            -130,
            -10,
            -10
        ],
        "21/03/2020 15:59:29": [
            -214,
            -130,
            -10,
            -10
        ],
        "21/03/2020 17:43:08": [
            -400,
            -157,
            -26,
            20
        ],
        "21/03/2020 20:37:39": [
            -125,
            -1,
            -1
        ],
        "21/03/2020 22:40:37": [
            -10,
            -10
        ]
    },
    "40": {
        "21/03/2020 15:59:15": [
            -134,
            9,
            9,
            9
        ],
        "21/03/2020 15:59:25": [
            -134,
            9,
            9,
            9
        ],
        "21/03/2020 15:59:44": [
            -134,
            9,
            9,
            9
        ],
        "21/03/2020 17:43:23": [
            -87,
            16,
            -25,
            -25
        ],
        "21/03/2020 20:38:01": [],
        "21/03/2020 22:41:00": [
            37,
            -5,
            -21
        ]
    },
    "4392": {
        "21/03/2020 15:59:15": [
            0,
            0,
            0,
            0
        ],
        "21/03/2020 15:59:38": [
            0,
            0,
            0,
            0
        ],
        "21/03/2020 15:59:48": [
            0,
            0,
            0,
            0
        ],
        "21/03/2020 16:00:15": [
            0,
            0,
            0
        ],
        "21/03/2020 16:00:43": [
            0,
            0,
            0
        ],
        "21/03/2020 17:43:42": [
            0,
            0,
            0
        ],
        "21/03/2020 20:38:29": [
            0,
            0
        ],
        "21/03/2020 22:41:30": [
            0,
            0
        ]
    },
    "277": {
        "21/03/2020 15:59:15": [
            -246,
            -114,
            6,
            6
        ],
        "21/03/2020 15:59:28": [
            -246,
            -114,
            6,
            6
        ],
        "21/03/2020 15:59:48": [
            -246,
            -114,
            6,
            6
        ],
        "21/03/2020 17:43:27": [
            -124,
            7,
            11
        ],
        "21/03/2020 20:38:06": [
            -137,
            -13,
            -13
        ],
        "21/03/2020 22:41:06": [
            -18,
            -18
        ]
    },
    "38": {
        "21/03/2020 15:59:16": [
            27,
            27,
            27
        ],
        "21/03/2020 15:59:24": [
            27,
            27,
            27
        ],
        "21/03/2020 15:59:43": [
            27,
            27,
            27
        ],
        "21/03/2020 17:43:22": [
            -17,
            5,
            5
        ],
        "21/03/2020 20:38:00": [
            14,
            14
        ],
        "21/03/2020 22:40:59": [
            -12,
            -15
        ]
    },
    "39": {
        "21/03/2020 15:59:16": [
            -2,
            -2,
            -2
        ],
        "21/03/2020 15:59:24": [
            -2,
            -2,
            -2
        ],
        "21/03/2020 15:59:44": [
            -2,
            -2,
            -2
        ],
        "21/03/2020 17:43:23": [
            -92,
            11,
            -25,
            -25
        ],
        "21/03/2020 20:38:00": [
            -21,
            -21
        ],
        "21/03/2020 22:41:00": [
            19,
            12,
            3
        ]
    },
    "4456": {
        "21/03/2020 15:59:16": [
            -155,
            -138,
            -18
        ],
        "21/03/2020 15:59:29": [
            -155,
            -138,
            -18
        ],
        "21/03/2020 17:43:09": [
            -298,
            -146,
            -15
        ],
        "21/03/2020 20:37:40": [
            -211,
            -137,
            -13
        ],
        "21/03/2020 22:40:38": [
            -20,
            -20
        ]
    },
    "2456": {
        "21/03/2020 15:59:16": [
            64,
            -278,
            -128
        ],
        "21/03/2020 15:59:37": [
            64,
            -278,
            -128
        ],
        "21/03/2020 17:43:17": [
            65,
            -487,
            -407,
            -425,
            -130
        ],
        "21/03/2020 20:37:51": [
            -80,
            -220,
            -146
        ],
        "21/03/2020 22:40:49": [
            -1192,
            -10
        ]
    },
    "2457": {
        "21/03/2020 15:59:17": [
            73,
            -269,
            -119
        ],
        "21/03/2020 15:59:38": [
            73,
            -269,
            -119
        ],
        "21/03/2020 17:43:17": [
            74,
            -478,
            -403,
            -421,
            -126
        ],
        "21/03/2020 20:37:52": [
            -76,
            -216,
            -142
        ],
        "21/03/2020 22:40:50": [
            -1174,
            -7
        ]
    },
    "37": {
        "21/03/2020 15:59:17": [
            -25,
            -25,
            -25
        ],
        "21/03/2020 15:59:24": [
            -25,
            -25,
            -25
        ],
        "21/03/2020 15:59:43": [
            -25,
            -25,
            -25
        ],
        "21/03/2020 17:43:22": [
            -3,
            14,
            14
        ],
        "21/03/2020 20:38:00": [
            -27,
            -27
        ],
        "21/03/2020 22:40:59": [
            8,
            15
        ]
    },
    "6228": {
        "21/03/2020 15:59:17": [
            24,
            24,
            24,
            24
        ],
        "21/03/2020 15:59:20": [
            24,
            24,
            24,
            24
        ],
        "21/03/2020 15:59:39": [
            24,
            24,
            24,
            24
        ],
        "21/03/2020 17:43:18": [
            26,
            10,
            10,
            10
        ],
        "21/03/2020 20:37:54": [
            -9,
            -9,
            -29
        ],
        "21/03/2020 22:40:52": [
            -29,
            -22
        ]
    },
    "6230": {
        "21/03/2020 15:59:17": [
            29,
            29,
            29,
            29
        ],
        "21/03/2020 15:59:19": [
            29,
            29,
            29,
            29
        ],
        "21/03/2020 15:59:39": [
            29,
            29,
            29,
            29
        ],
        "21/03/2020 17:43:18": [
            -30,
            20,
            20,
            20
        ],
        "21/03/2020 20:37:53": [
            9,
            9,
            -4
        ],
        "21/03/2020 22:40:52": [
            -4,
            23
        ]
    },
    "6273": {
        "21/03/2020 15:59:18": [
            26,
            26,
            26,
            26
        ],
        "21/03/2020 15:59:20": [
            26,
            26,
            26,
            26
        ],
        "21/03/2020 15:59:40": [
            26,
            26,
            26,
            26
        ],
        "21/03/2020 17:43:19": [
            26,
            6,
            6
        ],
        "21/03/2020 20:37:54": [
            -28,
            -28,
            -7
        ],
        "21/03/2020 22:40:53": [
            -7,
            -29
        ]
    },
    "819": {
        "21/03/2020 15:59:18": [
            -119,
            1,
            1
        ],
        "21/03/2020 15:59:28": [
            -119,
            1,
            1
        ],
        "21/03/2020 15:59:47": [
            -119,
            1,
            1
        ],
        "21/03/2020 17:43:26": [
            -103,
            28,
            20
        ],
        "21/03/2020 20:38:06": [
            -134,
            6,
            6
        ],
        "21/03/2020 22:41:05": [
            15,
            15
        ]
    },
    "2454": {
        "21/03/2020 15:59:18": [
            26,
            -316,
            -166
        ],
        "21/03/2020 15:59:37": [
            26,
            -316,
            -166
        ],
        "21/03/2020 17:43:16": [
            27,
            -525,
            -380,
            -398,
            -103
        ],
        "21/03/2020 20:37:51": [
            -52,
            -192,
            -118
        ],
        "21/03/2020 22:40:48": [
            -1148,
            19
        ]
    },
    "7132": {
        "21/03/2020 15:59:19": [
            0,
            0,
            0,
            0
        ],
        "21/03/2020 15:59:39": [
            0,
            0,
            0,
            0
        ],
        "21/03/2020 17:43:18": [
            0,
            0,
            0,
            0
        ],
        "21/03/2020 20:37:53": [
            0,
            0,
            0
        ],
        "21/03/2020 22:40:51": [
            0,
            0
        ]
    },
    "4788": {
        "21/03/2020 15:59:19": [
            -26,
            -26,
            -26,
            -26
        ],
        "21/03/2020 15:59:20": [
            -26,
            -26,
            -26,
            -26
        ],
        "21/03/2020 15:59:39": [
            -26,
            -26,
            -26,
            -26
        ],
        "21/03/2020 17:43:18": [
            -23,
            14,
            14
        ],
        "21/03/2020 20:37:54": [
            -14,
            -14,
            16
        ],
        "21/03/2020 22:40:53": [
            16,
            -3
        ]
    },
    "2458": {
        "21/03/2020 15:59:49": [
            -25,
            -25,
            -25,
            -25
        ],
        "21/03/2020 16:00:15": [
            -25,
            -25,
            -25,
            -25
        ],
        "21/03/2020 16:00:25": [
            -25,
            -25,
            -25,
            -25
        ],
        "21/03/2020 17:43:27": [
            -25,
            -29,
            -29
        ],
        "21/03/2020 20:38:07": [
            -25,
            -29
        ],
        "21/03/2020 22:41:07": [
            -29,
            23
        ]
    },
    "2446": {
        "21/03/2020 15:59:49": [
            10,
            10,
            10,
            10
        ],
        "21/03/2020 16:00:15": [
            10,
            10,
            10,
            10
        ],
        "21/03/2020 16:00:47": [
            10,
            10,
            10,
            10
        ],
        "21/03/2020 17:43:45": [
            10,
            3,
            3
        ],
        "21/03/2020 20:38:34": [
            10,
            2
        ],
        "21/03/2020 22:41:35": [
            2,
            -13
        ]
    },
    "2459": {
        "21/03/2020 15:59:49": [
            -15,
            -15,
            -15,
            -15
        ],
        "21/03/2020 16:00:16": [
            -15,
            -15,
            -15,
            -15
        ],
        "21/03/2020 16:00:41": [
            -15,
            -15,
            -15,
            -15
        ],
        "21/03/2020 17:43:39": [
            -16,
            -25,
            -25
        ],
        "21/03/2020 20:38:26": [
            -16,
            -27
        ],
        "21/03/2020 22:41:27": [
            -27,
            11
        ]
    },
    "2460": {
        "21/03/2020 15:59:49": [
            27,
            27,
            27,
            27
        ],
        "21/03/2020 16:00:16": [
            27,
            27,
            27,
            27
        ],
        "21/03/2020 16:00:42": [
            27,
            27,
            27,
            27
        ],
        "21/03/2020 17:43:40": [
            25,
            12,
            12
        ],
        "21/03/2020 20:38:26": [
            25,
            10
        ],
        "21/03/2020 22:41:27": [
            10,
            -21
        ]
    },
    "2461": {
        "21/03/2020 15:59:50": [
            10,
            10,
            10,
            10
        ],
        "21/03/2020 16:00:16": [
            10,
            10,
            10,
            10
        ],
        "21/03/2020 16:00:39": [
            10,
            10,
            10,
            10
        ],
        "21/03/2020 17:43:37": [
            8,
            -9,
            -9
        ],
        "21/03/2020 20:38:23": [
            8,
            -12
        ],
        "21/03/2020 22:41:22": [
            -12,
            8
        ]
    },
    "2462": {
        "21/03/2020 15:59:50": [
            -9,
            -9,
            -9,
            -9
        ],
        "21/03/2020 16:00:17": [
            -9,
            -9,
            -9,
            -9
        ],
        "21/03/2020 16:00:39": [
            -9,
            -9,
            -9,
            -9
        ],
        "21/03/2020 17:43:37": [
            -12,
            27,
            27
        ],
        "21/03/2020 20:38:23": [
            -16,
            21
        ],
        "21/03/2020 22:41:23": [
            21,
            -28
        ]
    },
    "2463": {
        "21/03/2020 15:59:50": [],
        "21/03/2020 16:00:17": [],
        "21/03/2020 16:00:44": [],
        "21/03/2020 17:43:42": [
            24,
            -1,
            -1
        ],
        "21/03/2020 20:38:30": [
            17,
            -9
        ],
        "21/03/2020 22:41:31": [
            -9,
            -6
        ]
    },
    "2431": {
        "21/03/2020 15:59:51": [
            -7,
            -7,
            -7,
            -7
        ],
        "21/03/2020 16:00:17": [
            -7,
            -7,
            -7,
            -7
        ],
        "21/03/2020 16:00:38": [
            -7,
            -7,
            -7,
            -7
        ],
        "21/03/2020 17:43:36": [
            -16,
            12,
            12
        ],
        "21/03/2020 20:38:22": [
            -30,
            -2
        ],
        "21/03/2020 22:41:21": [
            -2,
            -16
        ]
    },
    "2432": {
        "21/03/2020 15:59:51": [
            -8,
            -8,
            -8,
            -8
        ],
        "21/03/2020 16:00:17": [
            -8,
            -8,
            -8,
            -8
        ],
        "21/03/2020 16:00:39": [
            -8,
            -8,
            -8,
            -8
        ],
        "21/03/2020 17:43:37": [
            -20,
            10,
            10
        ],
        "21/03/2020 20:38:22": [
            20,
            -20
        ],
        "21/03/2020 22:41:22": [
            -20,
            18
        ]
    },
    "2433": {
        "21/03/2020 15:59:51": [
            -13,
            -13,
            -13,
            -13
        ],
        "21/03/2020 16:00:18": [
            -13,
            -13,
            -13,
            -13
        ],
        "21/03/2020 16:00:40": [
            -13,
            -13,
            -13,
            -13
        ],
        "21/03/2020 17:43:38": [
            -28,
            5,
            5
        ],
        "21/03/2020 20:38:24": [
            7,
            20
        ],
        "21/03/2020 22:41:24": [
            20,
            -9
        ]
    },
    "2434": {
        "21/03/2020 15:59:52": [
            -18,
            -18,
            -18,
            -18
        ],
        "21/03/2020 16:00:18": [
            -18,
            -18,
            -18,
            -18
        ],
        "21/03/2020 16:00:40": [
            -18,
            -18,
            -18,
            -18
        ],
        "21/03/2020 17:43:39": [
            24,
            0,
            0
        ],
        "21/03/2020 20:38:24": [
            -7,
            -1
        ],
        "21/03/2020 22:41:25": [
            -1,
            23
        ]
    },
    "2435": {
        "21/03/2020 15:59:52": [
            -26,
            -26,
            -26,
            -26
        ],
        "21/03/2020 16:00:18": [
            -26,
            -26,
            -26,
            -26
        ],
        "21/03/2020 16:00:41": [
            -26,
            -26,
            -26,
            -26
        ],
        "21/03/2020 17:43:39": [
            16,
            -10,
            -10
        ],
        "21/03/2020 20:38:25": [
            -16,
            -18
        ],
        "21/03/2020 22:41:25": [
            -18,
            -2
        ]
    },
    "2436": {
        "21/03/2020 15:59:52": [
            -2,
            -2,
            -2,
            -2
        ],
        "21/03/2020 16:00:19": [
            -2,
            -2,
            -2,
            -2
        ],
        "21/03/2020 16:00:33": [
            -2,
            -2,
            -2,
            -2
        ],
        "21/03/2020 17:43:34": [
            -20,
            12,
            12
        ],
        "21/03/2020 20:38:18": [
            7,
            1
        ],
        "21/03/2020 22:41:18": [
            1,
            14
        ]
    },
    "2437": {
        "21/03/2020 15:59:52": [
            2,
            2,
            2,
            2
        ],
        "21/03/2020 16:00:19": [
            2,
            2,
            2,
            2
        ],
        "21/03/2020 16:00:33": [
            2,
            2,
            2,
            2
        ],
        "21/03/2020 17:43:35": [
            -15,
            14,
            14
        ],
        "21/03/2020 20:38:19": [
            10,
            -6
        ],
        "21/03/2020 22:41:19": [
            -6,
            -2
        ]
    },
    "2438": {
        "21/03/2020 15:59:53": [
            -17,
            -17,
            -17,
            -17
        ],
        "21/03/2020 16:00:19": [
            -17,
            -17,
            -17,
            -17
        ],
        "21/03/2020 16:00:34": [
            -17,
            -17,
            -17,
            -17
        ],
        "21/03/2020 17:43:35": [
            -27,
            -1,
            -1
        ],
        "21/03/2020 20:38:19": [
            11,
            -26
        ],
        "21/03/2020 22:41:19": [
            -26,
            22
        ]
    },
    "2439": {
        "21/03/2020 15:59:53": [
            20,
            20,
            20,
            20
        ],
        "21/03/2020 16:00:20": [
            20,
            20,
            20,
            20
        ],
        "21/03/2020 16:00:42": [
            20,
            20,
            20,
            20
        ],
        "21/03/2020 17:43:40": [
            12,
            -25,
            -25
        ],
        "21/03/2020 20:38:27": [
            -14,
            17
        ],
        "21/03/2020 22:41:28": [
            17,
            -20
        ]
    },
    "2440": {
        "21/03/2020 15:59:53": [
            -23,
            -23,
            -23,
            -23
        ],
        "21/03/2020 16:00:20": [
            -23,
            -23,
            -23,
            -23
        ],
        "21/03/2020 16:00:42": [
            -23,
            -23,
            -23,
            -23
        ],
        "21/03/2020 17:43:40": [
            -20,
            -9,
            -9
        ],
        "21/03/2020 20:38:27": [
            -13,
            9
        ],
        "21/03/2020 22:41:28": [
            9,
            25
        ]
    },
    "2441": {
        "21/03/2020 15:59:54": [
            -10,
            -10,
            -10
        ],
        "21/03/2020 16:00:20": [
            -10,
            -10,
            -10,
            -10
        ],
        "21/03/2020 16:00:42": [
            -10,
            -10,
            -10,
            -10
        ],
        "21/03/2020 17:43:41": [
            4,
            3,
            3
        ],
        "21/03/2020 20:38:28": [
            -14,
            -2
        ],
        "21/03/2020 22:41:29": [
            -2,
            8
        ]
    },
    "2442": {
        "21/03/2020 15:59:54": [
            -5,
            -5,
            -5
        ],
        "21/03/2020 16:00:21": [
            -5,
            -5,
            -5
        ],
        "21/03/2020 16:00:37": [
            -5,
            -5,
            -5
        ],
        "21/03/2020 17:43:36": [
            19,
            0,
            0
        ],
        "21/03/2020 20:38:21": [
            -17,
            -18
        ],
        "21/03/2020 22:41:20": [
            -18,
            -13
        ]
    },
    "2443": {
        "21/03/2020 15:59:54": [
            -26,
            -26,
            -26
        ],
        "21/03/2020 16:00:21": [
            -26,
            -26,
            -26
        ],
        "21/03/2020 16:00:38": [
            -26,
            -26,
            -26
        ],
        "21/03/2020 17:43:36": [
            -174,
            3,
            -26,
            -26
        ],
        "21/03/2020 20:38:21": [
            17,
            9
        ],
        "21/03/2020 22:41:21": [
            9,
            10
        ]
    },
    "2444": {
        "21/03/2020 15:59:55": [
            -20,
            -20,
            -20
        ],
        "21/03/2020 16:00:21": [
            -20,
            -20,
            -20
        ],
        "21/03/2020 16:00:41": [
            -20,
            -20,
            -20
        ],
        "21/03/2020 17:43:39": [
            -195,
            19,
            -29,
            -29
        ],
        "21/03/2020 20:38:25": [
            15,
            -6
        ],
        "21/03/2020 22:41:26": [
            -6,
            -10
        ]
    },
    "1344": {
        "21/03/2020 15:59:55": [
            -223,
            -19,
            -19,
            -19
        ],
        "21/03/2020 16:00:21": [
            -19,
            -19,
            -19
        ],
        "21/03/2020 16:00:26": [
            -19,
            -19,
            -19
        ],
        "21/03/2020 17:43:28": [
            -149,
            28,
            24,
            24
        ],
        "21/03/2020 20:38:08": [
            8,
            -25
        ],
        "21/03/2020 22:41:08": [
            -25,
            26
        ]
    },
    "1345": {
        "21/03/2020 16:00:00": [
            -214,
            -10,
            -10,
            -10
        ],
        "21/03/2020 16:00:22": [
            -214,
            -10,
            -10,
            -10
        ],
        "21/03/2020 16:00:28": [
            -214,
            -10,
            -10,
            -10
        ],
        "21/03/2020 17:43:30": [
            -192,
            -15,
            -28,
            -28
        ],
        "21/03/2020 20:38:11": [
            16,
            24
        ],
        "21/03/2020 22:41:11": [
            24,
            5
        ]
    },
    "1347": {
        "21/03/2020 16:00:01": [
            -233,
            -29,
            -29,
            -29
        ],
        "21/03/2020 16:00:22": [
            -233,
            -29,
            -29,
            -29
        ],
        "21/03/2020 16:00:28": [
            -233,
            -29,
            -29,
            -29
        ],
        "21/03/2020 17:43:30": [
            -236,
            -22,
            13,
            13
        ],
        "21/03/2020 20:38:12": [
            -4,
            -23
        ],
        "21/03/2020 22:41:11": [
            -23,
            2
        ]
    },
    "1348": {
        "21/03/2020 16:00:01": [
            -216,
            -12,
            -12,
            -12
        ],
        "21/03/2020 16:00:22": [
            -216,
            -12,
            -12,
            -12
        ],
        "21/03/2020 16:00:29": [
            -216,
            -12,
            -12,
            -12
        ],
        "21/03/2020 17:43:31": [
            -210,
            4,
            29,
            29
        ],
        "21/03/2020 20:38:12": [
            12,
            -27
        ],
        "21/03/2020 22:41:12": [
            -27,
            -14
        ]
    },
    "1349": {
        "21/03/2020 16:00:01": [
            -232,
            -28,
            -28,
            -28
        ],
        "21/03/2020 16:00:23": [
            -232,
            -28,
            -28,
            -28
        ],
        "21/03/2020 16:00:29": [
            -232,
            -28,
            -28,
            -28
        ],
        "21/03/2020 17:43:31": [
            -220,
            -6,
            13,
            13
        ],
        "21/03/2020 20:38:13": [
            -2,
            23
        ],
        "21/03/2020 22:41:13": [
            23,
            28
        ]
    },
    "1350": {
        "21/03/2020 16:00:02": [
            -182,
            22,
            22,
            22
        ],
        "21/03/2020 16:00:23": [
            -182,
            22,
            22,
            22
        ],
        "21/03/2020 16:00:30": [
            -182,
            22,
            22,
            22
        ],
        "21/03/2020 17:43:31": [
            -158,
            -9,
            2,
            2
        ],
        "21/03/2020 20:38:13": [
            -11,
            19
        ],
        "21/03/2020 22:41:14": [
            19,
            15
        ]
    },
    "1352": {
        "21/03/2020 16:00:02": [
            -218,
            -14,
            -14,
            -14
        ],
        "21/03/2020 16:00:23": [
            -218,
            -14,
            -14,
            -14
        ],
        "21/03/2020 16:00:27": [
            -218,
            -14,
            -14,
            -14
        ],
        "21/03/2020 17:43:28": [
            -123,
            26,
            26,
            26
        ],
        "21/03/2020 20:38:08": [
            16,
            -6
        ],
        "21/03/2020 22:41:08": [
            -6,
            -25
        ]
    },
    "1353": {
        "21/03/2020 16:00:02": [
            -179,
            25,
            25,
            25
        ],
        "21/03/2020 16:00:23": [
            -179,
            25,
            25,
            25
        ],
        "21/03/2020 16:00:27": [
            -179,
            25,
            25,
            25
        ],
        "21/03/2020 17:43:28": [
            -138,
            11,
            5,
            5
        ],
        "21/03/2020 20:38:09": [
            -3,
            -21
        ],
        "21/03/2020 22:41:09": [
            -21,
            13
        ]
    },
    "1355": {
        "21/03/2020 16:00:03": [
            -96,
            29,
            29,
            29
        ],
        "21/03/2020 16:00:24": [
            -96,
            29,
            29,
            29
        ],
        "21/03/2020 16:00:27": [
            -96,
            29,
            29,
            29
        ],
        "21/03/2020 17:43:29": [
            -5,
            -154,
            -5,
            -23,
            -23
        ],
        "21/03/2020 20:38:09": [
            -175,
            -4
        ],
        "21/03/2020 22:41:09": [
            26,
            -7
        ]
    },
    "1357": {
        "21/03/2020 16:00:03": [
            -114,
            11,
            11
        ],
        "21/03/2020 16:00:24": [
            -114,
            11,
            11
        ],
        "21/03/2020 16:00:31": [
            -114,
            11,
            11
        ],
        "21/03/2020 17:43:33": [
            14,
            -135,
            14,
            -15
        ],
        "21/03/2020 20:38:15": [
            -143,
            28
        ],
        "21/03/2020 22:41:16": [
            57,
            -2,
            -5
        ]
    },
    "1359": {
        "21/03/2020 16:00:03": [
            -98,
            27,
            27
        ],
        "21/03/2020 16:00:24": [
            -98,
            27,
            27
        ],
        "21/03/2020 16:00:32": [
            -98,
            27,
            27
        ],
        "21/03/2020 17:43:33": [
            -16,
            -165,
            -16,
            -25
        ],
        "21/03/2020 20:38:16": [
            -164,
            7
        ],
        "21/03/2020 22:41:16": [
            38,
            -21,
            14
        ]
    },
    "319": {
        "21/03/2020 16:00:04": [
            -127,
            -2,
            -2
        ],
        "21/03/2020 16:00:25": [
            -127,
            -2,
            -2
        ],
        "21/03/2020 16:00:46": [
            -127,
            -2,
            -2
        ],
        "21/03/2020 17:43:45": [
            10,
            -139,
            10,
            17
        ],
        "21/03/2020 20:38:34": [
            -176,
            -5
        ],
        "21/03/2020 22:41:35": [
            88,
            29
        ]
    },
    "281": {
        "21/03/2020 16:00:04": [
            -492,
            -125,
            0,
            0
        ],
        "21/03/2020 16:00:25": [
            -125,
            0,
            0
        ],
        "21/03/2020 16:00:44": [
            -125,
            0,
            0
        ],
        "21/03/2020 17:43:43": [
            66,
            22,
            -127,
            22,
            22
        ],
        "21/03/2020 20:38:31": [
            -196,
            -25
        ],
        "21/03/2020 22:41:32": [
            83,
            24
        ]
    },
    "4": {
        "21/03/2020 16:00:04": [
            -543,
            -127,
            -2,
            -2
        ],
        "21/03/2020 16:00:25": [
            -543,
            -127,
            -2,
            -2
        ],
        "21/03/2020 16:00:47": [
            -586,
            -127,
            -2,
            -2
        ],
        "21/03/2020 17:43:45": [
            73,
            29,
            -120,
            29
        ],
        "21/03/2020 20:38:35": [
            -160,
            11
        ],
        "21/03/2020 22:41:36": [
            80,
            21
        ]
    },
    "194": {
        "21/03/2020 16:00:04": [
            -516,
            -149,
            -24
        ],
        "21/03/2020 16:00:30": [
            -608,
            -149,
            -24,
            -24
        ],
        "21/03/2020 17:43:31": [
            53,
            9,
            -140,
            9
        ],
        "21/03/2020 20:38:14": [
            -197,
            -26
        ],
        "21/03/2020 22:41:14": [
            38,
            -21
        ]
    },
    "195": {
        "21/03/2020 16:00:05": [
            -537,
            -130,
            -5
        ],
        "21/03/2020 16:00:33": [
            -537,
            -130,
            -5
        ],
        "21/03/2020 17:43:34": [
            71,
            27,
            -122,
            27
        ],
        "21/03/2020 20:38:18": [
            -176,
            -5
        ],
        "21/03/2020 22:41:17": [
            46,
            -13
        ]
    },
    "196": {
        "21/03/2020 16:00:05": [
            -548,
            -141,
            -16
        ],
        "21/03/2020 16:00:33": [
            -548,
            -141,
            -16
        ],
        "21/03/2020 17:43:34": [
            59,
            15,
            -134,
            15
        ],
        "21/03/2020 20:38:18": [
            -185,
            -14
        ],
        "21/03/2020 22:41:18": [
            88,
            29
        ]
    },
    "197": {
        "21/03/2020 16:00:05": [
            -170,
            -552,
            -145,
            -20
        ],
        "21/03/2020 16:00:31": [
            -552,
            -145,
            -20
        ],
        "21/03/2020 17:43:32": [
            57,
            13,
            -136,
            13
        ],
        "21/03/2020 20:38:15": [
            -201,
            -30
        ],
        "21/03/2020 22:41:15": [
            71,
            12
        ]
    },
    "198": {
        "21/03/2020 16:00:06": [
            -154,
            -536,
            -129,
            -4
        ],
        "21/03/2020 16:00:35": [
            -536,
            -129,
            -4
        ],
        "21/03/2020 17:43:35": [
            14,
            -30,
            -179,
            -30
        ],
        "21/03/2020 20:38:20": [
            -201,
            -30
        ],
        "21/03/2020 22:41:20": [
            70,
            11
        ]
    },
    "199": {
        "21/03/2020 16:00:06": [
            -165,
            -547,
            -140,
            -15
        ],
        "21/03/2020 16:00:36": [
            -255,
            -547,
            -140,
            -15
        ],
        "21/03/2020 17:43:35": [
            68,
            24,
            -125,
            24
        ],
        "21/03/2020 20:38:21": [
            -154,
            17
        ],
        "21/03/2020 22:41:20": [
            48,
            -11
        ]
    },
    "200": {
        "21/03/2020 16:00:06": [
            -155,
            -553,
            -146,
            -21
        ],
        "21/03/2020 16:00:32": [
            -231,
            -553,
            -146,
            -21
        ],
        "21/03/2020 17:43:33": [
            72,
            28,
            -121
        ],
        "21/03/2020 20:38:17": [
            -164,
            7
        ],
        "21/03/2020 22:41:17": [
            76,
            17
        ]
    },
    "201": {
        "21/03/2020 16:00:07": [
            -117,
            -515,
            -108,
            17
        ],
        "21/03/2020 16:00:32": [
            -193,
            -515,
            -108,
            17
        ],
        "21/03/2020 17:43:33": [
            46,
            2,
            -147
        ],
        "21/03/2020 20:38:17": [
            -190,
            -19
        ],
        "21/03/2020 22:41:17": [
            49,
            -10
        ]
    },
    "148": {
        "21/03/2020 16:00:07": [
            -129,
            -527,
            -120,
            5
        ],
        "21/03/2020 16:00:28": [
            -205,
            -527,
            -120,
            5
        ],
        "21/03/2020 17:43:29": [
            33,
            -11,
            -160
        ],
        "21/03/2020 20:38:10": [
            -797,
            -147
        ],
        "21/03/2020 22:41:10": [
            87,
            28
        ]
    },
    "149": {
        "21/03/2020 16:00:07": [
            -136,
            -534,
            -127,
            -2
        ],
        "21/03/2020 16:00:28": [
            -212,
            -534,
            -127,
            -2
        ],
        "21/03/2020 17:43:30": [
            23,
            -21,
            -170
        ],
        "21/03/2020 20:38:11": [
            -792,
            -161
        ],
        "21/03/2020 22:41:11": [
            69,
            10
        ]
    },
    "150": {
        "21/03/2020 16:00:08": [
            -149,
            -547,
            -140,
            -15
        ],
        "21/03/2020 16:00:40": [
            -225,
            -547,
            -140,
            -15
        ],
        "21/03/2020 17:43:38": [
            68,
            24,
            -125
        ],
        "21/03/2020 20:38:24": [
            -856,
            -179
        ],
        "21/03/2020 22:41:23": [
            47,
            -12
        ]
    },
    "27": {
        "21/03/2020 16:00:08": [
            -197,
            -526,
            -119,
            6
        ],
        "21/03/2020 16:00:46": [
            -197,
            -526,
            -119,
            6
        ],
        "21/03/2020 17:43:44": [
            26,
            -18,
            -167
        ],
        "21/03/2020 20:38:33": [
            -844,
            -167
        ],
        "21/03/2020 22:41:34": [
            51,
            -8
        ]
    },
    "28": {
        "21/03/2020 16:00:08": [
            -216,
            -545,
            -138,
            -13
        ],
        "21/03/2020 16:00:44": [
            -216,
            -545,
            -138,
            -13
        ],
        "21/03/2020 17:43:42": [
            66,
            22,
            -127
        ],
        "21/03/2020 20:38:30": [
            -868,
            -191
        ],
        "21/03/2020 22:41:31": [
            84,
            25
        ]
    },
    "29": {
        "21/03/2020 16:00:08": [
            -182,
            -511,
            -104,
            21
        ],
        "21/03/2020 16:00:46": [
            -182,
            -511,
            -104,
            21
        ],
        "21/03/2020 17:43:44": [
            41,
            -3,
            -152
        ],
        "21/03/2020 20:38:33": [
            -837,
            -160
        ],
        "21/03/2020 22:41:34": [
            53,
            -6
        ]
    },
    "4680": {
        "21/03/2020 16:00:09": [
            -215,
            -544,
            -137,
            -12
        ],
        "21/03/2020 16:00:49": [
            -215,
            -544,
            -137,
            -12
        ],
        "21/03/2020 17:43:47": [
            69,
            25,
            -124
        ],
        "21/03/2020 20:38:37": [
            -822,
            -195
        ],
        "21/03/2020 22:41:38": [
            77,
            18
        ]
    },
    "90": {
        "21/03/2020 16:00:09": [
            -189,
            -518,
            -111,
            14
        ],
        "21/03/2020 16:00:48": [
            -189,
            -518,
            -111,
            14
        ],
        "21/03/2020 17:43:47": [
            35,
            -9,
            -158
        ],
        "21/03/2020 20:38:37": [
            -798,
            -171
        ],
        "21/03/2020 22:41:37": [
            39,
            -20
        ]
    },
    "91": {
        "21/03/2020 16:00:09": [
            74,
            -212,
            -541,
            -134,
            -9
        ],
        "21/03/2020 16:00:48": [
            -212,
            -541,
            -134,
            -9
        ],
        "21/03/2020 17:43:46": [
            73,
            29,
            -120
        ],
        "21/03/2020 20:38:36": [
            -824,
            -197
        ],
        "21/03/2020 22:41:37": [
            71,
            12
        ]
    },
    "129": {
        "21/03/2020 16:00:10": [
            103,
            -182,
            -511,
            -104
        ],
        "21/03/2020 16:00:26": [
            103,
            -182,
            -511,
            -104
        ],
        "21/03/2020 17:43:27": [
            54,
            10,
            -139
        ],
        "21/03/2020 20:38:07": [
            -798,
            -171
        ],
        "21/03/2020 22:41:07": [
            33
        ]
    },
    "130": {
        "21/03/2020 16:00:10": [
            74,
            -211,
            -540,
            -133
        ],
        "21/03/2020 16:00:26": [
            74,
            -211,
            -540,
            -133
        ],
        "21/03/2020 17:43:28": [
            29,
            -15,
            -164
        ],
        "21/03/2020 20:38:08": [],
        "21/03/2020 22:41:07": [
            61
        ]
    },
    "131": {
        "21/03/2020 16:00:10": [
            73,
            -224,
            -553,
            -146
        ],
        "21/03/2020 16:00:27": [
            73,
            -224,
            -553,
            -146
        ],
        "21/03/2020 17:43:29": [
            22,
            -22,
            -171
        ],
        "21/03/2020 20:38:10": [
            -783,
            -156
        ],
        "21/03/2020 22:41:10": [
            44,
            -15
        ]
    },
    "164": {
        "21/03/2020 16:00:11": [
            75,
            -222,
            -551,
            -144
        ],
        "21/03/2020 16:00:29": [
            75,
            -222,
            -551,
            -144
        ],
        "21/03/2020 17:43:30": [
            -220,
            32,
            -12,
            -161
        ],
        "21/03/2020 20:38:12": [
            -784,
            -157
        ],
        "21/03/2020 22:41:12": [
            41
        ]
    },
    "165": {
        "21/03/2020 16:00:11": [
            113,
            -184,
            -513,
            -106
        ],
        "21/03/2020 16:00:30": [
            113,
            -184,
            -513,
            -106
        ],
        "21/03/2020 17:43:32": [
            -182,
            15,
            -29,
            -178
        ],
        "21/03/2020 20:38:14": [
            -807,
            -180
        ],
        "21/03/2020 22:41:14": [
            76
        ]
    },
    "166": {
        "21/03/2020 16:00:11": [
            73,
            -213,
            -542,
            -135
        ],
        "21/03/2020 16:00:30": [
            73,
            -213,
            -542,
            -135
        ],
        "21/03/2020 17:43:32": [
            -211,
            49,
            5,
            -144
        ],
        "21/03/2020 20:38:15": [
            -778,
            -151
        ],
        "21/03/2020 22:41:15": [
            -91,
            44
        ]
    },
    "7458": {
        "21/03/2020 16:00:12": [
            69,
            -217,
            -546,
            -139
        ],
        "21/03/2020 16:00:47": [
            69,
            -217,
            -546,
            -139
        ],
        "21/03/2020 17:43:45": [
            -215,
            52,
            8,
            -141
        ],
        "21/03/2020 20:38:34": [
            -785,
            -158
        ],
        "21/03/2020 22:41:35": [
            -100,
            35
        ]
    },
    "4479": {
        "21/03/2020 16:00:12": [
            76,
            -210,
            -539,
            -132
        ],
        "21/03/2020 16:00:45": [
            76,
            -210,
            -539,
            -132
        ],
        "21/03/2020 17:43:43": [
            -208,
            68,
            24,
            -125
        ],
        "21/03/2020 20:38:31": [
            -780,
            -153
        ],
        "21/03/2020 22:41:32": [
            -99,
            36
        ]
    },
    "4376": {
        "21/03/2020 16:00:13": [
            102,
            -184,
            -513,
            -106
        ],
        "21/03/2020 16:00:43": [
            102,
            -184,
            -513,
            -106
        ],
        "21/03/2020 17:43:41": [
            -182,
            37,
            -7,
            -156
        ],
        "21/03/2020 20:38:28": [
            -815,
            -188
        ],
        "21/03/2020 22:41:30": [
            -75,
            60
        ]
    },
    "4377": {
        "21/03/2020 16:00:13": [
            74,
            -195,
            -524,
            -117
        ],
        "21/03/2020 16:00:43": [
            74,
            -195,
            -524,
            -117
        ],
        "21/03/2020 17:43:41": [
            -193,
            32,
            -12,
            -161
        ],
        "21/03/2020 20:38:29": [],
        "21/03/2020 22:41:30": [
            -90,
            45
        ]
    },
    "4890": {
        "21/03/2020 16:00:13": [
            37,
            -232,
            -561,
            -154
        ],
        "21/03/2020 16:00:47": [
            37,
            -232,
            -561,
            -154
        ],
        "21/03/2020 17:43:46": [
            -230,
            58,
            14,
            -135
        ],
        "21/03/2020 20:38:35": [
            -807,
            -180
        ],
        "21/03/2020 22:41:36": [
            -69,
            66
        ]
    },
    "4369": {
        "21/03/2020 16:00:13": [
            191,
            -175,
            -504,
            -97
        ],
        "21/03/2020 16:00:43": [
            191,
            -175,
            -504,
            -97
        ],
        "21/03/2020 17:43:41": [
            -173,
            62,
            18
        ],
        "21/03/2020 20:38:28": [
            -812,
            -185
        ],
        "21/03/2020 22:41:29": [
            -77,
            58
        ]
    },
    "6219": {
        "21/03/2020 16:00:14": [
            189,
            -177,
            -506,
            -99
        ],
        "21/03/2020 16:00:45": [
            189,
            -177,
            -506,
            -99
        ],
        "21/03/2020 17:43:43": [
            -175,
            63,
            19
        ],
        "21/03/2020 20:38:31": [
            -814,
            -187
        ],
        "21/03/2020 22:41:33": [
            -83,
            52
        ]
    },
    "6229": {
        "21/03/2020 16:00:14": [
            188,
            -178,
            -507,
            -100
        ],
        "21/03/2020 16:00:45": [
            188,
            -178,
            -507,
            -100
        ],
        "21/03/2020 17:43:43": [
            -176,
            64,
            20
        ],
        "21/03/2020 20:38:32": [
            -591,
            -815,
            -188
        ],
        "21/03/2020 22:41:33": [
            -89,
            46
        ]
    },
    "7131": {
        "21/03/2020 16:00:14": [],
        "21/03/2020 16:00:45": [],
        "21/03/2020 17:43:44": [],
        "21/03/2020 20:38:32": [],
        "21/03/2020 22:41:33": []
    },
    "7589": {
        "21/03/2020 16:00:48": [],
        "21/03/2020 17:43:46": [],
        "21/03/2020 20:38:36": [],
        "21/03/2020 22:41:37": []
    }
}