{
    "4323": {
        "22/03/2020 14:39:02": [],
        "22/03/2020 17:03:46": [],
        "22/03/2020 19:24:19": []
    },
    "1824": {
        "22/03/2020 14:39:03": [],
        "22/03/2020 17:03:46": [],
        "22/03/2020 19:24:24": []
    },
    "1825": {
        "22/03/2020 14:39:03": [],
        "22/03/2020 17:03:47": [],
        "22/03/2020 19:24:28": []
    },
    "1826": {
        "22/03/2020 14:39:04": [],
        "22/03/2020 17:03:47": [],
        "22/03/2020 19:24:36": []
    },
    "1827": {
        "22/03/2020 14:39:04": [],
        "22/03/2020 17:03:48": [],
        "22/03/2020 19:24:39": []
    },
    "2289": {
        "22/03/2020 14:39:04": [],
        "22/03/2020 17:03:48": [],
        "22/03/2020 19:24:39": []
    },
    "2338": {
        "22/03/2020 14:39:05": [],
        "22/03/2020 17:03:49": [],
        "22/03/2020 19:24:40": []
    },
    "5071": {
        "22/03/2020 14:39:06": [],
        "22/03/2020 17:03:49": [],
        "22/03/2020 19:24:40": []
    },
    "5072": {
        "22/03/2020 14:39:06": [],
        "22/03/2020 17:03:49": [],
        "22/03/2020 19:24:41": []
    },
    "7505": {
        "22/03/2020 14:39:06": [],
        "22/03/2020 17:03:50": [],
        "22/03/2020 19:24:41": []
    },
    "4980": {
        "22/03/2020 14:39:07": [],
        "22/03/2020 17:03:50": [],
        "22/03/2020 19:24:42": []
    },
    "661": {
        "22/03/2020 14:39:07": [],
        "22/03/2020 17:03:51": [],
        "22/03/2020 19:24:42": []
    },
    "1835": {
        "22/03/2020 14:39:08": [],
        "22/03/2020 17:03:51": [],
        "22/03/2020 19:24:43": []
    },
    "1836": {
        "22/03/2020 14:39:08": [],
        "22/03/2020 17:03:52": [],
        "22/03/2020 19:24:43": []
    },
    "1837": {
        "22/03/2020 14:39:09": [],
        "22/03/2020 17:03:52": [],
        "22/03/2020 19:24:43": []
    },
    "7026": {
        "22/03/2020 14:39:09": [],
        "22/03/2020 17:03:53": [],
        "22/03/2020 19:24:44": []
    },
    "7073": {
        "22/03/2020 14:39:10": [],
        "22/03/2020 17:03:53": [],
        "22/03/2020 19:24:49": []
    },
    "7097": {
        "22/03/2020 14:39:10": [],
        "22/03/2020 17:03:54": [],
        "22/03/2020 19:24:50": []
    },
    "7098": {
        "22/03/2020 14:39:10": [],
        "22/03/2020 17:03:54": [],
        "22/03/2020 19:24:50": []
    },
    "7099": {
        "22/03/2020 14:39:11": [],
        "22/03/2020 17:03:55": [],
        "22/03/2020 19:24:51": []
    },
    "7100": {
        "22/03/2020 14:39:11": [],
        "22/03/2020 17:03:55": [],
        "22/03/2020 19:24:51": []
    },
    "7101": {
        "22/03/2020 14:39:12": [],
        "22/03/2020 17:03:55": [],
        "22/03/2020 19:24:51": []
    },
    "2468": {
        "22/03/2020 14:39:12": [],
        "22/03/2020 17:03:56": [],
        "22/03/2020 19:24:52": []
    },
    "4747": {
        "22/03/2020 14:39:13": [],
        "22/03/2020 17:03:56": [],
        "22/03/2020 19:24:52": []
    },
    "1816": {
        "22/03/2020 14:39:13": [],
        "22/03/2020 17:03:57": [],
        "22/03/2020 19:24:53": []
    },
    "1817": {
        "22/03/2020 14:39:14": [],
        "22/03/2020 17:03:57": [],
        "22/03/2020 19:24:53": []
    },
    "1818": {
        "22/03/2020 14:39:14": [],
        "22/03/2020 17:03:58": [],
        "22/03/2020 19:24:54": []
    },
    "1819": {
        "22/03/2020 14:39:14": [],
        "22/03/2020 17:03:58": [],
        "22/03/2020 19:24:54": []
    },
    "1820": {
        "22/03/2020 14:39:15": [],
        "22/03/2020 17:03:59": [],
        "22/03/2020 19:24:54": []
    },
    "1828": {
        "22/03/2020 14:39:15": [],
        "22/03/2020 17:04:00": [],
        "22/03/2020 19:24:55": []
    },
    "1829": {
        "22/03/2020 14:39:16": [],
        "22/03/2020 17:04:00": [],
        "22/03/2020 19:24:55": []
    },
    "1830": {
        "22/03/2020 14:39:16": [],
        "22/03/2020 17:04:01": [],
        "22/03/2020 19:24:56": []
    },
    "1831": {
        "22/03/2020 14:39:17": [],
        "22/03/2020 17:04:01": [],
        "22/03/2020 19:24:56": []
    },
    "4978": {
        "22/03/2020 14:39:17": [],
        "22/03/2020 17:04:02": [],
        "22/03/2020 19:24:56": []
    },
    "4979": {
        "22/03/2020 14:39:18": [],
        "22/03/2020 17:04:02": [],
        "22/03/2020 19:24:57": []
    },
    "1545": {
        "22/03/2020 14:39:18": [],
        "22/03/2020 17:04:02": [],
        "22/03/2020 19:24:57": []
    },
    "1546": {
        "22/03/2020 14:39:19": [],
        "22/03/2020 17:04:03": [],
        "22/03/2020 19:24:58": []
    },
    "2960": {
        "22/03/2020 14:39:19": [],
        "22/03/2020 17:04:03": [],
        "22/03/2020 19:24:58": []
    },
    "4986": {
        "22/03/2020 14:39:19": [],
        "22/03/2020 17:04:04": [],
        "22/03/2020 19:24:59": []
    },
    "6005": {
        "22/03/2020 14:39:20": [],
        "22/03/2020 17:04:04": [],
        "22/03/2020 19:24:59": []
    },
    "7072": {
        "22/03/2020 14:39:20": [],
        "22/03/2020 17:04:05": [],
        "22/03/2020 19:24:59": []
    },
    "7102": {
        "22/03/2020 14:39:21": [],
        "22/03/2020 17:04:05": [],
        "22/03/2020 19:25:00": []
    },
    "7103": {
        "22/03/2020 14:39:21": [],
        "22/03/2020 17:04:06": [],
        "22/03/2020 19:25:00": []
    },
    "7104": {
        "22/03/2020 14:39:22": [],
        "22/03/2020 17:04:06": [],
        "22/03/2020 19:25:01": []
    },
    "7105": {
        "22/03/2020 14:39:22": [],
        "22/03/2020 17:04:07": [],
        "22/03/2020 19:25:01": []
    },
    "7106": {
        "22/03/2020 14:39:23": [],
        "22/03/2020 17:04:07": [],
        "22/03/2020 19:25:01": []
    },
    "7107": {
        "22/03/2020 14:39:23": [],
        "22/03/2020 17:04:08": [],
        "22/03/2020 19:25:02": []
    }
}