{
    "overall_punctuality": 26726,
    "overall_num": 8362,
    "overall_avg": 4,
    "daily_punctuality": {
        "Sunday": {
            "num_results": 978,
            "total": -31786,
            "avg:": 0,
            "avg": -32
        },
        "Monday": {
            "num_results": 982,
            "total": 6096,
            "avg:": 0,
            "avg": 7
        },
        "Tuesday": {
            "num_results": 1312,
            "total": -57032,
            "avg:": 0,
            "avg": -43
        },
        "Wednesday": {
            "num_results": 1304,
            "total": 80412,
            "avg:": 0,
            "avg": 62
        },
        "Thursday": {
            "num_results": 984,
            "total": 57632,
            "avg:": 0,
            "avg": 59
        },
        "Friday": {
            "num_results": 984,
            "total": 46584,
            "avg:": 0,
            "avg": 48
        },
        "Saturday": {
            "num_results": 1818,
            "total": -75180,
            "avg:": 0,
            "avg": -41
        }
    }
}