{
    "381": {
        "20/03/2020 16:25:05": [
            0,
            0,
            0,
            0
        ],
        "20/03/2020 20:47:08": 0,
        "20/03/2020 20:47:14": 0,
        "20/03/2020 20:47:30": 0,
        "20/03/2020 20:54:31": [
            0,
            0,
            0
        ],
        "20/03/2020 20:54:37": [
            0,
            0,
            0
        ],
        "20/03/2020 20:54:53": [
            0,
            0,
            0
        ]
    },
    "382": {
        "20/03/2020 16:25:05": [
            -5,
            -5,
            -5,
            -5
        ],
        "20/03/2020 20:47:08": -15,
        "20/03/2020 20:47:14": -15,
        "20/03/2020 20:47:31": -15,
        "20/03/2020 20:54:32": [
            -15,
            -15,
            -15
        ],
        "20/03/2020 20:54:37": [
            -15,
            -15,
            -15
        ],
        "20/03/2020 20:54:53": [
            -15,
            -15,
            -15
        ]
    },
    "4451": {
        "20/03/2020 16:25:14": [
            17,
            17,
            17,
            17
        ],
        "20/03/2020 20:47:08": 2,
        "20/03/2020 20:47:15": 2,
        "20/03/2020 20:47:38": 2,
        "20/03/2020 20:54:32": [
            2,
            2,
            2
        ],
        "20/03/2020 20:54:38": [
            2,
            2,
            2
        ],
        "20/03/2020 20:55:01": [
            2,
            2,
            2
        ]
    },
    "383": {
        "20/03/2020 16:25:08": [
            7,
            7,
            7,
            7
        ],
        "20/03/2020 20:47:09": -17,
        "20/03/2020 20:47:15": -17,
        "20/03/2020 20:47:34": -17,
        "20/03/2020 20:54:32": [
            -17,
            -17,
            -17
        ],
        "20/03/2020 20:54:38": [
            -17,
            -17,
            -17
        ],
        "20/03/2020 20:54:57": [
            -17,
            -17,
            -17
        ]
    },
    "384": {
        "20/03/2020 16:25:09": [
            4,
            4,
            4,
            4
        ],
        "20/03/2020 20:47:09": 29,
        "20/03/2020 20:47:15": 29,
        "20/03/2020 20:47:34": 29,
        "20/03/2020 20:54:33": [
            29,
            29,
            29
        ],
        "20/03/2020 20:54:38": [
            29,
            29,
            29
        ],
        "20/03/2020 20:54:57": [
            29,
            29,
            29
        ]
    },
    "385": {
        "20/03/2020 16:25:09": [
            -30,
            -30,
            -30,
            -30
        ],
        "20/03/2020 20:47:09": -9,
        "20/03/2020 20:47:16": -9,
        "20/03/2020 20:47:35": -9,
        "20/03/2020 20:54:33": [
            -9,
            -9,
            -9
        ],
        "20/03/2020 20:54:39": [
            -9,
            -9,
            -9
        ],
        "20/03/2020 20:54:57": [
            -9,
            -9,
            -9
        ]
    },
    "387": {
        "20/03/2020 16:25:09": [
            29,
            29,
            29,
            29
        ],
        "20/03/2020 20:47:10": -21,
        "20/03/2020 20:47:16": -21,
        "20/03/2020 20:47:35": -21,
        "20/03/2020 20:54:33": [
            -21,
            -21,
            -21
        ],
        "20/03/2020 20:54:39": [
            -21,
            -21,
            -21
        ],
        "20/03/2020 20:54:58": [
            -21,
            -21,
            -21
        ]
    },
    "388": {
        "20/03/2020 16:25:10": [
            19,
            19,
            19,
            19
        ],
        "20/03/2020 20:47:10": 15,
        "20/03/2020 20:47:16": 15,
        "20/03/2020 20:47:35": 15,
        "20/03/2020 20:54:33": [
            15,
            15,
            15
        ],
        "20/03/2020 20:54:39": [
            15,
            15,
            15
        ],
        "20/03/2020 20:54:58": [
            15,
            15,
            15
        ]
    },
    "389": {
        "20/03/2020 16:25:12": [
            -20,
            -20,
            -20,
            -20
        ],
        "20/03/2020 20:47:10": -30,
        "20/03/2020 20:47:16": -30,
        "20/03/2020 20:47:37": -30,
        "20/03/2020 20:54:34": [
            -30,
            -30,
            -30
        ],
        "20/03/2020 20:54:39": [
            -30,
            -30,
            -30
        ],
        "20/03/2020 20:55:00": [
            -30,
            -30,
            -30
        ]
    },
    "393": {
        "20/03/2020 16:25:10": [
            29,
            29,
            29,
            29
        ],
        "20/03/2020 20:47:10": 10,
        "20/03/2020 20:47:17": 10,
        "20/03/2020 20:47:35": 10,
        "20/03/2020 20:54:34": [
            10,
            10,
            10
        ],
        "20/03/2020 20:54:40": [
            10,
            10,
            10
        ],
        "20/03/2020 20:54:58": [
            10,
            10,
            10
        ]
    },
    "371": {
        "20/03/2020 16:25:13": [
            136,
            22,
            22,
            22,
            22
        ],
        "20/03/2020 20:47:11": -16,
        "20/03/2020 20:47:17": -16,
        "20/03/2020 20:47:38": -16,
        "20/03/2020 20:54:34": [
            -16,
            -16
        ],
        "20/03/2020 20:54:40": [
            -16,
            -16
        ],
        "20/03/2020 20:55:01": [
            -16,
            -16
        ]
    },
    "391": {
        "20/03/2020 16:25:06": [
            103,
            10,
            10,
            10,
            10
        ],
        "20/03/2020 20:47:11": 14,
        "20/03/2020 20:47:17": 14,
        "20/03/2020 20:47:32": 14,
        "20/03/2020 20:54:34": [
            14,
            14,
            14
        ],
        "20/03/2020 20:54:40": [
            14,
            14,
            14
        ],
        "20/03/2020 20:54:55": [
            14,
            14,
            14
        ]
    },
    "392": {
        "20/03/2020 16:25:06": [
            126,
            -24,
            -24,
            -24
        ],
        "20/03/2020 20:47:11": 45,
        "20/03/2020 20:47:18": 45,
        "20/03/2020 20:47:32": 45,
        "20/03/2020 20:54:35": [
            9,
            9,
            9
        ],
        "20/03/2020 20:54:40": [
            9,
            9,
            9
        ],
        "20/03/2020 20:54:55": [
            9,
            9,
            9
        ]
    },
    "395": {
        "20/03/2020 16:25:10": [
            162,
            -28,
            -28,
            -28
        ],
        "20/03/2020 20:47:12": 36,
        "20/03/2020 20:47:18": 36,
        "20/03/2020 20:47:36": 36,
        "20/03/2020 20:54:35": [
            0,
            0,
            0
        ],
        "20/03/2020 20:54:41": [
            0,
            0,
            0
        ],
        "20/03/2020 20:54:58": [
            0,
            0,
            0
        ]
    },
    "396": {
        "20/03/2020 16:25:10": [
            177,
            8,
            8,
            8
        ],
        "20/03/2020 20:47:12": 36,
        "20/03/2020 20:47:18": 36,
        "20/03/2020 20:47:36": 36,
        "20/03/2020 20:54:35": [
            0,
            0,
            0
        ],
        "20/03/2020 20:54:41": [
            0,
            0,
            0
        ],
        "20/03/2020 20:54:59": [
            0,
            0,
            0
        ]
    },
    "397": {
        "20/03/2020 16:25:11": [
            158,
            1,
            1,
            1
        ],
        "20/03/2020 20:47:12": 10,
        "20/03/2020 20:47:18": 10,
        "20/03/2020 20:47:36": 10,
        "20/03/2020 20:54:36": [
            -26,
            -26,
            -26
        ],
        "20/03/2020 20:54:41": [
            -26,
            -26,
            -26
        ],
        "20/03/2020 20:54:59": [
            -26,
            -26,
            -26
        ]
    },
    "398": {
        "20/03/2020 16:25:11": [
            173,
            23,
            23,
            23
        ],
        "20/03/2020 20:47:12": 54,
        "20/03/2020 20:47:19": 54,
        "20/03/2020 20:47:37": 54,
        "20/03/2020 20:54:36": [
            18,
            18,
            18
        ],
        "20/03/2020 20:54:42": [
            18,
            18,
            18
        ],
        "20/03/2020 20:54:59": [
            18,
            18,
            18
        ]
    },
    "399": {
        "20/03/2020 16:25:11": [
            174,
            -30,
            -30,
            -30
        ],
        "20/03/2020 20:47:13": 6,
        "20/03/2020 20:47:19": 6,
        "20/03/2020 20:47:37": 6,
        "20/03/2020 20:54:36": [
            -6,
            -6,
            -6
        ],
        "20/03/2020 20:54:42": [
            -6,
            -6,
            -6
        ],
        "20/03/2020 20:55:00": [
            -6,
            -6,
            -6
        ]
    },
    "400": {
        "20/03/2020 16:25:12": [
            147,
            -28,
            -28
        ],
        "20/03/2020 20:47:13": 12,
        "20/03/2020 20:47:19": 12,
        "20/03/2020 20:47:37": 12,
        "20/03/2020 20:54:36": [
            0,
            0,
            0
        ],
        "20/03/2020 20:54:42": [
            0,
            0,
            0
        ],
        "20/03/2020 20:55:00": [
            0,
            0,
            0
        ]
    },
    "319": {
        "20/03/2020 16:25:06": [
            128,
            -9,
            -9,
            -9
        ],
        "20/03/2020 20:47:13": 0,
        "20/03/2020 20:47:20": 0,
        "20/03/2020 20:47:32": 0,
        "20/03/2020 20:54:37": [
            -80,
            0,
            0
        ],
        "20/03/2020 20:54:42": [
            0,
            0
        ],
        "20/03/2020 20:54:54": [
            0,
            0
        ]
    },
    "278": {
        "20/03/2020 16:25:06": [
            127,
            -21,
            -21
        ],
        "20/03/2020 20:47:14": 2,
        "20/03/2020 20:47:20": 2,
        "20/03/2020 20:47:31": 2,
        "20/03/2020 20:54:37": [
            -78,
            2,
            2
        ],
        "20/03/2020 20:54:43": [
            -78,
            2,
            2
        ],
        "20/03/2020 20:54:54": [
            -78,
            2,
            2
        ]
    },
    "10": {
        "20/03/2020 16:25:07": [
            -197,
            142,
            25,
            25
        ],
        "20/03/2020 20:47:20": -23,
        "20/03/2020 20:47:32": -23,
        "20/03/2020 20:54:43": [
            -103,
            -23,
            -23
        ],
        "20/03/2020 20:54:55": [
            -103,
            -23,
            -23
        ]
    },
    "12": {
        "20/03/2020 16:25:02": [
            -218,
            121,
            17,
            17
        ],
        "20/03/2020 20:47:21": 24,
        "20/03/2020 20:47:28": 24,
        "20/03/2020 20:54:43": [
            -72,
            24,
            24
        ],
        "20/03/2020 20:54:51": [
            -72,
            24,
            24
        ]
    },
    "14": {
        "20/03/2020 16:25:04": [
            -235,
            152,
            -14,
            -14
        ],
        "20/03/2020 20:47:21": 23,
        "20/03/2020 20:47:29": 23,
        "20/03/2020 20:54:44": [
            -82,
            23,
            23
        ],
        "20/03/2020 20:54:52": [
            -82,
            23,
            23
        ]
    },
    "15": {
        "20/03/2020 16:25:07": [
            -266,
            121,
            13,
            13
        ],
        "20/03/2020 20:47:21": 22,
        "20/03/2020 20:47:33": 22,
        "20/03/2020 20:54:44": [
            22,
            22,
            22
        ],
        "20/03/2020 20:54:56": [
            22,
            22,
            22
        ]
    },
    "17": {
        "20/03/2020 16:25:04": [
            -270,
            117,
            7
        ],
        "20/03/2020 20:47:21": -391,
        "20/03/2020 20:47:30": -22,
        "20/03/2020 20:54:44": [
            -22,
            -22,
            -22
        ],
        "20/03/2020 20:54:53": [
            -22,
            -22,
            -22
        ]
    },
    "18": {
        "20/03/2020 16:25:07": [
            -280,
            107,
            -12
        ],
        "20/03/2020 20:47:22": -335,
        "20/03/2020 20:47:33": -335,
        "20/03/2020 20:54:45": [
            -25,
            -25,
            -25
        ],
        "20/03/2020 20:54:56": [
            -25,
            -25,
            -25
        ]
    },
    "19": {
        "20/03/2020 16:25:03": [
            -233,
            154,
            -29
        ],
        "20/03/2020 20:47:22": -325,
        "20/03/2020 20:47:28": -325,
        "20/03/2020 20:54:45": [
            -1,
            -1,
            -1
        ],
        "20/03/2020 20:54:51": [
            -1,
            -1,
            -1
        ]
    },
    "21": {
        "20/03/2020 16:25:04": [
            -245,
            142,
            10
        ],
        "20/03/2020 20:47:22": -368,
        "20/03/2020 20:47:30": -368,
        "20/03/2020 20:54:45": [
            -4,
            -4,
            -4
        ],
        "20/03/2020 20:54:53": [
            -4,
            -4,
            -4
        ]
    },
    "7602": {
        "20/03/2020 16:25:13": [
            -110,
            143,
            11
        ],
        "20/03/2020 20:47:23": -351,
        "20/03/2020 20:47:38": -351,
        "20/03/2020 20:54:45": [
            -18,
            -18,
            -18
        ],
        "20/03/2020 20:55:00": [
            -18,
            -18,
            -18
        ]
    },
    "85": {
        "20/03/2020 16:25:13": [
            -284,
            103,
            -29
        ],
        "20/03/2020 20:47:23": -387,
        "20/03/2020 20:47:38": -387,
        "20/03/2020 20:54:46": [
            -17,
            -17,
            -17
        ],
        "20/03/2020 20:55:01": [
            -17,
            -17,
            -17
        ]
    },
    "203": {
        "20/03/2020 16:25:08": [
            -268,
            119,
            -17
        ],
        "20/03/2020 20:47:23": -382,
        "20/03/2020 20:47:33": -382,
        "20/03/2020 20:54:46": [
            28,
            28,
            28
        ],
        "20/03/2020 20:54:56": [
            28,
            28,
            28
        ]
    },
    "204": {
        "20/03/2020 16:25:08": [
            -283,
            104,
            23
        ],
        "20/03/2020 20:47:23": -268,
        "20/03/2020 20:47:34": -268,
        "20/03/2020 20:54:46": [],
        "20/03/2020 20:54:56": []
    },
    "205": {
        "20/03/2020 16:25:01": [
            -227,
            160,
            16
        ],
        "20/03/2020 20:47:24": -281,
        "20/03/2020 20:47:27": -281,
        "20/03/2020 20:54:47": [
            2,
            2
        ],
        "20/03/2020 20:54:50": [
            2,
            2
        ]
    },
    "1620": {
        "20/03/2020 16:25:01": [
            -238,
            149,
            1
        ],
        "20/03/2020 20:47:24": -298,
        "20/03/2020 20:47:26": -298,
        "20/03/2020 20:54:47": [
            -540,
            -22,
            -22
        ],
        "20/03/2020 20:54:49": [
            -540,
            -22,
            -22
        ]
    },
    "220": {
        "20/03/2020 16:25:01": [
            -228,
            159,
            2
        ],
        "20/03/2020 20:47:24": -303,
        "20/03/2020 20:47:27": -303,
        "20/03/2020 20:54:47": [
            -566,
            14,
            14
        ],
        "20/03/2020 20:54:50": [
            -566,
            14,
            14
        ]
    },
    "221": {
        "20/03/2020 16:25:02": [
            -236,
            151
        ],
        "20/03/2020 20:47:25": -259,
        "20/03/2020 20:47:27": -259,
        "20/03/2020 20:54:48": [
            -522,
            -4,
            -4
        ],
        "20/03/2020 20:54:50": [
            -522,
            -4,
            -4
        ]
    },
    "222": {
        "20/03/2020 16:25:02": [
            -258,
            129
        ],
        "20/03/2020 20:47:25": -287,
        "20/03/2020 20:47:28": -287,
        "20/03/2020 20:54:48": [
            -529,
            26,
            26
        ],
        "20/03/2020 20:54:51": [
            -529,
            26,
            26
        ]
    },
    "223": {
        "20/03/2020 16:25:05": [
            -269,
            118
        ],
        "20/03/2020 20:47:25": -306,
        "20/03/2020 20:47:31": -306,
        "20/03/2020 20:54:48": [
            -569,
            5,
            5
        ],
        "20/03/2020 20:54:54": [
            -569,
            5,
            5
        ]
    },
    "224": {
        "20/03/2020 16:25:03": [
            -231,
            156
        ],
        "20/03/2020 20:47:25": -274,
        "20/03/2020 20:47:29": -274,
        "20/03/2020 20:54:49": [
            -516,
            -24,
            -24
        ],
        "20/03/2020 20:54:52": [
            -516,
            -24,
            -24
        ]
    },
    "225": {
        "20/03/2020 16:25:03": [
            -242,
            145
        ],
        "20/03/2020 20:47:26": -293,
        "20/03/2020 20:47:29": -293,
        "20/03/2020 20:54:49": [
            -535,
            14,
            14
        ],
        "20/03/2020 20:54:52": [
            -535,
            14,
            14
        ]
    },
    "226": {
        "20/03/2020 16:25:57": [
            0,
            0,
            0,
            0
        ],
        "20/03/2020 20:47:26": 0,
        "20/03/2020 20:47:29": 0,
        "20/03/2020 20:47:39": 0,
        "20/03/2020 20:47:49": 0,
        "20/03/2020 20:47:56": 0,
        "20/03/2020 20:54:49": [
            0,
            0,
            0
        ],
        "20/03/2020 20:54:52": [
            0,
            0,
            0
        ],
        "20/03/2020 20:55:02": [
            0,
            0,
            0
        ],
        "20/03/2020 20:55:14": [
            0,
            0,
            0
        ],
        "20/03/2020 20:55:20": [
            0,
            0,
            0
        ]
    },
    "119": {
        "20/03/2020 16:26:20": [
            -23,
            -23,
            -23,
            -23
        ],
        "20/03/2020 20:47:39": 20,
        "20/03/2020 20:47:52": 20,
        "20/03/2020 20:47:59": 20,
        "20/03/2020 20:55:02": [
            20,
            20,
            20
        ],
        "20/03/2020 20:55:17": [
            20,
            20,
            20
        ],
        "20/03/2020 20:55:24": [
            20,
            20,
            20
        ]
    },
    "214": {
        "20/03/2020 16:26:16": [
            -10,
            -10,
            -10,
            -10
        ],
        "20/03/2020 20:47:39": 10,
        "20/03/2020 20:47:52": 10,
        "20/03/2020 20:47:58": 10,
        "20/03/2020 20:55:02": [
            10,
            10,
            10
        ],
        "20/03/2020 20:55:16": [
            10,
            10,
            10
        ],
        "20/03/2020 20:55:23": [
            10,
            10,
            10
        ]
    },
    "227": {
        "20/03/2020 16:26:04": [
            -10,
            -10,
            -10,
            -10
        ],
        "20/03/2020 20:47:39": -10,
        "20/03/2020 20:47:50": -10,
        "20/03/2020 20:47:56": -10,
        "20/03/2020 20:55:02": [
            -10,
            -10,
            -10
        ],
        "20/03/2020 20:55:15": [
            -10,
            -10,
            -10
        ],
        "20/03/2020 20:55:21": [
            -10,
            -10,
            -10
        ]
    },
    "228": {
        "20/03/2020 16:25:59": [
            -7,
            -7,
            -7,
            -7
        ],
        "20/03/2020 20:47:40": -26,
        "20/03/2020 20:47:50": -26,
        "20/03/2020 20:47:56": -26,
        "20/03/2020 20:55:03": [
            -26,
            -26,
            -26
        ],
        "20/03/2020 20:55:14": [
            -26,
            -26,
            -26
        ],
        "20/03/2020 20:55:21": [
            -26,
            -26,
            -26
        ]
    },
    "230": {
        "20/03/2020 16:26:06": [
            -24,
            -24,
            -24,
            -24
        ],
        "20/03/2020 20:47:40": 20,
        "20/03/2020 20:47:50": 20,
        "20/03/2020 20:47:57": 20,
        "20/03/2020 20:55:03": [
            20,
            20,
            20
        ],
        "20/03/2020 20:55:15": [
            20,
            20,
            20
        ],
        "20/03/2020 20:55:22": [
            20,
            20,
            20
        ]
    },
    "231": {
        "20/03/2020 16:26:09": [
            -24,
            -24,
            -24,
            -24
        ],
        "20/03/2020 20:47:40": -1,
        "20/03/2020 20:47:51": -1,
        "20/03/2020 20:47:57": -1,
        "20/03/2020 20:55:03": [
            -1,
            -1,
            -1
        ],
        "20/03/2020 20:55:15": [
            -1,
            -1,
            -1
        ],
        "20/03/2020 20:55:22": [
            -1,
            -1,
            -1
        ]
    },
    "229": {
        "20/03/2020 16:26:01": [
            -21,
            -21,
            -21,
            -21
        ],
        "20/03/2020 20:47:40": 4,
        "20/03/2020 20:47:50": 4,
        "20/03/2020 20:47:56": 4,
        "20/03/2020 20:55:04": [
            4,
            4,
            4
        ],
        "20/03/2020 20:55:14": [
            4,
            4,
            4
        ],
        "20/03/2020 20:55:21": [
            4,
            4,
            4
        ]
    },
    "46": {
        "20/03/2020 16:26:27": [
            -23,
            1,
            1,
            1
        ],
        "20/03/2020 20:47:41": -36,
        "20/03/2020 20:47:54": -36,
        "20/03/2020 20:48:00": -36,
        "20/03/2020 20:55:04": [
            -2,
            -2,
            -2
        ],
        "20/03/2020 20:55:18": [
            -2,
            -2,
            -2
        ],
        "20/03/2020 20:55:25": [
            -2,
            -2,
            -2
        ]
    },
    "49": {
        "20/03/2020 16:26:30": [
            -13,
            -2,
            -2,
            -2
        ],
        "20/03/2020 20:47:41": -14,
        "20/03/2020 20:47:54": -14,
        "20/03/2020 20:48:02": -14,
        "20/03/2020 20:55:04": [
            -14,
            -14,
            -14
        ],
        "20/03/2020 20:55:19": [
            -14,
            -14,
            -14
        ],
        "20/03/2020 20:55:26": [
            -14,
            -14,
            -14
        ]
    },
    "1641": {
        "20/03/2020 16:26:10": [
            5,
            5,
            5,
            5
        ],
        "20/03/2020 20:47:41": 8,
        "20/03/2020 20:47:51": 8,
        "20/03/2020 20:47:57": 8,
        "20/03/2020 20:55:05": [
            8,
            8,
            8
        ],
        "20/03/2020 20:55:16": [
            8,
            8,
            8
        ],
        "20/03/2020 20:55:22": [
            8,
            8,
            8
        ]
    },
    "1642": {
        "20/03/2020 16:26:12": [
            2,
            2,
            2,
            2
        ],
        "20/03/2020 20:47:41": -8,
        "20/03/2020 20:47:51": -8,
        "20/03/2020 20:47:58": -8,
        "20/03/2020 20:55:05": [
            -8,
            -8,
            -8
        ],
        "20/03/2020 20:55:16": [
            -8,
            -8,
            -8
        ],
        "20/03/2020 20:55:22": [
            -8,
            -8,
            -8
        ]
    },
    "213": {
        "20/03/2020 16:26:15": [
            0,
            0,
            0,
            0
        ],
        "20/03/2020 20:47:42": -23,
        "20/03/2020 20:47:51": -23,
        "20/03/2020 20:47:58": -23,
        "20/03/2020 20:55:05": [
            -23,
            -23,
            -23
        ],
        "20/03/2020 20:55:16": [
            -23,
            -23,
            -23
        ],
        "20/03/2020 20:55:23": [
            -23,
            -23,
            -23
        ]
    },
    "44": {
        "20/03/2020 16:26:21": [],
        "20/03/2020 20:47:42": 4,
        "20/03/2020 20:47:53": 4,
        "20/03/2020 20:47:59": 4,
        "20/03/2020 20:55:05": [
            4,
            4,
            4
        ],
        "20/03/2020 20:55:17": [
            4,
            4,
            4
        ],
        "20/03/2020 20:55:24": [
            4,
            4,
            4
        ]
    },
    "4432": {
        "20/03/2020 16:26:18": [
            -18,
            -18,
            -18,
            -18
        ],
        "20/03/2020 20:47:42": -17,
        "20/03/2020 20:47:52": -17,
        "20/03/2020 20:47:58": -17,
        "20/03/2020 20:55:06": [
            -17,
            -17,
            -17
        ],
        "20/03/2020 20:55:17": [
            -17,
            -17,
            -17
        ],
        "20/03/2020 20:55:23": [
            -17,
            -17,
            -17
        ]
    },
    "51": {
        "20/03/2020 16:26:32": [
            22,
            -30,
            -30,
            -30
        ],
        "20/03/2020 20:47:42": -8,
        "20/03/2020 20:47:55": -8,
        "20/03/2020 20:48:02": -8,
        "20/03/2020 20:55:06": [
            -8,
            -8,
            -8
        ],
        "20/03/2020 20:55:19": [
            -8,
            -8,
            -8
        ],
        "20/03/2020 20:55:26": [
            -8,
            -8,
            -8
        ]
    },
    "45": {
        "20/03/2020 16:26:25": [
            -23,
            -8,
            -8,
            -8
        ],
        "20/03/2020 20:47:43": -21,
        "20/03/2020 20:47:53": -21,
        "20/03/2020 20:48:00": -21,
        "20/03/2020 20:55:06": [
            13,
            13,
            13
        ],
        "20/03/2020 20:55:18": [
            13,
            13,
            13
        ],
        "20/03/2020 20:55:24": [
            13,
            13,
            13
        ]
    },
    "47": {
        "20/03/2020 16:26:28": [
            -10,
            25,
            25,
            25
        ],
        "20/03/2020 20:47:43": -7,
        "20/03/2020 20:47:54": -7,
        "20/03/2020 20:48:01": -7,
        "20/03/2020 20:55:07": [
            -7,
            -7,
            -7
        ],
        "20/03/2020 20:55:18": [
            -7,
            -7,
            -7
        ],
        "20/03/2020 20:55:25": [
            -7,
            -7,
            -7
        ]
    },
    "52": {
        "20/03/2020 16:26:33": [
            15,
            21,
            21,
            21
        ],
        "20/03/2020 20:47:43": 28,
        "20/03/2020 20:47:55": 28,
        "20/03/2020 20:48:03": 28,
        "20/03/2020 20:55:07": [
            28,
            28
        ],
        "20/03/2020 20:55:20": [
            28,
            28
        ],
        "20/03/2020 20:55:26": [
            28,
            28
        ]
    },
    "48": {
        "20/03/2020 16:26:29": [
            -6,
            27,
            27,
            27
        ],
        "20/03/2020 20:47:44": -21,
        "20/03/2020 20:47:54": -21,
        "20/03/2020 20:48:01": -21,
        "20/03/2020 20:55:07": [
            -21,
            -21,
            -21
        ],
        "20/03/2020 20:55:19": [
            -21,
            -21,
            -21
        ],
        "20/03/2020 20:55:25": [
            -21,
            -21,
            -21
        ]
    },
    "7603": {
        "20/03/2020 16:26:23": [
            -13,
            7,
            7,
            7
        ],
        "20/03/2020 20:47:44": -25,
        "20/03/2020 20:47:53": -25,
        "20/03/2020 20:47:59": -25,
        "20/03/2020 20:55:07": [
            -25,
            -25,
            -25
        ],
        "20/03/2020 20:55:18": [
            -25,
            -25,
            -25
        ],
        "20/03/2020 20:55:24": [
            -25,
            -25,
            -25
        ]
    },
    "265": {
        "20/03/2020 16:26:35": [
            19,
            7,
            7,
            7
        ],
        "20/03/2020 20:47:44": 12,
        "20/03/2020 20:47:55": 12,
        "20/03/2020 20:48:03": 12,
        "20/03/2020 20:55:08": [
            12,
            12
        ],
        "20/03/2020 20:55:20": [
            12,
            12
        ],
        "20/03/2020 20:55:26": [
            12,
            12
        ]
    },
    "340": {
        "20/03/2020 16:26:39": [
            37,
            29,
            -14,
            -14
        ],
        "20/03/2020 20:47:44": 19,
        "20/03/2020 20:48:04": 19,
        "20/03/2020 20:55:08": [
            -80,
            19,
            19
        ],
        "20/03/2020 20:55:27": [
            -80,
            19,
            19
        ]
    },
    "271": {
        "20/03/2020 16:26:37": [
            -18,
            0,
            2,
            2
        ],
        "20/03/2020 20:47:45": -11,
        "20/03/2020 20:47:55": -11,
        "20/03/2020 20:48:04": -11,
        "20/03/2020 20:55:08": [
            -127,
            -11,
            -11
        ],
        "20/03/2020 20:55:20": [
            -127,
            -11,
            -11
        ],
        "20/03/2020 20:55:27": [
            -127,
            -11,
            -11
        ]
    },
    "2804": {
        "20/03/2020 16:27:06": [
            -103,
            25,
            17,
            -8
        ],
        "20/03/2020 20:47:45": -243,
        "20/03/2020 20:48:08": -243,
        "20/03/2020 20:55:08": [
            8,
            8
        ],
        "20/03/2020 20:55:32": [
            -307,
            -130,
            8,
            8
        ]
    },
    "353": {
        "20/03/2020 16:26:45": [
            8,
            0,
            23,
            23
        ],
        "20/03/2020 20:47:45": 6,
        "20/03/2020 20:48:05": 6,
        "20/03/2020 20:55:09": [
            6,
            6,
            6
        ],
        "20/03/2020 20:55:28": [
            -110,
            6,
            6
        ]
    },
    "354": {
        "20/03/2020 16:26:47": [
            1,
            -7,
            18,
            18
        ],
        "20/03/2020 20:47:45": -282,
        "20/03/2020 20:48:06": -282,
        "20/03/2020 20:55:09": [
            -17,
            -17,
            -17
        ],
        "20/03/2020 20:55:29": [
            -155,
            -17,
            -17
        ]
    },
    "355": {
        "20/03/2020 16:26:49": [
            -1,
            -9,
            18,
            18
        ],
        "20/03/2020 20:47:46": -201,
        "20/03/2020 20:48:06": -201,
        "20/03/2020 20:55:09": [
            23,
            23,
            23
        ],
        "20/03/2020 20:55:29": [
            -115,
            23,
            23
        ]
    },
    "380": {
        "20/03/2020 16:27:12": [],
        "20/03/2020 20:47:46": -201,
        "20/03/2020 20:48:09": -247,
        "20/03/2020 20:55:10": [],
        "20/03/2020 20:55:33": []
    },
    "390": {
        "20/03/2020 16:26:55": [
            -7,
            -15,
            19
        ],
        "20/03/2020 20:47:46": -261,
        "20/03/2020 20:48:07": -261,
        "20/03/2020 20:55:10": [
            3,
            3,
            3
        ],
        "20/03/2020 20:55:30": [
            -135,
            3,
            3
        ]
    },
    "350": {
        "20/03/2020 16:26:41": [
            1,
            19,
            -13,
            -13
        ],
        "20/03/2020 20:47:46": 20,
        "20/03/2020 20:48:04": 20,
        "20/03/2020 20:55:10": [
            -118,
            20,
            20
        ],
        "20/03/2020 20:55:27": [
            -118,
            20,
            20
        ]
    },
    "351": {
        "20/03/2020 16:26:43": [
            -6,
            -14,
            -17,
            -17
        ],
        "20/03/2020 20:47:47": -13,
        "20/03/2020 20:48:05": -13,
        "20/03/2020 20:55:11": [
            -13,
            -13,
            -13
        ],
        "20/03/2020 20:55:28": [
            -13,
            -13,
            -13
        ]
    },
    "352": {
        "20/03/2020 16:26:44": [
            -58,
            -6,
            4,
            4
        ],
        "20/03/2020 20:47:47": 27,
        "20/03/2020 20:48:05": 27,
        "20/03/2020 20:55:11": [
            -89,
            27,
            27
        ],
        "20/03/2020 20:55:28": [
            -89,
            27,
            27
        ]
    },
    "356": {
        "20/03/2020 16:26:52": [
            -15,
            -23,
            8
        ],
        "20/03/2020 20:47:47": -223,
        "20/03/2020 20:48:06": -223,
        "20/03/2020 20:55:11": [
            -160,
            -22,
            -22
        ],
        "20/03/2020 20:55:29": [
            -160,
            -22,
            -22
        ]
    },
    "357": {
        "20/03/2020 16:26:54": [
            -10,
            -18,
            16
        ],
        "20/03/2020 20:47:47": -249,
        "20/03/2020 20:48:06": -249,
        "20/03/2020 20:55:11": [
            -30,
            -30,
            -30
        ],
        "20/03/2020 20:55:30": [
            -30,
            -30,
            -30
        ]
    },
    "372": {
        "20/03/2020 16:26:57": [
            -149,
            -20,
            -28,
            10
        ],
        "20/03/2020 20:47:48": -273,
        "20/03/2020 20:48:07": -273,
        "20/03/2020 20:55:12": [
            -149,
            -11,
            -11
        ],
        "20/03/2020 20:55:30": [
            -149,
            -11,
            -11
        ]
    },
    "373": {
        "20/03/2020 16:26:59": [
            -112,
            17,
            9,
            -11
        ],
        "20/03/2020 20:47:48": -207,
        "20/03/2020 20:48:07": -207,
        "20/03/2020 20:55:12": [
            -119,
            19,
            19
        ],
        "20/03/2020 20:55:31": [
            -119,
            19,
            19
        ]
    },
    "374": {
        "20/03/2020 16:27:02": [
            -138,
            -9,
            -17,
            25
        ],
        "20/03/2020 20:47:48": -232,
        "20/03/2020 20:48:08": -232,
        "20/03/2020 20:55:12": [
            -152,
            -14,
            -14
        ],
        "20/03/2020 20:55:31": [
            -152,
            -14,
            -14
        ]
    },
    "375": {
        "20/03/2020 16:27:04": [
            -155,
            -8,
            -16,
            23
        ],
        "20/03/2020 20:47:48": -238,
        "20/03/2020 20:48:08": -238,
        "20/03/2020 20:55:13": [
            -156,
            -18,
            -18
        ],
        "20/03/2020 20:55:32": [
            -156,
            -18,
            -18
        ]
    },
    "376": {
        "20/03/2020 16:27:07": [
            -123,
            5,
            -3,
            -30
        ],
        "20/03/2020 20:47:49": -268,
        "20/03/2020 20:48:08": -268,
        "20/03/2020 20:55:13": [
            -352,
            -154,
            -16,
            -16
        ],
        "20/03/2020 20:55:32": [
            -352,
            -154,
            -16,
            -16
        ]
    },
    "377": {
        "20/03/2020 16:27:08": [
            -141,
            -13,
            -21,
            7
        ],
        "20/03/2020 20:47:49": -238,
        "20/03/2020 20:48:09": -238,
        "20/03/2020 20:55:13": [
            -322,
            -129,
            9,
            9
        ],
        "20/03/2020 20:55:33": [
            -322,
            -129,
            9,
            9
        ]
    },
    "378": {
        "20/03/2020 16:27:10": [
            -131,
            -3,
            -11,
            9
        ],
        "20/03/2020 20:47:49": -247,
        "20/03/2020 20:48:09": -247,
        "20/03/2020 20:55:14": [
            -331,
            -148,
            -10
        ],
        "20/03/2020 20:55:33": [
            -331,
            -148,
            -10
        ]
    }
}