{
    "1620": {
        "22/03/2020 14:05:09": [
            -282,
            6,
            6
        ],
        "22/03/2020 16:31:38": [
            -388,
            6,
            6
        ],
        "22/03/2020 18:51:46": [
            -408,
            -6,
            -6
        ]
    },
    "205": {
        "22/03/2020 14:05:10": [
            -264,
            24,
            24
        ],
        "22/03/2020 16:31:39": [
            -370,
            24,
            24
        ],
        "22/03/2020 18:51:46": [
            -389,
            18,
            18
        ]
    },
    "220": {
        "22/03/2020 14:05:10": [
            -288,
            0,
            0
        ],
        "22/03/2020 16:31:39": [
            -395,
            -1,
            -1
        ],
        "22/03/2020 18:51:47": [
            -417,
            -30,
            -30
        ]
    },
    "221": {
        "22/03/2020 14:05:11": [
            -312,
            -24,
            -24
        ],
        "22/03/2020 16:31:40": [
            -417,
            -23,
            -23
        ],
        "22/03/2020 18:51:47": [
            -384,
            5,
            5
        ]
    },
    "222": {
        "22/03/2020 14:05:11": [
            -286,
            2
        ],
        "22/03/2020 16:31:40": [
            -390,
            4,
            4
        ],
        "22/03/2020 18:51:48": [
            -420,
            -29,
            -29
        ]
    },
    "12": {
        "22/03/2020 14:05:11": [
            -8,
            -8
        ],
        "22/03/2020 16:31:41": [
            -17,
            -17,
            -15
        ],
        "22/03/2020 18:51:48": [
            -17,
            -17
        ]
    },
    "19": {
        "22/03/2020 14:05:12": [
            -342,
            -17,
            -17
        ],
        "22/03/2020 16:31:41": [
            -12,
            -12
        ],
        "22/03/2020 18:51:49": [
            -16,
            -16
        ]
    },
    "224": {
        "22/03/2020 14:05:12": [
            -285,
            3
        ],
        "22/03/2020 16:31:41": [
            -388,
            6,
            6
        ],
        "22/03/2020 18:51:49": [
            -424,
            -30,
            -30
        ]
    },
    "225": {
        "22/03/2020 14:05:13": [
            -312,
            -24
        ],
        "22/03/2020 16:31:42": [
            -413,
            -19,
            -19
        ],
        "22/03/2020 18:51:49": [
            -393,
            3,
            3
        ]
    },
    "14": {
        "22/03/2020 14:05:13": [
            -334,
            -9,
            -9
        ],
        "22/03/2020 16:31:43": [
            -13,
            -13
        ],
        "22/03/2020 18:51:50": [
            -10,
            -10
        ]
    },
    "17": {
        "22/03/2020 14:05:14": [
            -328,
            16,
            16
        ],
        "22/03/2020 16:31:43": [
            15,
            15
        ],
        "22/03/2020 18:51:50": [
            20,
            20
        ]
    },
    "21": {
        "22/03/2020 14:05:14": [
            -381,
            -16,
            -16
        ],
        "22/03/2020 16:31:43": [
            -8,
            -8
        ],
        "22/03/2020 18:51:51": [
            -17,
            -17
        ]
    },
    "381": {
        "22/03/2020 14:05:15": [
            0,
            0,
            0
        ],
        "22/03/2020 16:31:44": [
            0,
            0,
            0
        ],
        "22/03/2020 18:51:51": [
            0,
            0
        ]
    },
    "382": {
        "22/03/2020 14:05:15": [
            5,
            5,
            3
        ],
        "22/03/2020 16:31:44": [
            3,
            2,
            2
        ],
        "22/03/2020 18:51:52": [
            -6,
            -6
        ]
    },
    "223": {
        "22/03/2020 14:05:16": [
            -312,
            -24
        ],
        "22/03/2020 16:31:45": [
            -415,
            -21,
            -21
        ],
        "22/03/2020 18:51:52": [
            -388,
            4,
            4
        ]
    },
    "278": {
        "22/03/2020 14:05:16": [
            6,
            6
        ],
        "22/03/2020 16:31:45": [
            23,
            23,
            -16
        ],
        "22/03/2020 18:51:53": [
            8,
            8
        ]
    },
    "319": {
        "22/03/2020 14:05:16": [
            -1,
            -1,
            -1
        ],
        "22/03/2020 16:31:46": [
            -7,
            -7,
            26
        ],
        "22/03/2020 18:51:53": [
            107,
            14,
            14
        ]
    },
    "391": {
        "22/03/2020 14:05:17": [
            77,
            3,
            3
        ],
        "22/03/2020 16:31:46": [
            -25,
            16,
            16
        ],
        "22/03/2020 18:51:54": []
    },
    "392": {
        "22/03/2020 14:05:17": [
            103,
            29,
            29
        ],
        "22/03/2020 16:31:47": [
            -8,
            27,
            27
        ],
        "22/03/2020 18:51:54": [
            -21,
            -21
        ]
    },
    "10": {
        "22/03/2020 14:05:18": [
            -12,
            -12
        ],
        "22/03/2020 16:31:47": [
            20,
            20,
            -13
        ],
        "22/03/2020 18:51:55": [
            -19,
            -19
        ]
    },
    "15": {
        "22/03/2020 14:05:18": [
            -354,
            -10,
            -10
        ],
        "22/03/2020 16:31:48": [
            -10,
            -10
        ],
        "22/03/2020 18:51:55": [
            -5,
            -5
        ]
    },
    "18": {
        "22/03/2020 14:05:19": [
            -308,
            17,
            17
        ],
        "22/03/2020 16:31:48": [
            20,
            20
        ],
        "22/03/2020 18:51:56": [
            19,
            19
        ]
    },
    "203": {
        "22/03/2020 14:05:20": [
            -345,
            20,
            20
        ],
        "22/03/2020 16:31:49": [
            -424,
            -30,
            -30
        ],
        "22/03/2020 18:51:56": [
            21,
            21
        ]
    },
    "204": {
        "22/03/2020 14:05:20": [
            -307,
            -19,
            -19
        ],
        "22/03/2020 16:31:49": [
            -410,
            -16,
            -16
        ],
        "22/03/2020 18:51:57": [
            -23,
            -23
        ]
    },
    "383": {
        "22/03/2020 14:05:20": [
            24
        ],
        "22/03/2020 16:31:50": [
            24,
            21,
            21
        ],
        "22/03/2020 18:51:57": [
            3,
            3
        ]
    },
    "384": {
        "22/03/2020 14:05:21": [
            -24,
            -24
        ],
        "22/03/2020 16:31:50": [
            24,
            24
        ],
        "22/03/2020 18:51:58": [
            -1,
            -1
        ]
    },
    "385": {
        "22/03/2020 14:05:21": [
            6,
            6,
            -1
        ],
        "22/03/2020 16:31:51": [
            -1,
            -7,
            -7
        ],
        "22/03/2020 18:51:58": [
            24,
            24
        ]
    },
    "387": {
        "22/03/2020 14:05:22": [
            67,
            16,
            16
        ],
        "22/03/2020 16:31:51": [
            6,
            -1,
            -1
        ],
        "22/03/2020 18:51:58": [
            22,
            22
        ]
    },
    "388": {
        "22/03/2020 14:05:22": [
            61,
            10,
            10
        ],
        "22/03/2020 16:31:51": [
            -5,
            -9,
            -9
        ],
        "22/03/2020 18:51:59": [
            4,
            4
        ]
    },
    "393": {
        "22/03/2020 14:05:23": [
            74,
            23,
            23
        ],
        "22/03/2020 16:31:52": [
            5,
            -8,
            -8
        ],
        "22/03/2020 18:51:59": [
            7,
            7
        ]
    },
    "395": {
        "22/03/2020 14:05:23": [
            -9,
            -9,
            -9
        ],
        "22/03/2020 16:31:52": [
            28,
            17,
            -23,
            -23
        ],
        "22/03/2020 18:52:00": [
            108,
            -9,
            -9
        ]
    },
    "396": {
        "22/03/2020 14:05:24": [
            8,
            8,
            8
        ],
        "22/03/2020 16:31:53": [
            -14,
            -25,
            -12
        ],
        "22/03/2020 18:52:00": [
            119,
            2,
            2
        ]
    },
    "397": {
        "22/03/2020 14:05:24": [
            -9,
            -9,
            -9
        ],
        "22/03/2020 16:31:53": [
            92,
            19,
            27
        ],
        "22/03/2020 18:52:00": [
            99,
            -18,
            -18
        ]
    },
    "398": {
        "22/03/2020 14:05:25": [
            -14,
            -14,
            -14
        ],
        "22/03/2020 16:31:54": [
            28,
            17,
            18
        ],
        "22/03/2020 18:52:01": [
            87,
            -30,
            -30
        ]
    },
    "399": {
        "22/03/2020 14:05:25": [
            -28,
            -28,
            -28
        ],
        "22/03/2020 16:31:55": [
            16,
            5,
            -1
        ],
        "22/03/2020 18:52:01": [
            126,
            9,
            9
        ]
    },
    "400": {
        "22/03/2020 14:05:26": [
            -5,
            -5,
            -5
        ],
        "22/03/2020 16:31:55": [
            -17,
            -28,
            15
        ],
        "22/03/2020 18:52:02": [
            122,
            21,
            21
        ]
    },
    "389": {
        "22/03/2020 14:05:26": [
            24,
            -27,
            -27
        ],
        "22/03/2020 16:31:56": [
            15,
            12,
            12
        ],
        "22/03/2020 18:52:02": [
            22,
            22
        ]
    },
    "7602": {
        "22/03/2020 14:05:27": [
            -339,
            26,
            26
        ],
        "22/03/2020 16:31:57": [
            -23,
            -23
        ],
        "22/03/2020 18:52:03": [
            27,
            27
        ]
    },
    "85": {
        "22/03/2020 14:05:27": [
            -344,
            21,
            21
        ],
        "22/03/2020 16:31:57": [
            -418,
            -24,
            -24
        ],
        "22/03/2020 18:52:03": [
            25,
            25
        ]
    },
    "371": {
        "22/03/2020 14:05:28": [
            90,
            16,
            16
        ],
        "22/03/2020 16:31:58": [
            -8,
            -24,
            -24
        ],
        "22/03/2020 18:52:04": [
            -10,
            -10
        ]
    },
    "4451": {
        "22/03/2020 14:05:28": [
            -30,
            -30,
            27
        ],
        "22/03/2020 16:31:58": [
            27,
            25,
            25
        ],
        "22/03/2020 18:52:04": [
            15,
            15
        ]
    },
    "226": {
        "22/03/2020 14:05:29": [
            0,
            0,
            0
        ],
        "22/03/2020 16:31:59": [
            0,
            0,
            0
        ],
        "22/03/2020 18:52:05": [
            0,
            0
        ]
    },
    "228": {
        "22/03/2020 14:05:29": [
            -13,
            -13,
            -20
        ],
        "22/03/2020 16:31:59": [
            -20,
            -18,
            -18
        ],
        "22/03/2020 18:52:05": [
            -24,
            -24
        ]
    },
    "229": {
        "22/03/2020 14:05:30": [
            27,
            27,
            15
        ],
        "22/03/2020 16:32:00": [
            15,
            19,
            19
        ],
        "22/03/2020 18:52:06": [
            8,
            8
        ]
    },
    "227": {
        "22/03/2020 14:05:30": [
            -30,
            -30,
            9
        ],
        "22/03/2020 16:32:00": [
            9,
            17,
            17
        ],
        "22/03/2020 18:52:06": [
            -3,
            -3
        ]
    },
    "230": {
        "22/03/2020 14:05:30": [
            10,
            10,
            -16
        ],
        "22/03/2020 16:32:01": [
            -16,
            -6,
            -6
        ],
        "22/03/2020 18:52:06": [
            29,
            29
        ]
    },
    "231": {
        "22/03/2020 14:05:31": [
            3,
            3,
            29
        ],
        "22/03/2020 16:32:01": [
            29,
            -18,
            -18
        ],
        "22/03/2020 18:52:07": [
            10,
            10
        ]
    },
    "1641": {
        "22/03/2020 14:05:32": [
            26,
            26,
            -14
        ],
        "22/03/2020 16:32:02": [
            -14,
            -4,
            -4
        ],
        "22/03/2020 18:52:07": [
            23,
            23
        ]
    },
    "1642": {
        "22/03/2020 14:05:32": [
            18,
            18,
            18
        ],
        "22/03/2020 16:32:02": [
            -25,
            -17,
            -17
        ],
        "22/03/2020 18:52:08": [
            9,
            9
        ]
    },
    "213": {
        "22/03/2020 14:05:33": [
            12,
            12,
            12
        ],
        "22/03/2020 16:32:03": [
            25,
            -29,
            -29
        ],
        "22/03/2020 18:52:08": [
            -3,
            -3
        ]
    },
    "214": {
        "22/03/2020 14:05:33": [
            -9,
            -9,
            -9
        ],
        "22/03/2020 16:32:03": [
            2,
            15,
            15
        ],
        "22/03/2020 18:52:09": [
            -28,
            -28
        ]
    },
    "4432": {
        "22/03/2020 14:05:34": [
            -29,
            -29,
            -29
        ],
        "22/03/2020 16:32:04": [
            -19,
            1,
            1
        ],
        "22/03/2020 18:52:09": [
            8,
            8
        ]
    },
    "119": {
        "22/03/2020 14:05:35": [
            14,
            14,
            14
        ],
        "22/03/2020 16:32:04": [
            23,
            -10,
            -10
        ],
        "22/03/2020 18:52:10": [
            -13,
            -13
        ]
    },
    "44": {
        "22/03/2020 14:05:35": [
            1,
            1,
            1
        ],
        "22/03/2020 16:32:04": [
            10,
            -23,
            -23
        ],
        "22/03/2020 18:52:10": [
            25,
            25
        ]
    },
    "7603": {
        "22/03/2020 14:05:36": [
            -24,
            -24,
            -24
        ],
        "22/03/2020 16:32:05": [
            136,
            -15,
            10,
            10
        ],
        "22/03/2020 18:52:10": [
            -8,
            -8
        ]
    },
    "45": {
        "22/03/2020 14:05:36": [
            16,
            16,
            16
        ],
        "22/03/2020 16:32:05": [
            176,
            25,
            -10,
            -10
        ],
        "22/03/2020 18:52:11": [
            25,
            25
        ]
    },
    "46": {
        "22/03/2020 14:05:36": [
            16,
            16,
            16
        ],
        "22/03/2020 16:32:06": [
            176,
            25,
            -11
        ],
        "22/03/2020 18:52:11": [
            11,
            11
        ]
    },
    "47": {
        "22/03/2020 14:05:37": [
            -30,
            -30,
            -30
        ],
        "22/03/2020 16:32:06": [
            128,
            -23,
            1
        ],
        "22/03/2020 18:52:12": [
            8,
            8
        ]
    },
    "48": {
        "22/03/2020 14:05:37": [
            -29,
            -29,
            -29
        ],
        "22/03/2020 16:32:07": [
            123,
            -28,
            -5
        ],
        "22/03/2020 18:52:12": [
            -100,
            -1,
            -1
        ]
    },
    "49": {
        "22/03/2020 14:05:38": [
            0,
            0,
            0
        ],
        "22/03/2020 16:32:07": [
            142,
            -9,
            13
        ],
        "22/03/2020 18:52:12": [
            -89,
            13,
            13
        ]
    },
    "51": {
        "22/03/2020 14:05:38": [
            13,
            13,
            13
        ],
        "22/03/2020 16:32:08": [
            112,
            5,
            -16
        ],
        "22/03/2020 18:52:13": [
            -105,
            -28,
            -28
        ]
    },
    "52": {
        "22/03/2020 14:05:39": [
            -6,
            -6,
            -6
        ],
        "22/03/2020 16:32:08": [
            93,
            -14,
            -26
        ],
        "22/03/2020 18:52:13": [
            -58,
            15,
            15
        ]
    },
    "265": {
        "22/03/2020 14:05:39": [
            22,
            22,
            22
        ],
        "22/03/2020 16:32:09": [
            146,
            23,
            -16
        ],
        "22/03/2020 18:52:14": [
            -46,
            23,
            23
        ]
    },
    "271": {
        "22/03/2020 14:05:40": [
            9,
            9,
            9
        ],
        "22/03/2020 16:32:09": [
            97,
            -26,
            -29
        ],
        "22/03/2020 18:52:15": [
            -138,
            22,
            22
        ]
    },
    "340": {
        "22/03/2020 14:05:40": [
            -13,
            -13
        ],
        "22/03/2020 16:32:10": [
            98,
            -25,
            9
        ],
        "22/03/2020 18:52:15": [
            28,
            11
        ]
    },
    "350": {
        "22/03/2020 14:05:41": [
            -130,
            -4,
            -4
        ],
        "22/03/2020 16:32:10": [
            125,
            2,
            18
        ],
        "22/03/2020 18:52:16": [
            -10,
            29
        ]
    },
    "351": {
        "22/03/2020 14:05:41": [
            -115,
            11,
            11
        ],
        "22/03/2020 16:32:10": [
            129,
            6,
            0
        ],
        "22/03/2020 18:52:16": [
            -5,
            10
        ]
    },
    "352": {
        "22/03/2020 14:05:42": [
            -113,
            13,
            13
        ],
        "22/03/2020 16:32:11": [
            126,
            3,
            -12
        ],
        "22/03/2020 18:52:17": [
            -7,
            -4
        ]
    },
    "353": {
        "22/03/2020 14:05:42": [
            -112,
            14,
            14
        ],
        "22/03/2020 16:32:11": [
            122,
            -1,
            -26
        ],
        "22/03/2020 18:52:17": [
            -11,
            -18
        ]
    },
    "354": {
        "22/03/2020 14:05:43": [
            -119,
            7,
            7
        ],
        "22/03/2020 16:32:12": [
            107,
            -16,
            17
        ],
        "22/03/2020 18:52:17": [
            -19,
            24
        ]
    },
    "355": {
        "22/03/2020 14:05:43": [
            -121,
            5,
            5
        ],
        "22/03/2020 16:32:12": [
            96,
            -27
        ],
        "22/03/2020 18:52:18": [
            -23,
            11
        ]
    },
    "356": {
        "22/03/2020 14:05:44": [
            -135,
            -9,
            -9
        ],
        "22/03/2020 16:32:13": [
            127,
            4
        ],
        "22/03/2020 18:52:18": [
            21,
            -24
        ]
    },
    "357": {
        "22/03/2020 14:05:44": [
            -122,
            4,
            4
        ],
        "22/03/2020 16:32:13": [
            127,
            4
        ],
        "22/03/2020 18:52:19": [
            25,
            -21
        ]
    },
    "390": {
        "22/03/2020 14:05:44": [
            -132,
            -6,
            -6
        ],
        "22/03/2020 16:32:14": [
            121,
            -2
        ],
        "22/03/2020 18:52:19": [
            14,
            29
        ]
    },
    "372": {
        "22/03/2020 14:05:45": [
            -145,
            -19,
            -19
        ],
        "22/03/2020 16:32:14": [
            108,
            -15
        ],
        "22/03/2020 18:52:19": [
            -324,
            4,
            19
        ]
    },
    "373": {
        "22/03/2020 14:05:45": [
            -102,
            24,
            24
        ],
        "22/03/2020 16:32:15": [
            151,
            28
        ],
        "22/03/2020 18:52:20": [
            -326,
            -19,
            -3
        ]
    },
    "374": {
        "22/03/2020 14:05:46": [
            -124,
            2,
            2
        ],
        "22/03/2020 16:32:15": [
            129,
            6
        ],
        "22/03/2020 18:52:20": [
            -292,
            15,
            -28
        ]
    },
    "375": {
        "22/03/2020 14:05:46": [
            -119,
            7,
            7
        ],
        "22/03/2020 16:32:16": [
            -457,
            129,
            6
        ],
        "22/03/2020 18:52:21": [
            -291,
            16,
            29
        ]
    },
    "2804": {
        "22/03/2020 14:05:47": [
            -139,
            -13,
            -13
        ],
        "22/03/2020 16:32:16": [
            -502,
            102,
            -21
        ],
        "22/03/2020 18:52:21": [
            -311,
            -11,
            -3
        ]
    },
    "376": {
        "22/03/2020 14:05:47": [
            -156,
            -30,
            -30
        ],
        "22/03/2020 16:32:17": [
            -463,
            141,
            18
        ],
        "22/03/2020 18:52:22": [
            -335,
            29,
            -26
        ]
    },
    "377": {
        "22/03/2020 14:05:47": [
            113,
            -126,
            0,
            0
        ],
        "22/03/2020 16:32:17": [
            -492,
            111,
            -12
        ],
        "22/03/2020 18:52:22": [
            -364,
            0,
            1
        ]
    },
    "378": {
        "22/03/2020 14:05:48": [
            113,
            -137,
            -11,
            -11
        ],
        "22/03/2020 16:32:18": [
            -526,
            100,
            -23
        ],
        "22/03/2020 18:52:23": [
            -373,
            -9,
            -14
        ]
    },
    "380": {
        "22/03/2020 14:05:48": [],
        "22/03/2020 16:32:18": [],
        "22/03/2020 18:52:23": []
    }
}