{
    "1620": {
        "24/03/2020 13:44:27": [
            -227,
            -367,
            17,
            17
        ],
        "24/03/2020 15:58:20": [
            -154,
            -6
        ],
        "24/03/2020 18:39:29": [
            -18,
            2,
            2
        ],
        "24/03/2020 20:56:20": [
            292,
            26,
            26
        ]
    },
    "205": {
        "24/03/2020 13:44:34": [
            -187,
            -356,
            28,
            28
        ],
        "24/03/2020 15:58:21": [
            -144,
            4
        ],
        "24/03/2020 18:39:30": [
            -4,
            20,
            20
        ],
        "24/03/2020 20:56:20": [
            256,
            -10,
            -10
        ]
    },
    "220": {
        "24/03/2020 13:44:39": [
            -97,
            -355,
            29
        ],
        "24/03/2020 15:58:21": [
            -141,
            7
        ],
        "24/03/2020 18:39:30": [
            -14,
            -4,
            -4
        ],
        "24/03/2020 20:56:21": [
            270,
            4
        ]
    },
    "221": {
        "24/03/2020 13:44:45": [
            -113,
            -371,
            13
        ],
        "24/03/2020 15:58:22": [
            -151,
            -3
        ],
        "24/03/2020 18:39:31": [
            -25,
            -27,
            -27
        ],
        "24/03/2020 20:56:21": [
            243,
            -23
        ]
    },
    "222": {
        "24/03/2020 13:44:51": [
            -142,
            -400,
            -16
        ],
        "24/03/2020 15:58:23": [
            -175,
            -27
        ],
        "24/03/2020 18:39:31": [
            11,
            0,
            0
        ],
        "24/03/2020 20:56:22": [
            267,
            1
        ]
    },
    "12": {
        "24/03/2020 13:44:56": [
            -385,
            -1,
            -1
        ],
        "24/03/2020 15:58:23": [
            -77,
            -27,
            -27
        ],
        "24/03/2020 18:39:32": [
            10,
            2,
            2,
            2
        ],
        "24/03/2020 20:56:22": [
            263,
            -3,
            -3
        ]
    },
    "19": {
        "24/03/2020 13:45:01": [
            -254,
            -364,
            20,
            20
        ],
        "24/03/2020 15:58:24": [
            -149,
            -1,
            -1
        ],
        "24/03/2020 18:39:32": [
            -4,
            16,
            16,
            16
        ],
        "24/03/2020 20:56:23": [
            237,
            -29,
            -29
        ]
    },
    "224": {
        "24/03/2020 13:45:06": [
            -130,
            -388,
            -4
        ],
        "24/03/2020 15:58:25": [
            -151,
            -3
        ],
        "24/03/2020 18:39:32": [
            -27,
            2,
            2
        ],
        "24/03/2020 20:56:23": [
            -566,
            263,
            -3
        ]
    },
    "225": {
        "24/03/2020 13:45:11": [
            -150,
            -408,
            -24
        ],
        "24/03/2020 15:58:25": [
            -165,
            -17
        ],
        "24/03/2020 18:39:33": [
            18,
            -23,
            -23
        ],
        "24/03/2020 20:56:24": [
            -591,
            294,
            28
        ]
    },
    "14": {
        "24/03/2020 13:45:20": [
            -379,
            5,
            5
        ],
        "24/03/2020 15:58:25": [
            -55,
            14,
            14
        ],
        "24/03/2020 18:39:33": [
            -25,
            4,
            4,
            4
        ],
        "24/03/2020 20:56:24": [
            261,
            -5,
            -5
        ]
    },
    "17": {
        "24/03/2020 13:45:26": [
            -403,
            -19,
            -19
        ],
        "24/03/2020 15:58:26": [
            -169,
            -21,
            -21
        ],
        "24/03/2020 18:39:34": [
            -12,
            -26,
            -26,
            -26
        ],
        "24/03/2020 20:56:25": [
            276,
            10,
            10
        ]
    },
    "21": {
        "24/03/2020 13:45:33": [
            -245,
            -355,
            29,
            29
        ],
        "24/03/2020 15:58:26": [
            -172,
            -24,
            -24
        ],
        "24/03/2020 18:39:34": [
            25,
            26,
            26,
            26
        ],
        "24/03/2020 20:56:25": [
            293,
            27,
            27
        ]
    },
    "381": {
        "24/03/2020 13:45:36": [
            0,
            0,
            0
        ],
        "24/03/2020 15:58:27": [
            0,
            0,
            0,
            0
        ],
        "24/03/2020 18:39:35": [
            0,
            0,
            0
        ],
        "24/03/2020 20:56:26": [
            0,
            0,
            0
        ]
    },
    "382": {
        "24/03/2020 13:45:42": [
            -1,
            -1,
            -1,
            -7
        ],
        "24/03/2020 15:58:27": [
            1,
            1,
            -3,
            -3
        ],
        "24/03/2020 18:39:35": [
            -5,
            -5,
            -5
        ],
        "24/03/2020 20:56:26": [
            -16,
            -16,
            -16
        ]
    },
    "223": {
        "24/03/2020 13:45:48": [
            -102,
            -360,
            24
        ],
        "24/03/2020 15:58:28": [
            -128,
            20
        ],
        "24/03/2020 18:39:36": [
            -3,
            -25,
            -25
        ],
        "24/03/2020 20:56:27": [
            239,
            -27
        ]
    },
    "278": {
        "24/03/2020 13:45:53": [
            -397,
            -13,
            -13,
            -13
        ],
        "24/03/2020 15:58:29": [
            22,
            22
        ],
        "24/03/2020 18:39:36": [
            -94,
            -6,
            -6,
            -6
        ],
        "24/03/2020 20:56:27": [
            294,
            28,
            28
        ]
    },
    "319": {
        "24/03/2020 13:45:59": [
            -24,
            -24,
            -24
        ],
        "24/03/2020 15:58:29": [
            -27,
            -27,
            11
        ],
        "24/03/2020 18:39:37": [
            -74,
            19,
            19,
            19
        ],
        "24/03/2020 20:56:27": [
            321,
            15,
            15
        ]
    },
    "391": {
        "24/03/2020 13:46:05": [
            28,
            28,
            28,
            -4
        ],
        "24/03/2020 15:58:30": [
            -10,
            -10,
            13,
            13
        ],
        "24/03/2020 18:39:37": [
            -9,
            -9,
            -9
        ],
        "24/03/2020 20:56:28": [
            14,
            14,
            14
        ]
    },
    "392": {
        "24/03/2020 13:46:11": [
            -6,
            -6,
            -6,
            23
        ],
        "24/03/2020 15:58:30": [
            23,
            23,
            -24,
            -24
        ],
        "24/03/2020 18:39:38": [
            4,
            4,
            4
        ],
        "24/03/2020 20:56:28": [
            9,
            9,
            9
        ]
    },
    "10": {
        "24/03/2020 13:46:16": [
            -367,
            -27,
            -27,
            -27
        ],
        "24/03/2020 15:58:31": [
            -76,
            -26,
            -26
        ],
        "24/03/2020 18:39:38": [
            16,
            -8,
            -8,
            -8
        ],
        "24/03/2020 20:56:29": [
            275,
            9,
            9
        ]
    },
    "15": {
        "24/03/2020 13:46:26": [
            -374,
            10,
            10
        ],
        "24/03/2020 15:58:31": [
            -76,
            -7,
            -7
        ],
        "24/03/2020 18:39:39": [
            -1,
            6,
            6,
            6
        ],
        "24/03/2020 20:56:29": [
            259,
            -7,
            -7
        ]
    },
    "18": {
        "24/03/2020 13:46:30": [
            -393,
            -9,
            -9
        ],
        "24/03/2020 15:58:31": [
            -130,
            18,
            18
        ],
        "24/03/2020 18:39:39": [
            18,
            -14,
            -14,
            -14
        ],
        "24/03/2020 20:56:30": [
            273,
            7,
            7
        ]
    },
    "203": {
        "24/03/2020 13:46:30": [
            -194,
            -362,
            22,
            22
        ],
        "24/03/2020 15:58:32": [
            -133,
            15
        ],
        "24/03/2020 18:39:40": [
            -26,
            14,
            14,
            14
        ],
        "24/03/2020 20:56:30": [
            289,
            23,
            23
        ]
    },
    "204": {
        "24/03/2020 13:46:31": [
            -231,
            -400,
            -16,
            -16
        ],
        "24/03/2020 15:58:32": [
            -143,
            5
        ],
        "24/03/2020 18:39:40": [
            7,
            -24,
            -24
        ],
        "24/03/2020 20:56:31": [
            286,
            20,
            20
        ]
    },
    "383": {
        "24/03/2020 13:46:31": [
            15,
            15,
            15,
            2
        ],
        "24/03/2020 15:58:33": [
            19,
            19,
            11,
            11
        ],
        "24/03/2020 18:39:41": [
            6,
            6,
            6
        ],
        "24/03/2020 20:56:31": [
            -18,
            -18,
            -18
        ]
    },
    "384": {
        "24/03/2020 13:46:32": [
            15,
            15,
            15,
            -3
        ],
        "24/03/2020 15:58:33": [
            21,
            21,
            10,
            10
        ],
        "24/03/2020 18:39:41": [
            2,
            2,
            2
        ],
        "24/03/2020 20:56:31": [
            27,
            27,
            27
        ]
    },
    "385": {
        "24/03/2020 13:46:32": [
            -17,
            -17,
            -17,
            22
        ],
        "24/03/2020 15:58:34": [
            -10,
            -10,
            -23,
            -23
        ],
        "24/03/2020 18:39:42": [
            28,
            28,
            28
        ],
        "24/03/2020 20:56:32": [
            -12,
            -12,
            -12
        ]
    },
    "387": {
        "24/03/2020 13:46:33": [
            -14,
            -14,
            -14,
            19
        ],
        "24/03/2020 15:58:34": [
            -5,
            -5,
            -22,
            -22
        ],
        "24/03/2020 18:39:42": [
            27,
            27,
            27
        ],
        "24/03/2020 20:56:32": [
            -24,
            -24,
            -24
        ]
    },
    "388": {
        "24/03/2020 13:46:33": [
            -24,
            -24,
            -24,
            8
        ],
        "24/03/2020 15:58:35": [
            -15,
            -15,
            27,
            27
        ],
        "24/03/2020 18:39:43": [
            19,
            19,
            19
        ],
        "24/03/2020 20:56:33": [
            13,
            13,
            13
        ]
    },
    "393": {
        "24/03/2020 13:46:34": [
            -14,
            -14,
            -14,
            13
        ],
        "24/03/2020 15:58:35": [
            0,
            0,
            -24,
            -24
        ],
        "24/03/2020 18:39:43": [
            26,
            26,
            26
        ],
        "24/03/2020 20:56:33": [
            9,
            9,
            9
        ]
    },
    "395": {
        "24/03/2020 13:46:34": [
            12,
            12,
            12,
            5
        ],
        "24/03/2020 15:58:35": [
            -12,
            -12,
            23,
            23
        ],
        "24/03/2020 18:39:44": [
            23,
            23,
            23,
            23
        ],
        "24/03/2020 20:56:34": [
            2,
            2,
            2
        ]
    },
    "396": {
        "24/03/2020 13:46:35": [
            27,
            27,
            27,
            -27
        ],
        "24/03/2020 15:58:36": [
            7,
            7,
            -6
        ],
        "24/03/2020 18:39:44": [
            -21,
            -21,
            -21,
            -21
        ],
        "24/03/2020 20:56:34": [
            4,
            4,
            4
        ]
    },
    "397": {
        "24/03/2020 13:46:35": [
            9,
            9,
            9,
            22
        ],
        "24/03/2020 15:58:36": [
            -9,
            -9,
            -15
        ],
        "24/03/2020 18:39:45": [
            21,
            21,
            21,
            21
        ],
        "24/03/2020 20:56:35": [
            -22,
            -22,
            -22
        ]
    },
    "398": {
        "24/03/2020 13:46:36": [
            10,
            10,
            10,
            -28
        ],
        "24/03/2020 15:58:37": [
            6,
            6,
            10
        ],
        "24/03/2020 18:39:45": [
            26,
            26,
            26,
            26
        ],
        "24/03/2020 20:56:35": [
            349,
            23,
            23,
            23
        ]
    },
    "399": {
        "24/03/2020 13:46:36": [
            -1,
            -1,
            -1
        ],
        "24/03/2020 15:58:37": [
            7,
            7,
            20
        ],
        "24/03/2020 18:39:46": [
            18,
            18,
            18,
            18
        ],
        "24/03/2020 20:56:36": [
            326,
            0,
            0,
            0
        ]
    },
    "400": {
        "24/03/2020 13:46:37": [
            -30,
            -30,
            -30
        ],
        "24/03/2020 15:58:38": [
            -1,
            -1,
            28
        ],
        "24/03/2020 18:39:46": [
            -5,
            -5,
            -5,
            -5
        ],
        "24/03/2020 20:56:36": [
            334,
            8,
            8,
            8
        ]
    },
    "389": {
        "24/03/2020 13:46:37": [
            -3,
            -3,
            -3,
            28
        ],
        "24/03/2020 15:58:38": [
            6,
            6,
            -12,
            -12
        ],
        "24/03/2020 18:39:47": [
            -20,
            -20,
            -20
        ],
        "24/03/2020 20:56:36": [
            28,
            28,
            28
        ]
    },
    "7602": {
        "24/03/2020 13:46:38": [
            -290,
            -366,
            18,
            18
        ],
        "24/03/2020 15:58:39": [
            -172,
            -24
        ],
        "24/03/2020 18:39:47": [
            18,
            13,
            13,
            13
        ],
        "24/03/2020 20:56:37": [
            265,
            -1,
            -1
        ]
    },
    "85": {
        "24/03/2020 13:46:38": [
            -269,
            -361,
            23,
            23
        ],
        "24/03/2020 15:58:39": [
            -153,
            -5
        ],
        "24/03/2020 18:39:48": [
            27,
            14,
            14,
            14
        ],
        "24/03/2020 20:56:37": [
            248,
            -18,
            -18
        ]
    },
    "371": {
        "24/03/2020 13:46:39": [
            -21,
            -21,
            -21,
            7
        ],
        "24/03/2020 15:58:40": [
            -2,
            -2,
            27,
            27
        ],
        "24/03/2020 18:39:48": [
            11,
            11,
            11
        ],
        "24/03/2020 20:56:38": [
            -17,
            -17,
            -17
        ]
    },
    "4451": {
        "24/03/2020 13:46:39": [
            22,
            22,
            14
        ],
        "24/03/2020 15:58:40": [
            24,
            24,
            19,
            19
        ],
        "24/03/2020 18:39:49": [
            16,
            16,
            16
        ],
        "24/03/2020 20:56:38": [
            2,
            2,
            2
        ]
    },
    "226": {
        "24/03/2020 13:46:40": [
            0,
            0,
            0,
            0
        ],
        "24/03/2020 15:58:41": [
            0,
            0,
            0,
            0
        ],
        "24/03/2020 18:39:49": [
            0,
            0,
            0
        ],
        "24/03/2020 20:56:39": [
            0,
            0,
            0
        ]
    },
    "228": {
        "24/03/2020 13:46:40": [
            -15,
            -15,
            -16,
            -16
        ],
        "24/03/2020 15:58:41": [
            -14,
            -14,
            -7,
            -7
        ],
        "24/03/2020 18:39:50": [
            -16,
            -16,
            -16
        ],
        "24/03/2020 20:56:39": [
            -27,
            -27,
            -27
        ]
    },
    "229": {
        "24/03/2020 13:46:41": [
            25,
            25,
            22
        ],
        "24/03/2020 15:58:41": [
            25,
            25,
            -22,
            -22
        ],
        "24/03/2020 18:39:50": [
            23,
            23,
            23
        ],
        "24/03/2020 20:56:40": [
            2,
            2,
            2
        ]
    },
    "227": {
        "24/03/2020 13:46:41": [
            26,
            26,
            26,
            22
        ],
        "24/03/2020 15:58:42": [
            27,
            27,
            -11,
            -11
        ],
        "24/03/2020 18:39:51": [
            23,
            23,
            23
        ],
        "24/03/2020 20:56:40": [
            -12,
            -12,
            -12
        ]
    },
    "230": {
        "24/03/2020 13:46:42": [
            6,
            6,
            6,
            1
        ],
        "24/03/2020 15:58:42": [
            7,
            7,
            -24,
            -24
        ],
        "24/03/2020 18:39:51": [
            2,
            2,
            2
        ],
        "24/03/2020 20:56:41": [
            17,
            17,
            17
        ]
    },
    "231": {
        "24/03/2020 13:46:42": [
            -3,
            -3,
            -3,
            -9
        ],
        "24/03/2020 15:58:43": [
            -1,
            -1,
            -25,
            -25
        ],
        "24/03/2020 18:39:52": [
            -8,
            -8,
            -8
        ],
        "24/03/2020 20:56:41": [
            -5,
            -5,
            -5
        ]
    },
    "1641": {
        "24/03/2020 13:46:43": [
            21,
            21,
            21,
            18
        ],
        "24/03/2020 15:58:43": [
            18,
            18,
            2,
            2
        ],
        "24/03/2020 18:39:52": [
            8,
            8,
            8
        ],
        "24/03/2020 20:56:42": [
            0,
            0,
            0
        ]
    },
    "1642": {
        "24/03/2020 13:46:43": [
            14,
            14,
            14,
            13
        ],
        "24/03/2020 15:58:44": [
            8,
            8,
            -3,
            -3
        ],
        "24/03/2020 18:39:53": [
            -4,
            -4,
            -4
        ],
        "24/03/2020 20:56:43": [
            -19,
            -19,
            -19
        ]
    },
    "213": {
        "24/03/2020 13:46:44": [
            9,
            9,
            9,
            9
        ],
        "24/03/2020 15:58:44": [
            -1,
            -1,
            -6,
            -6
        ],
        "24/03/2020 18:39:53": [
            -14,
            -14,
            -14
        ],
        "24/03/2020 20:56:43": [
            23,
            23,
            23
        ]
    },
    "214": {
        "24/03/2020 13:46:44": [
            -1,
            -1,
            -1,
            -4
        ],
        "24/03/2020 15:58:45": [
            -6,
            -6,
            -13,
            -13
        ],
        "24/03/2020 18:39:54": [
            26,
            26,
            26
        ],
        "24/03/2020 20:56:44": [
            -7,
            -7,
            -7
        ]
    },
    "4432": {
        "24/03/2020 13:46:44": [
            -10,
            -10,
            -10,
            -15
        ],
        "24/03/2020 15:58:45": [
            -8,
            -8,
            -19,
            -19
        ],
        "24/03/2020 18:39:54": [
            7,
            7,
            7
        ],
        "24/03/2020 20:56:44": [
            24,
            24,
            24
        ]
    },
    "119": {
        "24/03/2020 13:46:45": [
            -15,
            -15,
            -15,
            -22
        ],
        "24/03/2020 15:58:45": [
            -7,
            -7,
            -21,
            -21
        ],
        "24/03/2020 18:39:55": [
            -8,
            -8,
            -8
        ],
        "24/03/2020 20:56:45": [
            -2,
            -2,
            -2
        ]
    },
    "44": {
        "24/03/2020 13:46:45": [
            -20,
            -20,
            -20,
            -28
        ],
        "24/03/2020 15:58:46": [
            -13,
            -13,
            -20,
            -20
        ],
        "24/03/2020 18:39:55": [
            -17,
            -17,
            -17
        ],
        "24/03/2020 20:56:45": [
            -27,
            -27,
            -27
        ]
    },
    "7603": {
        "24/03/2020 13:46:46": [
            20,
            20,
            20,
            11
        ],
        "24/03/2020 15:58:46": [
            25,
            25,
            25
        ],
        "24/03/2020 18:39:56": [
            20,
            20,
            20,
            20
        ],
        "24/03/2020 20:56:46": [
            -2,
            -2,
            -2
        ]
    },
    "45": {
        "24/03/2020 13:46:46": [
            7,
            7,
            7,
            -3
        ],
        "24/03/2020 15:58:47": [
            11,
            11,
            17
        ],
        "24/03/2020 18:39:56": [
            4,
            4,
            4,
            4
        ],
        "24/03/2020 20:56:46": [
            28,
            28,
            28
        ]
    },
    "46": {
        "24/03/2020 13:46:47": [
            7,
            7,
            7,
            3
        ],
        "24/03/2020 15:58:47": [
            91,
            14,
            14,
            24
        ],
        "24/03/2020 18:39:57": [
            2,
            2,
            2,
            2
        ],
        "24/03/2020 20:56:46": [
            10,
            10,
            10
        ]
    },
    "47": {
        "24/03/2020 13:46:47": [
            21,
            21,
            21,
            23
        ],
        "24/03/2020 15:58:48": [
            47,
            -30,
            -30,
            -15
        ],
        "24/03/2020 18:39:57": [
            12,
            12,
            12,
            12
        ],
        "24/03/2020 20:56:47": [
            2,
            2,
            2
        ]
    },
    "48": {
        "24/03/2020 13:46:48": [
            25,
            25,
            25,
            22
        ],
        "24/03/2020 15:58:48": [
            52,
            -24,
            -24,
            -13
        ],
        "24/03/2020 18:39:57": [
            10,
            10,
            10,
            10
        ],
        "24/03/2020 20:56:47": [
            -15,
            -15,
            -15
        ]
    },
    "49": {
        "24/03/2020 13:46:48": [
            -2,
            -2,
            -2
        ],
        "24/03/2020 15:58:49": [
            87,
            11,
            11,
            17
        ],
        "24/03/2020 18:39:58": [
            -26,
            -26,
            -26,
            -26
        ],
        "24/03/2020 20:56:48": [
            -11,
            -11,
            -11
        ]
    },
    "51": {
        "24/03/2020 13:46:49": [
            -106,
            -29,
            -29,
            -29
        ],
        "24/03/2020 15:58:49": [
            61,
            -15,
            -15,
            -11
        ],
        "24/03/2020 18:39:58": [
            1,
            1,
            1,
            1
        ],
        "24/03/2020 20:56:48": [
            -1,
            -1,
            -1
        ]
    },
    "52": {
        "24/03/2020 13:46:49": [
            -55,
            22,
            22,
            22
        ],
        "24/03/2020 15:58:50": [
            53,
            -23,
            -23,
            -21
        ],
        "24/03/2020 18:39:59": [
            -11,
            -11,
            -11,
            -11
        ],
        "24/03/2020 20:56:49": [
            -23,
            -23,
            -23
        ]
    },
    "265": {
        "24/03/2020 13:46:49": [
            -76,
            1,
            1,
            1
        ],
        "24/03/2020 15:58:50": [
            20,
            20,
            20,
            0
        ],
        "24/03/2020 18:39:59": [
            17,
            17,
            17
        ],
        "24/03/2020 20:56:49": [
            -28,
            -28,
            -28
        ]
    },
    "271": {
        "24/03/2020 13:46:50": [
            -68,
            9,
            9,
            9
        ],
        "24/03/2020 15:58:51": [
            -4,
            -4,
            -4
        ],
        "24/03/2020 18:40:00": [
            -28,
            -28,
            -28
        ],
        "24/03/2020 20:56:50": [
            20,
            20
        ]
    },
    "340": {
        "24/03/2020 13:46:50": [
            -247,
            8,
            8,
            8
        ],
        "24/03/2020 15:58:51": [
            -103,
            20,
            20
        ],
        "24/03/2020 18:40:00": [
            -23,
            -23,
            -23
        ],
        "24/03/2020 20:56:50": [
            -120,
            0,
            0
        ]
    },
    "350": {
        "24/03/2020 13:46:51": [
            -282,
            -27,
            -27
        ],
        "24/03/2020 15:58:52": [
            -130,
            6,
            6,
            6
        ],
        "24/03/2020 18:40:01": [
            8,
            8,
            8
        ],
        "24/03/2020 20:56:51": [
            -68,
            10,
            10
        ]
    },
    "351": {
        "24/03/2020 13:46:51": [
            -262,
            -7,
            -7
        ],
        "24/03/2020 15:58:52": [
            -143,
            -130,
            -7,
            -7
        ],
        "24/03/2020 18:40:01": [
            -594,
            8,
            8,
            8
        ],
        "24/03/2020 20:56:51": [
            -113,
            -25,
            -25
        ]
    },
    "352": {
        "24/03/2020 13:46:52": [
            -257,
            -2,
            -2
        ],
        "24/03/2020 15:58:52": [
            -125,
            11,
            11,
            11
        ],
        "24/03/2020 18:40:02": [
            19,
            -704,
            4,
            4,
            4
        ],
        "24/03/2020 20:56:52": [
            -74,
            14,
            14
        ]
    },
    "353": {
        "24/03/2020 13:46:52": [
            -254,
            1,
            1
        ],
        "24/03/2020 15:58:53": [
            -110,
            26,
            26,
            26
        ],
        "24/03/2020 18:40:02": [
            30,
            -693,
            -2,
            -2,
            -2
        ],
        "24/03/2020 20:56:52": [
            -101,
            -7,
            -7
        ]
    },
    "354": {
        "24/03/2020 13:46:53": [
            -220,
            -258,
            -3,
            -3
        ],
        "24/03/2020 15:58:53": [
            -115,
            21,
            21,
            21
        ],
        "24/03/2020 18:40:03": [
            32,
            -691,
            -10,
            -10,
            -10
        ],
        "24/03/2020 20:56:53": [
            -149,
            -29,
            -29
        ]
    },
    "355": {
        "24/03/2020 13:46:53": [
            -219,
            -257,
            -2,
            -2
        ],
        "24/03/2020 15:58:54": [
            -115,
            21,
            21,
            21
        ],
        "24/03/2020 18:40:03": [
            38,
            -685,
            -13,
            -13,
            -13
        ],
        "24/03/2020 20:56:53": [
            -107,
            13,
            13
        ]
    },
    "356": {
        "24/03/2020 13:46:54": [
            -226,
            -264,
            -9,
            -9
        ],
        "24/03/2020 15:58:54": [
            -124,
            12,
            12,
            12
        ],
        "24/03/2020 18:40:03": [
            42,
            -681,
            -28,
            -28,
            -28
        ],
        "24/03/2020 20:56:54": [
            80,
            -150,
            -30,
            -30
        ]
    },
    "357": {
        "24/03/2020 13:46:54": [
            -215,
            -253,
            2,
            2
        ],
        "24/03/2020 15:58:55": [
            -114,
            -101,
            22,
            22
        ],
        "24/03/2020 18:40:04": [
            52,
            -501,
            -24,
            -24,
            -24
        ],
        "24/03/2020 20:56:54": [
            84,
            -97,
            23,
            23
        ]
    },
    "390": {
        "24/03/2020 13:46:55": [
            -223,
            -261,
            -6,
            -6
        ],
        "24/03/2020 15:58:55": [
            -117,
            19,
            19
        ],
        "24/03/2020 18:40:04": [
            45,
            -678,
            25,
            25,
            25
        ],
        "24/03/2020 20:56:55": [
            133,
            -121,
            -1,
            -1
        ]
    },
    "372": {
        "24/03/2020 13:46:55": [
            -265,
            -269,
            -14,
            -14
        ],
        "24/03/2020 15:58:56": [
            -126,
            10,
            10
        ],
        "24/03/2020 18:40:05": [
            37,
            -686,
            18,
            18
        ],
        "24/03/2020 20:56:55": [
            126,
            -137,
            -17,
            -17
        ]
    },
    "373": {
        "24/03/2020 13:46:56": [
            -209,
            -231,
            24,
            24
        ],
        "24/03/2020 15:58:56": [
            -147,
            -11,
            -11
        ],
        "24/03/2020 18:40:05": [
            20,
            -703,
            -4,
            -4
        ],
        "24/03/2020 20:56:56": [
            104,
            -108,
            12,
            12
        ]
    },
    "374": {
        "24/03/2020 13:46:56": [
            -235,
            -257,
            -2,
            -2
        ],
        "24/03/2020 15:58:57": [
            -112,
            24,
            24
        ],
        "24/03/2020 18:40:06": [
            58,
            -665,
            -29,
            -29
        ],
        "24/03/2020 20:56:56": [
            79,
            -141,
            -21,
            -21
        ]
    },
    "375": {
        "24/03/2020 13:46:57": [
            -235,
            -255,
            0,
            0
        ],
        "24/03/2020 15:58:57": [
            -110,
            26,
            26
        ],
        "24/03/2020 18:40:06": [
            58,
            -665
        ],
        "24/03/2020 20:56:57": [
            -146,
            -26,
            -26
        ]
    },
    "2804": {
        "24/03/2020 13:46:57": [
            -170,
            -279,
            -24,
            -24
        ],
        "24/03/2020 15:58:58": [
            -97,
            -134,
            2,
            2
        ],
        "24/03/2020 18:40:07": [
            29,
            -694,
            -1,
            -1
        ],
        "24/03/2020 20:56:57": [
            107,
            -122,
            -2,
            -2
        ]
    },
    "376": {
        "24/03/2020 13:46:58": [
            -129,
            -238,
            17
        ],
        "24/03/2020 15:58:58": [
            -111,
            -153,
            -17,
            -17
        ],
        "24/03/2020 18:40:07": [
            8,
            -715,
            -23,
            -23
        ],
        "24/03/2020 20:56:58": [
            85,
            -146,
            -26,
            -26
        ]
    },
    "377": {
        "24/03/2020 13:46:58": [
            -161,
            -270,
            -15
        ],
        "24/03/2020 15:58:59": [
            -142,
            -118,
            18,
            18
        ],
        "24/03/2020 18:40:08": [
            40,
            -683,
            7,
            7
        ],
        "24/03/2020 20:56:58": [
            115,
            -120,
            0,
            0
        ]
    },
    "378": {
        "24/03/2020 13:46:58": [
            -174,
            -283,
            -28
        ],
        "24/03/2020 15:58:59": [
            -155,
            -120,
            16,
            16
        ],
        "24/03/2020 18:40:08": [
            34,
            -689,
            -4,
            -4
        ],
        "24/03/2020 20:56:59": [
            104,
            -138,
            -18,
            -18
        ]
    },
    "380": {
        "24/03/2020 13:46:59": [],
        "24/03/2020 15:59:00": [],
        "24/03/2020 18:40:09": [],
        "24/03/2020 20:56:59": []
    }
}