{
    "1620": {
        "25/03/2020 13:29:52": [
            90,
            154,
            27,
            27
        ],
        "25/03/2020 16:14:25": [
            213,
            289,
            25,
            -14
        ],
        "25/03/2020 19:24:06": [
            227,
            6,
            6
        ],
        "25/03/2020 20:52:36": [
            122,
            -13,
            -13
        ]
    },
    "205": {
        "25/03/2020 13:29:53": [
            116,
            116,
            -11,
            -11
        ],
        "25/03/2020 16:14:26": [
            170,
            246,
            -18,
            9
        ],
        "25/03/2020 19:24:07": [
            92,
            -29,
            -29
        ],
        "25/03/2020 20:52:36": [
            151,
            16,
            16
        ]
    },
    "220": {
        "25/03/2020 13:29:54": [
            137,
            136,
            9,
            9
        ],
        "25/03/2020 16:14:26": [
            270,
            283,
            19,
            26
        ],
        "25/03/2020 19:24:07": [
            113,
            -21,
            -21
        ],
        "25/03/2020 20:52:37": [
            146,
            11,
            11
        ]
    },
    "221": {
        "25/03/2020 13:29:54": [
            112,
            111,
            -16,
            -16
        ],
        "25/03/2020 16:14:27": [
            243,
            256,
            -8,
            6
        ],
        "25/03/2020 19:24:07": [
            155,
            21,
            21
        ],
        "25/03/2020 20:52:37": [
            122,
            -13,
            -13
        ]
    },
    "222": {
        "25/03/2020 13:29:55": [
            137,
            136,
            9,
            9
        ],
        "25/03/2020 16:14:28": [
            267,
            280,
            16,
            -25
        ],
        "25/03/2020 19:24:08": [
            124,
            -10,
            -10
        ],
        "25/03/2020 20:52:37": [
            -63,
            147,
            12,
            12
        ]
    },
    "12": {
        "25/03/2020 13:29:55": [
            106,
            -21,
            -21,
            -21
        ],
        "25/03/2020 16:14:28": [
            246,
            -18,
            11,
            11
        ],
        "25/03/2020 19:24:08": [
            15,
            15,
            15
        ],
        "25/03/2020 20:52:38": [
            151,
            16,
            16
        ]
    },
    "19": {
        "25/03/2020 13:29:56": [
            84,
            148,
            21,
            21
        ],
        "25/03/2020 16:14:29": [
            181,
            276,
            12,
            6
        ],
        "25/03/2020 19:24:08": [
            144,
            23,
            23
        ],
        "25/03/2020 20:52:38": [
            159,
            24,
            24
        ]
    },
    "224": {
        "25/03/2020 13:29:56": [
            135,
            134,
            7,
            7
        ],
        "25/03/2020 16:14:29": [
            262,
            275,
            11,
            -19
        ],
        "25/03/2020 19:24:08": [
            133,
            -1,
            -1
        ],
        "25/03/2020 20:52:38": [
            -54,
            147,
            12
        ]
    },
    "225": {
        "25/03/2020 13:29:57": [
            107,
            106,
            -21,
            -21
        ],
        "25/03/2020 16:14:30": [
            232,
            245,
            -19,
            19
        ],
        "25/03/2020 19:24:09": [
            112,
            -22,
            -22
        ],
        "25/03/2020 20:52:38": [
            -75,
            120,
            -15
        ]
    },
    "14": {
        "25/03/2020 13:29:58": [
            108,
            -19,
            -19,
            -19
        ],
        "25/03/2020 16:14:30": [
            244,
            -20,
            13,
            13
        ],
        "25/03/2020 19:24:09": [
            94,
            5,
            5,
            5
        ],
        "25/03/2020 20:52:39": [
            128,
            -7,
            -7
        ]
    },
    "17": {
        "25/03/2020 13:29:59": [
            130,
            3,
            3
        ],
        "25/03/2020 16:14:31": [
            160,
            255,
            -9,
            -25,
            -25
        ],
        "25/03/2020 19:24:09": [
            95,
            6,
            6
        ],
        "25/03/2020 20:52:39": [
            160,
            25,
            25
        ]
    },
    "21": {
        "25/03/2020 13:29:59": [
            79,
            143,
            16,
            16
        ],
        "25/03/2020 16:14:31": [
            177,
            272,
            8,
            9
        ],
        "25/03/2020 19:24:10": [
            138,
            17,
            17
        ],
        "25/03/2020 20:52:39": [
            140,
            5,
            5
        ]
    },
    "381": {
        "25/03/2020 13:30:00": [
            0,
            0,
            0
        ],
        "25/03/2020 16:14:32": [
            0,
            0,
            0,
            0
        ],
        "25/03/2020 19:24:10": [
            0,
            0,
            0
        ],
        "25/03/2020 20:52:40": [
            0,
            0,
            0
        ]
    },
    "382": {
        "25/03/2020 13:30:01": [
            -11,
            -11,
            -11,
            -11
        ],
        "25/03/2020 16:14:32": [
            -8,
            -12,
            -12,
            -12
        ],
        "25/03/2020 19:24:10": [
            -16,
            -16,
            -16
        ],
        "25/03/2020 20:52:40": [
            -19,
            -19,
            -19
        ]
    },
    "223": {
        "25/03/2020 13:30:01": [
            109,
            108,
            -19,
            -19
        ],
        "25/03/2020 16:14:33": [
            238,
            251,
            -13,
            12
        ],
        "25/03/2020 19:24:11": [],
        "25/03/2020 20:52:40": [
            121,
            -14,
            -14
        ]
    },
    "278": {
        "25/03/2020 13:30:02": [
            148,
            21,
            21,
            21
        ],
        "25/03/2020 16:14:33": [
            285,
            21,
            -5,
            -5
        ],
        "25/03/2020 19:24:11": [
            21,
            21,
            21
        ],
        "25/03/2020 20:52:41": [
            157,
            22,
            22
        ]
    },
    "319": {
        "25/03/2020 13:30:02": [
            102,
            -25,
            -25,
            -25
        ],
        "25/03/2020 16:14:34": [
            236,
            -28,
            20,
            20
        ],
        "25/03/2020 19:24:11": [
            4,
            4,
            4
        ],
        "25/03/2020 20:52:41": [
            137,
            -28,
            -28
        ]
    },
    "391": {
        "25/03/2020 13:30:03": [
            -6,
            -6,
            -6,
            -6
        ],
        "25/03/2020 16:14:34": [
            -7,
            -12,
            -12,
            -12
        ],
        "25/03/2020 19:24:12": [
            63,
            21,
            21
        ],
        "25/03/2020 20:52:41": [
            -23,
            -23,
            -23
        ]
    },
    "392": {
        "25/03/2020 13:30:04": [
            -3,
            -3,
            -3,
            -3
        ],
        "25/03/2020 16:14:35": [
            -13,
            -10,
            -10,
            -10
        ],
        "25/03/2020 19:24:12": [
            56,
            14,
            14
        ],
        "25/03/2020 20:52:42": [
            20,
            20,
            20
        ]
    },
    "10": {
        "25/03/2020 13:30:04": [
            115,
            -12,
            -12,
            -12
        ],
        "25/03/2020 16:14:35": [
            254,
            -10,
            16,
            16
        ],
        "25/03/2020 19:24:12": [
            -30,
            -30,
            -30
        ],
        "25/03/2020 20:52:42": [
            122,
            -13,
            -13
        ]
    },
    "15": {
        "25/03/2020 13:30:05": [
            109,
            -18,
            -18,
            -18
        ],
        "25/03/2020 16:14:36": [
            242,
            -22,
            15,
            15
        ],
        "25/03/2020 19:24:12": [
            84,
            -5,
            -5,
            -5
        ],
        "25/03/2020 20:52:42": [
            105,
            -30,
            -30
        ]
    },
    "18": {
        "25/03/2020 13:30:05": [
            125,
            -2,
            -2,
            -2
        ],
        "25/03/2020 16:14:37": [
            157,
            252,
            -12,
            -21
        ],
        "25/03/2020 19:24:13": [
            121,
            0,
            0
        ],
        "25/03/2020 20:52:43": [
            141,
            6,
            6
        ]
    },
    "203": {
        "25/03/2020 13:30:06": [
            78,
            142,
            15,
            15
        ],
        "25/03/2020 16:14:37": [
            189,
            265,
            1,
            26
        ],
        "25/03/2020 19:24:13": [
            129,
            8,
            8
        ],
        "25/03/2020 20:52:43": [
            147,
            12,
            12
        ]
    },
    "204": {
        "25/03/2020 13:30:07": [
            79,
            143,
            16,
            16
        ],
        "25/03/2020 16:14:38": [
            195,
            271,
            7,
            -27
        ],
        "25/03/2020 19:24:13": [
            123,
            2,
            2
        ],
        "25/03/2020 20:52:43": [
            129,
            -6,
            -6
        ]
    },
    "383": {
        "25/03/2020 13:30:07": [
            -9,
            -9,
            -9,
            -9
        ],
        "25/03/2020 16:14:38": [
            -2,
            -10,
            -10,
            -10
        ],
        "25/03/2020 19:24:14": [
            -18,
            -18,
            -18
        ],
        "25/03/2020 20:52:44": [
            -25,
            -25,
            -25
        ]
    },
    "384": {
        "25/03/2020 13:30:08": [
            -19,
            -19,
            -19,
            -19
        ],
        "25/03/2020 16:14:39": [
            -9,
            -21,
            -21,
            -21
        ],
        "25/03/2020 19:24:14": [
            27,
            27,
            27
        ],
        "25/03/2020 20:52:44": [
            17,
            17,
            17
        ]
    },
    "385": {
        "25/03/2020 13:30:08": [
            4,
            4,
            4,
            4
        ],
        "25/03/2020 16:14:39": [
            16,
            2,
            2,
            2
        ],
        "25/03/2020 19:24:14": [
            -12,
            -12,
            -12
        ],
        "25/03/2020 20:52:44": [
            -23,
            -23,
            -23
        ]
    },
    "387": {
        "25/03/2020 13:30:09": [
            -4,
            -4,
            -4,
            -4
        ],
        "25/03/2020 16:14:40": [
            11,
            -7,
            -7,
            -7
        ],
        "25/03/2020 19:24:15": [
            18,
            -24,
            -24
        ],
        "25/03/2020 20:52:45": [
            21,
            21,
            21
        ]
    },
    "388": {
        "25/03/2020 13:30:09": [
            -21,
            -21,
            -21,
            -21
        ],
        "25/03/2020 16:14:40": [
            -5,
            -25,
            -25,
            -25
        ],
        "25/03/2020 19:24:15": [
            52,
            10,
            10
        ],
        "25/03/2020 20:52:45": [
            -6,
            -6,
            -6
        ]
    },
    "393": {
        "25/03/2020 13:30:10": [
            -20,
            -20,
            -20,
            -20
        ],
        "25/03/2020 16:14:41": [
            -10,
            -24,
            -24,
            -24
        ],
        "25/03/2020 19:24:15": [
            61,
            19,
            19
        ],
        "25/03/2020 20:52:45": [
            -13,
            -13,
            -13
        ]
    },
    "395": {
        "25/03/2020 13:30:10": [
            -17,
            -17,
            -17,
            -17
        ],
        "25/03/2020 16:14:42": [
            -26,
            -8,
            -8,
            -8
        ],
        "25/03/2020 19:24:15": [
            -2,
            -2,
            -2
        ],
        "25/03/2020 20:52:46": [
            -16,
            -16,
            -16
        ]
    },
    "396": {
        "25/03/2020 13:30:11": [
            -19,
            -19,
            -19,
            -19
        ],
        "25/03/2020 16:14:42": [
            283,
            -28,
            -2,
            -2,
            -2
        ],
        "25/03/2020 19:24:16": [
            -6,
            -6,
            -6
        ],
        "25/03/2020 20:52:46": []
    },
    "397": {
        "25/03/2020 13:30:11": [
            13,
            13,
            13,
            13
        ],
        "25/03/2020 16:14:43": [
            315,
            4,
            -25,
            -25,
            -25
        ],
        "25/03/2020 19:24:16": [
            26,
            26,
            26
        ],
        "25/03/2020 20:52:46": [
            -5,
            -5,
            -5
        ]
    },
    "398": {
        "25/03/2020 13:30:12": [
            -1,
            -1,
            -1,
            -1
        ],
        "25/03/2020 16:14:43": [
            302,
            -9,
            -29,
            -29,
            -29
        ],
        "25/03/2020 19:24:16": [
            6,
            6,
            6
        ],
        "25/03/2020 20:52:47": [
            27,
            27,
            27
        ]
    },
    "399": {
        "25/03/2020 13:30:13": [
            163,
            -23,
            -23,
            -23,
            -23
        ],
        "25/03/2020 16:14:44": [
            281,
            -30,
            17,
            17,
            17
        ],
        "25/03/2020 19:24:17": [
            -22,
            -22,
            -22
        ],
        "25/03/2020 20:52:47": [
            193,
            -7,
            -7,
            -7
        ]
    },
    "400": {
        "25/03/2020 13:30:14": [
            173,
            -13,
            -13,
            -13,
            -13
        ],
        "25/03/2020 16:14:44": [
            320,
            -18,
            -19,
            -19
        ],
        "25/03/2020 19:24:17": [
            -22,
            -22,
            -22
        ],
        "25/03/2020 20:52:47": [
            182,
            -18,
            -18,
            -18
        ]
    },
    "389": {
        "25/03/2020 13:30:14": [
            -3,
            -3,
            -3,
            -3
        ],
        "25/03/2020 16:14:45": [
            13,
            -7,
            -7,
            -7
        ],
        "25/03/2020 19:24:17": [
            67,
            25,
            25
        ],
        "25/03/2020 20:52:48": [
            8,
            8,
            8
        ]
    },
    "7602": {
        "25/03/2020 13:30:15": [
            51,
            115,
            -12,
            -12
        ],
        "25/03/2020 16:14:45": [
            186,
            240,
            -24,
            -13
        ],
        "25/03/2020 19:24:17": [
            109,
            -12,
            -12
        ],
        "25/03/2020 20:52:48": [
            156,
            21,
            21
        ]
    },
    "85": {
        "25/03/2020 13:30:15": [
            33,
            97,
            -30,
            -30
        ],
        "25/03/2020 16:14:46": [
            201,
            277,
            13,
            -23
        ],
        "25/03/2020 19:24:18": [
            150,
            29,
            29
        ],
        "25/03/2020 20:52:48": [
            117,
            -18,
            -18
        ]
    },
    "371": {
        "25/03/2020 13:30:16": [
            19,
            19,
            19,
            19
        ],
        "25/03/2020 16:14:46": [
            23,
            14,
            14,
            14
        ],
        "25/03/2020 19:24:18": [
            34,
            -8,
            -8
        ],
        "25/03/2020 20:52:49": [
            13,
            13,
            13
        ]
    },
    "4451": {
        "25/03/2020 13:30:17": [
            7,
            7,
            7,
            7
        ],
        "25/03/2020 16:14:47": [
            12,
            6,
            6,
            6
        ],
        "25/03/2020 19:24:18": [
            2,
            2,
            2
        ],
        "25/03/2020 20:52:49": [
            -3,
            -3,
            -3
        ]
    },
    "226": {
        "25/03/2020 13:30:17": [
            0,
            0,
            0
        ],
        "25/03/2020 16:14:47": [
            0,
            0,
            0,
            0
        ],
        "25/03/2020 19:24:19": [
            0,
            0,
            0
        ],
        "25/03/2020 20:52:49": [
            0,
            0,
            0
        ]
    },
    "228": {
        "25/03/2020 13:30:18": [
            -20,
            -20,
            -20,
            -20
        ],
        "25/03/2020 16:14:48": [
            -21,
            -20,
            -20,
            -20
        ],
        "25/03/2020 19:24:19": [
            -24,
            -24,
            -24
        ],
        "25/03/2020 20:52:49": [
            -30,
            -30,
            -30
        ]
    },
    "229": {
        "25/03/2020 13:30:18": [
            15,
            15,
            15,
            15
        ],
        "25/03/2020 16:14:48": [
            13,
            14,
            14,
            14
        ],
        "25/03/2020 19:24:19": [
            8,
            8,
            8
        ],
        "25/03/2020 20:52:50": [
            -4,
            -4,
            -4
        ]
    },
    "227": {
        "25/03/2020 13:30:19": [
            10,
            10,
            10,
            10
        ],
        "25/03/2020 16:14:49": [
            6,
            8,
            8,
            8
        ],
        "25/03/2020 19:24:20": [
            -3,
            -3,
            -3
        ],
        "25/03/2020 20:52:50": [
            -23,
            -23,
            -23
        ]
    },
    "230": {
        "25/03/2020 13:30:19": [
            -15,
            -15,
            -15,
            -15
        ],
        "25/03/2020 16:14:49": [
            -19,
            -17,
            -17,
            -17
        ],
        "25/03/2020 19:24:20": [
            29,
            29,
            29
        ],
        "25/03/2020 20:52:50": [
            4,
            4,
            4
        ]
    },
    "231": {
        "25/03/2020 13:30:20": [
            -29,
            -29,
            -29,
            -29
        ],
        "25/03/2020 16:14:50": [
            25,
            28,
            28,
            28
        ],
        "25/03/2020 19:24:20": [
            10,
            10,
            10
        ],
        "25/03/2020 20:52:51": [
            -22,
            -22,
            -22
        ]
    },
    "1641": {
        "25/03/2020 13:30:20": [
            -18,
            -18,
            -18,
            -18
        ],
        "25/03/2020 16:14:50": [
            -27,
            -24,
            -24,
            -24
        ],
        "25/03/2020 19:24:20": [
            64,
            18,
            18
        ],
        "25/03/2020 20:52:51": [
            -25,
            -25,
            -25
        ]
    },
    "1642": {
        "25/03/2020 13:30:21": [
            27,
            27,
            27,
            27
        ],
        "25/03/2020 16:14:51": [
            16,
            19,
            19,
            19
        ],
        "25/03/2020 19:24:21": [
            47,
            1,
            1
        ],
        "25/03/2020 20:52:51": [
            11,
            11,
            11
        ]
    },
    "213": {
        "25/03/2020 13:30:22": [
            13,
            13,
            13,
            13
        ],
        "25/03/2020 16:14:51": [
            1,
            3,
            3,
            3
        ],
        "25/03/2020 19:24:21": [
            32,
            -14,
            -14
        ],
        "25/03/2020 20:52:51": [
            -12,
            -12,
            -12
        ]
    },
    "214": {
        "25/03/2020 13:30:22": [
            -18,
            -18,
            -18,
            -18
        ],
        "25/03/2020 16:14:52": [
            -27,
            -27,
            -27
        ],
        "25/03/2020 19:24:21": [
            64,
            18,
            18
        ],
        "25/03/2020 20:52:52": [
            9,
            9,
            9
        ]
    },
    "4432": {
        "25/03/2020 13:30:23": [
            12,
            12,
            12,
            12
        ],
        "25/03/2020 16:14:52": [
            -1,
            4,
            4,
            4
        ],
        "25/03/2020 19:24:22": [
            37,
            -9,
            -9
        ],
        "25/03/2020 20:52:52": [
            -30,
            -30,
            -30
        ]
    },
    "119": {
        "25/03/2020 13:30:24": [
            -15,
            -15,
            -15,
            -15
        ],
        "25/03/2020 16:14:53": [
            -29,
            -23,
            -23,
            -23
        ],
        "25/03/2020 19:24:22": [
            72,
            26,
            26
        ],
        "25/03/2020 20:52:52": [
            -6,
            -6,
            -6
        ]
    },
    "44": {
        "25/03/2020 13:30:24": [
            18,
            18,
            18,
            18
        ],
        "25/03/2020 16:14:53": [
            5,
            5,
            5,
            5
        ],
        "25/03/2020 19:24:22": [
            90,
            -6,
            -6
        ],
        "25/03/2020 20:52:53": [
            15,
            15,
            15
        ]
    },
    "7603": {
        "25/03/2020 13:30:25": [
            -18,
            -18,
            -18,
            -18
        ],
        "25/03/2020 16:14:54": [
            -30,
            25,
            25,
            25
        ],
        "25/03/2020 19:24:22": [
            60,
            14,
            14
        ],
        "25/03/2020 20:52:53": [
            -30,
            -30,
            -30
        ]
    },
    "45": {
        "25/03/2020 13:30:26": [
            11,
            11,
            11,
            11
        ],
        "25/03/2020 16:14:54": [
            0,
            -11,
            -11,
            -11
        ],
        "25/03/2020 19:24:23": [
            74,
            -22,
            -22
        ],
        "25/03/2020 20:52:53": [
            -11,
            -11,
            -11
        ]
    },
    "46": {
        "25/03/2020 13:30:26": [
            8,
            8,
            8,
            8
        ],
        "25/03/2020 16:14:55": [
            -4,
            -17,
            -17,
            -17
        ],
        "25/03/2020 19:24:23": [
            99,
            27,
            27
        ],
        "25/03/2020 20:52:54": [
            24,
            24,
            24
        ]
    },
    "47": {
        "25/03/2020 13:30:27": [
            17,
            17,
            17,
            17
        ],
        "25/03/2020 16:14:56": [
            5,
            -12,
            -12,
            -12
        ],
        "25/03/2020 19:24:23": [
            98,
            26,
            26
        ],
        "25/03/2020 20:52:54": [
            8,
            8,
            8
        ]
    },
    "48": {
        "25/03/2020 13:30:28": [
            246,
            7,
            7,
            7,
            7
        ],
        "25/03/2020 16:14:56": [
            -6,
            27,
            27,
            27
        ],
        "25/03/2020 19:24:24": [
            82,
            10,
            10
        ],
        "25/03/2020 20:52:54": [
            259,
            -24,
            -24,
            -24
        ]
    },
    "49": {
        "25/03/2020 13:30:29": [
            260,
            21,
            21,
            21,
            21
        ],
        "25/03/2020 16:14:57": [
            5,
            25,
            25,
            25
        ],
        "25/03/2020 19:24:24": [
            86,
            14,
            14
        ],
        "25/03/2020 20:52:55": [
            300,
            17,
            17,
            17
        ]
    },
    "51": {
        "25/03/2020 13:30:29": [
            209,
            -30,
            -30,
            -30
        ],
        "25/03/2020 16:14:57": [
            22,
            -6,
            -6,
            -6
        ],
        "25/03/2020 19:24:24": [
            87,
            15,
            15
        ],
        "25/03/2020 20:52:55": [
            282,
            -1,
            -1,
            -1
        ]
    },
    "52": {
        "25/03/2020 13:30:30": [
            247,
            8,
            8,
            8
        ],
        "25/03/2020 16:14:58": [
            36,
            5,
            -17,
            -17
        ],
        "25/03/2020 19:24:24": [
            61,
            -11,
            -11
        ],
        "25/03/2020 20:52:56": [
            305,
            22,
            22,
            22
        ]
    },
    "265": {
        "25/03/2020 13:30:31": [
            243,
            -11,
            -11,
            -11
        ],
        "25/03/2020 16:14:58": [
            -6,
            -6,
            18,
            18
        ],
        "25/03/2020 19:24:25": [
            -20,
            -20,
            -20
        ],
        "25/03/2020 20:52:56": [
            263,
            24,
            24,
            24
        ]
    },
    "271": {
        "25/03/2020 13:30:31": [
            277,
            23,
            23,
            23
        ],
        "25/03/2020 16:14:59": [
            -19,
            -19,
            -11,
            -11
        ],
        "25/03/2020 19:24:25": [
            -4,
            -4,
            -4
        ],
        "25/03/2020 20:52:56": [
            250,
            11,
            11
        ]
    },
    "340": {
        "25/03/2020 13:30:32": [
            244,
            -10,
            -10,
            -10
        ],
        "25/03/2020 16:14:59": [
            19,
            19,
            12,
            12
        ],
        "25/03/2020 19:24:25": [
            4,
            4,
            4
        ],
        "25/03/2020 20:52:57": [
            231,
            -8,
            -8
        ]
    },
    "350": {
        "25/03/2020 13:30:33": [
            243,
            -11,
            -11,
            -11
        ],
        "25/03/2020 16:15:00": [
            28,
            28,
            8,
            8
        ],
        "25/03/2020 19:24:26": [
            -11,
            -11,
            -11
        ],
        "25/03/2020 20:52:57": [
            254,
            15,
            15
        ]
    },
    "351": {
        "25/03/2020 13:30:33": [
            348,
            283,
            29,
            29,
            29
        ],
        "25/03/2020 16:15:00": [
            233,
            14,
            14,
            -10,
            -10
        ],
        "25/03/2020 19:24:26": [
            7,
            7
        ],
        "25/03/2020 20:52:57": [
            250,
            11,
            11
        ]
    },
    "352": {
        "25/03/2020 13:30:34": [
            354,
            269,
            15,
            15,
            15
        ],
        "25/03/2020 16:15:01": [
            222,
            3,
            3,
            -23,
            -23
        ],
        "25/03/2020 19:24:26": [
            -17,
            -17
        ],
        "25/03/2020 20:52:58": [
            216,
            -23,
            -23
        ]
    },
    "353": {
        "25/03/2020 13:30:34": [
            339,
            254,
            0,
            0,
            0
        ],
        "25/03/2020 16:15:02": [
            210,
            -9,
            -9,
            23,
            23
        ],
        "25/03/2020 19:24:27": [
            18,
            18
        ],
        "25/03/2020 20:52:58": [
            241,
            2,
            2
        ]
    },
    "354": {
        "25/03/2020 13:30:36": [
            333,
            248,
            -6,
            -6,
            -6
        ],
        "25/03/2020 16:15:02": [
            169,
            -16,
            -16,
            7,
            7
        ],
        "25/03/2020 19:24:27": [
            10,
            10
        ],
        "25/03/2020 20:52:58": [
            216,
            -23,
            -23
        ]
    },
    "355": {
        "25/03/2020 13:30:36": [
            332,
            247,
            -7,
            -7,
            -7
        ],
        "25/03/2020 16:15:03": [
            165,
            -20,
            -20,
            -4
        ],
        "25/03/2020 19:24:27": [
            5,
            5
        ],
        "25/03/2020 20:52:59": [
            255,
            16,
            16
        ]
    },
    "356": {
        "25/03/2020 13:30:37": [
            320,
            235,
            -19,
            -19
        ],
        "25/03/2020 16:15:04": [
            211,
            26,
            26,
            25
        ],
        "25/03/2020 19:24:28": [
            -11,
            -11
        ],
        "25/03/2020 20:52:59": [
            267,
            28,
            28
        ]
    },
    "357": {
        "25/03/2020 13:30:37": [
            320,
            235,
            -19,
            -19
        ],
        "25/03/2020 16:15:04": [
            209,
            24,
            24,
            28
        ],
        "25/03/2020 19:24:28": [
            -317,
            -15,
            -15
        ],
        "25/03/2020 20:52:59": [
            249,
            10,
            10
        ]
    },
    "390": {
        "25/03/2020 13:30:38": [
            363,
            278,
            24,
            24
        ],
        "25/03/2020 16:15:05": [
            189,
            4,
            4,
            9
        ],
        "25/03/2020 19:24:28": [
            -280,
            22,
            22
        ],
        "25/03/2020 20:53:00": [
            217,
            -22,
            -22
        ]
    },
    "372": {
        "25/03/2020 13:30:39": [
            346,
            261,
            7,
            7
        ],
        "25/03/2020 16:15:05": [
            179,
            -6,
            -6,
            -10
        ],
        "25/03/2020 19:24:29": [
            -328,
            12,
            12
        ],
        "25/03/2020 20:53:00": [
            255,
            16,
            16
        ]
    },
    "373": {
        "25/03/2020 13:30:39": [
            323,
            238,
            -16,
            -16
        ],
        "25/03/2020 16:15:06": [
            208,
            23,
            23,
            24
        ],
        "25/03/2020 19:24:29": [
            -362,
            -22,
            -22
        ],
        "25/03/2020 20:53:00": [
            229,
            -10,
            -10
        ]
    },
    "374": {
        "25/03/2020 13:30:40": [
            356,
            271,
            17,
            17
        ],
        "25/03/2020 16:15:06": [
            175,
            -10,
            -10,
            -6
        ],
        "25/03/2020 19:24:29": [
            -338,
            2,
            2
        ],
        "25/03/2020 20:53:01": [
            259,
            20,
            20
        ]
    },
    "375": {
        "25/03/2020 13:30:40": [
            355,
            270,
            16,
            16
        ],
        "25/03/2020 16:15:07": [
            170,
            -15,
            -15,
            -7
        ],
        "25/03/2020 19:24:30": [
            -285,
            -1,
            -1
        ],
        "25/03/2020 20:53:01": [
            252,
            13,
            13
        ]
    },
    "2804": {
        "25/03/2020 13:30:41": [
            262,
            241,
            -13,
            -13
        ],
        "25/03/2020 16:15:07": [
            414,
            253,
            10,
            10,
            24
        ],
        "25/03/2020 19:24:30": [
            -266,
            26,
            26
        ],
        "25/03/2020 20:53:01": [
            214,
            -25,
            -25
        ]
    },
    "376": {
        "25/03/2020 13:30:41": [
            301,
            280,
            26,
            26
        ],
        "25/03/2020 16:15:08": [
            390,
            100,
            -14,
            -14,
            3
        ],
        "25/03/2020 19:24:30": [
            -289,
            3,
            3
        ],
        "25/03/2020 20:53:02": [
            249,
            10,
            10
        ]
    },
    "377": {
        "25/03/2020 13:30:42": [
            416,
            269,
            248,
            -6,
            -6
        ],
        "25/03/2020 16:15:08": [
            418,
            128,
            14,
            14,
            27
        ],
        "25/03/2020 19:24:30": [
            -319,
            -27,
            -27
        ],
        "25/03/2020 20:53:02": [
            213,
            -26,
            -26
        ]
    },
    "378": {
        "25/03/2020 13:30:42": [
            422,
            254,
            233,
            -21,
            -21
        ],
        "25/03/2020 16:15:09": [
            405,
            115,
            1,
            1,
            8
        ],
        "25/03/2020 19:24:31": [
            -270,
            22,
            22
        ],
        "25/03/2020 20:53:02": [
            252,
            13,
            13
        ]
    },
    "380": {
        "25/03/2020 13:30:43": [],
        "25/03/2020 16:15:09": [],
        "25/03/2020 19:24:31": [],
        "25/03/2020 20:53:03": []
    }
}