{
    "2948": {
        "23/03/2020 12:29:51": [],
        "23/03/2020 14:52:16": [],
        "23/03/2020 18:00:33": []
    },
    "2949": {
        "23/03/2020 12:29:52": [],
        "23/03/2020 14:52:17": [],
        "23/03/2020 18:00:34": []
    },
    "2950": {
        "23/03/2020 12:29:52": [],
        "23/03/2020 14:52:17": [],
        "23/03/2020 18:00:34": []
    },
    "2954": {
        "23/03/2020 12:29:53": [],
        "23/03/2020 14:52:17": [],
        "23/03/2020 18:00:35": []
    },
    "2955": {
        "23/03/2020 12:29:54": [],
        "23/03/2020 14:52:18": [],
        "23/03/2020 18:00:36": []
    },
    "7371": {
        "23/03/2020 12:29:54": [],
        "23/03/2020 14:52:18": [],
        "23/03/2020 18:00:36": []
    },
    "7077": {
        "23/03/2020 12:29:55": [],
        "23/03/2020 14:52:18": [],
        "23/03/2020 18:00:37": []
    },
    "7221": {
        "23/03/2020 12:29:56": [],
        "23/03/2020 14:52:19": [],
        "23/03/2020 18:00:37": []
    },
    "7512": {
        "23/03/2020 12:29:56": [],
        "23/03/2020 14:52:19": [],
        "23/03/2020 18:00:38": []
    },
    "395": {
        "23/03/2020 12:29:57": [
            0,
            0,
            0,
            0
        ],
        "23/03/2020 14:52:19": [
            0,
            0,
            0
        ],
        "23/03/2020 18:00:38": [
            0,
            0
        ]
    },
    "396": {
        "23/03/2020 12:29:58": [
            4,
            4,
            4,
            4
        ],
        "23/03/2020 14:52:20": [
            10,
            24,
            24
        ],
        "23/03/2020 18:00:39": [
            -27,
            -27,
            22
        ]
    },
    "397": {
        "23/03/2020 12:29:58": [
            -20,
            -20,
            -20,
            -20
        ],
        "23/03/2020 14:52:20": [
            -12,
            10,
            10
        ],
        "23/03/2020 18:00:40": [
            24,
            24,
            8
        ]
    },
    "398": {
        "23/03/2020 12:29:59": [
            -28,
            -28,
            -28,
            -28
        ],
        "23/03/2020 14:52:20": [
            -15,
            18,
            18
        ],
        "23/03/2020 18:00:40": [
            -20,
            -20,
            15
        ]
    },
    "399": {
        "23/03/2020 12:29:59": [
            14,
            14,
            14,
            14
        ],
        "23/03/2020 14:52:20": [
            -29,
            13,
            13
        ],
        "23/03/2020 18:00:41": [
            -19,
            -19,
            9
        ]
    },
    "400": {
        "23/03/2020 12:30:00": [
            -28,
            -28,
            -28,
            -28
        ],
        "23/03/2020 14:52:21": [
            -5,
            -6,
            -6
        ],
        "23/03/2020 18:00:41": [
            -27,
            -27,
            -12
        ]
    },
    "7581": {
        "23/03/2020 12:30:01": [
            -4,
            -4,
            -4,
            -4
        ],
        "23/03/2020 14:52:21": [
            -39,
            12,
            -30
        ],
        "23/03/2020 18:00:42": [
            8,
            8,
            -16
        ]
    },
    "1283": {
        "23/03/2020 12:30:01": [
            -4,
            -4,
            -4,
            -4
        ],
        "23/03/2020 14:52:21": [
            -42,
            9,
            -25
        ],
        "23/03/2020 18:00:42": [
            -252,
            -25,
            -25,
            -2
        ]
    },
    "7579": {
        "23/03/2020 12:30:02": [
            -18,
            -18,
            -18,
            -18
        ],
        "23/03/2020 14:52:22": [
            -95,
            14,
            -29
        ],
        "23/03/2020 18:00:43": [
            -254,
            -27,
            -27,
            7
        ]
    },
    "1285": {
        "23/03/2020 12:30:03": [
            -6,
            -6,
            -6
        ],
        "23/03/2020 14:52:22": [
            -37,
            14,
            8
        ],
        "23/03/2020 18:00:43": [
            -248,
            -21,
            -21,
            23
        ]
    },
    "1016": {
        "23/03/2020 12:30:03": [
            -54,
            -12,
            -12,
            -12
        ],
        "23/03/2020 14:52:22": [
            -145,
            -2,
            23
        ],
        "23/03/2020 18:00:44": [
            -240,
            20,
            20,
            20
        ]
    },
    "1017": {
        "23/03/2020 12:30:04": [
            12,
            28,
            28,
            28
        ],
        "23/03/2020 14:52:23": [
            -169,
            -26,
            18
        ],
        "23/03/2020 18:00:45": [
            -287,
            -27,
            -27
        ]
    },
    "1018": {
        "23/03/2020 12:30:05": [
            -6,
            10,
            10,
            10
        ],
        "23/03/2020 14:52:23": [
            -131,
            12
        ],
        "23/03/2020 18:00:45": [
            -270,
            -10,
            -10
        ]
    },
    "1019": {
        "23/03/2020 12:30:05": [
            -30,
            -14,
            -14,
            -14
        ],
        "23/03/2020 14:52:23": [
            -146,
            -3
        ],
        "23/03/2020 18:00:46": [
            -285,
            -25,
            -25
        ]
    },
    "1020": {
        "23/03/2020 12:30:06": [
            -44,
            -28,
            -28,
            -28
        ],
        "23/03/2020 14:52:24": [
            -150,
            -7
        ],
        "23/03/2020 18:00:46": [
            -289,
            -29,
            -29
        ]
    },
    "1076": {
        "23/03/2020 12:30:07": [
            -41,
            -25,
            -25,
            -25
        ],
        "23/03/2020 14:52:24": [
            -132,
            11
        ],
        "23/03/2020 18:00:47": [
            -272,
            -12,
            -12
        ]
    },
    "1077": {
        "23/03/2020 12:30:08": [
            -68,
            -26,
            -26,
            -26
        ],
        "23/03/2020 14:52:24": [
            -119,
            24
        ],
        "23/03/2020 18:00:48": [
            -259,
            1,
            1
        ]
    },
    "1078": {
        "23/03/2020 12:30:08": [
            -28,
            14,
            14,
            14
        ],
        "23/03/2020 14:52:24": [
            -170,
            -27
        ],
        "23/03/2020 18:00:48": [
            -263,
            -3,
            -3
        ]
    },
    "1079": {
        "23/03/2020 12:30:09": [
            -14,
            2,
            2,
            2
        ],
        "23/03/2020 14:52:25": [
            -148,
            -5
        ],
        "23/03/2020 18:00:49": [
            -863,
            -256,
            4,
            4
        ]
    },
    "1080": {
        "23/03/2020 12:30:09": [
            -29,
            -13,
            -13,
            -13
        ],
        "23/03/2020 14:52:25": [
            -147,
            -4
        ],
        "23/03/2020 18:00:49": [
            -861,
            -254,
            6,
            6
        ]
    },
    "1081": {
        "23/03/2020 12:30:10": [
            -24,
            -8,
            -8,
            -8
        ],
        "23/03/2020 14:52:26": [
            -120,
            23
        ],
        "23/03/2020 18:00:50": [
            -892,
            -285,
            -25,
            -25
        ]
    },
    "2914": {
        "23/03/2020 12:30:11": [
            -31,
            -15,
            -15,
            -15
        ],
        "23/03/2020 14:52:26": [
            -509,
            -169,
            -26
        ],
        "23/03/2020 18:00:50": [
            -879,
            -272,
            -12,
            -12
        ]
    },
    "2915": {
        "23/03/2020 12:30:11": [
            12,
            28,
            28,
            28
        ],
        "23/03/2020 14:52:26": [
            -512,
            -172,
            -29
        ],
        "23/03/2020 18:00:51": [
            9,
            -881,
            -274,
            -14
        ]
    },
    "2916": {
        "23/03/2020 12:30:12": [
            9,
            25,
            25,
            25
        ],
        "23/03/2020 14:52:27": [
            -482,
            -142,
            1
        ],
        "23/03/2020 18:00:52": [
            25,
            -866,
            -259,
            1
        ]
    },
    "2917": {
        "23/03/2020 12:30:12": [
            -15,
            1,
            1,
            1
        ],
        "23/03/2020 14:52:27": [
            -486,
            -146,
            -3
        ],
        "23/03/2020 18:00:52": [
            13,
            -879,
            -272,
            -12
        ]
    },
    "2918": {
        "23/03/2020 12:30:13": [
            -31,
            -15,
            -15,
            -15
        ],
        "23/03/2020 14:52:27": [
            -477,
            -137,
            6
        ],
        "23/03/2020 18:00:53": [
            11,
            -881,
            -274,
            -14
        ]
    },
    "1300": {
        "23/03/2020 12:30:13": [
            -28,
            -12,
            -12
        ],
        "23/03/2020 14:52:28": [
            -499,
            -159,
            -16
        ],
        "23/03/2020 18:00:53": [
            -25,
            -859,
            -252,
            8
        ]
    },
    "1301": {
        "23/03/2020 12:30:14": [
            -35,
            -19,
            -19
        ],
        "23/03/2020 14:52:28": [
            -476,
            -136
        ],
        "23/03/2020 18:00:54": [
            -15,
            -849,
            -242,
            18
        ]
    },
    "1302": {
        "23/03/2020 12:30:15": [
            -5,
            11,
            11
        ],
        "23/03/2020 14:52:28": [
            -497,
            -157
        ],
        "23/03/2020 18:00:55": [
            26,
            -868,
            -261,
            -1
        ]
    },
    "1303": {
        "23/03/2020 12:30:16": [
            -13,
            3,
            3
        ],
        "23/03/2020 14:52:28": [
            -462,
            -122
        ],
        "23/03/2020 18:00:55": [
            -30,
            -876,
            -269,
            -9
        ]
    },
    "5129": {
        "23/03/2020 12:30:16": [
            -20,
            -4,
            -4
        ],
        "23/03/2020 14:52:29": [
            -468,
            -128
        ],
        "23/03/2020 18:00:56": [
            27,
            -882,
            -275,
            -15
        ]
    },
    "5130": {
        "23/03/2020 12:30:17": [
            -218,
            13,
            29,
            29
        ],
        "23/03/2020 14:52:29": [
            -531,
            -153
        ],
        "23/03/2020 18:00:56": [
            -1143,
            7,
            -847,
            -116,
            20
        ]
    },
    "1135": {
        "23/03/2020 12:30:18": [
            -239,
            -8,
            8,
            8
        ],
        "23/03/2020 14:52:29": [
            -551,
            -173
        ],
        "23/03/2020 18:00:57": [
            -1163,
            -6,
            -867,
            -260,
            0
        ]
    },
    "7064": {
        "23/03/2020 12:30:18": [
            -219,
            12,
            28,
            28
        ],
        "23/03/2020 14:52:30": [
            -509,
            -131
        ],
        "23/03/2020 18:00:57": [
            -1136,
            28,
            -840,
            -233,
            27
        ]
    },
    "7066": {
        "23/03/2020 12:30:19": [
            -222,
            9,
            25,
            25
        ],
        "23/03/2020 14:52:30": [
            -497,
            -119
        ],
        "23/03/2020 18:00:58": [
            -1152,
            -25,
            -839,
            -232,
            28
        ]
    },
    "2924": {
        "23/03/2020 12:30:20": [
            -222,
            9,
            25,
            25
        ],
        "23/03/2020 14:52:30": [
            -541,
            -163
        ],
        "23/03/2020 18:00:59": [
            -1190,
            -15,
            -894,
            -287,
            -27
        ]
    },
    "2925": {
        "23/03/2020 12:30:20": [
            -235,
            -4,
            12,
            12
        ],
        "23/03/2020 14:52:31": [
            -546,
            -168
        ],
        "23/03/2020 18:00:59": [
            -1186,
            -14,
            -890,
            -283,
            -23
        ]
    },
    "7442": {
        "23/03/2020 12:30:21": [
            -250,
            -19,
            -3,
            -3
        ],
        "23/03/2020 14:52:31": [
            -400,
            -161
        ],
        "23/03/2020 18:01:00": [
            -1189,
            -20,
            -893,
            -162,
            -26
        ]
    },
    "7446": {
        "23/03/2020 12:30:22": [
            -252,
            -21,
            -5,
            -5
        ],
        "23/03/2020 14:52:31": [
            -375,
            -136
        ],
        "23/03/2020 18:01:01": [
            -1177,
            -12,
            -881,
            -150,
            -14
        ]
    },
    "7070": {
        "23/03/2020 12:30:22": [
            -268,
            -37,
            -21,
            -21
        ],
        "23/03/2020 14:52:32": [
            -528,
            -150
        ],
        "23/03/2020 18:01:01": [
            -1192,
            -25,
            -896,
            -289,
            -29
        ]
    },
    "7445": {
        "23/03/2020 12:30:23": [
            -223,
            8,
            24,
            24
        ],
        "23/03/2020 14:52:32": [
            -403,
            -164
        ],
        "23/03/2020 18:01:02": [
            23,
            -1146,
            23,
            -850,
            -119
        ]
    },
    "6339": {
        "23/03/2020 12:30:23": [
            -255,
            -24,
            -8,
            -8
        ],
        "23/03/2020 14:52:32": [
            -512,
            -134
        ],
        "23/03/2020 18:01:03": [
            -7,
            -1177,
            -7,
            -881,
            -274
        ]
    },
    "6324": {
        "23/03/2020 12:30:24": [
            -262,
            -31,
            -15,
            -15
        ],
        "23/03/2020 14:52:32": [
            -517,
            -139
        ],
        "23/03/2020 18:01:04": [
            -10,
            -1182,
            -10,
            -886,
            -279
        ]
    },
    "6325": {
        "23/03/2020 12:30:25": [
            -228,
            3,
            19
        ],
        "23/03/2020 14:52:33": [
            -381,
            -542,
            -164
        ],
        "23/03/2020 18:01:05": [
            26,
            -1148,
            26,
            -852,
            -245
        ]
    },
    "6341": {
        "23/03/2020 12:30:26": [
            -222,
            9,
            25
        ],
        "23/03/2020 14:52:33": [
            -375,
            -534,
            -156
        ],
        "23/03/2020 18:01:05": [
            -23,
            -1140,
            -23,
            -844,
            -237
        ]
    },
    "6277": {
        "23/03/2020 12:30:26": [
            -237,
            -6,
            10
        ],
        "23/03/2020 14:52:34": [
            -390,
            -547,
            -169
        ],
        "23/03/2020 18:01:06": [
            25,
            -1154,
            25,
            -858,
            -127
        ]
    },
    "6278": {
        "23/03/2020 12:30:27": [
            -271,
            -40,
            -24
        ],
        "23/03/2020 14:52:35": [
            -424,
            -515,
            -137
        ],
        "23/03/2020 18:01:06": [
            -9,
            -1189,
            -9,
            -893,
            -286
        ]
    },
    "6279": {
        "23/03/2020 12:30:28": [
            -258,
            -27,
            -11
        ],
        "23/03/2020 14:52:35": [
            -411,
            -546,
            -168
        ],
        "23/03/2020 18:01:07": [
            5,
            -1178,
            5,
            -882,
            -151
        ]
    },
    "6280": {
        "23/03/2020 12:30:29": [],
        "23/03/2020 14:52:35": [],
        "23/03/2020 18:01:07": []
    },
    "7067": {
        "23/03/2020 12:30:29": [],
        "23/03/2020 14:52:36": [],
        "23/03/2020 18:01:08": []
    },
    "2956": {
        "23/03/2020 12:30:30": [],
        "23/03/2020 14:52:36": [],
        "23/03/2020 18:01:09": []
    },
    "2965": {
        "23/03/2020 12:30:31": [],
        "23/03/2020 14:52:36": [],
        "23/03/2020 18:01:09": []
    },
    "2983": {
        "23/03/2020 12:30:31": [],
        "23/03/2020 14:52:37": [],
        "23/03/2020 18:01:10": []
    },
    "2984": {
        "23/03/2020 12:30:32": [],
        "23/03/2020 14:52:37": [],
        "23/03/2020 18:01:11": []
    },
    "407": {
        "23/03/2020 12:30:33": [],
        "23/03/2020 14:52:37": [],
        "23/03/2020 18:01:11": []
    },
    "2498": {
        "23/03/2020 12:30:34": [],
        "23/03/2020 14:52:38": [],
        "23/03/2020 18:01:12": []
    },
    "7589": {
        "23/03/2020 12:30:34": [],
        "23/03/2020 14:52:38": [],
        "23/03/2020 18:01:13": []
    },
    "7076": {
        "23/03/2020 12:30:35": [],
        "23/03/2020 14:52:38": [],
        "23/03/2020 18:01:13": []
    },
    "7216": {
        "23/03/2020 12:30:35": [],
        "23/03/2020 14:52:39": [],
        "23/03/2020 18:01:14": []
    },
    "2499": {
        "23/03/2020 12:30:36": [],
        "23/03/2020 14:52:39": [],
        "23/03/2020 18:01:15": []
    },
    "6285": {
        "23/03/2020 12:30:37": [
            43,
            0,
            0,
            0
        ],
        "23/03/2020 14:52:39": [
            0,
            0,
            0,
            0
        ],
        "23/03/2020 18:01:15": [
            0,
            0,
            0
        ]
    },
    "6286": {
        "23/03/2020 12:30:37": [
            70,
            27,
            27,
            27
        ],
        "23/03/2020 14:52:39": [
            21,
            21,
            24,
            24
        ],
        "23/03/2020 18:01:16": [
            27,
            25,
            25
        ]
    },
    "6287": {
        "23/03/2020 12:30:38": [
            67,
            24,
            24,
            24
        ],
        "23/03/2020 14:52:40": [
            7,
            7,
            18,
            18
        ],
        "23/03/2020 18:01:16": [
            25,
            25,
            20,
            20
        ]
    },
    "6288": {
        "23/03/2020 12:30:38": [
            41,
            -2,
            -2,
            -2
        ],
        "23/03/2020 14:52:40": [
            -27,
            -27,
            -12,
            -12
        ],
        "23/03/2020 18:01:17": [
            -2,
            -2,
            -8,
            -8
        ]
    },
    "6342": {
        "23/03/2020 12:30:39": [
            19,
            -24,
            -24,
            -24
        ],
        "23/03/2020 14:52:41": [
            4,
            4,
            24,
            24
        ],
        "23/03/2020 18:01:18": [
            -23,
            -23
        ]
    },
    "6298": {
        "23/03/2020 12:30:39": [
            52,
            9,
            9,
            9
        ],
        "23/03/2020 14:52:41": [
            -30,
            -30,
            -6,
            -6
        ],
        "23/03/2020 18:01:18": [
            10,
            10,
            0,
            0
        ]
    },
    "6336": {
        "23/03/2020 12:30:40": [
            33,
            -10,
            -10,
            -10
        ],
        "23/03/2020 14:52:41": [
            7,
            7,
            -18,
            -18
        ],
        "23/03/2020 18:01:19": [
            -4,
            -4,
            -18,
            -18
        ]
    },
    "7069": {
        "23/03/2020 12:30:40": [
            23,
            23,
            23,
            23
        ],
        "23/03/2020 14:52:41": [
            -27,
            -27,
            -28,
            -28
        ],
        "23/03/2020 18:01:20": [
            -19,
            -19,
            19,
            19
        ]
    },
    "7443": {
        "23/03/2020 12:30:41": [
            7,
            7,
            7,
            7
        ],
        "23/03/2020 14:52:42": [
            13,
            13,
            24,
            24
        ],
        "23/03/2020 18:01:20": [
            -30,
            5,
            5
        ]
    },
    "7444": {
        "23/03/2020 12:30:42": [
            13,
            13,
            13,
            13
        ],
        "23/03/2020 14:52:42": [
            14,
            14,
            -18
        ],
        "23/03/2020 18:01:21": [
            -16,
            13,
            13
        ]
    },
    "2941": {
        "23/03/2020 12:30:42": [
            -20,
            -20,
            -20,
            -20
        ],
        "23/03/2020 14:52:42": [
            -22,
            -22,
            13
        ],
        "23/03/2020 18:01:21": [
            14,
            14,
            -19,
            -19
        ]
    },
    "2942": {
        "23/03/2020 12:30:43": [
            11,
            11,
            11,
            11
        ],
        "23/03/2020 14:52:43": [
            7,
            7,
            -14
        ],
        "23/03/2020 18:01:22": [
            -6,
            -6,
            12,
            12
        ]
    },
    "7065": {
        "23/03/2020 12:30:44": [
            -26,
            -26,
            -26,
            -26
        ],
        "23/03/2020 14:52:43": [
            -21,
            -21,
            25
        ],
        "23/03/2020 18:01:22": [
            -30,
            -30,
            -25,
            -25
        ]
    },
    "7063": {
        "23/03/2020 12:30:44": [
            7,
            7,
            7,
            7
        ],
        "23/03/2020 14:52:43": [
            16,
            16,
            5
        ],
        "23/03/2020 18:01:23": [
            8,
            8,
            8,
            8
        ]
    },
    "1137": {
        "23/03/2020 12:30:45": [
            25,
            25,
            25,
            25
        ],
        "23/03/2020 14:52:44": [
            -96,
            28,
            28,
            -28
        ],
        "23/03/2020 18:01:24": [
            -28,
            19,
            19
        ]
    },
    "5131": {
        "23/03/2020 12:30:45": [
            -24,
            -24,
            -24,
            -24
        ],
        "23/03/2020 14:52:44": [
            -151,
            -27,
            -27,
            -8
        ],
        "23/03/2020 18:01:25": [
            -12,
            23,
            23
        ]
    },
    "5132": {
        "23/03/2020 12:30:46": [
            17,
            17,
            17,
            17
        ],
        "23/03/2020 14:52:44": [
            -90,
            5,
            5,
            -16
        ],
        "23/03/2020 18:01:25": [
            -24,
            -24,
            -6,
            -6
        ]
    },
    "1331": {
        "23/03/2020 12:30:47": [
            -24,
            -24,
            -24,
            -24
        ],
        "23/03/2020 14:52:44": [
            -122,
            23,
            23,
            5
        ],
        "23/03/2020 18:01:26": [
            -4,
            11,
            11
        ]
    },
    "1332": {
        "23/03/2020 12:30:47": [
            29,
            29,
            29
        ],
        "23/03/2020 14:52:45": [
            -133,
            12,
            12,
            0
        ],
        "23/03/2020 18:01:26": [
            -3,
            0,
            0
        ]
    },
    "1333": {
        "23/03/2020 12:30:48": [
            12,
            12,
            12
        ],
        "23/03/2020 14:52:45": [
            -145,
            0,
            0,
            3
        ],
        "23/03/2020 18:01:27": [
            -5,
            -17
        ]
    },
    "1334": {
        "23/03/2020 12:30:48": [
            -14,
            -14,
            -14
        ],
        "23/03/2020 14:52:45": [
            -117,
            -22,
            -22,
            -9
        ],
        "23/03/2020 18:01:27": [
            -20,
            16
        ]
    },
    "2985": {
        "23/03/2020 12:30:49": [
            -77,
            -18,
            -18,
            -18
        ],
        "23/03/2020 14:52:46": [
            -117,
            -22,
            -22,
            -5
        ],
        "23/03/2020 18:01:28": [
            -19,
            -19,
            8
        ]
    },
    "2986": {
        "23/03/2020 12:30:50": [
            -55,
            4,
            4,
            4
        ],
        "23/03/2020 14:52:46": [
            -118,
            6,
            6,
            27
        ],
        "23/03/2020 18:01:28": [
            -233,
            8,
            8,
            23
        ]
    },
    "2988": {
        "23/03/2020 12:30:51": [
            -64,
            -5,
            -5,
            -5
        ],
        "23/03/2020 14:52:46": [
            -123,
            1,
            1
        ],
        "23/03/2020 18:01:28": [
            -237,
            4,
            4,
            11
        ]
    },
    "3001": {
        "23/03/2020 12:30:51": [
            -27,
            -27,
            -27,
            -27
        ],
        "23/03/2020 14:52:47": [
            -24,
            -24,
            -24
        ],
        "23/03/2020 18:01:28": [
            -210,
            -2,
            -11
        ]
    },
    "3002": {
        "23/03/2020 12:30:52": [
            -4,
            -4,
            -4,
            -4
        ],
        "23/03/2020 14:52:47": [
            -2,
            -2,
            -2
        ],
        "23/03/2020 18:01:29": [
            -237,
            -29,
            13
        ]
    },
    "1166": {
        "23/03/2020 12:30:52": [
            1,
            1,
            1,
            1
        ],
        "23/03/2020 14:52:47": [
            -125,
            -1,
            -1
        ],
        "23/03/2020 18:01:29": [
            -205,
            3,
            18
        ]
    },
    "1167": {
        "23/03/2020 12:30:53": [
            -12,
            -12,
            -12,
            -12
        ],
        "23/03/2020 14:52:48": [
            -142,
            -18,
            -18
        ],
        "23/03/2020 18:01:29": [
            -199,
            9,
            6
        ]
    },
    "1168": {
        "23/03/2020 12:30:54": [
            -25,
            -25,
            -25,
            -25
        ],
        "23/03/2020 14:52:48": [
            -98,
            26,
            26
        ],
        "23/03/2020 18:01:30": [
            -193,
            15,
            -7
        ]
    },
    "1169": {
        "23/03/2020 12:30:54": [
            14,
            14,
            14,
            14
        ],
        "23/03/2020 14:52:48": [
            -118,
            6,
            6
        ],
        "23/03/2020 18:01:30": [
            -243,
            -2,
            -27
        ]
    },
    "1170": {
        "23/03/2020 12:30:55": [
            -9,
            -9,
            -9,
            -9
        ],
        "23/03/2020 14:52:48": [
            -140,
            -16,
            -16
        ],
        "23/03/2020 18:01:30": [
            -151,
            -21,
            11
        ]
    },
    "1069": {
        "23/03/2020 12:30:55": [
            -19,
            -19,
            -19,
            -19
        ],
        "23/03/2020 14:52:49": [
            -152,
            -28,
            -28
        ],
        "23/03/2020 18:01:31": [
            -154,
            -24,
            5
        ]
    },
    "1070": {
        "23/03/2020 12:30:56": [
            28,
            28,
            28,
            28
        ],
        "23/03/2020 14:52:49": [
            -100,
            -108,
            16,
            16
        ],
        "23/03/2020 18:01:31": [
            -102,
            28,
            -6
        ]
    },
    "1071": {
        "23/03/2020 12:30:56": [
            -28,
            -28,
            -28,
            -28
        ],
        "23/03/2020 14:52:49": [
            -99,
            -107,
            17,
            17
        ],
        "23/03/2020 18:01:31": [
            -150,
            -20,
            3
        ]
    },
    "4528": {
        "23/03/2020 12:30:57": [
            12,
            12,
            12,
            12
        ],
        "23/03/2020 14:52:50": [
            -97,
            -129,
            -5,
            -5
        ],
        "23/03/2020 18:01:31": [
            -107,
            23,
            -21
        ]
    },
    "1072": {
        "23/03/2020 12:30:57": [
            8,
            8,
            8,
            8
        ],
        "23/03/2020 14:52:50": [
            -103,
            -135,
            -11,
            -11
        ],
        "23/03/2020 18:01:32": [
            -105,
            25,
            29
        ]
    },
    "7577": {
        "23/03/2020 12:30:58": [],
        "23/03/2020 14:52:50": [
            -65,
            5,
            5,
            5
        ],
        "23/03/2020 18:01:32": [
            -125,
            -125,
            5,
            -15
        ]
    },
    "1353": {
        "23/03/2020 12:30:59": [
            -20,
            -20,
            -20
        ],
        "23/03/2020 14:52:51": [
            -59,
            -113,
            11,
            11
        ],
        "23/03/2020 18:01:32": [
            -158,
            -158,
            -28
        ]
    },
    "1354": {
        "23/03/2020 12:30:59": [
            12,
            12,
            12
        ],
        "23/03/2020 14:52:51": [
            -115,
            -147,
            -23,
            -23
        ],
        "23/03/2020 18:01:33": [
            -127,
            -104,
            26
        ]
    },
    "7578": {
        "23/03/2020 12:31:00": [
            14,
            14,
            14
        ],
        "23/03/2020 14:52:51": [
            24,
            24,
            24,
            24
        ],
        "23/03/2020 18:01:33": [
            -114,
            -141,
            -11
        ]
    },
    "7582": {
        "23/03/2020 12:31:01": [
            -299,
            -26,
            -26,
            -26
        ],
        "23/03/2020 14:52:52": [
            -26,
            -26,
            -26,
            -26
        ],
        "23/03/2020 18:01:33": [
            -148,
            -148,
            -18
        ]
    },
    "340": {
        "23/03/2020 12:31:01": [
            -262,
            -15,
            -15,
            -15
        ],
        "23/03/2020 14:52:52": [
            -174,
            27,
            27,
            27
        ],
        "23/03/2020 18:01:34": [
            -137,
            -137
        ]
    },
    "350": {
        "23/03/2020 12:31:02": [
            -234,
            13,
            13,
            13
        ],
        "23/03/2020 14:52:52": [
            -146,
            -17,
            -17,
            -17
        ],
        "23/03/2020 18:01:34": [
            -102,
            -102
        ]
    },
    "351": {
        "23/03/2020 12:31:02": [
            -256,
            -9,
            -9
        ],
        "23/03/2020 14:52:53": [
            -168,
            14,
            14,
            14
        ],
        "23/03/2020 18:01:34": [
            -120,
            -120
        ]
    },
    "352": {
        "23/03/2020 12:31:03": [
            -270,
            -23,
            -23
        ],
        "23/03/2020 14:52:53": [
            -182,
            -4,
            -4,
            -4
        ],
        "23/03/2020 18:01:34": [
            -132,
            -132
        ]
    },
    "353": {
        "23/03/2020 12:31:03": [
            -226,
            21,
            21
        ],
        "23/03/2020 14:52:53": [
            -138,
            -23,
            -23,
            -23
        ],
        "23/03/2020 18:01:35": [
            -147,
            -147
        ]
    },
    "354": {
        "23/03/2020 12:31:04": [],
        "23/03/2020 14:52:54": [],
        "23/03/2020 18:01:35": []
    }
}