{
    "2948": {
        "22/03/2020 14:27:01": [],
        "22/03/2020 16:51:36": [],
        "22/03/2020 19:13:07": []
    },
    "2949": {
        "22/03/2020 14:27:02": [],
        "22/03/2020 16:51:36": [],
        "22/03/2020 19:13:07": []
    },
    "2950": {
        "22/03/2020 14:27:02": [],
        "22/03/2020 16:51:37": [],
        "22/03/2020 19:13:08": []
    },
    "2954": {
        "22/03/2020 14:27:03": [],
        "22/03/2020 16:51:37": [],
        "22/03/2020 19:13:08": []
    },
    "2955": {
        "22/03/2020 14:27:03": [],
        "22/03/2020 16:51:38": [],
        "22/03/2020 19:13:09": []
    },
    "7371": {
        "22/03/2020 14:27:03": [],
        "22/03/2020 16:51:43": [],
        "22/03/2020 19:13:09": []
    },
    "7077": {
        "22/03/2020 14:27:04": [],
        "22/03/2020 16:51:48": [],
        "22/03/2020 19:13:09": []
    },
    "7221": {
        "22/03/2020 14:27:05": [],
        "22/03/2020 16:51:53": [],
        "22/03/2020 19:13:10": []
    },
    "7512": {
        "22/03/2020 14:27:05": [],
        "22/03/2020 16:51:57": [],
        "22/03/2020 19:13:10": []
    },
    "395": {
        "22/03/2020 14:27:05": [
            0,
            0,
            0
        ],
        "22/03/2020 16:52:02": [
            0,
            0,
            0
        ],
        "22/03/2020 19:13:11": [
            0,
            0
        ]
    },
    "396": {
        "22/03/2020 14:27:06": [
            11,
            11,
            11
        ],
        "22/03/2020 16:52:06": [
            -1,
            -1,
            2
        ],
        "22/03/2020 19:13:11": [
            -3,
            -3
        ]
    },
    "397": {
        "22/03/2020 14:27:06": [
            32,
            -10,
            -10
        ],
        "22/03/2020 16:52:11": [
            -28,
            -28,
            -24
        ],
        "22/03/2020 19:13:12": [
            28,
            28
        ]
    },
    "398": {
        "22/03/2020 14:27:07": [
            24,
            -12,
            -12
        ],
        "22/03/2020 16:52:15": [
            20,
            20,
            26
        ],
        "22/03/2020 19:13:13": [
            14,
            14
        ]
    },
    "399": {
        "22/03/2020 14:27:07": [
            66,
            -26,
            -26
        ],
        "22/03/2020 16:52:21": [
            -1,
            -1,
            6
        ],
        "22/03/2020 19:13:13": [
            -9,
            -9
        ]
    },
    "400": {
        "22/03/2020 14:27:08": [
            23,
            0,
            0
        ],
        "22/03/2020 16:52:24": [
            10,
            10,
            21
        ],
        "22/03/2020 19:13:14": [
            0,
            0
        ]
    },
    "7581": {
        "22/03/2020 14:27:08": [
            1,
            0,
            0
        ],
        "22/03/2020 16:52:30": [
            16,
            16
        ],
        "22/03/2020 19:13:14": [
            5,
            5
        ]
    },
    "1283": {
        "22/03/2020 14:27:09": [
            -23,
            -11,
            -11
        ],
        "22/03/2020 16:52:36": [
            8,
            8
        ],
        "22/03/2020 19:13:15": [
            -3,
            -3
        ]
    },
    "7579": {
        "22/03/2020 14:27:09": [
            23,
            -26,
            -26
        ],
        "22/03/2020 16:52:41": [
            5,
            5
        ],
        "22/03/2020 19:13:15": [
            -20,
            -20
        ]
    },
    "1285": {
        "22/03/2020 14:27:09": [
            -22,
            -22
        ],
        "22/03/2020 16:52:48": [
            -1,
            -1
        ],
        "22/03/2020 19:13:16": [
            -21,
            -21
        ]
    },
    "1016": {
        "22/03/2020 14:27:10": [
            19,
            25,
            25
        ],
        "22/03/2020 16:52:52": [
            -23,
            -23
        ],
        "22/03/2020 19:13:16": [
            23,
            23
        ]
    },
    "1017": {
        "22/03/2020 14:27:10": [
            -2,
            -1,
            -1
        ],
        "22/03/2020 16:52:57": [
            23,
            23
        ],
        "22/03/2020 19:13:16": [
            6,
            6
        ]
    },
    "1018": {
        "22/03/2020 14:27:11": [
            -21,
            -25,
            -25
        ],
        "22/03/2020 16:53:01": [
            10,
            10
        ],
        "22/03/2020 19:13:17": [
            -9,
            -9
        ]
    },
    "1019": {
        "22/03/2020 14:27:11": [
            16,
            11,
            11
        ],
        "22/03/2020 16:53:06": [
            -12,
            -12
        ],
        "22/03/2020 19:13:17": [
            27,
            27
        ]
    },
    "1020": {
        "22/03/2020 14:27:12": [
            4,
            -4,
            -4
        ],
        "22/03/2020 16:53:10": [
            -23,
            -23
        ],
        "22/03/2020 19:13:18": [
            12,
            12
        ]
    },
    "1076": {
        "22/03/2020 14:27:12": [
            9,
            -2,
            -2
        ],
        "22/03/2020 16:53:15": [
            -17,
            -17
        ],
        "22/03/2020 19:13:18": [
            15,
            15
        ]
    },
    "1077": {
        "22/03/2020 14:27:13": [
            10,
            -3,
            -3
        ],
        "22/03/2020 16:53:19": [
            -14,
            -14
        ],
        "22/03/2020 19:13:19": [
            14,
            14
        ]
    },
    "1078": {
        "22/03/2020 14:27:13": [
            -8,
            -22,
            -22
        ],
        "22/03/2020 16:53:27": [
            27,
            27
        ],
        "22/03/2020 19:13:19": [
            -4,
            -4
        ]
    },
    "1079": {
        "22/03/2020 14:27:13": [
            -19,
            26
        ],
        "22/03/2020 16:53:32": [
            16,
            16
        ],
        "22/03/2020 19:13:19": [
            -15,
            -15
        ]
    },
    "1080": {
        "22/03/2020 14:27:14": [
            20,
            2
        ],
        "22/03/2020 16:53:36": [
            -6,
            -6
        ],
        "22/03/2020 19:13:20": [
            22,
            22
        ]
    },
    "1081": {
        "22/03/2020 14:27:14": [
            21,
            17,
            -6
        ],
        "22/03/2020 16:53:44": [
            -11,
            -11
        ],
        "22/03/2020 19:13:20": [
            15,
            15
        ]
    },
    "2914": {
        "22/03/2020 14:27:15": [
            8,
            4,
            -24
        ],
        "22/03/2020 16:53:47": [
            94,
            -26,
            -26
        ],
        "22/03/2020 19:13:21": [
            -1,
            -1
        ]
    },
    "2915": {
        "22/03/2020 14:27:15": [
            -15,
            -19,
            10
        ],
        "22/03/2020 16:53:47": [
            130,
            10,
            10
        ],
        "22/03/2020 19:13:21": [
            -26,
            -26
        ]
    },
    "2916": {
        "22/03/2020 14:27:16": [
            -18,
            -22,
            0
        ],
        "22/03/2020 16:53:48": [
            123,
            3,
            3
        ],
        "22/03/2020 19:13:22": [
            24,
            24
        ]
    },
    "2917": {
        "22/03/2020 14:27:16": [
            19,
            15,
            -28
        ],
        "22/03/2020 16:53:48": [
            252,
            96,
            -24,
            -24
        ],
        "22/03/2020 19:13:22": [
            -4,
            -4
        ]
    },
    "2918": {
        "22/03/2020 14:27:17": [
            2,
            -2,
            11
        ],
        "22/03/2020 16:53:49": [
            190,
            137,
            17,
            17
        ],
        "22/03/2020 19:13:22": [
            -26,
            -26
        ]
    },
    "1300": {
        "22/03/2020 14:27:17": [
            6,
            2,
            6
        ],
        "22/03/2020 16:53:49": [
            203,
            15
        ],
        "22/03/2020 19:13:23": []
    },
    "1301": {
        "22/03/2020 14:27:18": [
            10,
            -5,
            -7
        ],
        "22/03/2020 16:53:49": [
            192,
            4
        ],
        "22/03/2020 19:13:23": [
            16
        ]
    },
    "1302": {
        "22/03/2020 14:27:18": [
            38,
            23,
            22
        ],
        "22/03/2020 16:53:50": [
            223,
            -24
        ],
        "22/03/2020 19:13:24": [
            -12
        ]
    },
    "1303": {
        "22/03/2020 14:27:18": [
            29,
            14,
            -2
        ],
        "22/03/2020 16:53:50": [
            241,
            14
        ],
        "22/03/2020 19:13:24": [
            -29
        ]
    },
    "5129": {
        "22/03/2020 14:27:19": [
            16,
            1,
            -16
        ],
        "22/03/2020 16:53:51": [
            285,
            4
        ],
        "22/03/2020 19:13:24": [
            14
        ]
    },
    "5130": {
        "22/03/2020 14:27:19": [
            38,
            23,
            5
        ],
        "22/03/2020 16:53:51": [
            248,
            -29
        ],
        "22/03/2020 19:13:25": [
            -30
        ]
    },
    "1135": {
        "22/03/2020 14:27:20": [
            6,
            -9,
            -29
        ],
        "22/03/2020 16:53:52": [
            208,
            124,
            4
        ],
        "22/03/2020 19:13:25": [
            -9
        ]
    },
    "7064": {
        "22/03/2020 14:27:20": [
            18,
            3,
            -25
        ],
        "22/03/2020 16:53:52": [
            226,
            136,
            16
        ],
        "22/03/2020 19:13:26": [
            -283,
            4
        ]
    },
    "7066": {
        "22/03/2020 14:27:21": [
            9,
            -6,
            21
        ],
        "22/03/2020 16:53:53": [
            221,
            127,
            7
        ],
        "22/03/2020 19:13:26": [
            -291,
            -4
        ]
    },
    "2924": {
        "22/03/2020 14:27:21": [
            2,
            -13,
            9
        ],
        "22/03/2020 16:53:53": [
            281,
            121,
            1
        ],
        "22/03/2020 19:13:27": [
            -296,
            -9
        ]
    },
    "2925": {
        "22/03/2020 14:27:22": [
            42,
            27,
            -15
        ],
        "22/03/2020 16:53:54": [
            262,
            105,
            -15
        ],
        "22/03/2020 19:13:27": [
            -312,
            -25
        ]
    },
    "7442": {
        "22/03/2020 14:27:22": [
            24,
            9,
            29
        ],
        "22/03/2020 16:53:54": [
            240,
            148,
            28
        ],
        "22/03/2020 19:13:28": [
            -287,
            17
        ]
    },
    "7446": {
        "22/03/2020 14:27:23": [
            18,
            3,
            24
        ],
        "22/03/2020 16:53:54": [
            289,
            142,
            22
        ],
        "22/03/2020 19:13:28": [
            -293,
            11
        ]
    },
    "7070": {
        "22/03/2020 14:27:23": [
            -4,
            -19,
            5
        ],
        "22/03/2020 16:53:55": [
            266,
            121,
            1
        ],
        "22/03/2020 19:13:29": [
            -252,
            -9
        ]
    },
    "7445": {
        "22/03/2020 14:27:23": [
            35,
            20,
            -14
        ],
        "22/03/2020 16:53:55": [
            244,
            101,
            -19
        ],
        "22/03/2020 19:13:29": [
            -349,
            -28
        ]
    },
    "6339": {
        "22/03/2020 14:27:24": [
            -1,
            -16,
            12
        ],
        "22/03/2020 16:53:56": [
            268,
            127,
            7
        ],
        "22/03/2020 19:13:29": [
            -262,
            -2
        ]
    },
    "6324": {
        "22/03/2020 14:27:24": [
            -15,
            -30,
            1
        ],
        "22/03/2020 16:53:56": [
            253,
            114,
            -6
        ],
        "22/03/2020 19:13:30": [
            -274,
            -14
        ]
    },
    "6325": {
        "22/03/2020 14:27:25": [
            15,
            0
        ],
        "22/03/2020 16:53:57": [
            281,
            145,
            25
        ],
        "22/03/2020 19:13:30": [
            -154,
            17
        ]
    },
    "6341": {
        "22/03/2020 14:27:25": [
            12,
            -3
        ],
        "22/03/2020 16:53:57": [
            277,
            143,
            23
        ],
        "22/03/2020 19:13:31": [
            -154,
            17
        ]
    },
    "6277": {
        "22/03/2020 14:27:26": [
            -9,
            -24
        ],
        "22/03/2020 16:53:58": [
            255,
            124,
            4
        ],
        "22/03/2020 19:13:31": [
            -306,
            -2
        ]
    },
    "6278": {
        "22/03/2020 14:27:26": [
            14,
            -1
        ],
        "22/03/2020 16:53:58": [
            278,
            93,
            -27
        ],
        "22/03/2020 19:13:32": [
            -148,
            23
        ]
    },
    "6279": {
        "22/03/2020 14:27:27": [
            18,
            3
        ],
        "22/03/2020 16:53:59": [
            282,
            114,
            -6
        ],
        "22/03/2020 19:13:32": [
            -329,
            -25
        ]
    },
    "6280": {
        "22/03/2020 14:27:27": [],
        "22/03/2020 16:53:59": [],
        "22/03/2020 19:13:33": []
    },
    "7067": {
        "22/03/2020 14:27:27": [],
        "22/03/2020 16:54:00": [],
        "22/03/2020 19:13:33": []
    },
    "2956": {
        "22/03/2020 14:27:28": [],
        "22/03/2020 16:54:00": [],
        "22/03/2020 19:13:33": []
    },
    "2965": {
        "22/03/2020 14:27:28": [],
        "22/03/2020 16:54:00": [],
        "22/03/2020 19:13:34": []
    },
    "2983": {
        "22/03/2020 14:27:29": [],
        "22/03/2020 16:54:01": [],
        "22/03/2020 19:13:34": []
    },
    "2984": {
        "22/03/2020 14:27:29": [],
        "22/03/2020 16:54:02": [],
        "22/03/2020 19:13:35": []
    },
    "407": {
        "22/03/2020 14:27:30": [],
        "22/03/2020 16:54:02": [],
        "22/03/2020 19:13:35": []
    },
    "2498": {
        "22/03/2020 14:27:30": [],
        "22/03/2020 16:54:03": [],
        "22/03/2020 19:13:35": []
    },
    "7589": {
        "22/03/2020 14:27:31": [],
        "22/03/2020 16:54:04": [],
        "22/03/2020 19:13:36": []
    },
    "7076": {
        "22/03/2020 14:27:31": [],
        "22/03/2020 16:54:04": [],
        "22/03/2020 19:13:36": []
    },
    "7216": {
        "22/03/2020 14:27:31": [],
        "22/03/2020 16:54:05": [],
        "22/03/2020 19:13:37": []
    },
    "2499": {
        "22/03/2020 14:27:32": [],
        "22/03/2020 16:54:05": [],
        "22/03/2020 19:13:37": []
    },
    "6285": {
        "22/03/2020 14:27:32": [
            0,
            0,
            0
        ],
        "22/03/2020 16:54:06": [
            0,
            0,
            0
        ],
        "22/03/2020 19:13:38": [
            0,
            0
        ]
    },
    "6286": {
        "22/03/2020 14:27:33": [
            24,
            24,
            24
        ],
        "22/03/2020 16:54:06": [
            -29,
            -29,
            -30
        ],
        "22/03/2020 19:13:38": [
            24,
            24
        ]
    },
    "6287": {
        "22/03/2020 14:27:33": [
            17,
            17,
            17
        ],
        "22/03/2020 16:54:07": [
            -20,
            -20,
            -25
        ],
        "22/03/2020 19:13:39": [
            18,
            18
        ]
    },
    "6288": {
        "22/03/2020 14:27:34": [
            -12,
            -12
        ],
        "22/03/2020 16:54:07": [
            19,
            19,
            12
        ],
        "22/03/2020 19:13:39": [
            -12,
            -12
        ]
    },
    "6342": {
        "22/03/2020 14:27:34": [
            23,
            23
        ],
        "22/03/2020 16:54:08": [
            5,
            5,
            -5
        ],
        "22/03/2020 19:13:39": [
            24,
            24
        ]
    },
    "6298": {
        "22/03/2020 14:27:35": [
            -7,
            -7
        ],
        "22/03/2020 16:54:08": [
            -17,
            -17,
            -28
        ],
        "22/03/2020 19:13:40": [
            -6,
            -6
        ]
    },
    "6336": {
        "22/03/2020 14:27:35": [
            -26,
            -26
        ],
        "22/03/2020 16:54:09": [
            22,
            22,
            14
        ],
        "22/03/2020 19:13:40": [
            -27,
            -27
        ]
    },
    "7069": {
        "22/03/2020 14:27:36": [
            8,
            8
        ],
        "22/03/2020 16:54:09": [
            -9,
            -9,
            -9
        ],
        "22/03/2020 19:13:41": [
            4,
            4
        ]
    },
    "7443": {
        "22/03/2020 14:27:36": [
            -8,
            -8
        ],
        "22/03/2020 16:54:09": [
            -27,
            -27,
            -24
        ],
        "22/03/2020 19:13:41": [
            -14,
            -14
        ]
    },
    "7444": {
        "22/03/2020 14:27:37": [
            -1,
            -1
        ],
        "22/03/2020 16:54:10": [
            -23,
            -23,
            -15
        ],
        "22/03/2020 19:13:42": [
            -10,
            -10
        ]
    },
    "2941": {
        "22/03/2020 14:27:37": [
            26,
            26
        ],
        "22/03/2020 16:54:10": [
            2,
            2,
            12
        ],
        "22/03/2020 19:13:42": [
            16,
            16
        ]
    },
    "2942": {
        "22/03/2020 14:27:38": [
            -6,
            -6
        ],
        "22/03/2020 16:54:11": [
            12,
            -20,
            -20
        ],
        "22/03/2020 19:13:43": [
            -14,
            -14
        ]
    },
    "7065": {
        "22/03/2020 14:27:39": [
            5,
            5
        ],
        "22/03/2020 16:54:11": [
            41,
            -7,
            -7
        ],
        "22/03/2020 19:13:43": [
            -8,
            -8
        ]
    },
    "7063": {
        "22/03/2020 14:27:39": [
            12,
            -26,
            -26
        ],
        "22/03/2020 16:54:12": [
            70,
            22,
            22
        ],
        "22/03/2020 19:13:43": [
            18,
            18
        ]
    },
    "1137": {
        "22/03/2020 14:27:39": [
            -17,
            -17
        ],
        "22/03/2020 16:54:12": [
            24,
            -24,
            -24
        ],
        "22/03/2020 19:13:44": [
            20,
            20
        ]
    },
    "5131": {
        "22/03/2020 14:27:40": [
            -14,
            -14
        ],
        "22/03/2020 16:54:13": [
            31,
            -17,
            -17
        ],
        "22/03/2020 19:13:44": [
            17,
            17
        ]
    },
    "5132": {
        "22/03/2020 14:27:40": [
            15,
            15
        ],
        "22/03/2020 16:54:13": [
            19,
            19,
            19
        ],
        "22/03/2020 19:13:45": [
            -23,
            -23
        ]
    },
    "1331": {
        "22/03/2020 14:27:41": [
            -28,
            -28
        ],
        "22/03/2020 16:54:14": [
            -23,
            -23,
            -23
        ],
        "22/03/2020 19:13:45": [
            -8,
            -8
        ]
    },
    "1332": {
        "22/03/2020 14:27:41": [
            19,
            19
        ],
        "22/03/2020 16:54:14": [
            -27,
            -27,
            -27
        ],
        "22/03/2020 19:13:46": [
            28,
            28
        ]
    },
    "1333": {
        "22/03/2020 14:27:42": [
            2,
            2
        ],
        "22/03/2020 16:54:15": [
            20,
            20,
            20
        ],
        "22/03/2020 19:13:46": [
            11,
            11
        ]
    },
    "1334": {
        "22/03/2020 14:27:42": [
            -24,
            -24
        ],
        "22/03/2020 16:54:15": [
            -4,
            -4,
            -4
        ],
        "22/03/2020 19:13:47": [
            -16,
            -16
        ]
    },
    "2985": {
        "22/03/2020 14:27:43": [
            28,
            28
        ],
        "22/03/2020 16:54:15": [
            -18,
            -18,
            -18
        ],
        "22/03/2020 19:13:47": [
            -29,
            -29
        ]
    },
    "2986": {
        "22/03/2020 14:27:43": [
            -17,
            -17
        ],
        "22/03/2020 16:54:16": [
            -11,
            -11,
            -11
        ],
        "22/03/2020 19:13:47": [
            -21,
            -21
        ]
    },
    "2988": {
        "22/03/2020 14:27:44": [
            -29,
            -29
        ],
        "22/03/2020 16:54:16": [
            -28,
            -28,
            -28
        ],
        "22/03/2020 19:13:48": [
            22,
            22
        ]
    },
    "3001": {
        "22/03/2020 14:27:44": [
            15,
            15
        ],
        "22/03/2020 16:54:17": [
            10,
            10,
            10
        ],
        "22/03/2020 19:13:48": [
            -9,
            -9
        ]
    },
    "3002": {
        "22/03/2020 14:27:44": [
            -19,
            -19
        ],
        "22/03/2020 16:54:17": [
            -27,
            -27,
            -27
        ],
        "22/03/2020 19:13:49": [
            9,
            9
        ]
    },
    "1166": {
        "22/03/2020 14:27:45": [
            -4,
            -4
        ],
        "22/03/2020 16:54:18": [
            -22,
            -22,
            -22
        ],
        "22/03/2020 19:13:49": [
            0,
            0
        ]
    },
    "1167": {
        "22/03/2020 14:27:45": [
            -143,
            -10
        ],
        "22/03/2020 16:54:18": [
            25,
            25,
            25
        ],
        "22/03/2020 19:13:50": [
            -23,
            -23
        ]
    },
    "1168": {
        "22/03/2020 14:27:46": [
            -139,
            -16
        ],
        "22/03/2020 16:54:19": [
            12,
            12,
            12
        ],
        "22/03/2020 19:13:50": [
            13,
            13
        ]
    },
    "1169": {
        "22/03/2020 14:27:46": [
            -155,
            20
        ],
        "22/03/2020 16:54:19": [
            -9,
            -9,
            -9
        ],
        "22/03/2020 19:13:51": [
            -10,
            -10
        ]
    },
    "1170": {
        "22/03/2020 14:27:47": [
            -114,
            -6
        ],
        "22/03/2020 16:54:20": [
            29,
            29,
            29
        ],
        "22/03/2020 19:13:51": [
            25,
            25
        ]
    },
    "1069": {
        "22/03/2020 14:27:47": [
            -136,
            -17
        ],
        "22/03/2020 16:54:20": [
            24,
            24,
            24
        ],
        "22/03/2020 19:13:51": [
            12,
            12
        ]
    },
    "1070": {
        "22/03/2020 14:27:48": [
            -139,
            27
        ],
        "22/03/2020 16:54:21": [
            14,
            14,
            14
        ],
        "22/03/2020 19:13:52": [
            -6,
            -6
        ]
    },
    "1071": {
        "22/03/2020 14:27:48": [
            -156,
            29
        ],
        "22/03/2020 16:54:21": [
            24,
            24,
            24
        ],
        "22/03/2020 19:13:52": [
            -6,
            -6
        ]
    },
    "4528": {
        "22/03/2020 14:27:49": [
            -110,
            20
        ],
        "22/03/2020 16:54:22": [
            8,
            8,
            8
        ],
        "22/03/2020 19:13:53": [
            -28,
            -28
        ]
    },
    "1072": {
        "22/03/2020 14:27:49": [
            -164,
            -29
        ],
        "22/03/2020 16:54:22": [
            10,
            10
        ],
        "22/03/2020 19:13:53": [
            26,
            26
        ]
    },
    "7577": {
        "22/03/2020 14:27:49": [
            -147,
            -16
        ],
        "22/03/2020 16:54:22": [
            10,
            10
        ],
        "22/03/2020 19:13:54": [
            -21,
            -21
        ]
    },
    "1353": {
        "22/03/2020 14:27:50": [
            -140,
            -14
        ],
        "22/03/2020 16:54:23": [
            2,
            2
        ],
        "22/03/2020 19:13:54": [
            -19
        ]
    },
    "1354": {
        "22/03/2020 14:27:50": [
            -112,
            9
        ],
        "22/03/2020 16:54:23": [
            11,
            11
        ],
        "22/03/2020 19:13:55": [
            4
        ]
    },
    "7578": {
        "22/03/2020 14:27:51": [
            -109,
            17
        ],
        "22/03/2020 16:54:24": [
            -154,
            1,
            1
        ],
        "22/03/2020 19:13:55": [
            -10
        ]
    },
    "7582": {
        "22/03/2020 14:27:51": [
            13
        ],
        "22/03/2020 16:54:24": [
            -176,
            -7,
            -7
        ],
        "22/03/2020 19:13:56": [
            -167,
            -16
        ]
    },
    "340": {
        "22/03/2020 14:27:52": [
            -133,
            5,
            -19
        ],
        "22/03/2020 16:54:25": [
            -111,
            15,
            15
        ],
        "22/03/2020 19:13:56": [
            -122,
            8
        ]
    },
    "350": {
        "22/03/2020 14:27:52": [
            -113,
            -1
        ],
        "22/03/2020 16:54:25": [
            -222,
            20,
            20
        ],
        "22/03/2020 19:13:56": [
            -113,
            17
        ]
    },
    "351": {
        "22/03/2020 14:27:53": [
            -301,
            -155,
            -17,
            14
        ],
        "22/03/2020 16:54:26": [
            -142,
            -13,
            -13
        ],
        "22/03/2020 19:13:57": [
            -151,
            -21
        ]
    },
    "352": {
        "22/03/2020 14:27:53": [
            -260,
            -119
        ],
        "22/03/2020 16:54:26": [
            -165,
            27,
            27
        ],
        "22/03/2020 19:13:57": [
            -113,
            17
        ]
    },
    "353": {
        "22/03/2020 14:27:54": [
            -285,
            -144
        ],
        "22/03/2020 16:54:26": [
            -129,
            6,
            6
        ],
        "22/03/2020 19:13:58": [
            -136,
            -6
        ]
    },
    "354": {
        "22/03/2020 14:27:54": [],
        "22/03/2020 16:54:27": [],
        "22/03/2020 19:13:58": []
    }
}