{
    "2237": {
        "22/03/2020 14:40:32": [],
        "22/03/2020 17:07:09": [],
        "22/03/2020 19:26:06": []
    },
    "347": {
        "22/03/2020 14:40:32": [],
        "22/03/2020 17:07:10": [],
        "22/03/2020 19:26:06": []
    },
    "7588": {
        "22/03/2020 14:40:33": [],
        "22/03/2020 17:07:10": [],
        "22/03/2020 19:26:07": []
    },
    "7391": {
        "22/03/2020 14:40:33": [
            0,
            0
        ],
        "22/03/2020 17:07:11": [
            0,
            0
        ],
        "22/03/2020 19:26:07": [
            0,
            0
        ]
    },
    "493": {
        "22/03/2020 14:40:34": [
            -28,
            19
        ],
        "22/03/2020 17:07:11": [
            24,
            24
        ],
        "22/03/2020 19:26:07": [
            23,
            23
        ]
    },
    "494": {
        "22/03/2020 14:40:34": [
            -16,
            21
        ],
        "22/03/2020 17:07:12": [
            -30,
            -30
        ],
        "22/03/2020 19:26:08": [
            29,
            29
        ]
    },
    "495": {
        "22/03/2020 14:40:35": [
            -7,
            13
        ],
        "22/03/2020 17:07:12": [
            26,
            26
        ],
        "22/03/2020 19:26:08": [
            -25,
            -25
        ]
    },
    "400": {
        "22/03/2020 14:40:35": [
            -23,
            -15
        ],
        "22/03/2020 17:07:13": [
            19,
            1
        ],
        "22/03/2020 19:26:09": [
            17,
            17
        ]
    },
    "7392": {
        "22/03/2020 14:40:36": [
            -9
        ],
        "22/03/2020 17:07:13": [
            19,
            -10
        ],
        "22/03/2020 19:26:09": [
            25,
            25
        ]
    },
    "312": {
        "22/03/2020 14:40:36": [
            15
        ],
        "22/03/2020 17:07:14": [
            29,
            3
        ],
        "22/03/2020 19:26:10": [
            -14,
            -14
        ]
    },
    "1444": {
        "22/03/2020 14:40:37": [
            -194,
            9
        ],
        "22/03/2020 17:07:14": [
            4,
            -16
        ],
        "22/03/2020 19:26:10": [
            -23,
            -23
        ]
    },
    "1445": {
        "22/03/2020 14:40:37": [
            -191,
            12
        ],
        "22/03/2020 17:07:15": [
            15,
            -17
        ],
        "22/03/2020 19:26:11": [
            -20,
            -20
        ]
    },
    "4407": {
        "22/03/2020 14:40:37": [
            -261,
            -15
        ],
        "22/03/2020 17:07:15": [
            -18,
            3
        ],
        "22/03/2020 19:26:11": [
            -3,
            -3
        ]
    },
    "2637": {
        "22/03/2020 14:40:38": [
            -224,
            22
        ],
        "22/03/2020 17:07:16": [
            13,
            28
        ],
        "22/03/2020 19:26:12": [
            18,
            18
        ]
    },
    "2721": {
        "22/03/2020 14:40:39": [
            -150,
            24
        ],
        "22/03/2020 17:07:16": [
            -15,
            -12
        ],
        "22/03/2020 19:26:12": [
            -28,
            -28
        ]
    },
    "7012": {
        "22/03/2020 14:40:39": [
            -164,
            10
        ],
        "22/03/2020 17:07:17": [
            19,
            26
        ],
        "22/03/2020 19:26:12": [
            12,
            12
        ]
    },
    "2201": {
        "22/03/2020 14:40:39": [
            -154,
            20
        ],
        "22/03/2020 17:07:17": [
            11,
            -3
        ],
        "22/03/2020 19:26:13": [
            9
        ]
    },
    "7239": {
        "22/03/2020 14:40:40": [
            -190,
            -16
        ],
        "22/03/2020 17:07:18": [
            -27,
            18
        ],
        "22/03/2020 19:26:13": [
            90,
            -28
        ]
    },
    "4401": {
        "22/03/2020 14:40:40": [
            -172,
            2
        ],
        "22/03/2020 17:07:18": [
            -10,
            -27
        ],
        "22/03/2020 19:26:14": [
            106,
            -11
        ]
    },
    "2213": {
        "22/03/2020 14:40:41": [
            -148,
            26
        ],
        "22/03/2020 17:07:18": [
            10,
            9
        ],
        "22/03/2020 19:26:14": [
            113,
            12
        ]
    },
    "2214": {
        "22/03/2020 14:40:41": [
            -154,
            20
        ],
        "22/03/2020 17:07:19": [
            2,
            -8
        ],
        "22/03/2020 19:26:14": [
            102,
            5
        ]
    },
    "2215": {
        "22/03/2020 14:40:42": [
            -167,
            7
        ],
        "22/03/2020 17:07:19": [
            3,
            -16
        ],
        "22/03/2020 19:26:15": [
            140,
            8
        ]
    },
    "2216": {
        "22/03/2020 14:40:42": [
            -191,
            -17
        ],
        "22/03/2020 17:07:20": [
            -10,
            27
        ],
        "22/03/2020 19:26:15": [
            119,
            3
        ]
    },
    "4599": {
        "22/03/2020 14:40:43": [
            -196,
            -22
        ],
        "22/03/2020 17:07:21": [
            -12,
            18
        ],
        "22/03/2020 19:26:16": [
            114,
            0
        ]
    },
    "4601": {
        "22/03/2020 14:40:43": [
            -151,
            23
        ],
        "22/03/2020 17:07:21": [
            -25,
            14
        ],
        "22/03/2020 19:26:16": [
            154,
            5
        ]
    },
    "5058": {
        "22/03/2020 14:40:44": [
            -178,
            -4
        ],
        "22/03/2020 17:07:22": [
            -4,
            -21
        ],
        "22/03/2020 19:26:17": [
            110,
            -24
        ]
    },
    "4602": {
        "22/03/2020 14:40:44": [
            -172,
            2
        ],
        "22/03/2020 17:07:22": [
            -7,
            -22
        ],
        "22/03/2020 19:26:17": [
            103,
            -21
        ]
    },
    "4603": {
        "22/03/2020 14:40:45": [
            -163
        ],
        "22/03/2020 17:07:23": [
            -7
        ],
        "22/03/2020 19:26:17": [
            159,
            -13
        ]
    },
    "4604": {
        "22/03/2020 14:40:45": [
            -186
        ],
        "22/03/2020 17:07:23": [
            -28
        ],
        "22/03/2020 19:26:18": [
            134
        ]
    },
    "4605": {
        "22/03/2020 14:40:46": [
            -188
        ],
        "22/03/2020 17:07:23": [
            -26
        ],
        "22/03/2020 19:26:18": [
            129,
            -24
        ]
    },
    "4562": {
        "22/03/2020 14:40:46": [
            -183
        ],
        "22/03/2020 17:07:24": [
            -16
        ],
        "22/03/2020 19:26:19": [
            132,
            -9
        ]
    },
    "7386": {
        "22/03/2020 14:40:46": [
            -186
        ],
        "22/03/2020 17:07:24": [
            -21
        ],
        "22/03/2020 19:26:19": [
            129,
            -8
        ]
    },
    "4607": {
        "22/03/2020 14:40:47": [
            -149
        ],
        "22/03/2020 17:07:25": [
            16
        ],
        "22/03/2020 19:26:20": [
            107,
            -27
        ]
    },
    "4608": {
        "22/03/2020 14:40:47": [
            -145
        ],
        "22/03/2020 17:07:25": [
            18
        ],
        "22/03/2020 19:26:20": [
            112,
            -18
        ]
    },
    "4609": {
        "22/03/2020 14:40:48": [
            -152
        ],
        "22/03/2020 17:07:26": [
            15
        ],
        "22/03/2020 19:26:21": [
            107,
            -12
        ]
    },
    "4610": {
        "22/03/2020 14:40:48": [
            14,
            -176
        ],
        "22/03/2020 17:07:26": [
            -7
        ],
        "22/03/2020 19:26:21": [
            145,
            -28
        ]
    },
    "4611": {
        "22/03/2020 14:40:49": [
            6,
            -187
        ],
        "22/03/2020 17:07:27": [
            -13
        ],
        "22/03/2020 19:26:22": [
            137,
            -26
        ]
    },
    "4612": {
        "22/03/2020 14:40:49": [
            -22,
            -156
        ],
        "22/03/2020 17:07:27": [
            -396,
            20
        ],
        "22/03/2020 19:26:22": [
            109,
            12
        ]
    },
    "4613": {
        "22/03/2020 14:40:50": [
            19,
            -166
        ],
        "22/03/2020 17:07:28": [
            -443,
            3
        ],
        "22/03/2020 19:26:22": [
            150,
            -7
        ]
    },
    "3370": {
        "22/03/2020 14:40:50": [
            1,
            -175
        ],
        "22/03/2020 17:07:28": [
            -429,
            -13
        ],
        "22/03/2020 19:26:23": [
            132,
            -25
        ]
    },
    "7168": {
        "22/03/2020 14:40:50": [
            -2,
            -175
        ],
        "22/03/2020 17:07:28": [
            -455,
            -9
        ],
        "22/03/2020 19:26:23": [
            129,
            25
        ]
    },
    "4616": {
        "22/03/2020 14:40:51": [],
        "22/03/2020 17:07:29": [],
        "22/03/2020 19:26:23": []
    },
    "4620": {
        "22/03/2020 14:40:51": [
            0,
            0
        ],
        "22/03/2020 17:07:29": [
            0,
            0
        ],
        "22/03/2020 19:26:24": [
            0,
            0
        ]
    },
    "7563": {
        "22/03/2020 14:40:52": [
            -10,
            -10
        ],
        "22/03/2020 17:07:30": [
            -24,
            -13
        ],
        "22/03/2020 19:26:24": [
            -6,
            -6
        ]
    },
    "3368": {
        "22/03/2020 14:40:52": [
            -16,
            -16
        ],
        "22/03/2020 17:07:30": [
            16,
            -22
        ],
        "22/03/2020 19:26:25": [
            -7,
            -7
        ]
    },
    "4626": {
        "22/03/2020 14:40:53": [
            8,
            8
        ],
        "22/03/2020 17:07:31": [
            22,
            -3
        ],
        "22/03/2020 19:26:26": [
            8,
            8
        ]
    },
    "4627": {
        "22/03/2020 14:40:53": [
            -16,
            -16
        ],
        "22/03/2020 17:07:31": [
            -11,
            28
        ],
        "22/03/2020 19:26:26": [
            -22,
            -22
        ]
    },
    "4624": {
        "22/03/2020 14:40:54": [
            -20,
            -20
        ],
        "22/03/2020 17:07:31": [
            -28,
            16
        ],
        "22/03/2020 19:26:27": [
            24,
            24
        ]
    },
    "4625": {
        "22/03/2020 14:40:54": [
            -4,
            -4
        ],
        "22/03/2020 17:07:32": [
            29,
            21
        ],
        "22/03/2020 19:26:27": [
            27,
            27
        ]
    },
    "4628": {
        "22/03/2020 14:40:55": [
            -21,
            -21
        ],
        "22/03/2020 17:07:32": [
            8,
            4
        ],
        "22/03/2020 19:26:28": [
            5,
            5
        ]
    },
    "4623": {
        "22/03/2020 14:40:55": [
            -8,
            -8
        ],
        "22/03/2020 17:07:33": [
            12,
            17
        ],
        "22/03/2020 19:26:28": [
            8,
            8
        ]
    },
    "4619": {
        "22/03/2020 14:40:55": [
            -15,
            -15
        ],
        "22/03/2020 17:07:33": [
            0,
            10
        ],
        "22/03/2020 19:26:28": [
            -5,
            -5
        ]
    },
    "4561": {
        "22/03/2020 14:40:56": [
            -18,
            -18
        ],
        "22/03/2020 17:07:34": [
            -10,
            5
        ],
        "22/03/2020 19:26:29": [
            -16,
            -16
        ]
    },
    "4629": {
        "22/03/2020 14:40:57": [
            23,
            23
        ],
        "22/03/2020 17:07:34": [
            27,
            -15
        ],
        "22/03/2020 19:26:29": [
            20,
            20
        ]
    },
    "4630": {
        "22/03/2020 14:40:57": [
            25,
            25
        ],
        "22/03/2020 17:07:34": [
            22,
            -16
        ],
        "22/03/2020 19:26:30": [
            14,
            14
        ]
    },
    "4631": {
        "22/03/2020 14:40:58": [
            29,
            29
        ],
        "22/03/2020 17:07:35": [
            18,
            -14
        ],
        "22/03/2020 19:26:30": [
            9,
            9
        ]
    },
    "4632": {
        "22/03/2020 14:40:58": [
            10,
            10
        ],
        "22/03/2020 17:07:35": [
            4,
            22
        ],
        "22/03/2020 19:26:31": [
            -12,
            -12
        ]
    },
    "5164": {
        "22/03/2020 14:40:59": [
            13,
            13
        ],
        "22/03/2020 17:07:36": [
            16,
            18
        ],
        "22/03/2020 19:26:31": [
            -11,
            -11
        ]
    },
    "4633": {
        "22/03/2020 14:40:59": [
            -4,
            -4
        ],
        "22/03/2020 17:07:36": [
            12,
            -11
        ],
        "22/03/2020 19:26:31": [
            28,
            28
        ]
    },
    "2234": {
        "22/03/2020 14:40:59": [
            -10,
            -10
        ],
        "22/03/2020 17:07:36": [
            -4,
            -3
        ],
        "22/03/2020 19:26:32": [
            -46,
            0,
            0
        ]
    },
    "2235": {
        "22/03/2020 14:41:00": [
            10,
            10
        ],
        "22/03/2020 17:07:37": [
            14,
            22
        ],
        "22/03/2020 19:26:32": [
            -29,
            17,
            17
        ]
    },
    "2236": {
        "22/03/2020 14:41:00": [
            2,
            2
        ],
        "22/03/2020 17:07:37": [
            3,
            28
        ],
        "22/03/2020 19:26:33": [
            -42,
            4,
            4
        ]
    },
    "2238": {
        "22/03/2020 14:41:01": [
            27,
            27
        ],
        "22/03/2020 17:07:38": [
            25,
            -3
        ],
        "22/03/2020 19:26:33": [
            -20,
            26,
            26
        ]
    },
    "5056": {
        "22/03/2020 14:41:01": [
            -13,
            -13
        ],
        "22/03/2020 17:07:38": [
            -20,
            16
        ],
        "22/03/2020 19:26:34": [
            -62,
            -16,
            -16
        ]
    },
    "2239": {
        "22/03/2020 14:41:02": [
            29,
            29
        ],
        "22/03/2020 17:07:39": [
            0,
            -6
        ],
        "22/03/2020 19:26:34": [
            -26,
            20
        ]
    },
    "2241": {
        "22/03/2020 14:41:02": [
            22,
            22
        ],
        "22/03/2020 17:07:39": [
            -6,
            -8
        ],
        "22/03/2020 19:26:34": [
            -23,
            23
        ]
    },
    "2242": {
        "22/03/2020 14:41:03": [
            -18,
            -18
        ],
        "22/03/2020 17:07:40": [
            14,
            14
        ],
        "22/03/2020 19:26:35": [
            -62,
            -16
        ]
    },
    "7435": {
        "22/03/2020 14:41:03": [
            7
        ],
        "22/03/2020 17:07:40": [
            -30
        ],
        "22/03/2020 19:26:35": [
            31,
            15
        ]
    },
    "2722": {
        "22/03/2020 14:41:04": [
            26
        ],
        "22/03/2020 17:07:40": [
            -12
        ],
        "22/03/2020 19:26:36": [
            -10,
            -26
        ]
    },
    "4413": {
        "22/03/2020 14:41:04": [
            -2
        ],
        "22/03/2020 17:07:41": [
            21,
            21
        ],
        "22/03/2020 19:26:36": [
            22,
            6
        ]
    },
    "1476": {
        "22/03/2020 14:41:04": [
            -239,
            -24
        ],
        "22/03/2020 17:07:41": [
            6,
            6
        ],
        "22/03/2020 19:26:37": [
            -3,
            -19
        ]
    },
    "7453": {
        "22/03/2020 14:41:05": [
            -312,
            12
        ],
        "22/03/2020 17:07:42": [
            -29,
            -29
        ],
        "22/03/2020 19:26:37": [
            26,
            10
        ]
    },
    "1478": {
        "22/03/2020 14:41:05": [
            -292,
            -28
        ],
        "22/03/2020 17:07:42": [
            -17,
            -17
        ],
        "22/03/2020 19:26:37": [
            42,
            26
        ]
    },
    "1479": {
        "22/03/2020 14:41:06": [
            -250,
            28
        ],
        "22/03/2020 17:07:43": [
            -28,
            -28
        ],
        "22/03/2020 19:26:38": [
            34,
            18
        ]
    },
    "315": {
        "22/03/2020 14:41:06": [
            -267,
            0
        ],
        "22/03/2020 17:07:43": [
            -4,
            -4
        ],
        "22/03/2020 19:26:38": [
            -11,
            -27
        ]
    },
    "406": {
        "22/03/2020 14:41:07": [
            -234,
            -12
        ],
        "22/03/2020 17:07:43": [
            19,
            19
        ],
        "22/03/2020 19:26:39": [
            22,
            6
        ]
    },
    "4530": {
        "22/03/2020 14:41:07": [
            -264,
            22
        ],
        "22/03/2020 17:07:44": [
            -14,
            -14
        ],
        "22/03/2020 19:26:39": [
            -8,
            -24
        ]
    },
    "748": {
        "22/03/2020 14:41:08": [
            -254,
            -21
        ],
        "22/03/2020 17:07:44": [
            23,
            23
        ],
        "22/03/2020 19:26:40": [
            -9,
            -25
        ]
    },
    "7390": {
        "22/03/2020 14:41:08": [],
        "22/03/2020 17:07:45": [],
        "22/03/2020 19:26:40": []
    }
}