{
    "1424": {
        "23/03/2020 14:01:14": [],
        "23/03/2020 16:05:29": [],
        "23/03/2020 19:16:54": []
    },
    "2190": {
        "23/03/2020 14:01:14": [],
        "23/03/2020 16:05:29": [],
        "23/03/2020 19:16:55": []
    },
    "2425": {
        "23/03/2020 14:01:14": [],
        "23/03/2020 16:05:29": [],
        "23/03/2020 19:16:55": []
    },
    "2426": {
        "23/03/2020 14:01:15": [],
        "23/03/2020 16:05:30": [],
        "23/03/2020 19:16:55": []
    },
    "2427": {
        "23/03/2020 14:01:15": [],
        "23/03/2020 16:05:30": [],
        "23/03/2020 19:16:56": []
    },
    "2809": {
        "23/03/2020 14:01:15": [],
        "23/03/2020 16:05:30": [],
        "23/03/2020 19:16:56": []
    },
    "2810": {
        "23/03/2020 14:01:16": [],
        "23/03/2020 16:05:31": [],
        "23/03/2020 19:16:56": []
    },
    "350": {
        "23/03/2020 14:01:16": [],
        "23/03/2020 16:05:31": [],
        "23/03/2020 19:16:56": []
    },
    "4713": {
        "23/03/2020 14:01:16": [],
        "23/03/2020 16:05:31": [],
        "23/03/2020 19:16:57": []
    },
    "4714": {
        "23/03/2020 14:01:17": [],
        "23/03/2020 16:05:32": [],
        "23/03/2020 19:16:57": []
    },
    "4880": {
        "23/03/2020 14:01:17": [],
        "23/03/2020 16:05:32": [],
        "23/03/2020 19:16:57": []
    },
    "5161": {
        "23/03/2020 14:01:17": [],
        "23/03/2020 16:05:32": [],
        "23/03/2020 19:16:58": []
    },
    "5162": {
        "23/03/2020 14:01:18": [],
        "23/03/2020 16:05:33": [],
        "23/03/2020 19:16:58": []
    },
    "5192": {
        "23/03/2020 14:01:18": [],
        "23/03/2020 16:05:33": [],
        "23/03/2020 19:16:58": []
    },
    "7222": {
        "23/03/2020 14:01:18": [],
        "23/03/2020 16:05:33": [],
        "23/03/2020 19:16:58": []
    },
    "751": {
        "23/03/2020 14:01:19": [],
        "23/03/2020 16:05:34": [],
        "23/03/2020 19:16:59": []
    },
    "752": {
        "23/03/2020 14:01:19": [],
        "23/03/2020 16:05:34": [],
        "23/03/2020 19:16:59": []
    },
    "753": {
        "23/03/2020 14:01:19": [],
        "23/03/2020 16:05:34": [],
        "23/03/2020 19:16:59": []
    },
    "754": {
        "23/03/2020 14:01:20": [],
        "23/03/2020 16:05:34": [],
        "23/03/2020 19:17:00": []
    },
    "755": {
        "23/03/2020 14:01:20": [],
        "23/03/2020 16:05:35": [],
        "23/03/2020 19:17:00": []
    },
    "756": {
        "23/03/2020 14:01:21": [],
        "23/03/2020 16:05:35": [],
        "23/03/2020 19:17:00": []
    },
    "757": {
        "23/03/2020 14:01:22": [],
        "23/03/2020 16:05:35": [],
        "23/03/2020 19:17:00": []
    },
    "758": {
        "23/03/2020 14:01:22": [],
        "23/03/2020 16:05:36": [],
        "23/03/2020 19:17:01": []
    },
    "761": {
        "23/03/2020 14:01:22": [],
        "23/03/2020 16:05:36": [],
        "23/03/2020 19:17:01": []
    },
    "762": {
        "23/03/2020 14:01:22": [],
        "23/03/2020 16:05:36": [],
        "23/03/2020 19:17:01": []
    },
    "763": {
        "23/03/2020 14:01:23": [],
        "23/03/2020 16:05:36": [],
        "23/03/2020 19:17:02": []
    },
    "2357": {
        "23/03/2020 14:01:23": [],
        "23/03/2020 16:05:37": [],
        "23/03/2020 19:17:02": []
    },
    "2371": {
        "23/03/2020 14:01:24": [],
        "23/03/2020 16:05:37": [],
        "23/03/2020 19:17:02": []
    },
    "2428": {
        "23/03/2020 14:01:24": [],
        "23/03/2020 16:05:37": [],
        "23/03/2020 19:17:03": []
    },
    "2429": {
        "23/03/2020 14:01:24": [],
        "23/03/2020 16:05:38": [],
        "23/03/2020 19:17:03": []
    },
    "2554": {
        "23/03/2020 14:01:25": [],
        "23/03/2020 16:05:38": [],
        "23/03/2020 19:17:03": []
    },
    "4434": {
        "23/03/2020 14:01:25": [],
        "23/03/2020 16:05:38": [],
        "23/03/2020 19:17:04": []
    },
    "4932": {
        "23/03/2020 14:01:26": [],
        "23/03/2020 16:05:39": [],
        "23/03/2020 19:17:04": []
    },
    "4933": {
        "23/03/2020 14:01:26": [],
        "23/03/2020 16:05:39": [],
        "23/03/2020 19:17:04": []
    },
    "4952": {
        "23/03/2020 14:01:26": [],
        "23/03/2020 16:05:39": [],
        "23/03/2020 19:17:04": []
    },
    "4960": {
        "23/03/2020 14:01:27": [],
        "23/03/2020 16:05:40": [],
        "23/03/2020 19:17:05": []
    },
    "6170": {
        "23/03/2020 14:01:27": [],
        "23/03/2020 16:05:40": [],
        "23/03/2020 19:17:05": []
    },
    "759": {
        "23/03/2020 14:01:27": [],
        "23/03/2020 16:05:40": [],
        "23/03/2020 19:17:05": []
    },
    "760": {
        "23/03/2020 14:01:28": [],
        "23/03/2020 16:05:41": [],
        "23/03/2020 19:17:06": []
    },
    "1358": {
        "23/03/2020 14:01:28": [],
        "23/03/2020 16:05:41": [],
        "23/03/2020 19:17:06": []
    },
    "2002": {
        "23/03/2020 14:01:29": [],
        "23/03/2020 16:05:42": [],
        "23/03/2020 19:17:06": []
    },
    "2372": {
        "23/03/2020 14:01:29": [],
        "23/03/2020 16:05:42": [],
        "23/03/2020 19:17:06": []
    },
    "2373": {
        "23/03/2020 14:01:30": [],
        "23/03/2020 16:05:43": [],
        "23/03/2020 19:17:07": []
    },
    "2379": {
        "23/03/2020 14:01:30": [],
        "23/03/2020 16:05:43": [],
        "23/03/2020 19:17:07": []
    },
    "2380": {
        "23/03/2020 14:01:30": [],
        "23/03/2020 16:05:43": [],
        "23/03/2020 19:17:07": []
    },
    "2382": {
        "23/03/2020 14:01:30": [],
        "23/03/2020 16:05:44": [],
        "23/03/2020 19:17:08": []
    },
    "2383": {
        "23/03/2020 14:01:31": [],
        "23/03/2020 16:05:44": [],
        "23/03/2020 19:17:08": []
    },
    "2430": {
        "23/03/2020 14:01:31": [],
        "23/03/2020 16:05:44": [],
        "23/03/2020 19:17:08": []
    },
    "2566": {
        "23/03/2020 14:01:31": [],
        "23/03/2020 16:05:45": [],
        "23/03/2020 19:17:08": []
    },
    "2567": {
        "23/03/2020 14:01:32": [],
        "23/03/2020 16:05:45": [],
        "23/03/2020 19:17:09": []
    },
    "2568": {
        "23/03/2020 14:01:32": [],
        "23/03/2020 16:05:45": [],
        "23/03/2020 19:17:09": []
    },
    "2569": {
        "23/03/2020 14:01:32": [],
        "23/03/2020 16:05:46": [],
        "23/03/2020 19:17:09": []
    },
    "2570": {
        "23/03/2020 14:01:33": [],
        "23/03/2020 16:05:46": [],
        "23/03/2020 19:17:10": []
    },
    "2590": {
        "23/03/2020 14:01:33": [],
        "23/03/2020 16:05:46": [],
        "23/03/2020 19:17:10": []
    },
    "2591": {
        "23/03/2020 14:01:33": [],
        "23/03/2020 16:05:47": [],
        "23/03/2020 19:17:10": []
    },
    "2592": {
        "23/03/2020 14:01:33": [],
        "23/03/2020 16:05:47": [],
        "23/03/2020 19:17:11": []
    },
    "2606": {
        "23/03/2020 14:01:34": [],
        "23/03/2020 16:05:47": [],
        "23/03/2020 19:17:11": []
    },
    "2607": {
        "23/03/2020 14:01:34": [],
        "23/03/2020 16:05:48": [],
        "23/03/2020 19:17:11": []
    },
    "2608": {
        "23/03/2020 14:01:34": [],
        "23/03/2020 16:05:48": [],
        "23/03/2020 19:17:11": []
    },
    "2609": {
        "23/03/2020 14:01:35": [],
        "23/03/2020 16:05:48": [],
        "23/03/2020 19:17:12": []
    },
    "2610": {
        "23/03/2020 14:01:35": [],
        "23/03/2020 16:05:48": [],
        "23/03/2020 19:17:12": []
    },
    "5099": {
        "23/03/2020 14:01:35": [],
        "23/03/2020 16:05:49": [],
        "23/03/2020 19:17:12": []
    },
    "750": {
        "23/03/2020 14:01:36": [],
        "23/03/2020 16:05:49": [],
        "23/03/2020 19:17:13": []
    },
    "5023": {
        "23/03/2020 14:01:36": [],
        "23/03/2020 16:05:49": [],
        "23/03/2020 19:17:13": []
    },
    "5024": {
        "23/03/2020 14:01:36": [],
        "23/03/2020 16:05:50": [],
        "23/03/2020 19:17:13": []
    }
}