{
    "4713": {
        "21/03/2020 15:38:06": [],
        "21/03/2020 15:38:28": [],
        "21/03/2020 17:34:44": [],
        "21/03/2020 20:26:09": [],
        "21/03/2020 22:29:01": []
    },
    "4714": {
        "21/03/2020 15:38:06": [],
        "21/03/2020 15:38:28": [],
        "21/03/2020 17:34:45": [],
        "21/03/2020 20:26:09": [],
        "21/03/2020 22:29:01": []
    },
    "4960": {
        "21/03/2020 15:38:07": [],
        "21/03/2020 15:38:36": [],
        "21/03/2020 17:34:52": [],
        "21/03/2020 20:26:20": [],
        "21/03/2020 22:29:12": []
    },
    "4932": {
        "21/03/2020 15:38:07": [],
        "21/03/2020 15:38:35": [],
        "21/03/2020 17:34:51": [],
        "21/03/2020 20:26:19": [],
        "21/03/2020 22:29:11": []
    },
    "4933": {
        "21/03/2020 15:38:08": [],
        "21/03/2020 15:38:35": [],
        "21/03/2020 17:34:52": [],
        "21/03/2020 20:26:19": [],
        "21/03/2020 22:29:11": []
    },
    "2590": {
        "21/03/2020 15:38:08": [],
        "21/03/2020 15:38:41": [],
        "21/03/2020 17:34:57": [],
        "21/03/2020 20:26:28": [],
        "21/03/2020 22:29:20": []
    },
    "2591": {
        "21/03/2020 15:38:09": [],
        "21/03/2020 15:38:41": [],
        "21/03/2020 17:34:58": [],
        "21/03/2020 20:26:28": [],
        "21/03/2020 22:29:21": []
    },
    "2592": {
        "21/03/2020 15:38:09": [],
        "21/03/2020 15:38:41": [],
        "21/03/2020 17:34:58": [],
        "21/03/2020 20:26:29": [],
        "21/03/2020 22:29:21": []
    },
    "2357": {
        "21/03/2020 15:38:09": [],
        "21/03/2020 15:38:33": [],
        "21/03/2020 17:34:49": [],
        "21/03/2020 20:26:16": [],
        "21/03/2020 22:29:08": []
    },
    "2566": {
        "21/03/2020 15:38:10": [],
        "21/03/2020 15:38:39": [],
        "21/03/2020 17:34:56": [],
        "21/03/2020 20:26:26": [],
        "21/03/2020 22:29:18": []
    },
    "2567": {
        "21/03/2020 15:38:10": [],
        "21/03/2020 15:38:40": [],
        "21/03/2020 17:34:56": [],
        "21/03/2020 20:26:26": [],
        "21/03/2020 22:29:18": []
    },
    "2568": {
        "21/03/2020 15:38:10": [],
        "21/03/2020 15:38:40": [],
        "21/03/2020 17:34:56": [],
        "21/03/2020 20:26:26": [],
        "21/03/2020 22:29:19": []
    },
    "2569": {
        "21/03/2020 15:38:10": [],
        "21/03/2020 15:38:40": [],
        "21/03/2020 17:34:57": [],
        "21/03/2020 20:26:27": [],
        "21/03/2020 22:29:19": []
    },
    "2570": {
        "21/03/2020 15:38:11": [],
        "21/03/2020 15:38:40": [],
        "21/03/2020 17:34:57": [],
        "21/03/2020 20:26:27": [],
        "21/03/2020 22:29:19": []
    },
    "7222": {
        "21/03/2020 15:38:11": [],
        "21/03/2020 15:38:30": [],
        "21/03/2020 17:34:46": [],
        "21/03/2020 20:26:11": [],
        "21/03/2020 22:29:03": []
    },
    "6170": {
        "21/03/2020 15:38:11": [],
        "21/03/2020 15:38:36": [],
        "21/03/2020 17:34:52": [],
        "21/03/2020 20:26:21": [],
        "21/03/2020 22:29:13": []
    },
    "5023": {
        "21/03/2020 15:38:12": [],
        "21/03/2020 15:38:43": [],
        "21/03/2020 17:35:00": [],
        "21/03/2020 20:26:32": [],
        "21/03/2020 22:29:25": []
    },
    "5024": {
        "21/03/2020 15:38:12": [],
        "21/03/2020 15:38:44": [],
        "21/03/2020 17:35:00": [],
        "21/03/2020 20:26:32": [],
        "21/03/2020 22:29:26": []
    },
    "5161": {
        "21/03/2020 15:38:12": [],
        "21/03/2020 15:38:29": [],
        "21/03/2020 17:34:45": [],
        "21/03/2020 20:26:10": [],
        "21/03/2020 22:29:02": []
    },
    "5162": {
        "21/03/2020 15:38:13": [],
        "21/03/2020 15:38:29": [],
        "21/03/2020 17:34:45": [],
        "21/03/2020 20:26:10": [],
        "21/03/2020 22:29:02": []
    },
    "4880": {
        "21/03/2020 15:38:13": [],
        "21/03/2020 15:38:29": [],
        "21/03/2020 17:34:45": [],
        "21/03/2020 20:26:10": [],
        "21/03/2020 22:29:02": []
    },
    "2606": {
        "21/03/2020 15:38:13": [],
        "21/03/2020 15:38:41": [],
        "21/03/2020 17:34:58": [],
        "21/03/2020 20:26:29": [],
        "21/03/2020 22:29:22": []
    },
    "2607": {
        "21/03/2020 15:38:13": [],
        "21/03/2020 15:38:42": [],
        "21/03/2020 17:34:58": [],
        "21/03/2020 20:26:29": [],
        "21/03/2020 22:29:22": []
    },
    "2608": {
        "21/03/2020 15:38:14": [],
        "21/03/2020 15:38:42": [],
        "21/03/2020 17:34:59": [],
        "21/03/2020 20:26:30": [],
        "21/03/2020 22:29:23": []
    },
    "2609": {
        "21/03/2020 15:38:14": [],
        "21/03/2020 15:38:42": [],
        "21/03/2020 17:34:59": [],
        "21/03/2020 20:26:30": [],
        "21/03/2020 22:29:24": []
    },
    "2610": {
        "21/03/2020 15:38:14": [],
        "21/03/2020 15:38:43": [],
        "21/03/2020 17:34:59": [],
        "21/03/2020 20:26:31": [],
        "21/03/2020 22:29:24": []
    },
    "2554": {
        "21/03/2020 15:38:14": [],
        "21/03/2020 15:38:34": [],
        "21/03/2020 17:34:50": [],
        "21/03/2020 20:26:18": [],
        "21/03/2020 22:29:10": []
    },
    "2425": {
        "21/03/2020 15:38:15": [],
        "21/03/2020 15:38:26": [],
        "21/03/2020 17:34:43": [],
        "21/03/2020 20:26:06": [],
        "21/03/2020 22:28:59": []
    },
    "2426": {
        "21/03/2020 15:38:15": [],
        "21/03/2020 15:38:27": [],
        "21/03/2020 17:34:43": [],
        "21/03/2020 20:26:07": [],
        "21/03/2020 22:28:59": []
    },
    "2427": {
        "21/03/2020 15:38:15": [],
        "21/03/2020 15:38:27": [],
        "21/03/2020 17:34:43": [],
        "21/03/2020 20:26:07": [],
        "21/03/2020 22:28:59": []
    },
    "2428": {
        "21/03/2020 15:38:16": [],
        "21/03/2020 15:38:34": [],
        "21/03/2020 17:34:50": [],
        "21/03/2020 20:26:17": [],
        "21/03/2020 22:29:09": []
    },
    "2429": {
        "21/03/2020 15:38:16": [],
        "21/03/2020 15:38:34": [],
        "21/03/2020 17:34:50": [],
        "21/03/2020 20:26:18": [],
        "21/03/2020 22:29:10": []
    },
    "2430": {
        "21/03/2020 15:38:16": [],
        "21/03/2020 15:38:39": [],
        "21/03/2020 17:34:56": [],
        "21/03/2020 20:26:25": [],
        "21/03/2020 22:29:17": []
    },
    "2371": {
        "21/03/2020 15:38:16": [],
        "21/03/2020 15:38:33": [],
        "21/03/2020 17:34:49": [],
        "21/03/2020 20:26:17": [],
        "21/03/2020 22:29:09": []
    },
    "2372": {
        "21/03/2020 15:38:17": [],
        "21/03/2020 15:38:37": [],
        "21/03/2020 17:34:54": [],
        "21/03/2020 20:26:23": [],
        "21/03/2020 22:29:15": []
    },
    "2373": {
        "21/03/2020 15:38:17": [],
        "21/03/2020 15:38:38": [],
        "21/03/2020 17:34:54": [],
        "21/03/2020 20:26:23": [],
        "21/03/2020 22:29:15": []
    },
    "1424": {
        "21/03/2020 15:38:17": [],
        "21/03/2020 15:38:26": [],
        "21/03/2020 17:34:42": [],
        "21/03/2020 20:26:05": [],
        "21/03/2020 22:28:58": []
    },
    "2190": {
        "21/03/2020 15:38:18": [],
        "21/03/2020 15:38:26": [],
        "21/03/2020 17:34:42": [],
        "21/03/2020 20:26:06": [],
        "21/03/2020 22:28:58": []
    },
    "4434": {
        "21/03/2020 15:38:18": [],
        "21/03/2020 15:38:34": [],
        "21/03/2020 17:34:50": [],
        "21/03/2020 20:26:18": [],
        "21/03/2020 22:29:11": []
    },
    "2379": {
        "21/03/2020 15:38:18": [],
        "21/03/2020 15:38:38": [],
        "21/03/2020 17:34:54": [],
        "21/03/2020 20:26:23": [],
        "21/03/2020 22:29:16": []
    },
    "2380": {
        "21/03/2020 15:38:19": [],
        "21/03/2020 15:38:38": [],
        "21/03/2020 17:34:55": [],
        "21/03/2020 20:26:24": [],
        "21/03/2020 22:29:16": []
    },
    "2382": {
        "21/03/2020 15:38:19": [],
        "21/03/2020 15:38:38": [],
        "21/03/2020 17:34:55": [],
        "21/03/2020 20:26:24": [],
        "21/03/2020 22:29:16": []
    },
    "5099": {
        "21/03/2020 15:38:19": [],
        "21/03/2020 15:38:43": [],
        "21/03/2020 17:34:59": [],
        "21/03/2020 20:26:31": [],
        "21/03/2020 22:29:25": []
    },
    "2383": {
        "21/03/2020 15:38:19": [],
        "21/03/2020 15:38:39": [],
        "21/03/2020 17:34:55": [],
        "21/03/2020 20:26:25": [],
        "21/03/2020 22:29:17": []
    },
    "2002": {
        "21/03/2020 15:38:20": [],
        "21/03/2020 15:38:37": [],
        "21/03/2020 17:34:54": [],
        "21/03/2020 20:26:22": [],
        "21/03/2020 22:29:14": []
    },
    "1358": {
        "21/03/2020 15:38:20": [],
        "21/03/2020 15:38:37": [],
        "21/03/2020 17:34:53": [],
        "21/03/2020 20:26:22": [],
        "21/03/2020 22:29:14": []
    },
    "5192": {
        "21/03/2020 15:38:20": [],
        "21/03/2020 15:38:29": [],
        "21/03/2020 17:34:46": [],
        "21/03/2020 20:26:11": [],
        "21/03/2020 22:29:03": []
    },
    "350": {
        "21/03/2020 15:38:21": [],
        "21/03/2020 15:38:28": [],
        "21/03/2020 17:34:44": [],
        "21/03/2020 20:26:08": [],
        "21/03/2020 22:29:00": []
    },
    "2809": {
        "21/03/2020 15:38:21": [],
        "21/03/2020 15:38:27": [],
        "21/03/2020 17:34:44": [],
        "21/03/2020 20:26:07": [],
        "21/03/2020 22:29:00": []
    },
    "2810": {
        "21/03/2020 15:38:21": [],
        "21/03/2020 15:38:28": [],
        "21/03/2020 17:34:44": [],
        "21/03/2020 20:26:08": [],
        "21/03/2020 22:29:00": []
    },
    "750": {
        "21/03/2020 15:38:21": [],
        "21/03/2020 15:38:43": [],
        "21/03/2020 17:35:00": [],
        "21/03/2020 20:26:32": [],
        "21/03/2020 22:29:25": []
    },
    "751": {
        "21/03/2020 15:38:22": [],
        "21/03/2020 15:38:30": [],
        "21/03/2020 17:34:46": [],
        "21/03/2020 20:26:12": [],
        "21/03/2020 22:29:04": []
    },
    "752": {
        "21/03/2020 15:38:22": [],
        "21/03/2020 15:38:30": [],
        "21/03/2020 17:34:46": [],
        "21/03/2020 20:26:12": [],
        "21/03/2020 22:29:04": []
    },
    "753": {
        "21/03/2020 15:38:22": [],
        "21/03/2020 15:38:31": [],
        "21/03/2020 17:34:47": [],
        "21/03/2020 20:26:13": [],
        "21/03/2020 22:29:04": []
    },
    "754": {
        "21/03/2020 15:38:23": [],
        "21/03/2020 15:38:31": [],
        "21/03/2020 17:34:47": [],
        "21/03/2020 20:26:13": [],
        "21/03/2020 22:29:05": []
    },
    "755": {
        "21/03/2020 15:38:23": [],
        "21/03/2020 15:38:31": [],
        "21/03/2020 17:34:47": [],
        "21/03/2020 20:26:13": [],
        "21/03/2020 22:29:05": []
    },
    "756": {
        "21/03/2020 15:38:23": [],
        "21/03/2020 15:38:31": [],
        "21/03/2020 17:34:48": [],
        "21/03/2020 20:26:14": [],
        "21/03/2020 22:29:06": []
    },
    "757": {
        "21/03/2020 15:38:23": [],
        "21/03/2020 15:38:32": [],
        "21/03/2020 17:34:48": [],
        "21/03/2020 20:26:14": [],
        "21/03/2020 22:29:06": []
    },
    "758": {
        "21/03/2020 15:38:24": [],
        "21/03/2020 15:38:32": [],
        "21/03/2020 17:34:48": [],
        "21/03/2020 20:26:15": [],
        "21/03/2020 22:29:06": []
    },
    "759": {
        "21/03/2020 15:38:24": [],
        "21/03/2020 15:38:36": [],
        "21/03/2020 17:34:53": [],
        "21/03/2020 20:26:21": [],
        "21/03/2020 22:29:13": []
    },
    "760": {
        "21/03/2020 15:38:24": [],
        "21/03/2020 15:38:36": [],
        "21/03/2020 17:34:53": [],
        "21/03/2020 20:26:21": [],
        "21/03/2020 22:29:13": []
    },
    "761": {
        "21/03/2020 15:38:25": [],
        "21/03/2020 15:38:32": [],
        "21/03/2020 17:34:48": [],
        "21/03/2020 20:26:15": [],
        "21/03/2020 22:29:07": []
    },
    "762": {
        "21/03/2020 15:38:25": [],
        "21/03/2020 15:38:32": [],
        "21/03/2020 17:34:49": [],
        "21/03/2020 20:26:15": [],
        "21/03/2020 22:29:08": []
    },
    "763": {
        "21/03/2020 15:38:25": [],
        "21/03/2020 15:38:33": [],
        "21/03/2020 17:34:49": [],
        "21/03/2020 20:26:16": [],
        "21/03/2020 22:29:08": []
    },
    "4952": {
        "21/03/2020 15:38:25": [],
        "21/03/2020 15:38:35": [],
        "21/03/2020 17:34:52": [],
        "21/03/2020 20:26:20": [],
        "21/03/2020 22:29:12": []
    }
}