{
    "1424": {
        "22/03/2020 15:56:31": [],
        "22/03/2020 18:19:32": [],
        "22/03/2020 20:36:00": []
    },
    "2190": {
        "22/03/2020 15:56:31": [],
        "22/03/2020 18:19:33": [],
        "22/03/2020 20:36:01": []
    },
    "2425": {
        "22/03/2020 15:56:32": [],
        "22/03/2020 18:19:33": [],
        "22/03/2020 20:36:01": []
    },
    "2426": {
        "22/03/2020 15:56:32": [],
        "22/03/2020 18:19:33": [],
        "22/03/2020 20:36:01": []
    },
    "2427": {
        "22/03/2020 15:56:33": [],
        "22/03/2020 18:19:34": [],
        "22/03/2020 20:36:02": []
    },
    "2809": {
        "22/03/2020 15:56:33": [],
        "22/03/2020 18:19:34": [],
        "22/03/2020 20:36:02": []
    },
    "2810": {
        "22/03/2020 15:56:34": [],
        "22/03/2020 18:19:35": [],
        "22/03/2020 20:36:03": []
    },
    "350": {
        "22/03/2020 15:56:34": [],
        "22/03/2020 18:19:35": [],
        "22/03/2020 20:36:03": []
    },
    "4713": {
        "22/03/2020 15:56:34": [],
        "22/03/2020 18:19:36": [],
        "22/03/2020 20:36:04": []
    },
    "4714": {
        "22/03/2020 15:56:35": [],
        "22/03/2020 18:19:36": [],
        "22/03/2020 20:36:04": []
    },
    "4880": {
        "22/03/2020 15:56:35": [],
        "22/03/2020 18:19:36": [],
        "22/03/2020 20:36:04": []
    },
    "5161": {
        "22/03/2020 15:56:36": [],
        "22/03/2020 18:19:37": [],
        "22/03/2020 20:36:05": []
    },
    "5162": {
        "22/03/2020 15:56:37": [],
        "22/03/2020 18:19:37": [],
        "22/03/2020 20:36:05": []
    },
    "5192": {
        "22/03/2020 15:56:37": [],
        "22/03/2020 18:19:38": [],
        "22/03/2020 20:36:06": []
    },
    "7222": {
        "22/03/2020 15:56:38": [],
        "22/03/2020 18:19:38": [],
        "22/03/2020 20:36:06": []
    },
    "751": {
        "22/03/2020 15:56:38": [],
        "22/03/2020 18:19:39": [],
        "22/03/2020 20:36:06": []
    },
    "752": {
        "22/03/2020 15:56:38": [],
        "22/03/2020 18:19:39": [],
        "22/03/2020 20:36:07": []
    },
    "753": {
        "22/03/2020 15:56:39": [],
        "22/03/2020 18:19:40": [],
        "22/03/2020 20:36:07": []
    },
    "754": {
        "22/03/2020 15:56:39": [],
        "22/03/2020 18:19:40": [],
        "22/03/2020 20:36:08": []
    },
    "755": {
        "22/03/2020 15:56:40": [],
        "22/03/2020 18:19:45": [],
        "22/03/2020 20:36:08": []
    },
    "756": {
        "22/03/2020 15:56:40": [],
        "22/03/2020 18:19:50": [],
        "22/03/2020 20:36:08": []
    },
    "757": {
        "22/03/2020 15:56:41": [],
        "22/03/2020 18:19:54": [],
        "22/03/2020 20:36:09": []
    },
    "758": {
        "22/03/2020 15:56:41": [],
        "22/03/2020 18:19:59": [],
        "22/03/2020 20:36:09": []
    },
    "761": {
        "22/03/2020 15:56:42": [],
        "22/03/2020 18:20:05": [],
        "22/03/2020 20:36:10": []
    },
    "762": {
        "22/03/2020 15:56:42": [],
        "22/03/2020 18:20:09": [],
        "22/03/2020 20:36:10": []
    },
    "763": {
        "22/03/2020 15:56:42": [],
        "22/03/2020 18:20:14": [],
        "22/03/2020 20:36:10": []
    },
    "2357": {
        "22/03/2020 15:56:43": [],
        "22/03/2020 18:20:19": [],
        "22/03/2020 20:36:11": []
    },
    "2371": {
        "22/03/2020 15:56:43": [],
        "22/03/2020 18:20:24": [],
        "22/03/2020 20:36:11": []
    },
    "2428": {
        "22/03/2020 15:56:44": [],
        "22/03/2020 18:20:28": [],
        "22/03/2020 20:36:12": []
    },
    "2429": {
        "22/03/2020 15:56:44": [],
        "22/03/2020 18:20:34": [],
        "22/03/2020 20:36:12": []
    },
    "2554": {
        "22/03/2020 15:56:45": [],
        "22/03/2020 18:20:38": [],
        "22/03/2020 20:36:12": []
    },
    "4434": {
        "22/03/2020 15:56:45": [],
        "22/03/2020 18:20:43": [],
        "22/03/2020 20:36:13": []
    },
    "4932": {
        "22/03/2020 15:56:45": [],
        "22/03/2020 18:20:47": [],
        "22/03/2020 20:36:13": []
    },
    "4933": {
        "22/03/2020 15:56:46": [],
        "22/03/2020 18:20:51": [],
        "22/03/2020 20:36:14": []
    },
    "4952": {
        "22/03/2020 15:56:46": [],
        "22/03/2020 18:20:57": [],
        "22/03/2020 20:36:14": []
    },
    "4960": {
        "22/03/2020 15:56:47": [],
        "22/03/2020 18:21:02": [],
        "22/03/2020 20:36:15": []
    },
    "6170": {
        "22/03/2020 15:56:47": [],
        "22/03/2020 18:21:07": [],
        "22/03/2020 20:36:15": []
    },
    "759": {
        "22/03/2020 15:56:47": [],
        "22/03/2020 18:21:12": [],
        "22/03/2020 20:36:15": []
    },
    "760": {
        "22/03/2020 15:56:48": [],
        "22/03/2020 18:21:17": [],
        "22/03/2020 20:36:16": []
    },
    "1358": {
        "22/03/2020 15:56:48": [],
        "22/03/2020 18:21:22": [],
        "22/03/2020 20:36:16": []
    },
    "2002": {
        "22/03/2020 15:56:49": [],
        "22/03/2020 18:21:28": [],
        "22/03/2020 20:36:17": []
    },
    "2372": {
        "22/03/2020 15:56:49": [],
        "22/03/2020 18:21:32": [],
        "22/03/2020 20:36:17": []
    },
    "2373": {
        "22/03/2020 15:56:50": [],
        "22/03/2020 18:21:37": [],
        "22/03/2020 20:36:17": []
    },
    "2379": {
        "22/03/2020 15:56:50": [],
        "22/03/2020 18:21:44": [],
        "22/03/2020 20:36:18": []
    },
    "2380": {
        "22/03/2020 15:56:50": [],
        "22/03/2020 18:21:47": [],
        "22/03/2020 20:36:18": []
    },
    "2382": {
        "22/03/2020 15:56:51": [],
        "22/03/2020 18:21:48": [],
        "22/03/2020 20:36:19": []
    },
    "2383": {
        "22/03/2020 15:56:51": [],
        "22/03/2020 18:21:49": [],
        "22/03/2020 20:36:19": []
    },
    "2430": {
        "22/03/2020 15:56:52": [],
        "22/03/2020 18:21:49": [],
        "22/03/2020 20:36:19": []
    },
    "2566": {
        "22/03/2020 15:56:52": [],
        "22/03/2020 18:21:50": [],
        "22/03/2020 20:36:20": []
    },
    "2567": {
        "22/03/2020 15:56:52": [],
        "22/03/2020 18:21:50": [],
        "22/03/2020 20:36:20": []
    },
    "2568": {
        "22/03/2020 15:56:53": [],
        "22/03/2020 18:21:51": [],
        "22/03/2020 20:36:21": []
    },
    "2569": {
        "22/03/2020 15:56:54": [],
        "22/03/2020 18:21:51": [],
        "22/03/2020 20:36:21": []
    },
    "2570": {
        "22/03/2020 15:56:54": [],
        "22/03/2020 18:21:51": [],
        "22/03/2020 20:36:22": []
    },
    "2590": {
        "22/03/2020 15:56:54": [],
        "22/03/2020 18:21:52": [],
        "22/03/2020 20:36:22": []
    },
    "2591": {
        "22/03/2020 15:56:55": [],
        "22/03/2020 18:21:52": [],
        "22/03/2020 20:36:22": []
    },
    "2592": {
        "22/03/2020 15:56:55": [],
        "22/03/2020 18:21:53": [],
        "22/03/2020 20:36:23": []
    },
    "2606": {
        "22/03/2020 15:56:56": [],
        "22/03/2020 18:21:53": [],
        "22/03/2020 20:36:24": []
    },
    "2607": {
        "22/03/2020 15:56:56": [],
        "22/03/2020 18:21:53": [],
        "22/03/2020 20:36:24": []
    },
    "2608": {
        "22/03/2020 15:56:57": [],
        "22/03/2020 18:21:54": [],
        "22/03/2020 20:36:24": []
    },
    "2609": {
        "22/03/2020 15:56:57": [],
        "22/03/2020 18:21:54": [],
        "22/03/2020 20:36:25": []
    },
    "2610": {
        "22/03/2020 15:56:58": [],
        "22/03/2020 18:21:55": [],
        "22/03/2020 20:36:25": []
    },
    "5099": {
        "22/03/2020 15:56:58": [],
        "22/03/2020 18:21:55": [],
        "22/03/2020 20:36:26": []
    },
    "750": {
        "22/03/2020 15:56:58": [],
        "22/03/2020 18:21:56": [],
        "22/03/2020 20:36:26": []
    },
    "5023": {
        "22/03/2020 15:56:59": [],
        "22/03/2020 18:21:56": [],
        "22/03/2020 20:36:26": []
    },
    "5024": {
        "22/03/2020 15:56:59": [],
        "22/03/2020 18:21:57": [],
        "22/03/2020 20:36:27": []
    }
}