{
    "557": {
        "20/03/2020 17:26:56": [],
        "20/03/2020 21:52:31": [],
        "20/03/2020 21:53:46": []
    },
    "558": {
        "20/03/2020 17:26:56": [],
        "20/03/2020 21:52:31": [],
        "20/03/2020 21:53:51": []
    },
    "559": {
        "20/03/2020 17:26:56": [],
        "20/03/2020 21:52:31": [],
        "20/03/2020 21:53:54": []
    },
    "560": {
        "20/03/2020 17:26:57": [],
        "20/03/2020 21:52:32": [],
        "20/03/2020 21:53:56": []
    },
    "562": {
        "20/03/2020 17:26:57": [],
        "20/03/2020 21:52:32": [],
        "20/03/2020 21:53:59": []
    },
    "563": {
        "20/03/2020 17:26:57": [],
        "20/03/2020 21:52:32": [],
        "20/03/2020 21:54:04": []
    },
    "564": {
        "20/03/2020 17:26:58": [],
        "20/03/2020 21:52:32": [],
        "20/03/2020 21:54:07": []
    },
    "565": {
        "20/03/2020 17:26:58": [],
        "20/03/2020 21:52:33": [],
        "20/03/2020 21:54:10": []
    },
    "566": {
        "20/03/2020 17:26:58": [],
        "20/03/2020 21:52:33": [],
        "20/03/2020 21:54:13": []
    },
    "707": {
        "20/03/2020 17:28:00": [],
        "20/03/2020 21:52:33": [],
        "20/03/2020 21:55:09": [],
        "20/03/2020 21:55:14": [],
        "20/03/2020 21:55:52": []
    },
    "708": {
        "20/03/2020 17:28:00": [],
        "20/03/2020 21:52:34": [],
        "20/03/2020 21:55:09": [],
        "20/03/2020 21:55:52": []
    },
    "731": {
        "20/03/2020 17:28:01": [],
        "20/03/2020 21:52:34": [],
        "20/03/2020 21:54:57": [],
        "20/03/2020 21:55:52": []
    },
    "710": {
        "20/03/2020 17:28:01": [],
        "20/03/2020 21:52:34": [],
        "20/03/2020 21:55:10": [],
        "20/03/2020 21:55:53": []
    },
    "711": {
        "20/03/2020 17:28:01": [],
        "20/03/2020 21:52:35": [],
        "20/03/2020 21:55:10": [],
        "20/03/2020 21:55:53": []
    },
    "712": {
        "20/03/2020 17:28:01": [],
        "20/03/2020 21:52:35": [],
        "20/03/2020 21:55:10": [],
        "20/03/2020 21:55:53": []
    },
    "713": {
        "20/03/2020 17:28:02": [],
        "20/03/2020 21:52:35": [],
        "20/03/2020 21:55:11": [],
        "20/03/2020 21:55:53": []
    },
    "714": {
        "20/03/2020 17:28:02": [],
        "20/03/2020 21:52:35": [],
        "20/03/2020 21:55:11": [],
        "20/03/2020 21:55:54": []
    },
    "715": {
        "20/03/2020 17:28:02": [],
        "20/03/2020 21:52:36": [],
        "20/03/2020 21:54:58": [],
        "20/03/2020 21:55:54": []
    },
    "716": {
        "20/03/2020 17:28:03": [],
        "20/03/2020 21:52:36": [],
        "20/03/2020 21:54:59": [],
        "20/03/2020 21:55:54": []
    },
    "717": {
        "20/03/2020 17:28:03": [],
        "20/03/2020 21:52:36": [],
        "20/03/2020 21:54:59": [],
        "20/03/2020 21:55:54": []
    },
    "718": {
        "20/03/2020 17:28:03": [],
        "20/03/2020 21:52:37": [],
        "20/03/2020 21:54:59": [],
        "20/03/2020 21:55:55": []
    },
    "719": {
        "20/03/2020 17:28:04": [],
        "20/03/2020 21:52:37": [],
        "20/03/2020 21:54:59": [],
        "20/03/2020 21:55:55": []
    },
    "720": {
        "20/03/2020 17:28:04": [],
        "20/03/2020 21:52:37": [],
        "20/03/2020 21:55:00": [],
        "20/03/2020 21:55:55": []
    },
    "721": {
        "20/03/2020 17:28:04": [],
        "20/03/2020 21:52:37": [],
        "20/03/2020 21:55:00": [],
        "20/03/2020 21:55:56": []
    },
    "680": {
        "20/03/2020 17:27:52": [
            139
        ],
        "20/03/2020 21:52:38": [],
        "20/03/2020 21:54:15": [],
        "20/03/2020 21:55:26": [],
        "20/03/2020 21:55:45": []
    },
    "681": {
        "20/03/2020 17:27:53": [
            123
        ],
        "20/03/2020 21:52:38": [],
        "20/03/2020 21:54:18": [],
        "20/03/2020 21:55:26": [],
        "20/03/2020 21:55:45": []
    },
    "682": {
        "20/03/2020 17:27:53": [
            152
        ],
        "20/03/2020 21:52:38": [],
        "20/03/2020 21:54:21": [],
        "20/03/2020 21:55:27": [],
        "20/03/2020 21:55:45": []
    },
    "683": {
        "20/03/2020 17:27:53": [
            133
        ],
        "20/03/2020 21:52:38": [],
        "20/03/2020 21:54:24": [],
        "20/03/2020 21:55:27": [],
        "20/03/2020 21:55:45": []
    },
    "684": {
        "20/03/2020 17:27:53": [
            102
        ],
        "20/03/2020 21:52:39": [],
        "20/03/2020 21:54:26": [],
        "20/03/2020 21:55:27": [],
        "20/03/2020 21:55:46": []
    },
    "685": {
        "20/03/2020 17:27:54": [
            133
        ],
        "20/03/2020 21:52:39": [],
        "20/03/2020 21:54:29": [],
        "20/03/2020 21:55:27": [],
        "20/03/2020 21:55:46": []
    },
    "686": {
        "20/03/2020 17:27:54": [
            98
        ],
        "20/03/2020 21:52:39": [],
        "20/03/2020 21:54:31": [],
        "20/03/2020 21:55:28": [],
        "20/03/2020 21:55:46": []
    },
    "688": {
        "20/03/2020 17:27:54": [
            140
        ],
        "20/03/2020 21:52:40": [],
        "20/03/2020 21:54:34": [],
        "20/03/2020 21:55:28": [],
        "20/03/2020 21:55:46": []
    },
    "689": {
        "20/03/2020 17:27:55": [
            113
        ],
        "20/03/2020 21:52:40": [],
        "20/03/2020 21:54:36": [],
        "20/03/2020 21:55:28": [],
        "20/03/2020 21:55:47": []
    },
    "690": {
        "20/03/2020 17:27:55": [
            146
        ],
        "20/03/2020 21:52:40": [],
        "20/03/2020 21:54:38": [],
        "20/03/2020 21:55:29": [],
        "20/03/2020 21:55:47": []
    },
    "5062": {
        "20/03/2020 17:27:55": [
            129
        ],
        "20/03/2020 21:52:40": [],
        "20/03/2020 21:53:44": [],
        "20/03/2020 21:55:19": [],
        "20/03/2020 21:55:47": []
    },
    "691": {
        "20/03/2020 17:27:56": [
            104
        ],
        "20/03/2020 21:52:41": [],
        "20/03/2020 21:54:41": [],
        "20/03/2020 21:55:29": [],
        "20/03/2020 21:55:47": []
    },
    "692": {
        "20/03/2020 17:27:56": [
            145
        ],
        "20/03/2020 21:52:41": [],
        "20/03/2020 21:54:43": [],
        "20/03/2020 21:55:29": [],
        "20/03/2020 21:55:48": []
    },
    "693": {
        "20/03/2020 17:28:04": [
            -13
        ],
        "20/03/2020 21:52:41": [],
        "20/03/2020 21:55:02": [],
        "20/03/2020 21:55:56": []
    },
    "585": {
        "20/03/2020 17:28:05": [
            20
        ],
        "20/03/2020 21:52:42": [],
        "20/03/2020 21:55:03": [],
        "20/03/2020 21:55:56": []
    },
    "586": {
        "20/03/2020 17:28:05": [
            -6
        ],
        "20/03/2020 21:52:42": [],
        "20/03/2020 21:55:03": [],
        "20/03/2020 21:55:57": []
    },
    "587": {
        "20/03/2020 17:28:05": [
            -20
        ],
        "20/03/2020 21:52:42": [],
        "20/03/2020 21:55:03": [],
        "20/03/2020 21:55:57": []
    },
    "588": {
        "20/03/2020 17:28:06": [
            1
        ],
        "20/03/2020 21:52:43": [],
        "20/03/2020 21:55:03": [],
        "20/03/2020 21:55:57": []
    },
    "589": {
        "20/03/2020 17:28:06": [
            -13
        ],
        "20/03/2020 21:52:43": [],
        "20/03/2020 21:55:04": [],
        "20/03/2020 21:55:57": []
    },
    "590": {
        "20/03/2020 17:28:06": [
            8
        ],
        "20/03/2020 21:52:43": [],
        "20/03/2020 21:55:04": [],
        "20/03/2020 21:55:58": []
    },
    "591": {
        "20/03/2020 17:28:07": [
            1
        ],
        "20/03/2020 21:52:43": [],
        "20/03/2020 21:55:04": [],
        "20/03/2020 21:55:58": []
    },
    "592": {
        "20/03/2020 17:28:07": [
            -20
        ],
        "20/03/2020 21:52:44": [],
        "20/03/2020 21:55:05": [],
        "20/03/2020 21:55:58": []
    },
    "593": {
        "20/03/2020 17:28:07": [
            5
        ],
        "20/03/2020 21:52:44": [],
        "20/03/2020 21:55:05": [],
        "20/03/2020 21:55:59": []
    },
    "594": {
        "20/03/2020 17:28:08": [
            -26
        ],
        "20/03/2020 21:52:44": [],
        "20/03/2020 21:55:06": [],
        "20/03/2020 21:55:59": []
    },
    "595": {
        "20/03/2020 17:28:08": [
            -1
        ],
        "20/03/2020 21:52:45": [],
        "20/03/2020 21:55:06": [],
        "20/03/2020 21:55:59": []
    },
    "596": {
        "20/03/2020 17:28:08": [
            15
        ],
        "20/03/2020 21:52:45": [],
        "20/03/2020 21:55:06": [],
        "20/03/2020 21:55:59": []
    },
    "597": {
        "20/03/2020 17:28:08": [
            -15
        ],
        "20/03/2020 21:52:46": [],
        "20/03/2020 21:55:07": [],
        "20/03/2020 21:56:00": []
    },
    "598": {
        "20/03/2020 17:28:09": [
            28
        ],
        "20/03/2020 21:52:46": [],
        "20/03/2020 21:55:07": [],
        "20/03/2020 21:56:00": []
    },
    "599": {
        "20/03/2020 17:28:09": [
            7
        ],
        "20/03/2020 21:52:47": [],
        "20/03/2020 21:55:07": [],
        "20/03/2020 21:56:00": []
    },
    "600": {
        "20/03/2020 17:28:09": [
            -21
        ],
        "20/03/2020 21:52:47": [],
        "20/03/2020 21:55:08": [],
        "20/03/2020 21:56:01": []
    },
    "601": {
        "20/03/2020 17:28:10": [
            0
        ],
        "20/03/2020 21:52:47": [],
        "20/03/2020 21:55:08": [],
        "20/03/2020 21:56:01": []
    },
    "602": {
        "20/03/2020 17:28:10": [
            21
        ],
        "20/03/2020 21:52:47": [],
        "20/03/2020 21:55:08": [],
        "20/03/2020 21:56:01": []
    },
    "603": {
        "20/03/2020 17:28:10": [
            -14
        ],
        "20/03/2020 21:52:48": [],
        "20/03/2020 21:54:48": [],
        "20/03/2020 21:56:01": []
    },
    "604": {
        "20/03/2020 17:28:11": [
            14
        ],
        "20/03/2020 21:52:48": [],
        "20/03/2020 21:54:55": [],
        "20/03/2020 21:56:02": []
    },
    "605": {
        "20/03/2020 17:28:11": [
            -24
        ],
        "20/03/2020 21:52:48": [],
        "20/03/2020 21:54:56": [],
        "20/03/2020 21:56:02": []
    },
    "606": {
        "20/03/2020 17:28:11": [
            -24
        ],
        "20/03/2020 21:52:49": [],
        "20/03/2020 21:54:56": [],
        "20/03/2020 21:56:02": []
    },
    "607": {
        "20/03/2020 17:28:11": [
            -16
        ],
        "20/03/2020 21:52:53": [],
        "20/03/2020 21:55:00": [],
        "20/03/2020 21:56:02": []
    },
    "608": {
        "20/03/2020 17:28:12": [
            25
        ],
        "20/03/2020 21:52:58": [],
        "20/03/2020 21:54:56": [],
        "20/03/2020 21:56:03": []
    },
    "609": {
        "20/03/2020 17:28:12": [
            -3
        ],
        "20/03/2020 21:53:02": [],
        "20/03/2020 21:55:09": [],
        "20/03/2020 21:56:03": []
    },
    "610": {
        "20/03/2020 17:28:12": [
            20
        ],
        "20/03/2020 21:53:07": [],
        "20/03/2020 21:54:57": [],
        "20/03/2020 21:56:03": []
    },
    "611": {
        "20/03/2020 17:28:13": [
            24
        ],
        "20/03/2020 21:53:11": [],
        "20/03/2020 21:54:57": [],
        "20/03/2020 21:56:04": []
    },
    "612": {
        "20/03/2020 17:28:13": [
            7
        ],
        "20/03/2020 21:53:15": [],
        "20/03/2020 21:54:57": [],
        "20/03/2020 21:56:04": []
    },
    "613": {
        "20/03/2020 17:28:13": [
            5
        ],
        "20/03/2020 21:53:18": [],
        "20/03/2020 21:54:58": [],
        "20/03/2020 21:56:04": []
    },
    "614": {
        "20/03/2020 17:28:13": [
            7
        ],
        "20/03/2020 21:53:22": [],
        "20/03/2020 21:54:58": [],
        "20/03/2020 21:56:04": []
    },
    "615": {
        "20/03/2020 17:28:14": [
            7
        ],
        "20/03/2020 21:53:24": [],
        "20/03/2020 21:55:01": [],
        "20/03/2020 21:56:05": []
    },
    "616": {
        "20/03/2020 17:28:14": [
            -1
        ],
        "20/03/2020 21:53:27": [],
        "20/03/2020 21:55:01": [],
        "20/03/2020 21:56:05": []
    },
    "617": {
        "20/03/2020 17:28:14": [
            -28
        ],
        "20/03/2020 21:53:30": [],
        "20/03/2020 21:55:01": [],
        "20/03/2020 21:56:05": []
    },
    "618": {
        "20/03/2020 17:28:15": [
            6
        ],
        "20/03/2020 21:53:32": [],
        "20/03/2020 21:55:01": [],
        "20/03/2020 21:56:05": []
    },
    "619": {
        "20/03/2020 17:28:15": [
            -8
        ],
        "20/03/2020 21:53:34": [],
        "20/03/2020 21:55:02": [],
        "20/03/2020 21:56:06": []
    },
    "675": {
        "20/03/2020 17:28:15": [
            17
        ],
        "20/03/2020 21:53:37": [],
        "20/03/2020 21:55:02": [],
        "20/03/2020 21:56:06": []
    },
    "620": {
        "20/03/2020 17:28:16": [
            5
        ],
        "20/03/2020 21:53:39": [],
        "20/03/2020 21:55:09": [],
        "20/03/2020 21:56:06": []
    },
    "7569": {
        "20/03/2020 17:28:16": [],
        "20/03/2020 21:53:42": [],
        "20/03/2020 21:56:07": []
    },
    "1172": {
        "20/03/2020 17:27:02": [],
        "20/03/2020 21:54:45": []
    },
    "7608": {
        "20/03/2020 17:27:19": [],
        "20/03/2020 21:55:11": []
    },
    "621": {
        "20/03/2020 17:27:41": [
            0
        ],
        "20/03/2020 21:55:11": [],
        "20/03/2020 21:55:34": []
    },
    "496": {
        "20/03/2020 17:27:41": [
            -30
        ],
        "20/03/2020 21:55:12": [],
        "20/03/2020 21:55:35": []
    },
    "497": {
        "20/03/2020 17:27:21": [],
        "20/03/2020 21:55:12": []
    },
    "521": {
        "20/03/2020 17:27:43": [
            134,
            -21
        ],
        "20/03/2020 21:55:12": [],
        "20/03/2020 21:55:36": []
    },
    "522": {
        "20/03/2020 17:27:43": [
            152,
            -13
        ],
        "20/03/2020 21:55:12": [],
        "20/03/2020 21:55:36": []
    },
    "526": {
        "20/03/2020 17:27:44": [
            95
        ],
        "20/03/2020 21:55:13": [],
        "20/03/2020 21:55:37": []
    },
    "705": {
        "20/03/2020 17:27:59": [
            146
        ],
        "20/03/2020 21:55:13": [],
        "20/03/2020 21:55:51": []
    },
    "706": {
        "20/03/2020 17:28:00": [
            109
        ],
        "20/03/2020 21:55:13": [],
        "20/03/2020 21:55:51": []
    },
    "709": {
        "20/03/2020 17:27:46": [
            135
        ],
        "20/03/2020 21:55:14": [],
        "20/03/2020 21:55:39": []
    },
    "289": {
        "20/03/2020 17:27:41": [
            0
        ],
        "20/03/2020 21:55:14": [],
        "20/03/2020 21:55:34": []
    },
    "523": {
        "20/03/2020 17:27:43": [
            123,
            22
        ],
        "20/03/2020 21:55:14": [],
        "20/03/2020 21:55:37": []
    },
    "536": {
        "20/03/2020 17:27:47": [
            109
        ],
        "20/03/2020 21:55:15": [],
        "20/03/2020 21:55:40": []
    },
    "537": {
        "20/03/2020 17:27:47": [
            128
        ],
        "20/03/2020 21:55:15": [],
        "20/03/2020 21:55:40": []
    },
    "538": {
        "20/03/2020 17:27:48": [
            124
        ],
        "20/03/2020 21:55:15": [],
        "20/03/2020 21:55:41": []
    },
    "539": {
        "20/03/2020 17:27:48": [
            137
        ],
        "20/03/2020 21:55:16": [],
        "20/03/2020 21:55:41": []
    },
    "540": {
        "20/03/2020 17:27:48": [
            115
        ],
        "20/03/2020 21:55:16": [],
        "20/03/2020 21:55:41": []
    },
    "541": {
        "20/03/2020 17:27:49": [
            144
        ],
        "20/03/2020 21:55:16": [],
        "20/03/2020 21:55:41": []
    },
    "542": {
        "20/03/2020 17:27:49": [
            135
        ],
        "20/03/2020 21:55:16": [],
        "20/03/2020 21:55:42": []
    },
    "543": {
        "20/03/2020 17:27:49": [
            110
        ],
        "20/03/2020 21:55:17": [],
        "20/03/2020 21:55:42": []
    },
    "544": {
        "20/03/2020 17:27:50": [
            142
        ],
        "20/03/2020 21:55:17": [],
        "20/03/2020 21:55:42": []
    },
    "545": {
        "20/03/2020 17:27:50": [
            117
        ],
        "20/03/2020 21:55:17": [],
        "20/03/2020 21:55:42": []
    },
    "546": {
        "20/03/2020 17:27:50": [
            107
        ],
        "20/03/2020 21:55:17": [],
        "20/03/2020 21:55:43": []
    },
    "547": {
        "20/03/2020 17:27:50": [
            145
        ],
        "20/03/2020 21:55:18": [],
        "20/03/2020 21:55:43": []
    },
    "548": {
        "20/03/2020 17:27:51": [
            123
        ],
        "20/03/2020 21:55:18": [],
        "20/03/2020 21:55:43": []
    },
    "549": {
        "20/03/2020 17:27:51": [
            150
        ],
        "20/03/2020 21:55:18": [],
        "20/03/2020 21:55:44": []
    },
    "527": {
        "20/03/2020 17:27:44": [
            132
        ],
        "20/03/2020 21:55:19": [],
        "20/03/2020 21:55:37": []
    },
    "528": {
        "20/03/2020 17:27:44": [
            117
        ],
        "20/03/2020 21:55:19": [],
        "20/03/2020 21:55:38": []
    },
    "529": {
        "20/03/2020 17:27:45": [
            100
        ],
        "20/03/2020 21:55:19": [],
        "20/03/2020 21:55:38": []
    },
    "530": {
        "20/03/2020 17:27:45": [
            150
        ],
        "20/03/2020 21:55:20": [],
        "20/03/2020 21:55:38": []
    },
    "531": {
        "20/03/2020 17:27:45": [
            151
        ],
        "20/03/2020 21:55:20": [],
        "20/03/2020 21:55:38": []
    },
    "532": {
        "20/03/2020 17:27:46": [
            133
        ],
        "20/03/2020 21:55:20": [],
        "20/03/2020 21:55:39": []
    },
    "533": {
        "20/03/2020 17:27:46": [
            135
        ],
        "20/03/2020 21:55:21": [],
        "20/03/2020 21:55:39": []
    },
    "534": {
        "20/03/2020 17:27:47": [
            125
        ],
        "20/03/2020 21:55:25": [],
        "20/03/2020 21:55:39": []
    },
    "535": {
        "20/03/2020 17:27:47": [
            113
        ],
        "20/03/2020 21:55:25": [],
        "20/03/2020 21:55:40": []
    },
    "677": {
        "20/03/2020 17:27:51": [
            138
        ],
        "20/03/2020 21:55:25": [],
        "20/03/2020 21:55:44": []
    },
    "678": {
        "20/03/2020 17:27:52": [
            115
        ],
        "20/03/2020 21:55:25": [],
        "20/03/2020 21:55:44": []
    },
    "679": {
        "20/03/2020 17:27:52": [
            149
        ],
        "20/03/2020 21:55:26": [],
        "20/03/2020 21:55:44": []
    },
    "694": {
        "20/03/2020 17:27:56": [
            94
        ],
        "20/03/2020 21:55:29": [],
        "20/03/2020 21:55:48": []
    },
    "695": {
        "20/03/2020 17:27:56": [
            111
        ],
        "20/03/2020 21:55:30": [],
        "20/03/2020 21:55:48": []
    },
    "696": {
        "20/03/2020 17:27:57": [
            147
        ],
        "20/03/2020 21:55:30": [],
        "20/03/2020 21:55:49": []
    },
    "697": {
        "20/03/2020 17:27:57": [
            121
        ],
        "20/03/2020 21:55:30": [],
        "20/03/2020 21:55:49": []
    },
    "698": {
        "20/03/2020 17:27:57": [
            151
        ],
        "20/03/2020 21:55:30": [],
        "20/03/2020 21:55:49": []
    },
    "699": {
        "20/03/2020 17:27:58": [
            117
        ],
        "20/03/2020 21:55:31": [],
        "20/03/2020 21:55:49": []
    },
    "700": {
        "20/03/2020 17:27:58": [
            147
        ],
        "20/03/2020 21:55:31": [],
        "20/03/2020 21:55:50": []
    },
    "701": {
        "20/03/2020 17:27:58": [
            119
        ],
        "20/03/2020 21:55:31": [],
        "20/03/2020 21:55:50": []
    },
    "702": {
        "20/03/2020 17:27:58": [
            130
        ],
        "20/03/2020 21:55:32": [],
        "20/03/2020 21:55:50": []
    },
    "703": {
        "20/03/2020 17:27:59": [
            148
        ],
        "20/03/2020 21:55:32": [],
        "20/03/2020 21:55:51": []
    },
    "704": {
        "20/03/2020 17:27:59": [
            127
        ],
        "20/03/2020 21:55:32": [],
        "20/03/2020 21:55:51": []
    },
    "4384": {
        "20/03/2020 17:27:42": [
            150,
            23
        ],
        "20/03/2020 21:55:32": [],
        "20/03/2020 21:55:36": []
    },
    "515": {
        "20/03/2020 17:27:41": [
            137,
            -4
        ],
        "20/03/2020 21:55:33": [],
        "20/03/2020 21:55:35": []
    },
    "516": {
        "20/03/2020 17:27:42": [
            147,
            11
        ],
        "20/03/2020 21:55:33": [],
        "20/03/2020 21:55:35": []
    },
    "519": {
        "20/03/2020 17:27:42": [
            140,
            -9
        ],
        "20/03/2020 21:55:33": [],
        "20/03/2020 21:55:36": []
    },
    "525": {
        "20/03/2020 17:27:44": [
            149,
            16
        ],
        "20/03/2020 21:55:34": [],
        "20/03/2020 21:55:37": []
    },
    "7590": {
        "20/03/2020 17:27:40": [],
        "20/03/2020 21:55:34": []
    }
}