{
    "6274": {
        "23/03/2020 12:44:48": [],
        "23/03/2020 15:00:52": [],
        "23/03/2020 18:09:03": []
    },
    "7570": {
        "23/03/2020 12:44:49": [],
        "23/03/2020 15:00:52": [],
        "23/03/2020 18:09:03": []
    },
    "1838": {
        "23/03/2020 12:44:50": [],
        "23/03/2020 15:00:53": [],
        "23/03/2020 18:09:04": []
    },
    "2338": {
        "23/03/2020 12:44:50": [],
        "23/03/2020 15:00:53": [],
        "23/03/2020 18:09:04": []
    },
    "4989": {
        "23/03/2020 12:44:51": [],
        "23/03/2020 15:00:54": [],
        "23/03/2020 18:09:04": []
    },
    "4990": {
        "23/03/2020 12:44:52": [],
        "23/03/2020 15:00:54": [],
        "23/03/2020 18:09:04": []
    },
    "4991": {
        "23/03/2020 12:44:53": [],
        "23/03/2020 15:00:54": [],
        "23/03/2020 18:09:05": []
    },
    "4992": {
        "23/03/2020 12:44:53": [],
        "23/03/2020 15:00:55": [],
        "23/03/2020 18:09:05": []
    },
    "661": {
        "23/03/2020 12:44:54": [],
        "23/03/2020 15:00:55": [],
        "23/03/2020 18:09:05": []
    },
    "5071": {
        "23/03/2020 12:44:55": [],
        "23/03/2020 15:00:55": [],
        "23/03/2020 18:09:06": []
    },
    "5072": {
        "23/03/2020 12:44:55": [],
        "23/03/2020 15:00:55": [],
        "23/03/2020 18:09:06": []
    },
    "7026": {
        "23/03/2020 12:44:56": [],
        "23/03/2020 15:00:56": [],
        "23/03/2020 18:09:06": []
    },
    "7334": {
        "23/03/2020 12:44:56": [],
        "23/03/2020 15:00:56": [],
        "23/03/2020 18:09:06": []
    },
    "7342": {
        "23/03/2020 12:44:57": [],
        "23/03/2020 15:00:56": [],
        "23/03/2020 18:09:07": []
    },
    "7344": {
        "23/03/2020 12:44:57": [],
        "23/03/2020 15:00:57": [],
        "23/03/2020 18:09:07": []
    },
    "4321": {
        "23/03/2020 12:44:58": [],
        "23/03/2020 15:00:57": [],
        "23/03/2020 18:09:07": []
    },
    "7125": {
        "23/03/2020 12:44:59": [],
        "23/03/2020 15:00:57": [],
        "23/03/2020 18:09:08": []
    },
    "6171": {
        "23/03/2020 12:44:59": [],
        "23/03/2020 15:00:58": [],
        "23/03/2020 18:09:08": []
    },
    "7381": {
        "23/03/2020 12:45:00": [],
        "23/03/2020 15:00:58": [],
        "23/03/2020 18:09:08": []
    },
    "4986": {
        "23/03/2020 12:45:00": [],
        "23/03/2020 15:00:58": [],
        "23/03/2020 18:09:08": []
    },
    "1545": {
        "23/03/2020 12:45:01": [],
        "23/03/2020 15:00:58": [],
        "23/03/2020 18:09:09": []
    },
    "2960": {
        "23/03/2020 12:45:02": [],
        "23/03/2020 15:00:59": [],
        "23/03/2020 18:09:09": []
    },
    "1816": {
        "23/03/2020 12:45:02": [],
        "23/03/2020 15:00:59": [],
        "23/03/2020 18:09:09": []
    },
    "4742": {
        "23/03/2020 12:45:03": [],
        "23/03/2020 15:00:59": [],
        "23/03/2020 18:09:10": []
    },
    "4743": {
        "23/03/2020 12:45:03": [],
        "23/03/2020 15:01:00": [],
        "23/03/2020 18:09:10": []
    },
    "4744": {
        "23/03/2020 12:45:04": [],
        "23/03/2020 15:01:00": [],
        "23/03/2020 18:09:10": []
    },
    "4745": {
        "23/03/2020 12:45:04": [],
        "23/03/2020 15:01:00": [],
        "23/03/2020 18:09:11": []
    },
    "4747": {
        "23/03/2020 12:45:05": [],
        "23/03/2020 15:01:01": [],
        "23/03/2020 18:09:11": []
    },
    "4974": {
        "23/03/2020 12:45:06": [],
        "23/03/2020 15:01:01": [],
        "23/03/2020 18:09:11": []
    },
    "4976": {
        "23/03/2020 12:45:07": [],
        "23/03/2020 15:01:01": [],
        "23/03/2020 18:09:11": []
    },
    "4978": {
        "23/03/2020 12:45:07": [],
        "23/03/2020 15:01:02": [],
        "23/03/2020 18:09:12": []
    },
    "4979": {
        "23/03/2020 12:45:08": [],
        "23/03/2020 15:01:02": [],
        "23/03/2020 18:09:12": []
    },
    "7102": {
        "23/03/2020 12:45:09": [],
        "23/03/2020 15:01:02": [],
        "23/03/2020 18:09:12": []
    },
    "7103": {
        "23/03/2020 12:45:09": [],
        "23/03/2020 15:01:03": [],
        "23/03/2020 18:09:13": []
    },
    "7104": {
        "23/03/2020 12:45:10": [],
        "23/03/2020 15:01:03": [],
        "23/03/2020 18:09:13": []
    },
    "7105": {
        "23/03/2020 12:45:11": [],
        "23/03/2020 15:01:03": [],
        "23/03/2020 18:09:13": []
    },
    "7106": {
        "23/03/2020 12:45:11": [],
        "23/03/2020 15:01:04": [],
        "23/03/2020 18:09:13": []
    },
    "7107": {
        "23/03/2020 12:45:12": [],
        "23/03/2020 15:01:04": [],
        "23/03/2020 18:09:14": []
    },
    "7124": {
        "23/03/2020 12:45:12": [],
        "23/03/2020 15:01:04": [],
        "23/03/2020 18:09:14": []
    },
    "7126": {
        "23/03/2020 12:45:13": [],
        "23/03/2020 15:01:05": [],
        "23/03/2020 18:09:14": []
    },
    "7343": {
        "23/03/2020 12:45:13": [],
        "23/03/2020 15:01:05": [],
        "23/03/2020 18:09:15": []
    },
    "7575": {
        "23/03/2020 12:45:14": [],
        "23/03/2020 15:01:05": [],
        "23/03/2020 18:09:15": []
    }
}