{
    "1233": {
        "20/03/2020 17:21:15": [
            -586,
            6,
            -257,
            -10,
            22,
            -10,
            7
        ],
        "20/03/2020 21:45:54": [
            -202,
            -30,
            -1,
            -30,
            -1
        ],
        "20/03/2020 21:46:33": [
            -202,
            -30,
            -1,
            -30,
            -1
        ],
        "20/03/2020 21:46:50": [
            -202,
            -30,
            -1,
            -30,
            -1
        ],
        "20/03/2020 21:47:01": [
            -202,
            -30,
            -1,
            -30,
            -1
        ],
        "20/03/2020 21:47:18": [
            -202,
            -30,
            -1,
            -30,
            -1
        ],
        "20/03/2020 21:47:31": [
            -202,
            -30,
            -1,
            -30,
            -1
        ]
    },
    "1234": {
        "20/03/2020 17:21:15": [
            -620,
            -27,
            -291,
            15,
            -12,
            15,
            -30
        ],
        "20/03/2020 21:45:54": [
            -133,
            -10,
            17,
            -10,
            17
        ],
        "20/03/2020 21:46:33": [
            -133,
            -10,
            17,
            -10,
            17
        ],
        "20/03/2020 21:47:01": [
            -133,
            -10,
            17,
            -10,
            17
        ],
        "20/03/2020 21:47:18": [
            -133,
            -10,
            17,
            -10,
            17
        ],
        "20/03/2020 21:47:32": [
            -133,
            -10,
            17,
            -10,
            17
        ]
    },
    "7358": {
        "20/03/2020 17:21:24": [
            -630,
            24,
            -301,
            1,
            -22,
            1,
            12
        ],
        "20/03/2020 21:45:54": [
            -159,
            29,
            -9,
            29,
            -9
        ],
        "20/03/2020 21:46:34": [
            -159,
            29,
            -9,
            29,
            -9
        ],
        "20/03/2020 21:47:02": [
            -159,
            29,
            -9,
            29,
            -9
        ],
        "20/03/2020 21:47:18": [
            -159,
            29,
            -9,
            29,
            -9
        ],
        "20/03/2020 21:47:41": [
            -159,
            29,
            -9,
            29,
            -9
        ]
    },
    "1235": {
        "20/03/2020 17:21:15": [
            23,
            -4,
            -4
        ],
        "20/03/2020 21:45:55": [
            14,
            14
        ],
        "20/03/2020 21:46:34": [
            14,
            14
        ],
        "20/03/2020 21:47:19": [
            14,
            14
        ],
        "20/03/2020 21:47:32": [
            14,
            14
        ]
    },
    "1251": {
        "20/03/2020 17:21:17": [
            20,
            -9,
            -9
        ],
        "20/03/2020 21:45:55": [
            -2,
            -2
        ],
        "20/03/2020 21:46:35": [
            -2,
            -2
        ],
        "20/03/2020 21:47:19": [
            -2,
            -2
        ],
        "20/03/2020 21:47:34": [
            -2,
            -2
        ]
    },
    "7130": {
        "20/03/2020 17:21:22": [
            -19,
            22,
            22
        ],
        "20/03/2020 21:45:55": [
            83,
            11,
            11
        ],
        "20/03/2020 21:46:35": [
            83,
            11,
            11
        ],
        "20/03/2020 21:47:19": [
            83,
            11,
            11
        ],
        "20/03/2020 21:47:38": [
            83,
            11,
            11
        ]
    },
    "1237": {
        "20/03/2020 17:21:16": [
            0,
            -17,
            -17
        ],
        "20/03/2020 21:45:55": [
            98,
            26,
            26
        ],
        "20/03/2020 21:46:36": [
            98,
            26,
            26
        ],
        "20/03/2020 21:47:20": [
            98,
            26,
            26
        ],
        "20/03/2020 21:47:32": [
            98,
            26,
            26
        ]
    },
    "1238": {
        "20/03/2020 17:21:16": [
            -155,
            -12,
            -23
        ],
        "20/03/2020 21:45:56": [
            76,
            4,
            4
        ],
        "20/03/2020 21:46:25": [
            76,
            4,
            4
        ],
        "20/03/2020 21:46:36": [
            76,
            4,
            4
        ],
        "20/03/2020 21:47:20": [
            76,
            4,
            4
        ],
        "20/03/2020 21:47:33": [
            76,
            4,
            4
        ]
    },
    "1239": {
        "20/03/2020 17:21:16": [
            -122,
            28,
            16
        ],
        "20/03/2020 21:45:56": [
            47,
            -25,
            -25
        ],
        "20/03/2020 21:46:25": [
            47,
            -25,
            -25
        ],
        "20/03/2020 21:46:36": [
            47,
            -25,
            -25
        ],
        "20/03/2020 21:47:20": [
            47,
            -25,
            -25
        ],
        "20/03/2020 21:47:33": [
            47,
            -25,
            -25
        ]
    },
    "247": {
        "20/03/2020 17:21:18": [
            -127,
            21,
            7
        ],
        "20/03/2020 21:45:56": [
            88,
            16,
            16
        ],
        "20/03/2020 21:46:26": [
            88,
            16,
            16
        ],
        "20/03/2020 21:46:36": [
            88,
            16,
            16
        ],
        "20/03/2020 21:47:20": [
            88,
            16,
            16
        ],
        "20/03/2020 21:47:34": [
            88,
            16,
            16
        ]
    },
    "1240": {
        "20/03/2020 17:21:17": [
            -140,
            -3,
            -18
        ],
        "20/03/2020 21:45:57": [
            56,
            -16,
            -16
        ],
        "20/03/2020 21:46:26": [
            56,
            -16,
            -16
        ],
        "20/03/2020 21:46:37": [
            56,
            -16,
            -16
        ],
        "20/03/2020 21:47:21": [
            56,
            -16,
            -16
        ],
        "20/03/2020 21:47:33": [
            56,
            -16,
            -16
        ]
    },
    "1241": {
        "20/03/2020 17:21:17": [
            -129,
            -23,
            21
        ],
        "20/03/2020 21:46:00": [
            79,
            7,
            7
        ],
        "20/03/2020 21:46:26": [
            79,
            7,
            7
        ],
        "20/03/2020 21:46:37": [
            79,
            7,
            7
        ],
        "20/03/2020 21:47:21": [
            79,
            7,
            7
        ],
        "20/03/2020 21:47:33": [
            79,
            7,
            7
        ]
    },
    "1242": {
        "20/03/2020 17:21:17": [
            -178,
            24,
            7
        ],
        "20/03/2020 21:46:00": [
            47,
            -25,
            -25
        ],
        "20/03/2020 21:46:26": [
            47,
            -25,
            -25
        ],
        "20/03/2020 21:46:37": [
            47,
            -25,
            -25
        ],
        "20/03/2020 21:47:21": [
            47,
            -25,
            -25
        ],
        "20/03/2020 21:47:34": [
            47,
            -25,
            -25
        ]
    },
    "1277": {
        "20/03/2020 17:21:24": [
            -170,
            -25,
            17
        ],
        "20/03/2020 21:46:00": [
            90,
            18,
            18
        ],
        "20/03/2020 21:46:27": [
            90,
            18,
            18
        ],
        "20/03/2020 21:46:38": [
            90,
            18,
            18
        ],
        "20/03/2020 21:47:22": [
            90,
            18,
            18
        ],
        "20/03/2020 21:47:41": [
            90,
            18,
            18
        ]
    },
    "1219": {
        "20/03/2020 17:21:13": [
            -195,
            5,
            -13
        ],
        "20/03/2020 21:46:01": [
            53,
            -19,
            -19
        ],
        "20/03/2020 21:46:27": [
            53,
            -19,
            -19
        ],
        "20/03/2020 21:46:38": [
            53,
            -19,
            -19
        ],
        "20/03/2020 21:47:22": [
            53,
            -19,
            -19
        ],
        "20/03/2020 21:47:29": [
            53,
            -19,
            -19
        ]
    },
    "1220": {
        "20/03/2020 17:21:13": [
            -142,
            0,
            -19
        ],
        "20/03/2020 21:46:01": [
            96,
            24,
            24
        ],
        "20/03/2020 21:46:27": [
            96,
            24,
            24
        ],
        "20/03/2020 21:46:38": [
            96,
            24,
            24
        ],
        "20/03/2020 21:47:22": [
            96,
            24,
            24
        ],
        "20/03/2020 21:47:30": [
            96,
            24,
            24
        ]
    },
    "1221": {
        "20/03/2020 17:21:13": [
            -138,
            4,
            -1
        ],
        "20/03/2020 21:46:01": [
            85,
            13,
            13
        ],
        "20/03/2020 21:46:27": [
            85,
            13,
            13
        ],
        "20/03/2020 21:46:38": [
            85,
            13,
            13
        ],
        "20/03/2020 21:47:22": [
            85,
            13,
            13
        ],
        "20/03/2020 21:47:30": [
            85,
            13,
            13
        ]
    },
    "664": {
        "20/03/2020 17:21:20": [
            20,
            9,
            17
        ],
        "20/03/2020 21:46:16": [
            74,
            2,
            2
        ],
        "20/03/2020 21:46:28": [
            74,
            2,
            2
        ],
        "20/03/2020 21:46:39": [
            74,
            2,
            2
        ],
        "20/03/2020 21:47:23": [
            74,
            2,
            2
        ],
        "20/03/2020 21:47:36": [
            74,
            2,
            2
        ]
    },
    "665": {
        "20/03/2020 17:21:20": [
            1,
            -17,
            -8
        ],
        "20/03/2020 21:46:17": [
            45,
            -27,
            -27
        ],
        "20/03/2020 21:46:28": [
            45,
            -27,
            -27
        ],
        "20/03/2020 21:46:39": [
            45,
            -27,
            -27
        ],
        "20/03/2020 21:47:23": [
            45,
            -27,
            -27
        ],
        "20/03/2020 21:47:36": [
            45,
            -27,
            -27
        ]
    },
    "666": {
        "20/03/2020 17:21:21": [
            -18,
            17,
            27
        ],
        "20/03/2020 21:46:17": [
            76,
            4,
            4
        ],
        "20/03/2020 21:46:28": [
            76,
            4,
            4
        ],
        "20/03/2020 21:46:39": [
            76,
            4,
            4
        ],
        "20/03/2020 21:47:23": [
            76,
            4,
            4
        ],
        "20/03/2020 21:47:37": [
            76,
            4,
            4
        ]
    },
    "667": {
        "20/03/2020 17:21:21": [
            94,
            25,
            -8,
            3
        ],
        "20/03/2020 21:46:17": [
            48,
            -24,
            -24
        ],
        "20/03/2020 21:46:28": [
            48,
            -24,
            -24
        ],
        "20/03/2020 21:46:39": [
            48,
            -24,
            -24
        ],
        "20/03/2020 21:47:24": [
            48,
            -24,
            -24
        ],
        "20/03/2020 21:47:37": [
            48,
            -24,
            -24
        ]
    },
    "668": {
        "20/03/2020 17:21:21": [
            106,
            -15,
            4,
            18
        ],
        "20/03/2020 21:46:18": [
            45,
            -27
        ],
        "20/03/2020 21:46:29": [
            45,
            -27
        ],
        "20/03/2020 21:46:40": [
            45,
            -27
        ],
        "20/03/2020 21:47:24": [
            45,
            -27
        ],
        "20/03/2020 21:47:37": [
            45,
            -27
        ]
    },
    "614": {
        "20/03/2020 17:21:23": [
            135,
            -16,
            -2,
            13
        ],
        "20/03/2020 21:46:18": [
            88,
            16
        ],
        "20/03/2020 21:46:29": [
            88,
            16
        ],
        "20/03/2020 21:46:40": [
            88,
            16
        ],
        "20/03/2020 21:47:24": [
            88,
            16
        ],
        "20/03/2020 21:47:40": [
            88,
            16
        ]
    },
    "615": {
        "20/03/2020 17:21:18": [
            129,
            -14,
            -8,
            -2
        ],
        "20/03/2020 21:46:18": [
            72,
            0
        ],
        "20/03/2020 21:46:29": [
            72,
            0
        ],
        "20/03/2020 21:46:40": [
            72,
            0
        ],
        "20/03/2020 21:47:24": [
            72,
            0
        ],
        "20/03/2020 21:47:35": [
            72,
            0
        ]
    },
    "616": {
        "20/03/2020 17:21:19": [
            116,
            -21,
            -21,
            -23
        ],
        "20/03/2020 21:46:18": [
            50,
            -22
        ],
        "20/03/2020 21:46:30": [
            50,
            -22
        ],
        "20/03/2020 21:46:41": [
            50,
            -22
        ],
        "20/03/2020 21:47:25": [
            50,
            -22
        ],
        "20/03/2020 21:47:35": [
            50,
            -22
        ]
    },
    "617": {
        "20/03/2020 17:21:19": [
            161,
            23,
            24,
            25
        ],
        "20/03/2020 21:46:22": [
            85,
            13
        ],
        "20/03/2020 21:46:30": [
            85,
            13
        ],
        "20/03/2020 21:46:41": [
            85,
            13
        ],
        "20/03/2020 21:47:25": [
            85,
            13
        ],
        "20/03/2020 21:47:35": [
            85,
            13
        ]
    },
    "618": {
        "20/03/2020 17:21:19": [
            147,
            8,
            10,
            14
        ],
        "20/03/2020 21:46:22": [
            60,
            -12
        ],
        "20/03/2020 21:46:30": [
            60,
            -12
        ],
        "20/03/2020 21:46:41": [
            60,
            -12
        ],
        "20/03/2020 21:47:25": [
            60,
            -12
        ],
        "20/03/2020 21:47:36": [
            60,
            -12
        ]
    },
    "619": {
        "20/03/2020 17:21:20": [
            128,
            26,
            -9,
            21
        ],
        "20/03/2020 21:46:23": [
            53,
            -19
        ],
        "20/03/2020 21:46:30": [
            53,
            -19
        ],
        "20/03/2020 21:46:42": [
            53,
            -19
        ],
        "20/03/2020 21:47:26": [
            53,
            -19
        ],
        "20/03/2020 21:47:36": [
            53,
            -19
        ]
    },
    "675": {
        "20/03/2020 17:21:23": [],
        "20/03/2020 21:46:24": [],
        "20/03/2020 21:46:31": [],
        "20/03/2020 21:46:42": [],
        "20/03/2020 21:47:26": [],
        "20/03/2020 21:47:40": []
    },
    "1176": {
        "20/03/2020 17:21:09": [],
        "20/03/2020 21:46:24": [],
        "20/03/2020 21:46:51": [],
        "20/03/2020 21:47:12": [],
        "20/03/2020 21:47:26": []
    },
    "1177": {
        "20/03/2020 17:21:10": [],
        "20/03/2020 21:46:24": [],
        "20/03/2020 21:46:51": [],
        "20/03/2020 21:47:12": [],
        "20/03/2020 21:47:27": []
    },
    "1178": {
        "20/03/2020 17:21:10": [],
        "20/03/2020 21:46:24": [],
        "20/03/2020 21:46:52": [],
        "20/03/2020 21:47:13": [],
        "20/03/2020 21:47:27": []
    },
    "1179": {
        "20/03/2020 17:21:10": [],
        "20/03/2020 21:46:25": [],
        "20/03/2020 21:46:52": [],
        "20/03/2020 21:47:13": [],
        "20/03/2020 21:47:27": []
    },
    "7044": {
        "20/03/2020 17:21:21": [
            -30,
            28,
            28
        ],
        "20/03/2020 21:46:31": [
            6,
            6
        ],
        "20/03/2020 21:47:16": [
            6,
            6
        ],
        "20/03/2020 21:47:38": [
            6,
            6
        ]
    },
    "993": {
        "20/03/2020 17:21:22": [
            5,
            9,
            9
        ],
        "20/03/2020 21:46:31": [
            29,
            29
        ],
        "20/03/2020 21:47:16": [
            29,
            29
        ],
        "20/03/2020 21:47:38": [
            29,
            29
        ]
    },
    "5060": {
        "20/03/2020 17:21:23": [
            11,
            -29,
            -29
        ],
        "20/03/2020 21:46:32": [
            13,
            13
        ],
        "20/03/2020 21:47:17": [
            13,
            13
        ],
        "20/03/2020 21:47:39": [
            13,
            13
        ]
    },
    "5061": {
        "20/03/2020 17:21:23": [
            -23,
            2,
            2
        ],
        "20/03/2020 21:46:32": [
            -29,
            -29
        ],
        "20/03/2020 21:47:17": [
            -29,
            -29
        ],
        "20/03/2020 21:47:40": [
            -29,
            -29
        ]
    },
    "1231": {
        "20/03/2020 17:21:14": [
            17,
            -257,
            -9,
            22,
            -9,
            7
        ],
        "20/03/2020 21:46:32": [
            -189,
            -3,
            12,
            -3,
            12
        ],
        "20/03/2020 21:46:50": [
            -189,
            -3,
            12,
            -3,
            12
        ],
        "20/03/2020 21:47:00": [
            -189,
            -3,
            12,
            -3,
            12
        ],
        "20/03/2020 21:47:17": [
            -189,
            -3,
            12,
            -3,
            12
        ],
        "20/03/2020 21:47:30": [
            -189,
            -3,
            12,
            -3,
            12
        ]
    },
    "1232": {
        "20/03/2020 17:21:14": [
            -612,
            -15,
            -283,
            25,
            -4,
            25,
            -19
        ],
        "20/03/2020 21:46:32": [
            -222,
            16,
            -21,
            16,
            -21
        ],
        "20/03/2020 21:46:50": [
            -222,
            16,
            -21,
            16,
            -21
        ],
        "20/03/2020 21:47:01": [
            -222,
            16,
            -21,
            16,
            -21
        ],
        "20/03/2020 21:47:18": [
            -222,
            16,
            -21,
            16,
            -21
        ],
        "20/03/2020 21:47:31": [
            -222,
            16,
            -21,
            16,
            -21
        ]
    },
    "253": {
        "20/03/2020 17:21:14": [
            -1,
            23,
            23
        ],
        "20/03/2020 21:46:35": [
            2,
            2
        ],
        "20/03/2020 21:47:14": [
            2,
            2
        ],
        "20/03/2020 21:47:31": [
            2,
            2
        ]
    },
    "300": {
        "20/03/2020 17:20:47": [
            0,
            0,
            0,
            0,
            0
        ],
        "20/03/2020 21:46:42": [
            0,
            0
        ],
        "20/03/2020 21:46:53": [
            0,
            0
        ],
        "20/03/2020 21:47:05": [
            0,
            0
        ]
    },
    "497": {
        "20/03/2020 17:20:47": [
            29,
            15,
            15,
            15,
            15
        ],
        "20/03/2020 21:46:42": [
            -20,
            -20
        ],
        "20/03/2020 21:46:53": [
            -20,
            -20
        ],
        "20/03/2020 21:47:05": [
            -20,
            -20
        ]
    },
    "515": {
        "20/03/2020 17:20:48": [
            20,
            22,
            22,
            22
        ],
        "20/03/2020 21:46:43": [
            -10,
            -10
        ],
        "20/03/2020 21:46:53": [
            -10,
            -10
        ],
        "20/03/2020 21:47:06": [
            -10,
            -10
        ]
    },
    "516": {
        "20/03/2020 17:20:48": [
            -14,
            0,
            0,
            0
        ],
        "20/03/2020 21:46:43": [
            -15,
            -15
        ],
        "20/03/2020 21:46:54": [
            -15,
            -15
        ],
        "20/03/2020 21:47:06": [
            -15,
            -15
        ]
    },
    "4384": {
        "20/03/2020 17:20:48": [
            -15,
            5,
            5,
            5
        ],
        "20/03/2020 21:46:43": [
            21,
            21
        ],
        "20/03/2020 21:46:54": [
            21,
            21
        ],
        "20/03/2020 21:47:06": [
            21,
            21
        ]
    },
    "519": {
        "20/03/2020 17:20:48": [
            -1,
            25,
            25,
            25
        ],
        "20/03/2020 21:46:43": [
            7,
            7
        ],
        "20/03/2020 21:46:54": [
            7,
            7
        ],
        "20/03/2020 21:47:06": [
            7,
            7
        ]
    },
    "521": {
        "20/03/2020 17:20:49": [
            -11,
            15,
            15,
            15
        ],
        "20/03/2020 21:46:44": [
            -29,
            -29
        ],
        "20/03/2020 21:46:54": [
            -29,
            -29
        ],
        "20/03/2020 21:47:07": [
            -29,
            -29
        ]
    },
    "522": {
        "20/03/2020 17:20:49": [
            1,
            27,
            27,
            27
        ],
        "20/03/2020 21:46:44": [
            6,
            6
        ],
        "20/03/2020 21:46:55": [
            6,
            6
        ],
        "20/03/2020 21:47:07": [
            6,
            6
        ]
    },
    "523": {
        "20/03/2020 17:20:49": [
            -22,
            2,
            2,
            2
        ],
        "20/03/2020 21:46:44": [
            -17,
            -17
        ],
        "20/03/2020 21:46:55": [
            -17,
            -17
        ],
        "20/03/2020 21:47:07": [
            -17,
            -17
        ]
    },
    "669": {
        "20/03/2020 17:20:50": [
            17,
            -23,
            -23,
            -23
        ],
        "20/03/2020 21:46:45": [
            28,
            28
        ],
        "20/03/2020 21:46:55": [
            28,
            28
        ],
        "20/03/2020 21:47:08": [
            28,
            28
        ]
    },
    "670": {
        "20/03/2020 17:20:50": [
            -264,
            -7,
            7,
            7,
            7
        ],
        "20/03/2020 21:46:45": [
            13,
            13
        ],
        "20/03/2020 21:46:56": [
            13,
            13
        ],
        "20/03/2020 21:47:08": [
            13,
            13
        ]
    },
    "671": {
        "20/03/2020 17:20:50": [
            -285,
            -28,
            -10,
            -10,
            -10
        ],
        "20/03/2020 21:46:45": [
            -20,
            -20
        ],
        "20/03/2020 21:46:56": [
            -20,
            -20
        ],
        "20/03/2020 21:47:08": [
            -20,
            -20
        ]
    },
    "672": {
        "20/03/2020 17:20:51": [
            -283,
            -26,
            -1,
            -1,
            -1
        ],
        "20/03/2020 21:46:45": [
            24,
            24
        ],
        "20/03/2020 21:46:56": [
            24,
            24
        ],
        "20/03/2020 21:47:08": [
            24,
            24
        ]
    },
    "4382": {
        "20/03/2020 17:20:51": [
            -251,
            6,
            -26,
            -26
        ],
        "20/03/2020 21:46:46": [
            -13,
            -13
        ],
        "20/03/2020 21:46:56": [
            -13,
            -13
        ],
        "20/03/2020 21:47:09": [
            -13,
            -13
        ]
    },
    "1196": {
        "20/03/2020 17:20:51": [
            -306,
            -27,
            11,
            11
        ],
        "20/03/2020 21:46:46": [
            -7,
            -7
        ],
        "20/03/2020 21:46:57": [
            -7,
            -7
        ],
        "20/03/2020 21:47:09": [
            -7,
            -7
        ]
    },
    "1197": {
        "20/03/2020 17:20:52": [
            -264,
            15,
            -1,
            -1
        ],
        "20/03/2020 21:46:46": [
            25,
            25
        ],
        "20/03/2020 21:46:57": [
            25,
            25
        ],
        "20/03/2020 21:47:09": [
            25,
            25
        ]
    },
    "1198": {
        "20/03/2020 17:20:52": [
            -291,
            -12,
            24,
            24
        ],
        "20/03/2020 21:46:47": [
            24,
            24
        ],
        "20/03/2020 21:46:57": [
            24,
            24
        ],
        "20/03/2020 21:47:10": [
            24,
            24
        ]
    },
    "1222": {
        "20/03/2020 17:20:52": [
            -294,
            -15,
            17,
            17
        ],
        "20/03/2020 21:46:47": [
            0,
            0
        ],
        "20/03/2020 21:46:58": [
            0,
            0
        ],
        "20/03/2020 21:47:10": [
            0,
            0
        ]
    },
    "1223": {
        "20/03/2020 17:20:53": [
            -255,
            24,
            -8,
            -8
        ],
        "20/03/2020 21:46:47": [
            24,
            24
        ],
        "20/03/2020 21:46:58": [
            24,
            24
        ],
        "20/03/2020 21:47:10": [
            24,
            24
        ]
    },
    "1224": {
        "20/03/2020 17:20:53": [
            -264,
            15,
            -21,
            -21
        ],
        "20/03/2020 21:46:47": [
            -3,
            -3
        ],
        "20/03/2020 21:46:58": [
            -3,
            -3
        ],
        "20/03/2020 21:47:10": [
            -3,
            -3
        ]
    },
    "1225": {
        "20/03/2020 17:20:53": [
            -271,
            8,
            -27,
            -27
        ],
        "20/03/2020 21:46:48": [
            -28,
            -28
        ],
        "20/03/2020 21:46:58": [
            -28,
            -28
        ],
        "20/03/2020 21:47:11": [
            -28,
            -28
        ]
    },
    "1226": {
        "20/03/2020 17:20:54": [
            -269,
            10,
            -24,
            -24
        ],
        "20/03/2020 21:46:48": [
            12,
            12
        ],
        "20/03/2020 21:46:59": [
            12,
            12
        ],
        "20/03/2020 21:47:11": [
            12,
            12
        ]
    },
    "1227": {
        "20/03/2020 17:20:54": [
            -267,
            12,
            -25,
            -25
        ],
        "20/03/2020 21:46:48": [
            2,
            2
        ],
        "20/03/2020 21:46:59": [
            2,
            2
        ],
        "20/03/2020 21:47:11": [
            2,
            2
        ]
    },
    "1228": {
        "20/03/2020 17:20:41": [
            -280,
            -1,
            19,
            19
        ],
        "20/03/2020 21:46:48": [
            -20,
            -20
        ],
        "20/03/2020 21:46:59": [
            -20,
            -20
        ]
    },
    "1244": {
        "20/03/2020 17:20:41": [
            -305,
            -26,
            -8,
            -8
        ],
        "20/03/2020 21:46:49": [
            9,
            9
        ],
        "20/03/2020 21:46:59": [
            9,
            9
        ]
    },
    "254": {
        "20/03/2020 17:20:30": [
            -266,
            13,
            23,
            23
        ],
        "20/03/2020 21:46:49": [
            18,
            18
        ],
        "20/03/2020 21:46:51": [
            18,
            18
        ]
    },
    "1246": {
        "20/03/2020 17:20:42": [
            -285,
            -6,
            -16
        ],
        "20/03/2020 21:46:49": [
            -194,
            7,
            7
        ],
        "20/03/2020 21:47:00": [
            -194,
            7,
            7
        ]
    },
    "1229": {
        "20/03/2020 17:20:42": [
            -309,
            -30,
            15
        ],
        "20/03/2020 21:46:50": [
            -230,
            -29,
            -29
        ],
        "20/03/2020 21:47:00": [
            -230,
            -29,
            -29
        ]
    },
    "969": {
        "20/03/2020 17:20:55": [],
        "20/03/2020 21:46:52": [],
        "20/03/2020 21:47:12": []
    },
    "1253": {
        "20/03/2020 17:20:54": [],
        "20/03/2020 21:46:52": [],
        "20/03/2020 21:47:12": []
    },
    "5174": {
        "20/03/2020 17:20:44": [
            -640,
            -295,
            -16,
            10
        ],
        "20/03/2020 21:47:02": [
            -173,
            -23,
            -23
        ]
    },
    "6078": {
        "20/03/2020 17:20:44": [
            -608,
            -263,
            16,
            -23
        ],
        "20/03/2020 21:47:02": [
            -152,
            -2,
            -2
        ]
    },
    "7112": {
        "20/03/2020 17:20:56": [
            -651,
            -306,
            -27,
            -16
        ],
        "20/03/2020 21:47:02": [
            -159,
            -9,
            -9
        ],
        "20/03/2020 21:47:13": [
            -159,
            -9,
            -9
        ]
    },
    "972": {
        "20/03/2020 17:20:56": [
            -569,
            -296,
            -17,
            -15
        ],
        "20/03/2020 21:47:03": [
            -170,
            -20
        ],
        "20/03/2020 21:47:14": [
            -170,
            -20
        ]
    },
    "1625": {
        "20/03/2020 17:20:45": [
            -569,
            -296,
            -17,
            20
        ],
        "20/03/2020 21:47:03": [
            -167,
            -17
        ]
    },
    "1626": {
        "20/03/2020 17:20:45": [
            -576,
            -303,
            -24
        ],
        "20/03/2020 21:47:03": [
            -128,
            22
        ]
    },
    "1627": {
        "20/03/2020 17:20:45": [
            -568,
            -295,
            -16
        ],
        "20/03/2020 21:47:03": [
            -139,
            11
        ]
    },
    "1628": {
        "20/03/2020 17:20:46": [
            -524,
            -251,
            28
        ],
        "20/03/2020 21:47:04": [
            -150,
            0
        ]
    },
    "1629": {
        "20/03/2020 17:20:46": [
            -549,
            -276,
            3
        ],
        "20/03/2020 21:47:04": [
            -122,
            28
        ]
    },
    "6234": {
        "20/03/2020 17:20:46": [
            -572,
            -173,
            -20
        ],
        "20/03/2020 21:47:04": [
            -127,
            23
        ]
    },
    "332": {
        "20/03/2020 17:20:47": [],
        "20/03/2020 21:47:05": []
    },
    "324": {
        "20/03/2020 17:21:12": [
            0,
            0,
            0
        ],
        "20/03/2020 21:47:14": [
            0,
            0,
            0
        ],
        "20/03/2020 21:47:29": [
            0,
            0,
            0
        ]
    },
    "1634": {
        "20/03/2020 17:21:11": [
            19,
            19
        ],
        "20/03/2020 21:47:14": [
            -20,
            -20,
            11
        ],
        "20/03/2020 21:47:27": [
            -20,
            -20,
            11
        ]
    },
    "1635": {
        "20/03/2020 17:21:11": [
            -24,
            -24
        ],
        "20/03/2020 21:47:15": [
            -9,
            -9,
            21
        ],
        "20/03/2020 21:47:28": [
            -9,
            -9,
            21
        ]
    },
    "1636": {
        "20/03/2020 17:21:11": [
            20,
            20
        ],
        "20/03/2020 21:47:15": [
            21,
            21,
            -10
        ],
        "20/03/2020 21:47:28": [
            21,
            21,
            -10
        ]
    },
    "1637": {
        "20/03/2020 17:21:11": [
            -22,
            -15,
            -15
        ],
        "20/03/2020 21:47:15": [
            -29,
            -29,
            -18
        ],
        "20/03/2020 21:47:28": [
            -29,
            -29,
            -18
        ]
    },
    "1638": {
        "20/03/2020 17:21:12": [
            22,
            -21,
            -21
        ],
        "20/03/2020 21:47:16": [
            0,
            0
        ],
        "20/03/2020 21:47:29": [
            0,
            0
        ]
    },
    "992": {
        "20/03/2020 17:21:12": [
            -8,
            28,
            28
        ],
        "20/03/2020 21:47:16": [
            0,
            0
        ],
        "20/03/2020 21:47:29": [
            0,
            0
        ]
    },
    "303": {
        "20/03/2020 17:21:14": [],
        "20/03/2020 21:47:31": []
    },
    "4415": {
        "20/03/2020 17:21:18": [],
        "20/03/2020 21:47:34": []
    },
    "5033": {
        "20/03/2020 17:21:22": [],
        "20/03/2020 21:47:39": []
    }
}