{
    "overall_punctuality": 31864,
    "overall_num": 3990,
    "overall_avg": 8,
    "daily_punctuality": {
        "Sunday": {
            "num_results": 478,
            "total": 6720,
            "avg:": 0,
            "avg": 15
        },
        "Monday": {
            "num_results": 471,
            "total": -18724,
            "avg:": 0,
            "avg": -39
        },
        "Tuesday": {
            "num_results": 636,
            "total": -10223,
            "avg:": 0,
            "avg": -16
        },
        "Wednesday": {
            "num_results": 610,
            "total": 13079,
            "avg:": 0,
            "avg": 22
        },
        "Thursday": {
            "num_results": 479,
            "total": 11335,
            "avg:": 0,
            "avg": 24
        },
        "Friday": {
            "num_results": 319,
            "total": 10797,
            "avg:": 0,
            "avg": 34
        },
        "Saturday": {
            "num_results": 997,
            "total": 18880,
            "avg:": 0,
            "avg": 19
        }
    }
}