{
    "254": {
        "22/03/2020 14:45:46": [
            -17,
            20
        ],
        "22/03/2020 17:12:11": [
            -7,
            -7
        ],
        "22/03/2020 19:31:04": [
            -2,
            -2
        ]
    },
    "1228": {
        "22/03/2020 14:45:46": [
            -23,
            -23
        ],
        "22/03/2020 17:12:11": [
            1,
            1
        ],
        "22/03/2020 19:31:05": [
            6,
            6,
            6
        ]
    },
    "1244": {
        "22/03/2020 14:45:47": [
            6,
            6
        ],
        "22/03/2020 17:12:12": [
            -28,
            -28
        ],
        "22/03/2020 19:31:05": [
            -23,
            -23,
            -23
        ]
    },
    "1246": {
        "22/03/2020 14:45:47": [
            -15,
            23
        ],
        "22/03/2020 17:12:12": [
            -14,
            9,
            9
        ],
        "22/03/2020 19:31:05": [
            5,
            5
        ]
    },
    "1229": {
        "22/03/2020 14:45:49": [
            12,
            -9
        ],
        "22/03/2020 17:12:13": [
            17,
            -21,
            -21
        ],
        "22/03/2020 19:31:06": [
            -27,
            -27
        ]
    },
    "5174": {
        "22/03/2020 14:45:54": [
            29,
            17
        ],
        "22/03/2020 17:12:13": [
            -12,
            10
        ],
        "22/03/2020 19:31:06": [
            -13,
            -13
        ]
    },
    "6078": {
        "22/03/2020 14:45:58": [
            -6,
            -18
        ],
        "22/03/2020 17:12:14": [
            15,
            -26
        ],
        "22/03/2020 19:31:07": [
            10,
            10
        ]
    },
    "1625": {
        "22/03/2020 14:46:03": [
            14,
            -2
        ],
        "22/03/2020 17:12:14": [
            -11,
            -17
        ],
        "22/03/2020 19:31:07": [
            7,
            7
        ]
    },
    "1626": {
        "22/03/2020 14:46:08": [
            4,
            -21
        ],
        "22/03/2020 17:12:14": [
            -28,
            -28
        ],
        "22/03/2020 19:31:08": [
            -12,
            -12
        ]
    },
    "1627": {
        "22/03/2020 14:46:13": [
            7,
            -29
        ],
        "22/03/2020 17:12:15": [
            27,
            -27
        ],
        "22/03/2020 19:31:08": [
            -20,
            -20
        ]
    },
    "1628": {
        "22/03/2020 14:46:18": [
            -11,
            8
        ],
        "22/03/2020 17:12:15": [
            9,
            15
        ],
        "22/03/2020 19:31:08": [
            -20,
            -20
        ]
    },
    "1629": {
        "22/03/2020 14:46:23": [
            27,
            -19
        ],
        "22/03/2020 17:12:16": [
            -15,
            -16
        ],
        "22/03/2020 19:31:09": [
            9,
            9
        ]
    },
    "6234": {
        "22/03/2020 14:46:28": [
            -9,
            -24
        ],
        "22/03/2020 17:12:16": [
            -19,
            -12
        ],
        "22/03/2020 19:31:09": [
            -1,
            -1
        ]
    },
    "332": {
        "22/03/2020 14:46:34": [],
        "22/03/2020 17:12:17": [],
        "22/03/2020 19:31:10": []
    },
    "300": {
        "22/03/2020 14:46:39": [
            0,
            0
        ],
        "22/03/2020 17:12:17": [
            0,
            0,
            0
        ],
        "22/03/2020 19:31:10": [
            0,
            0
        ]
    },
    "497": {
        "22/03/2020 14:46:44": [
            -10,
            -10
        ],
        "22/03/2020 17:12:17": [
            -20,
            -20,
            -20
        ],
        "22/03/2020 19:31:11": [
            1,
            1
        ]
    },
    "515": {
        "22/03/2020 14:46:49": [
            2,
            2
        ],
        "22/03/2020 17:12:18": [
            1,
            1,
            1
        ],
        "22/03/2020 19:31:11": [
            -54,
            23,
            23
        ]
    },
    "516": {
        "22/03/2020 14:46:53": [
            -3,
            -3
        ],
        "22/03/2020 17:12:18": [
            3,
            3,
            3
        ],
        "22/03/2020 19:31:11": [
            -23,
            26,
            26
        ]
    },
    "4384": {
        "22/03/2020 14:46:58": [
            -22,
            -22
        ],
        "22/03/2020 17:12:19": [
            -14,
            -14,
            -14
        ],
        "22/03/2020 19:31:12": [
            -41,
            8,
            8
        ]
    },
    "519": {
        "22/03/2020 14:47:03": [
            -30,
            -30
        ],
        "22/03/2020 17:12:19": [
            -20,
            -20,
            -20
        ],
        "22/03/2020 19:31:12": [
            -49,
            0,
            0
        ]
    },
    "521": {
        "22/03/2020 14:47:07": [
            -5,
            -5
        ],
        "22/03/2020 17:12:20": [
            13,
            13,
            13
        ],
        "22/03/2020 19:31:13": []
    },
    "522": {
        "22/03/2020 14:47:11": [
            -28,
            -28
        ],
        "22/03/2020 17:12:20": [
            2,
            2
        ],
        "22/03/2020 19:31:13": [
            -66,
            11,
            11
        ]
    },
    "523": {
        "22/03/2020 14:47:18": [
            9,
            9
        ],
        "22/03/2020 17:12:20": [
            -13,
            -13
        ],
        "22/03/2020 19:31:13": [
            -82,
            -5,
            -5
        ]
    },
    "669": {
        "22/03/2020 14:47:23": [
            -3,
            -3
        ],
        "22/03/2020 17:12:21": [
            -24,
            -24
        ],
        "22/03/2020 19:31:14": [
            -9,
            -9,
            -9
        ]
    },
    "670": {
        "22/03/2020 14:47:28": [
            -17,
            -17
        ],
        "22/03/2020 17:12:21": [
            24,
            24
        ],
        "22/03/2020 19:31:14": [
            -14,
            -14,
            -14
        ]
    },
    "671": {
        "22/03/2020 14:47:34": [
            6,
            6
        ],
        "22/03/2020 17:12:22": [
            -10,
            -10
        ],
        "22/03/2020 19:31:15": [
            13,
            13,
            13
        ]
    },
    "672": {
        "22/03/2020 14:47:39": [
            -17,
            -17
        ],
        "22/03/2020 17:12:22": [
            -28,
            -28
        ],
        "22/03/2020 19:31:15": [
            -3,
            -3,
            -3
        ]
    },
    "4382": {
        "22/03/2020 14:47:45": [
            2,
            2
        ],
        "22/03/2020 17:12:22": [
            -6,
            -6
        ],
        "22/03/2020 19:31:16": [
            20,
            20,
            20
        ]
    },
    "1196": {
        "22/03/2020 14:47:53": [
            6,
            6
        ],
        "22/03/2020 17:12:23": [
            2,
            2
        ],
        "22/03/2020 19:31:16": [
            -22,
            -22,
            -22
        ]
    },
    "1197": {
        "22/03/2020 14:47:59": [
            -23,
            -23
        ],
        "22/03/2020 17:12:23": [
            -25,
            -25
        ],
        "22/03/2020 19:31:16": [
            16,
            16,
            16
        ]
    },
    "1198": {
        "22/03/2020 14:48:00": [
            -13,
            -13
        ],
        "22/03/2020 17:12:24": [
            -11,
            -11
        ],
        "22/03/2020 19:31:17": [
            26,
            26,
            26
        ]
    },
    "1222": {
        "22/03/2020 14:48:01": [
            27,
            27
        ],
        "22/03/2020 17:12:24": [
            -26,
            -26
        ],
        "22/03/2020 19:31:17": [
            4,
            4,
            4
        ]
    },
    "1223": {
        "22/03/2020 14:48:01": [
            -6,
            -6
        ],
        "22/03/2020 17:12:25": [
            4,
            4
        ],
        "22/03/2020 19:31:18": [
            -30,
            -30,
            -30
        ]
    },
    "1224": {
        "22/03/2020 14:48:01": [
            -30,
            -30
        ],
        "22/03/2020 17:12:25": [
            -15,
            -15
        ],
        "22/03/2020 19:31:18": [
            5,
            5,
            5
        ]
    },
    "1225": {
        "22/03/2020 14:48:02": [
            14,
            14
        ],
        "22/03/2020 17:12:25": [
            -29,
            -29
        ],
        "22/03/2020 19:31:19": [
            -16,
            -16,
            -16
        ]
    },
    "1226": {
        "22/03/2020 14:48:02": [
            5,
            5
        ],
        "22/03/2020 17:12:26": [
            24,
            24
        ],
        "22/03/2020 19:31:19": [
            -30,
            -30,
            -30
        ]
    },
    "1227": {
        "22/03/2020 14:48:03": [
            -3,
            -3
        ],
        "22/03/2020 17:12:26": [
            19,
            19
        ],
        "22/03/2020 19:31:19": [
            25,
            25,
            25
        ]
    },
    "1253": {
        "22/03/2020 14:48:03": [],
        "22/03/2020 17:12:27": [],
        "22/03/2020 19:31:20": []
    },
    "969": {
        "22/03/2020 14:48:04": [],
        "22/03/2020 17:12:27": [],
        "22/03/2020 19:31:20": []
    },
    "7112": {
        "22/03/2020 14:48:04": [
            -5,
            -18
        ],
        "22/03/2020 17:12:28": [
            19,
            -27
        ],
        "22/03/2020 19:31:21": [
            6,
            6
        ]
    },
    "972": {
        "22/03/2020 14:48:05": [
            -9,
            -23
        ],
        "22/03/2020 17:12:28": [
            18,
            26
        ],
        "22/03/2020 19:31:21": [
            -3,
            -3
        ]
    },
    "1176": {
        "22/03/2020 14:48:05": [],
        "22/03/2020 17:12:28": [],
        "22/03/2020 19:31:22": []
    },
    "1177": {
        "22/03/2020 14:48:06": [],
        "22/03/2020 17:12:29": [],
        "22/03/2020 19:31:22": []
    },
    "1178": {
        "22/03/2020 14:48:07": [],
        "22/03/2020 17:12:29": [],
        "22/03/2020 19:31:23": []
    },
    "1179": {
        "22/03/2020 14:48:07": [],
        "22/03/2020 17:12:30": [],
        "22/03/2020 19:31:23": []
    },
    "1634": {
        "22/03/2020 14:48:08": [
            15,
            15,
            -12
        ],
        "22/03/2020 17:12:30": [
            -29,
            18,
            18
        ],
        "22/03/2020 19:31:23": [
            -14,
            -14
        ]
    },
    "1635": {
        "22/03/2020 14:48:08": [
            27,
            27,
            9
        ],
        "22/03/2020 17:12:31": [
            -15,
            -17,
            -17
        ],
        "22/03/2020 19:31:24": [
            -4,
            -4
        ]
    },
    "1636": {
        "22/03/2020 14:48:09": [
            -4,
            -4,
            -17
        ],
        "22/03/2020 17:12:31": [
            -26,
            20,
            20
        ],
        "22/03/2020 19:31:24": [
            26,
            26
        ]
    },
    "1637": {
        "22/03/2020 14:48:09": [
            4,
            4,
            14
        ],
        "22/03/2020 17:12:32": [
            19,
            -26,
            -26
        ],
        "22/03/2020 19:31:25": [
            24,
            24
        ]
    },
    "1638": {
        "22/03/2020 14:48:10": [
            -22,
            -22,
            -16
        ],
        "22/03/2020 17:12:32": [
            -8,
            12,
            12
        ],
        "22/03/2020 19:31:25": [
            -2,
            -2
        ]
    },
    "324": {
        "22/03/2020 14:48:10": [
            0,
            0,
            0
        ],
        "22/03/2020 17:12:33": [
            0,
            0,
            0
        ],
        "22/03/2020 19:31:25": [
            0,
            0
        ]
    },
    "992": {
        "22/03/2020 14:48:11": [
            -12,
            -12,
            -16
        ],
        "22/03/2020 17:12:33": [
            -1,
            -30,
            -30
        ],
        "22/03/2020 19:31:26": [
            9,
            9
        ]
    },
    "1219": {
        "22/03/2020 14:48:11": [
            197,
            -1,
            -1
        ],
        "22/03/2020 17:12:33": [
            -105,
            19,
            27
        ],
        "22/03/2020 19:31:26": [
            125,
            -10
        ]
    },
    "1220": {
        "22/03/2020 14:48:11": [
            185,
            -13,
            -13
        ],
        "22/03/2020 17:12:34": [
            -103,
            21,
            6
        ],
        "22/03/2020 19:31:27": [
            116,
            -19
        ]
    },
    "1221": {
        "22/03/2020 14:48:12": [
            180,
            -18,
            -18
        ],
        "22/03/2020 17:12:34": [
            -106,
            18,
            2
        ],
        "22/03/2020 19:31:27": [
            107,
            -28
        ]
    },
    "1231": {
        "22/03/2020 14:48:12": [
            197,
            -9,
            15,
            -25,
            15,
            -17
        ],
        "22/03/2020 17:12:35": [
            -1,
            17,
            19,
            26,
            26
        ],
        "22/03/2020 19:31:28": [
            150,
            15,
            -23,
            15,
            -23
        ]
    },
    "253": {
        "22/03/2020 14:48:13": [
            187,
            -11,
            -11
        ],
        "22/03/2020 17:12:35": [
            16,
            14
        ],
        "22/03/2020 19:31:28": [
            155,
            20
        ]
    },
    "303": {
        "22/03/2020 14:48:13": [],
        "22/03/2020 17:12:36": [],
        "22/03/2020 19:31:28": []
    },
    "1232": {
        "22/03/2020 14:48:14": [
            159,
            16,
            -23,
            4,
            -23,
            2
        ],
        "22/03/2020 17:12:36": [
            28,
            -23,
            -17,
            -2,
            -2
        ],
        "22/03/2020 19:31:29": [
            171,
            -17,
            -2,
            -17,
            -2
        ]
    },
    "1233": {
        "22/03/2020 14:48:14": [
            175,
            -24,
            -7,
            26,
            -7,
            16
        ],
        "22/03/2020 17:12:36": [
            -11,
            -7,
            1,
            22,
            22
        ],
        "22/03/2020 19:31:29": [
            188,
            4,
            15,
            4,
            15
        ]
    },
    "1234": {
        "22/03/2020 14:48:15": [
            201,
            -3,
            19,
            -13,
            19,
            -8
        ],
        "22/03/2020 17:12:37": [
            11,
            21,
            27,
            -18,
            -18
        ],
        "22/03/2020 19:31:30": [
            152,
            23,
            -21,
            23,
            -21
        ]
    },
    "1235": {
        "22/03/2020 14:48:15": [
            203,
            5,
            5
        ],
        "22/03/2020 17:12:37": [
            14,
            13
        ],
        "22/03/2020 19:31:30": [
            191,
            18,
            18
        ]
    },
    "1237": {
        "22/03/2020 14:48:16": [
            186,
            -12,
            -12
        ],
        "22/03/2020 17:12:38": [
            5,
            25
        ],
        "22/03/2020 19:31:31": [
            136,
            1
        ]
    },
    "1238": {
        "22/03/2020 14:48:16": [
            175,
            -23,
            -23
        ],
        "22/03/2020 17:12:38": [
            -191,
            -10,
            17
        ],
        "22/03/2020 19:31:31": [
            119,
            -16
        ]
    },
    "1239": {
        "22/03/2020 14:48:17": [
            213,
            15,
            15
        ],
        "22/03/2020 17:12:39": [
            -198,
            28,
            -10
        ],
        "22/03/2020 19:31:31": [
            153,
            18
        ]
    },
    "1240": {
        "22/03/2020 14:48:17": [
            179,
            -19,
            -19
        ],
        "22/03/2020 17:12:39": [
            -168,
            -8,
            3
        ],
        "22/03/2020 19:31:32": [
            109,
            -26
        ]
    },
    "1241": {
        "22/03/2020 14:48:18": [
            207,
            9,
            9
        ],
        "22/03/2020 17:12:39": [
            -206,
            20,
            -27
        ],
        "22/03/2020 19:31:32": [
            136,
            1
        ]
    },
    "1242": {
        "22/03/2020 14:48:18": [
            180,
            -18,
            -18
        ],
        "22/03/2020 17:12:40": [
            -232,
            -6,
            10
        ],
        "22/03/2020 19:31:33": [
            108,
            -27
        ]
    },
    "1251": {
        "22/03/2020 14:48:19": [
            186,
            -12,
            -12
        ],
        "22/03/2020 17:12:40": [
            2,
            1
        ],
        "22/03/2020 19:31:33": [
            179,
            6,
            6
        ]
    },
    "247": {
        "22/03/2020 14:48:19": [
            204,
            6,
            6
        ],
        "22/03/2020 17:12:41": [
            -142,
            18,
            -27
        ],
        "22/03/2020 19:31:34": [
            138,
            3
        ]
    },
    "4415": {
        "22/03/2020 14:48:20": [],
        "22/03/2020 17:12:41": [],
        "22/03/2020 19:31:34": []
    },
    "615": {
        "22/03/2020 14:48:20": [
            200,
            2,
            2
        ],
        "22/03/2020 17:12:42": [
            81,
            -97,
            27,
            12
        ],
        "22/03/2020 19:31:34": [
            119,
            -16
        ]
    },
    "616": {
        "22/03/2020 14:48:21": [
            201,
            3,
            3
        ],
        "22/03/2020 17:12:42": [
            64,
            -114,
            10,
            -1
        ],
        "22/03/2020 19:31:35": [
            161,
            26
        ]
    },
    "617": {
        "22/03/2020 14:48:21": [
            189,
            -9
        ],
        "22/03/2020 17:12:42": [
            45,
            -133,
            -9,
            -8
        ],
        "22/03/2020 19:31:35": [
            142,
            7
        ]
    },
    "618": {
        "22/03/2020 14:48:22": [
            177,
            -21
        ],
        "22/03/2020 17:12:43": [
            33,
            -151,
            -27,
            -14
        ],
        "22/03/2020 19:31:36": [
            124,
            -11
        ]
    },
    "619": {
        "22/03/2020 14:48:22": [
            174,
            -24
        ],
        "22/03/2020 17:12:43": [
            40,
            -144,
            -20,
            -25
        ],
        "22/03/2020 19:31:36": [
            117,
            -18
        ]
    },
    "664": {
        "22/03/2020 14:48:23": [
            176,
            -22,
            -22
        ],
        "22/03/2020 17:12:44": [
            -109,
            15,
            -1
        ],
        "22/03/2020 19:31:37": [
            159,
            24
        ]
    },
    "665": {
        "22/03/2020 14:48:23": [
            207,
            9,
            9
        ],
        "22/03/2020 17:12:44": [
            -139,
            -15,
            -27
        ],
        "22/03/2020 19:31:37": [
            134,
            -1
        ]
    },
    "666": {
        "22/03/2020 14:48:24": [
            178,
            -20,
            -20
        ],
        "22/03/2020 17:12:45": [
            -108,
            16,
            7
        ],
        "22/03/2020 19:31:38": [
            109,
            -26
        ]
    },
    "667": {
        "22/03/2020 14:48:24": [
            211,
            13,
            13
        ],
        "22/03/2020 17:12:45": [
            -136,
            -12,
            -17
        ],
        "22/03/2020 19:31:38": [
            146,
            11
        ]
    },
    "668": {
        "22/03/2020 14:48:25": [
            207,
            9,
            9
        ],
        "22/03/2020 17:12:46": [
            -134,
            -10,
            -23
        ],
        "22/03/2020 19:31:39": [
            146,
            11
        ]
    },
    "7044": {
        "22/03/2020 14:48:25": [
            5,
            5,
            -10
        ],
        "22/03/2020 17:12:46": [
            12,
            -6,
            -6
        ],
        "22/03/2020 19:31:39": [
            26,
            26
        ]
    },
    "7130": {
        "22/03/2020 14:48:26": [
            227,
            29,
            29
        ],
        "22/03/2020 17:12:46": [
            -13,
            5
        ],
        "22/03/2020 19:31:39": [
            119,
            -16
        ]
    },
    "993": {
        "22/03/2020 14:48:26": [
            -28,
            -28,
            14
        ],
        "22/03/2020 17:12:47": [
            -22,
            24,
            24
        ],
        "22/03/2020 19:31:40": [
            166,
            -7,
            -7
        ]
    },
    "5033": {
        "22/03/2020 14:48:27": [],
        "22/03/2020 17:12:47": [],
        "22/03/2020 19:31:40": []
    },
    "5060": {
        "22/03/2020 14:48:27": [
            24,
            24,
            -1
        ],
        "22/03/2020 17:12:48": [
            27,
            22,
            22
        ],
        "22/03/2020 19:31:41": [
            158,
            -15,
            -15
        ]
    },
    "5061": {
        "22/03/2020 14:48:28": [
            166,
            -16,
            -16,
            16
        ],
        "22/03/2020 17:12:48": [
            -13,
            -16,
            -16
        ],
        "22/03/2020 19:31:41": [
            179,
            6,
            6
        ]
    },
    "614": {
        "22/03/2020 14:48:28": [
            189,
            -9,
            -9
        ],
        "22/03/2020 17:12:49": [
            -148,
            -24,
            17
        ],
        "22/03/2020 19:31:42": [
            130,
            -5
        ]
    },
    "675": {
        "22/03/2020 14:48:29": [],
        "22/03/2020 17:12:49": [],
        "22/03/2020 19:31:42": []
    },
    "7358": {
        "22/03/2020 14:48:30": [
            206,
            -24,
            8,
            25,
            8
        ],
        "22/03/2020 17:12:49": [
            -8,
            13,
            16,
            20
        ],
        "22/03/2020 19:31:42": [
            198,
            -139,
            25,
            -1,
            25
        ]
    },
    "1277": {
        "22/03/2020 14:48:30": [
            171,
            -27,
            -27
        ],
        "22/03/2020 17:12:50": [
            -241,
            -15,
            5
        ],
        "22/03/2020 19:31:43": [
            156,
            21
        ]
    }
}