{
    "overall_punctuality": -11284,
    "overall_num": 654,
    "overall_avg": -17,
    "daily_punctuality": {
        "Sunday": {
            "num_results": 0,
            "total": 0,
            "avg:": 0
        },
        "Monday": {
            "num_results": 189,
            "total": -23575,
            "avg:": 0,
            "avg": -124
        },
        "Tuesday": {
            "num_results": 104,
            "total": -4408,
            "avg:": 0,
            "avg": -42
        },
        "Wednesday": {
            "num_results": 112,
            "total": 38,
            "avg:": 0,
            "avg": 1
        },
        "Thursday": {
            "num_results": 125,
            "total": 2982,
            "avg:": 0,
            "avg": 24
        },
        "Friday": {
            "num_results": 124,
            "total": 13679,
            "avg:": 0,
            "avg": 111
        },
        "Saturday": {
            "num_results": 0,
            "total": 0,
            "avg:": 0
        }
    }
}