{
    "7391": {
        "23/03/2020 13:49:09": [
            0
        ],
        "23/03/2020 15:53:32": [],
        "23/03/2020 19:08:11": []
    },
    "493": {
        "23/03/2020 13:49:09": [
            -8
        ],
        "23/03/2020 15:53:33": [],
        "23/03/2020 19:08:11": []
    },
    "494": {
        "23/03/2020 13:49:10": [
            20
        ],
        "23/03/2020 15:53:33": [],
        "23/03/2020 19:08:11": []
    },
    "495": {
        "23/03/2020 13:49:10": [
            5
        ],
        "23/03/2020 15:53:33": [],
        "23/03/2020 19:08:11": []
    },
    "400": {
        "23/03/2020 13:49:10": [
            -30
        ],
        "23/03/2020 15:53:33": [],
        "23/03/2020 19:08:12": []
    },
    "346": {
        "23/03/2020 13:49:11": [
            -28
        ],
        "23/03/2020 15:53:34": [],
        "23/03/2020 19:08:12": []
    },
    "317": {
        "23/03/2020 13:49:12": [
            15
        ],
        "23/03/2020 15:53:34": [],
        "23/03/2020 19:08:12": []
    },
    "312": {
        "23/03/2020 13:49:13": [
            -6
        ],
        "23/03/2020 15:53:34": [],
        "23/03/2020 19:08:13": []
    },
    "1444": {
        "23/03/2020 13:49:13": [
            -26
        ],
        "23/03/2020 15:53:35": [],
        "23/03/2020 19:08:13": []
    },
    "1445": {
        "23/03/2020 13:49:13": [
            -23
        ],
        "23/03/2020 15:53:35": [],
        "23/03/2020 19:08:13": []
    },
    "7078": {
        "23/03/2020 13:49:14": [
            15
        ],
        "23/03/2020 15:53:35": [],
        "23/03/2020 19:08:14": []
    },
    "1449": {
        "23/03/2020 13:49:15": [
            14
        ],
        "23/03/2020 15:53:36": [],
        "23/03/2020 19:08:14": []
    },
    "1450": {
        "23/03/2020 13:49:16": [
            -18
        ],
        "23/03/2020 15:53:36": [],
        "23/03/2020 19:08:14": []
    },
    "1451": {
        "23/03/2020 13:49:16": [
            7
        ],
        "23/03/2020 15:53:36": [],
        "23/03/2020 19:08:14": []
    },
    "2191": {
        "23/03/2020 13:49:16": [
            3
        ],
        "23/03/2020 15:53:36": [],
        "23/03/2020 19:08:15": []
    },
    "2192": {
        "23/03/2020 13:49:17": [
            28
        ],
        "23/03/2020 15:53:37": [],
        "23/03/2020 19:08:15": []
    },
    "2193": {
        "23/03/2020 13:49:17": [
            2
        ],
        "23/03/2020 15:53:37": [],
        "23/03/2020 19:08:15": []
    },
    "2194": {
        "23/03/2020 13:49:17": [
            23
        ],
        "23/03/2020 15:53:37": [],
        "23/03/2020 19:08:16": []
    },
    "2195": {
        "23/03/2020 13:49:18": [
            3
        ],
        "23/03/2020 15:53:38": [],
        "23/03/2020 19:08:16": []
    },
    "2196": {
        "23/03/2020 13:49:18": [],
        "23/03/2020 15:53:38": [],
        "23/03/2020 19:08:16": []
    },
    "2197": {
        "23/03/2020 13:49:18": [],
        "23/03/2020 15:53:38": [],
        "23/03/2020 19:08:16": []
    },
    "2198": {
        "23/03/2020 13:49:19": [],
        "23/03/2020 15:53:38": [],
        "23/03/2020 19:08:17": []
    },
    "2200": {
        "23/03/2020 13:49:19": [],
        "23/03/2020 15:53:39": [],
        "23/03/2020 19:08:17": []
    },
    "2201": {
        "23/03/2020 13:49:19": [
            -308
        ],
        "23/03/2020 15:53:39": [],
        "23/03/2020 19:08:17": []
    },
    "7239": {
        "23/03/2020 13:49:20": [
            -325
        ],
        "23/03/2020 15:53:39": [],
        "23/03/2020 19:08:18": []
    },
    "4401": {
        "23/03/2020 13:49:20": [
            -294
        ],
        "23/03/2020 15:53:40": [],
        "23/03/2020 19:08:18": []
    },
    "2213": {
        "23/03/2020 13:49:20": [
            -278
        ],
        "23/03/2020 15:53:40": [],
        "23/03/2020 19:08:18": []
    },
    "2214": {
        "23/03/2020 13:49:21": [
            -291
        ],
        "23/03/2020 15:53:40": [
            -309
        ],
        "23/03/2020 19:08:18": []
    },
    "2215": {
        "23/03/2020 13:49:21": [
            -303
        ],
        "23/03/2020 15:53:40": [
            -321
        ],
        "23/03/2020 19:08:19": []
    },
    "2216": {
        "23/03/2020 13:49:21": [
            -328
        ],
        "23/03/2020 15:53:41": [
            -313
        ],
        "23/03/2020 19:08:19": []
    },
    "4599": {
        "23/03/2020 13:49:22": [
            -307
        ],
        "23/03/2020 15:53:41": [
            -322
        ],
        "23/03/2020 19:08:19": []
    },
    "2217": {
        "23/03/2020 13:49:22": [
            -314
        ],
        "23/03/2020 15:53:42": [
            -329
        ],
        "23/03/2020 19:08:20": []
    },
    "2218": {
        "23/03/2020 13:49:23": [
            -333
        ],
        "23/03/2020 15:53:42": [
            -348
        ],
        "23/03/2020 19:08:20": []
    },
    "2219": {
        "23/03/2020 13:49:23": [
            -294
        ],
        "23/03/2020 15:53:43": [
            -309
        ],
        "23/03/2020 19:08:20": []
    },
    "3365": {
        "23/03/2020 13:49:23": [
            -329
        ],
        "23/03/2020 15:53:43": [
            -344
        ],
        "23/03/2020 19:08:21": []
    },
    "3366": {
        "23/03/2020 13:49:24": [
            -298
        ],
        "23/03/2020 15:53:43": [
            -313
        ],
        "23/03/2020 19:08:21": []
    },
    "3367": {
        "23/03/2020 13:49:24": [
            -412
        ],
        "23/03/2020 15:53:44": [
            -329
        ],
        "23/03/2020 19:08:21": []
    },
    "3886": {
        "23/03/2020 13:49:25": [
            -400
        ],
        "23/03/2020 15:53:44": [
            -254
        ],
        "23/03/2020 19:08:22": []
    },
    "3887": {
        "23/03/2020 13:49:25": [
            -420
        ],
        "23/03/2020 15:53:44": [
            -274
        ],
        "23/03/2020 19:08:22": []
    },
    "3888": {
        "23/03/2020 13:49:25": [
            -387
        ],
        "23/03/2020 15:53:45": [
            -241
        ],
        "23/03/2020 19:08:22": []
    },
    "7186": {
        "23/03/2020 13:49:26": [
            -381
        ],
        "23/03/2020 15:53:45": [
            -235
        ],
        "23/03/2020 19:08:22": []
    },
    "7187": {
        "23/03/2020 13:49:26": [
            -420
        ],
        "23/03/2020 15:53:45": [
            -274
        ],
        "23/03/2020 19:08:23": []
    },
    "3954": {
        "23/03/2020 13:49:27": [
            -376
        ],
        "23/03/2020 15:53:46": [
            -230
        ],
        "23/03/2020 19:08:23": []
    },
    "3955": {
        "23/03/2020 13:49:27": [
            -416
        ],
        "23/03/2020 15:53:46": [
            -270
        ],
        "23/03/2020 19:08:23": []
    },
    "3956": {
        "23/03/2020 13:49:27": [
            -392
        ],
        "23/03/2020 15:53:46": [
            -246
        ],
        "23/03/2020 19:08:24": []
    },
    "3957": {
        "23/03/2020 13:49:28": [
            -392
        ],
        "23/03/2020 15:53:47": [
            -246
        ],
        "23/03/2020 19:08:24": []
    },
    "3958": {
        "23/03/2020 13:49:28": [
            -400
        ],
        "23/03/2020 15:53:47": [
            -254
        ],
        "23/03/2020 19:08:24": []
    },
    "3959": {
        "23/03/2020 13:49:29": [
            -396
        ],
        "23/03/2020 15:53:47": [
            -250
        ],
        "23/03/2020 19:08:24": []
    },
    "3960": {
        "23/03/2020 13:49:29": [
            -405
        ],
        "23/03/2020 15:53:48": [
            -259
        ],
        "23/03/2020 19:08:25": []
    },
    "6156": {
        "23/03/2020 13:49:29": [
            -385
        ],
        "23/03/2020 15:53:48": [
            -239
        ],
        "23/03/2020 19:08:25": []
    },
    "6165": {
        "23/03/2020 13:49:30": [
            -417
        ],
        "23/03/2020 15:53:48": [
            -271
        ],
        "23/03/2020 19:08:25": []
    },
    "6157": {
        "23/03/2020 13:49:30": [
            -384
        ],
        "23/03/2020 15:53:49": [
            -238
        ],
        "23/03/2020 19:08:26": []
    },
    "6158": {
        "23/03/2020 13:49:30": [
            -382
        ],
        "23/03/2020 15:53:49": [
            -236
        ],
        "23/03/2020 19:08:26": []
    },
    "7314": {
        "23/03/2020 13:49:31": [
            -422
        ],
        "23/03/2020 15:53:50": [
            -276
        ],
        "23/03/2020 19:08:26": []
    },
    "3964": {
        "23/03/2020 13:49:31": [
            -421
        ],
        "23/03/2020 15:53:50": [
            -275
        ],
        "23/03/2020 19:08:26": []
    },
    "3965": {
        "23/03/2020 13:49:31": [
            -381
        ],
        "23/03/2020 15:53:50": [
            -235
        ],
        "23/03/2020 19:08:27": []
    },
    "3968": {
        "23/03/2020 13:49:32": [
            -422
        ],
        "23/03/2020 15:53:51": [
            -276
        ],
        "23/03/2020 19:08:27": []
    },
    "3966": {
        "23/03/2020 13:49:32": [
            -396
        ],
        "23/03/2020 15:53:51": [
            -250
        ],
        "23/03/2020 19:08:27": []
    },
    "5113": {
        "23/03/2020 13:49:32": [
            -395
        ],
        "23/03/2020 15:53:51": [
            -249
        ],
        "23/03/2020 19:08:28": []
    },
    "3918": {
        "23/03/2020 13:49:33": [
            -423
        ],
        "23/03/2020 15:53:52": [
            -277
        ],
        "23/03/2020 19:08:28": []
    },
    "5114": {
        "23/03/2020 13:49:33": [],
        "23/03/2020 15:53:52": [],
        "23/03/2020 19:08:28": []
    },
    "3980": {
        "23/03/2020 13:49:33": [
            0
        ],
        "23/03/2020 15:53:52": [
            0
        ],
        "23/03/2020 19:08:29": []
    },
    "6089": {
        "23/03/2020 13:49:34": [],
        "23/03/2020 15:53:52": [
            -3
        ],
        "23/03/2020 19:08:29": []
    },
    "3981": {
        "23/03/2020 13:49:34": [
            -5
        ],
        "23/03/2020 15:53:53": [
            -5
        ],
        "23/03/2020 19:08:29": []
    },
    "3982": {
        "23/03/2020 13:49:35": [
            22
        ],
        "23/03/2020 15:53:53": [
            22
        ],
        "23/03/2020 19:08:30": []
    },
    "3983": {
        "23/03/2020 13:49:35": [
            -12
        ],
        "23/03/2020 15:53:53": [
            -12
        ],
        "23/03/2020 19:08:30": []
    },
    "3985": {
        "23/03/2020 13:49:35": [
            13
        ],
        "23/03/2020 15:53:54": [
            13
        ],
        "23/03/2020 19:08:30": []
    },
    "3986": {
        "23/03/2020 13:49:36": [
            25
        ],
        "23/03/2020 15:53:54": [
            25
        ],
        "23/03/2020 19:08:31": []
    },
    "7313": {
        "23/03/2020 13:49:36": [
            -11
        ],
        "23/03/2020 15:53:54": [
            -11
        ],
        "23/03/2020 19:08:31": []
    },
    "6164": {
        "23/03/2020 13:49:36": [
            -10
        ],
        "23/03/2020 15:53:55": [
            -10
        ],
        "23/03/2020 19:08:31": []
    },
    "7712": {
        "23/03/2020 13:49:37": [
            19
        ],
        "23/03/2020 15:53:55": [
            19
        ],
        "23/03/2020 19:08:32": []
    },
    "6159": {
        "23/03/2020 13:49:37": [
            10
        ],
        "23/03/2020 15:53:55": [
            10
        ],
        "23/03/2020 19:08:32": []
    },
    "6160": {
        "23/03/2020 13:49:37": [
            27
        ],
        "23/03/2020 15:53:56": [
            27
        ],
        "23/03/2020 19:08:32": []
    },
    "6161": {
        "23/03/2020 13:49:38": [
            -28
        ],
        "23/03/2020 15:53:56": [
            -28
        ],
        "23/03/2020 19:08:32": []
    },
    "3991": {
        "23/03/2020 13:49:38": [
            19
        ],
        "23/03/2020 15:53:56": [
            19
        ],
        "23/03/2020 19:08:33": []
    },
    "3998": {
        "23/03/2020 13:49:38": [
            -7
        ],
        "23/03/2020 15:53:57": [
            -7
        ],
        "23/03/2020 19:08:33": []
    },
    "3999": {
        "23/03/2020 13:49:39": [
            -12
        ],
        "23/03/2020 15:53:57": [
            -12
        ],
        "23/03/2020 19:08:33": []
    },
    "4000": {
        "23/03/2020 13:49:39": [
            19
        ],
        "23/03/2020 15:53:57": [
            19
        ],
        "23/03/2020 19:08:33": []
    },
    "4001": {
        "23/03/2020 13:49:39": [
            -7
        ],
        "23/03/2020 15:53:58": [
            -7
        ],
        "23/03/2020 19:08:34": []
    },
    "3949": {
        "23/03/2020 13:49:40": [
            29
        ],
        "23/03/2020 15:53:58": [
            29
        ],
        "23/03/2020 19:08:34": []
    },
    "3950": {
        "23/03/2020 13:49:40": [
            7
        ],
        "23/03/2020 15:53:58": [
            7
        ],
        "23/03/2020 19:08:34": []
    },
    "3372": {
        "23/03/2020 13:49:40": [
            0
        ],
        "23/03/2020 15:53:59": [
            0
        ],
        "23/03/2020 19:08:35": []
    },
    "3373": {
        "23/03/2020 13:49:41": [
            -5
        ],
        "23/03/2020 15:53:59": [
            -5
        ],
        "23/03/2020 19:08:35": []
    },
    "3374": {
        "23/03/2020 13:49:41": [
            -20
        ],
        "23/03/2020 15:53:59": [
            -20
        ],
        "23/03/2020 19:08:35": []
    },
    "2233": {
        "23/03/2020 13:49:41": [
            25
        ],
        "23/03/2020 15:53:59": [
            25
        ],
        "23/03/2020 19:08:36": []
    },
    "2232": {
        "23/03/2020 13:49:42": [
            -5
        ],
        "23/03/2020 15:54:00": [
            -5
        ],
        "23/03/2020 19:08:36": []
    },
    "2234": {
        "23/03/2020 13:49:42": [
            -21
        ],
        "23/03/2020 15:54:00": [
            -21
        ],
        "23/03/2020 19:08:37": []
    },
    "2235": {
        "23/03/2020 13:49:42": [
            4
        ],
        "23/03/2020 15:54:01": [
            4
        ],
        "23/03/2020 19:08:37": []
    },
    "2236": {
        "23/03/2020 13:49:43": [
            10
        ],
        "23/03/2020 15:54:01": [
            10
        ],
        "23/03/2020 19:08:37": []
    },
    "2238": {
        "23/03/2020 13:49:43": [
            -23
        ],
        "23/03/2020 15:54:01": [
            -23
        ],
        "23/03/2020 19:08:37": []
    },
    "5056": {
        "23/03/2020 13:49:43": [
            3
        ],
        "23/03/2020 15:54:02": [
            3
        ],
        "23/03/2020 19:08:38": []
    },
    "2239": {
        "23/03/2020 13:49:44": [
            16
        ],
        "23/03/2020 15:54:02": [
            16
        ],
        "23/03/2020 19:08:38": []
    },
    "2241": {
        "23/03/2020 13:49:44": [
            -21
        ],
        "23/03/2020 15:54:02": [
            -21
        ],
        "23/03/2020 19:08:38": []
    },
    "2242": {
        "23/03/2020 13:49:45": [
            19
        ],
        "23/03/2020 15:54:03": [
            19
        ],
        "23/03/2020 19:08:39": []
    },
    "2243": {
        "23/03/2020 13:49:45": [
            2
        ],
        "23/03/2020 15:54:03": [
            2
        ],
        "23/03/2020 19:08:39": []
    },
    "2244": {
        "23/03/2020 13:49:45": [
            -13
        ],
        "23/03/2020 15:54:03": [
            -13
        ],
        "23/03/2020 19:08:39": []
    },
    "2245": {
        "23/03/2020 13:49:46": [
            22
        ],
        "23/03/2020 15:54:04": [
            22
        ],
        "23/03/2020 19:08:40": []
    },
    "2246": {
        "23/03/2020 13:49:46": [
            -14
        ],
        "23/03/2020 15:54:04": [
            -14
        ],
        "23/03/2020 19:08:40": []
    },
    "2247": {
        "23/03/2020 13:49:46": [
            -12
        ],
        "23/03/2020 15:54:04": [
            -12
        ],
        "23/03/2020 19:08:40": []
    },
    "2248": {
        "23/03/2020 13:49:47": [
            23
        ],
        "23/03/2020 15:54:05": [
            23
        ],
        "23/03/2020 19:08:41": []
    },
    "2249": {
        "23/03/2020 13:49:47": [
            -10
        ],
        "23/03/2020 15:54:05": [
            -10
        ],
        "23/03/2020 19:08:41": []
    },
    "2250": {
        "23/03/2020 13:49:48": [
            14
        ],
        "23/03/2020 15:54:05": [
            14
        ],
        "23/03/2020 19:08:41": []
    },
    "2251": {
        "23/03/2020 13:49:48": [
            -9
        ],
        "23/03/2020 15:54:06": [
            -9
        ],
        "23/03/2020 19:08:42": []
    },
    "1472": {
        "23/03/2020 13:49:48": [
            -25
        ],
        "23/03/2020 15:54:06": [
            -25
        ],
        "23/03/2020 19:08:43": []
    },
    "4408": {
        "23/03/2020 13:49:49": [
            14
        ],
        "23/03/2020 15:54:06": [
            14
        ],
        "23/03/2020 19:08:43": []
    },
    "1473": {
        "23/03/2020 13:49:49": [
            -23
        ],
        "23/03/2020 15:54:07": [
            -23
        ],
        "23/03/2020 19:08:43": []
    },
    "1474": {
        "23/03/2020 13:49:50": [
            24
        ],
        "23/03/2020 15:54:07": [
            24
        ],
        "23/03/2020 19:08:44": []
    },
    "1476": {
        "23/03/2020 13:49:50": [
            -20
        ],
        "23/03/2020 15:54:07": [
            -20
        ],
        "23/03/2020 19:08:44": []
    },
    "7453": {
        "23/03/2020 13:49:51": [
            -23
        ],
        "23/03/2020 15:54:08": [
            -23
        ],
        "23/03/2020 19:08:44": []
    },
    "1478": {
        "23/03/2020 13:49:51": [],
        "23/03/2020 15:54:08": [
            15
        ],
        "23/03/2020 19:08:44": []
    },
    "1479": {
        "23/03/2020 13:49:51": [],
        "23/03/2020 15:54:08": [
            23
        ],
        "23/03/2020 19:08:45": []
    },
    "315": {
        "23/03/2020 13:49:52": [],
        "23/03/2020 15:54:08": [],
        "23/03/2020 19:08:45": []
    },
    "406": {
        "23/03/2020 13:49:52": [
            -362
        ],
        "23/03/2020 15:54:09": [],
        "23/03/2020 19:08:45": []
    },
    "2810": {
        "23/03/2020 13:49:52": [
            -336
        ],
        "23/03/2020 15:54:09": [
            -249
        ],
        "23/03/2020 19:08:46": []
    },
    "7387": {
        "23/03/2020 13:49:53": [],
        "23/03/2020 15:54:09": [],
        "23/03/2020 19:08:46": []
    }
}