{
    "3733": {
        "25/03/2020 14:39:59": [],
        "25/03/2020 17:22:34": [],
        "25/03/2020 19:57:20": [],
        "25/03/2020 21:25:34": []
    },
    "3734": {
        "25/03/2020 14:40:00": [],
        "25/03/2020 17:22:34": [],
        "25/03/2020 19:57:21": [],
        "25/03/2020 21:25:34": []
    },
    "3735": {
        "25/03/2020 14:40:01": [],
        "25/03/2020 17:22:35": [],
        "25/03/2020 19:57:21": [],
        "25/03/2020 21:25:34": []
    },
    "3736": {
        "25/03/2020 14:40:02": [],
        "25/03/2020 17:22:36": [],
        "25/03/2020 19:57:21": [],
        "25/03/2020 21:25:34": []
    },
    "3738": {
        "25/03/2020 14:40:02": [],
        "25/03/2020 17:22:36": [],
        "25/03/2020 19:57:21": [],
        "25/03/2020 21:25:35": []
    },
    "7170": {
        "25/03/2020 14:40:03": [],
        "25/03/2020 17:22:37": [],
        "25/03/2020 19:57:22": [],
        "25/03/2020 21:25:35": []
    },
    "3740": {
        "25/03/2020 14:40:04": [],
        "25/03/2020 17:22:37": [],
        "25/03/2020 19:57:22": [],
        "25/03/2020 21:25:35": []
    },
    "3741": {
        "25/03/2020 14:40:04": [],
        "25/03/2020 17:22:38": [],
        "25/03/2020 19:57:22": [],
        "25/03/2020 21:25:35": []
    },
    "5165": {
        "25/03/2020 14:40:05": [],
        "25/03/2020 17:22:39": [],
        "25/03/2020 19:57:22": [],
        "25/03/2020 21:25:36": []
    },
    "3743": {
        "25/03/2020 14:40:05": [],
        "25/03/2020 17:22:39": [],
        "25/03/2020 19:57:23": [],
        "25/03/2020 21:25:36": []
    },
    "3780": {
        "25/03/2020 14:40:06": [],
        "25/03/2020 17:22:40": [],
        "25/03/2020 19:57:23": [],
        "25/03/2020 21:25:36": []
    },
    "3744": {
        "25/03/2020 14:40:07": [],
        "25/03/2020 17:22:40": [],
        "25/03/2020 19:57:23": [],
        "25/03/2020 21:25:37": []
    },
    "3745": {
        "25/03/2020 14:40:08": [],
        "25/03/2020 17:22:41": [],
        "25/03/2020 19:57:24": [],
        "25/03/2020 21:25:37": []
    },
    "3746": {
        "25/03/2020 14:40:08": [],
        "25/03/2020 17:22:42": [],
        "25/03/2020 19:57:24": [],
        "25/03/2020 21:25:37": []
    },
    "7040": {
        "25/03/2020 14:40:09": [],
        "25/03/2020 17:22:42": [],
        "25/03/2020 19:57:24": [],
        "25/03/2020 21:25:38": []
    },
    "6252": {
        "25/03/2020 14:40:09": [],
        "25/03/2020 17:22:43": [],
        "25/03/2020 19:57:25": [],
        "25/03/2020 21:25:38": []
    },
    "302": {
        "25/03/2020 14:40:10": [],
        "25/03/2020 17:22:43": [],
        "25/03/2020 19:57:25": [],
        "25/03/2020 21:25:38": []
    },
    "333": {
        "25/03/2020 14:40:11": [],
        "25/03/2020 17:22:44": [],
        "25/03/2020 19:57:25": [],
        "25/03/2020 21:25:38": []
    },
    "747": {
        "25/03/2020 14:40:11": [],
        "25/03/2020 17:22:44": [],
        "25/03/2020 19:57:26": [],
        "25/03/2020 21:25:39": []
    },
    "748": {
        "25/03/2020 14:40:12": [],
        "25/03/2020 17:22:45": [],
        "25/03/2020 19:57:26": [],
        "25/03/2020 21:25:39": []
    },
    "407": {
        "25/03/2020 14:40:12": [],
        "25/03/2020 17:22:45": [
            0
        ],
        "25/03/2020 19:57:26": [],
        "25/03/2020 21:25:39": []
    },
    "2498": {
        "25/03/2020 14:40:13": [],
        "25/03/2020 17:22:46": [
            11
        ],
        "25/03/2020 19:57:26": [],
        "25/03/2020 21:25:40": []
    },
    "2499": {
        "25/03/2020 14:40:13": [],
        "25/03/2020 17:22:47": [
            8
        ],
        "25/03/2020 19:57:27": [],
        "25/03/2020 21:25:40": []
    },
    "2500": {
        "25/03/2020 14:40:14": [],
        "25/03/2020 17:22:47": [
            -17
        ],
        "25/03/2020 19:57:27": [],
        "25/03/2020 21:25:40": []
    },
    "2501": {
        "25/03/2020 14:40:15": [],
        "25/03/2020 17:22:48": [
            -10
        ],
        "25/03/2020 19:57:27": [],
        "25/03/2020 21:25:41": []
    },
    "7623": {
        "25/03/2020 14:40:15": [],
        "25/03/2020 17:22:49": [
            15
        ],
        "25/03/2020 19:57:28": [],
        "25/03/2020 21:25:41": []
    },
    "7041": {
        "25/03/2020 14:40:16": [],
        "25/03/2020 17:22:49": [
            8
        ],
        "25/03/2020 19:57:28": [],
        "25/03/2020 21:25:41": []
    },
    "3719": {
        "25/03/2020 14:40:16": [],
        "25/03/2020 17:22:50": [
            9
        ],
        "25/03/2020 19:57:28": [],
        "25/03/2020 21:25:42": []
    },
    "3718": {
        "25/03/2020 14:40:17": [],
        "25/03/2020 17:22:50": [
            24
        ],
        "25/03/2020 19:57:28": [],
        "25/03/2020 21:25:42": []
    },
    "3720": {
        "25/03/2020 14:40:17": [],
        "25/03/2020 17:22:51": [
            -9
        ],
        "25/03/2020 19:57:29": [],
        "25/03/2020 21:25:42": []
    },
    "7691": {
        "25/03/2020 14:40:18": [],
        "25/03/2020 17:22:51": [
            12
        ],
        "25/03/2020 19:57:29": [],
        "25/03/2020 21:25:42": []
    },
    "3721": {
        "25/03/2020 14:40:18": [],
        "25/03/2020 17:22:52": [
            -23
        ],
        "25/03/2020 19:57:29": [],
        "25/03/2020 21:25:43": []
    },
    "3722": {
        "25/03/2020 14:40:19": [],
        "25/03/2020 17:22:52": [
            -2
        ],
        "25/03/2020 19:57:30": [],
        "25/03/2020 21:25:43": []
    },
    "5069": {
        "25/03/2020 14:40:19": [],
        "25/03/2020 17:22:53": [
            -23
        ],
        "25/03/2020 19:57:30": [],
        "25/03/2020 21:25:43": []
    },
    "3723": {
        "25/03/2020 14:40:20": [],
        "25/03/2020 17:22:54": [
            20
        ],
        "25/03/2020 19:57:30": [],
        "25/03/2020 21:25:44": []
    },
    "3724": {
        "25/03/2020 14:40:21": [],
        "25/03/2020 17:22:54": [
            6
        ],
        "25/03/2020 19:57:31": [],
        "25/03/2020 21:25:44": []
    },
    "3725": {
        "25/03/2020 14:40:21": [],
        "25/03/2020 17:22:55": [
            -19
        ],
        "25/03/2020 19:57:31": [],
        "25/03/2020 21:25:45": []
    },
    "3726": {
        "25/03/2020 14:40:22": [],
        "25/03/2020 17:22:55": [
            25
        ],
        "25/03/2020 19:57:31": [],
        "25/03/2020 21:25:45": []
    },
    "7039": {
        "25/03/2020 14:40:23": [],
        "25/03/2020 17:22:56": [
            -13
        ],
        "25/03/2020 19:57:32": [],
        "25/03/2020 21:25:45": []
    },
    "7204": {
        "25/03/2020 14:40:23": [],
        "25/03/2020 17:22:56": [
            12
        ],
        "25/03/2020 19:57:32": [],
        "25/03/2020 21:25:45": []
    },
    "3728": {
        "25/03/2020 14:40:24": [],
        "25/03/2020 17:22:57": [
            3
        ],
        "25/03/2020 19:57:32": [],
        "25/03/2020 21:25:46": []
    },
    "3729": {
        "25/03/2020 14:40:24": [],
        "25/03/2020 17:22:57": [],
        "25/03/2020 19:57:33": [],
        "25/03/2020 21:25:46": []
    },
    "3730": {
        "25/03/2020 14:40:25": [],
        "25/03/2020 17:22:58": [],
        "25/03/2020 19:57:33": [],
        "25/03/2020 21:25:46": []
    },
    "3732": {
        "25/03/2020 14:40:25": [],
        "25/03/2020 17:22:58": [],
        "25/03/2020 19:57:33": [],
        "25/03/2020 21:25:47": []
    }
}