{
    "3222": {
        "27/03/2020 15:42:00": [
            0,
            0
        ],
        "27/03/2020 18:29:54": [
            0,
            0
        ]
    },
    "3223": {
        "27/03/2020 15:42:00": [
            -28,
            -27
        ],
        "27/03/2020 18:29:55": [
            -25,
            -25
        ]
    },
    "3224": {
        "27/03/2020 15:42:01": [
            22,
            23
        ],
        "27/03/2020 18:29:55": [
            26,
            26
        ]
    },
    "3225": {
        "27/03/2020 15:42:01": [
            10,
            10
        ],
        "27/03/2020 18:29:55": [
            13,
            13
        ]
    },
    "3226": {
        "27/03/2020 15:42:02": [
            -2,
            -2
        ],
        "27/03/2020 18:29:55": [
            0,
            0
        ]
    },
    "3227": {
        "27/03/2020 15:42:02": [
            -22,
            -28
        ],
        "27/03/2020 18:29:56": [
            26,
            26
        ]
    },
    "3228": {
        "27/03/2020 15:42:02": [
            27,
            12
        ],
        "27/03/2020 18:29:56": [
            -3,
            -3
        ]
    },
    "3229": {
        "27/03/2020 15:42:03": [
            -15,
            27
        ],
        "27/03/2020 18:29:56": [
            9,
            9
        ]
    },
    "7472": {
        "27/03/2020 15:42:03": [
            17,
            -6
        ],
        "27/03/2020 18:29:57": [
            29,
            29
        ]
    },
    "3230": {
        "27/03/2020 15:42:04": [
            -15,
            17
        ],
        "27/03/2020 18:29:57": [
            -13,
            -13
        ]
    },
    "3232": {
        "27/03/2020 15:42:04": [
            6,
            -24
        ],
        "27/03/2020 18:29:57": [
            -4,
            -4
        ]
    },
    "3233": {
        "27/03/2020 15:42:05": [
            -26,
            3
        ],
        "27/03/2020 18:29:58": [
            20,
            20
        ]
    },
    "3234": {
        "27/03/2020 15:42:05": [
            4
        ],
        "27/03/2020 18:29:58": [
            -19,
            -19
        ]
    },
    "4462": {
        "27/03/2020 15:42:06": [
            171,
            -9,
            11
        ],
        "27/03/2020 18:29:58": [
            14,
            14
        ]
    },
    "3235": {
        "27/03/2020 15:42:06": [
            182,
            26,
            -19
        ],
        "27/03/2020 18:29:58": [
            -22,
            -22
        ]
    },
    "3236": {
        "27/03/2020 15:42:07": [
            197,
            17,
            27
        ],
        "27/03/2020 18:29:59": [
            14,
            14
        ]
    },
    "3237": {
        "27/03/2020 15:42:07": [
            176,
            -4,
            1
        ],
        "27/03/2020 18:29:59": [
            -18,
            -18
        ]
    },
    "3238": {
        "27/03/2020 15:42:08": [
            186,
            6
        ],
        "27/03/2020 18:29:59": [
            -24,
            -24
        ]
    },
    "3239": {
        "27/03/2020 15:42:09": [
            209,
            29
        ],
        "27/03/2020 18:30:00": [
            -9,
            -9
        ]
    },
    "3240": {
        "27/03/2020 15:42:15": [
            150,
            -30
        ],
        "27/03/2020 18:30:00": [
            -28,
            -28
        ]
    },
    "3068": {
        "27/03/2020 15:42:21": [
            166,
            -14
        ],
        "27/03/2020 18:30:00": [
            -25,
            -25
        ]
    },
    "3069": {
        "27/03/2020 15:42:26": [
            205,
            25
        ],
        "27/03/2020 18:30:00": [
            6,
            6
        ]
    },
    "3070": {
        "27/03/2020 15:42:31": [
            201,
            21
        ],
        "27/03/2020 18:30:01": [
            -7,
            -7
        ]
    },
    "2041": {
        "27/03/2020 15:42:37": [
            202,
            22
        ],
        "27/03/2020 18:30:01": [
            -19,
            -19
        ]
    },
    "3071": {
        "27/03/2020 15:42:44": [
            110,
            -7
        ],
        "27/03/2020 18:30:01": [
            -8,
            -8
        ]
    },
    "3072": {
        "27/03/2020 15:42:51": [
            87,
            -30
        ],
        "27/03/2020 18:30:02": [
            20,
            20
        ]
    },
    "3073": {
        "27/03/2020 15:42:58": [
            89,
            -28
        ],
        "27/03/2020 18:30:02": [
            8,
            8
        ]
    },
    "3074": {
        "27/03/2020 15:43:05": [
            119,
            2
        ],
        "27/03/2020 18:30:02": [
            -28,
            -28
        ]
    },
    "3075": {
        "27/03/2020 15:43:11": [
            140,
            23
        ],
        "27/03/2020 18:30:03": [
            -11,
            -11
        ]
    },
    "3076": {
        "27/03/2020 15:43:16": [
            107,
            -10
        ],
        "27/03/2020 18:30:03": [
            11,
            11
        ]
    },
    "3077": {
        "27/03/2020 15:43:21": [
            136,
            19
        ],
        "27/03/2020 18:30:03": [
            -11,
            -11
        ]
    },
    "3079": {
        "27/03/2020 15:43:26": [
            126,
            -7
        ],
        "27/03/2020 18:30:03": [
            0,
            0
        ]
    },
    "3080": {
        "27/03/2020 15:43:32": [
            161,
            28
        ],
        "27/03/2020 18:30:04": [
            -4,
            -4
        ]
    },
    "3081": {
        "27/03/2020 15:43:37": [
            115,
            -18
        ],
        "27/03/2020 18:30:04": [
            -21,
            -21
        ]
    },
    "3084": {
        "27/03/2020 15:43:42": [
            128,
            -5
        ],
        "27/03/2020 18:30:04": [
            328,
            22,
            22
        ]
    },
    "469": {
        "27/03/2020 15:43:52": [
            152,
            19
        ],
        "27/03/2020 18:30:05": [
            346,
            -13,
            -13
        ]
    },
    "470": {
        "27/03/2020 15:43:57": [
            135,
            2
        ],
        "27/03/2020 18:30:05": [
            379,
            -29,
            -29
        ]
    },
    "471": {
        "27/03/2020 15:44:04": [
            154,
            21
        ],
        "27/03/2020 18:30:05": [
            334,
            -9,
            -9
        ]
    },
    "472": {
        "27/03/2020 15:44:09": [
            119,
            -14
        ],
        "27/03/2020 18:30:05": [
            352,
            10,
            10
        ]
    },
    "473": {
        "27/03/2020 15:44:14": [
            150,
            17
        ],
        "27/03/2020 18:30:06": [
            372,
            -30,
            -30
        ]
    },
    "4705": {
        "27/03/2020 15:44:15": [
            125,
            -8
        ],
        "27/03/2020 18:30:06": [
            336,
            -6,
            -6
        ]
    },
    "475": {
        "27/03/2020 15:44:15": [
            154,
            21
        ],
        "27/03/2020 18:30:06": [
            358,
            17,
            17
        ]
    },
    "476": {
        "27/03/2020 15:44:16": [
            144,
            11
        ],
        "27/03/2020 18:30:06": [
            335,
            -4,
            -4
        ]
    },
    "477": {
        "27/03/2020 15:44:16": [
            107,
            -26
        ],
        "27/03/2020 18:30:07": [
            355,
            21,
            21
        ]
    },
    "478": {
        "27/03/2020 15:44:17": [
            145,
            12
        ],
        "27/03/2020 18:30:07": [
            328,
            3,
            3
        ]
    },
    "479": {
        "27/03/2020 15:44:17": [
            110,
            -23
        ],
        "27/03/2020 18:30:07": [
            354,
            23,
            23
        ]
    },
    "480": {
        "27/03/2020 15:44:18": [
            149,
            16
        ],
        "27/03/2020 18:30:07": [
            333,
            -7,
            -7
        ]
    },
    "481": {
        "27/03/2020 15:44:18": [
            119,
            -14
        ],
        "27/03/2020 18:30:08": [
            364,
            17,
            17
        ]
    },
    "482": {
        "27/03/2020 15:44:19": [
            111,
            -22
        ],
        "27/03/2020 18:30:08": [
            357,
            -2,
            -2
        ]
    },
    "483": {
        "27/03/2020 15:44:19": [
            135,
            2
        ],
        "27/03/2020 18:30:08": [
            381,
            26
        ]
    },
    "485": {
        "27/03/2020 15:44:20": [
            132,
            -1
        ],
        "27/03/2020 18:30:08": [
            375,
            -28
        ]
    },
    "487": {
        "27/03/2020 15:44:20": [
            146,
            13
        ],
        "27/03/2020 18:30:09": [
            326,
            -20
        ]
    },
    "488": {
        "27/03/2020 15:44:20": [
            151,
            18
        ],
        "27/03/2020 18:30:09": [
            353,
            27
        ]
    },
    "489": {
        "27/03/2020 15:44:21": [
            130
        ],
        "27/03/2020 18:30:09": [
            269,
            2
        ]
    },
    "490": {
        "27/03/2020 15:44:21": [
            107
        ],
        "27/03/2020 18:30:10": [
            378,
            -25
        ]
    },
    "491": {
        "27/03/2020 15:44:22": [
            146
        ],
        "27/03/2020 18:30:10": [
            361,
            9
        ]
    },
    "492": {
        "27/03/2020 15:44:22": [
            117
        ],
        "27/03/2020 18:30:10": [
            336,
            -23
        ]
    },
    "493": {
        "27/03/2020 15:44:23": [
            108
        ],
        "27/03/2020 18:30:10": [
            333,
            23
        ]
    },
    "494": {
        "27/03/2020 15:44:23": [
            -216,
            124
        ],
        "27/03/2020 18:30:11": [
            265,
            -23
        ]
    },
    "495": {
        "27/03/2020 15:44:24": [
            -212,
            121
        ],
        "27/03/2020 18:30:11": [
            260,
            2
        ]
    },
    "400": {
        "27/03/2020 15:44:24": [
            -172,
            156
        ],
        "27/03/2020 18:30:11": [
            247,
            10
        ]
    },
    "281": {
        "27/03/2020 15:44:25": [
            -130,
            115
        ],
        "27/03/2020 18:30:12": [
            248,
            2
        ]
    },
    "4": {
        "27/03/2020 15:44:25": [
            -118,
            128
        ],
        "27/03/2020 18:30:12": []
    },
    "1174": {
        "27/03/2020 15:44:26": [],
        "27/03/2020 18:30:12": [
            0
        ]
    },
    "3042": {
        "27/03/2020 15:44:26": [],
        "27/03/2020 18:30:12": []
    },
    "4962": {
        "27/03/2020 15:44:27": [
            0,
            0
        ],
        "27/03/2020 18:30:13": [
            0
        ]
    },
    "4725": {
        "27/03/2020 15:44:27": [
            10,
            10
        ],
        "27/03/2020 18:30:13": [
            -16,
            4
        ]
    },
    "273": {
        "27/03/2020 15:44:28": [
            -19,
            -19
        ],
        "27/03/2020 18:30:13": [
            24,
            -7
        ]
    },
    "405": {
        "27/03/2020 15:44:28": [
            17,
            17
        ],
        "27/03/2020 18:30:13": [
            13,
            28
        ]
    },
    "408": {
        "27/03/2020 15:44:28": [
            8,
            8
        ],
        "27/03/2020 18:30:14": [
            11,
            -11
        ]
    },
    "409": {
        "27/03/2020 15:44:29": [
            29,
            29
        ],
        "27/03/2020 18:30:14": [
            28,
            3
        ]
    },
    "410": {
        "27/03/2020 15:44:29": [
            -29,
            -29
        ],
        "27/03/2020 18:30:14": [
            -17,
            -16
        ]
    },
    "411": {
        "27/03/2020 15:44:30": [
            6,
            6
        ],
        "27/03/2020 18:30:14": [
            24,
            7
        ]
    },
    "412": {
        "27/03/2020 15:44:31": [
            -19,
            -19
        ],
        "27/03/2020 18:30:15": [
            19,
            10
        ]
    },
    "413": {
        "27/03/2020 15:44:31": [
            -1,
            -1
        ],
        "27/03/2020 18:30:15": [
            -20,
            22
        ]
    },
    "414": {
        "27/03/2020 15:44:32": [
            -18,
            -18
        ],
        "27/03/2020 18:30:15": [
            -53,
            29,
            -8
        ]
    },
    "415": {
        "27/03/2020 15:44:32": [
            21,
            21
        ],
        "27/03/2020 18:30:15": [
            -15,
            1,
            15
        ]
    },
    "416": {
        "27/03/2020 15:44:33": [
            -23,
            -23
        ],
        "27/03/2020 18:30:16": [
            -58,
            3,
            0
        ]
    },
    "417": {
        "27/03/2020 15:44:33": [
            2,
            2
        ],
        "27/03/2020 18:30:16": [
            -26,
            -27,
            -30
        ]
    },
    "418": {
        "27/03/2020 15:44:34": [
            -30,
            -30
        ],
        "27/03/2020 18:30:16": [
            -6,
            6,
            5
        ]
    },
    "419": {
        "27/03/2020 15:44:34": [
            -1,
            -1
        ],
        "27/03/2020 18:30:16": [
            -30,
            -20,
            -20
        ]
    },
    "420": {
        "27/03/2020 15:44:34": [
            -21,
            -21
        ],
        "27/03/2020 18:30:17": [
            23,
            -28,
            24
        ]
    },
    "421": {
        "27/03/2020 15:44:35": [
            18,
            18
        ],
        "27/03/2020 18:30:17": [
            14,
            23
        ]
    },
    "422": {
        "27/03/2020 15:44:35": [
            -47,
            6,
            6
        ],
        "27/03/2020 18:30:17": [
            17,
            25
        ]
    },
    "423": {
        "27/03/2020 15:44:36": [
            -80,
            -19,
            -19
        ],
        "27/03/2020 18:30:18": [
            -17,
            -19
        ]
    },
    "424": {
        "27/03/2020 15:44:36": [
            -38,
            -27,
            -27
        ],
        "27/03/2020 18:30:18": [
            21,
            4
        ]
    },
    "425": {
        "27/03/2020 15:44:37": [
            -68,
            12,
            12
        ],
        "27/03/2020 18:30:18": [
            8,
            -27
        ]
    },
    "426": {
        "27/03/2020 15:44:37": [
            -49,
            -24,
            -24
        ],
        "27/03/2020 18:30:18": [
            -24,
            -10
        ]
    },
    "427": {
        "27/03/2020 15:44:38": [
            -78,
            27,
            27
        ],
        "27/03/2020 18:30:19": [
            29,
            -26
        ]
    },
    "428": {
        "27/03/2020 15:44:38": [
            -53,
            -4,
            -4
        ],
        "27/03/2020 18:30:19": [
            2,
            4
        ]
    },
    "429": {
        "27/03/2020 15:44:39": [
            -86,
            28,
            28
        ],
        "27/03/2020 18:30:19": [
            -23,
            -23
        ]
    },
    "3032": {
        "27/03/2020 15:44:39": [
            -58,
            -9,
            -9
        ],
        "27/03/2020 18:30:19": [
            -3,
            5
        ]
    },
    "3033": {
        "27/03/2020 15:44:39": [
            -59,
            -14,
            -14
        ],
        "27/03/2020 18:30:20": [
            -10,
            4
        ]
    },
    "3034": {
        "27/03/2020 15:44:40": [
            -68,
            4
        ],
        "27/03/2020 18:30:20": [
            -12,
            -11
        ]
    },
    "3036": {
        "27/03/2020 15:44:40": [
            -118,
            28
        ],
        "27/03/2020 18:30:20": [
            -23,
            7
        ]
    },
    "3037": {
        "27/03/2020 15:44:41": [
            -159,
            -14
        ],
        "27/03/2020 18:30:20": [
            -1,
            23
        ]
    },
    "3038": {
        "27/03/2020 15:44:41": [
            -119,
            20
        ],
        "27/03/2020 18:30:21": [
            -20,
            2
        ]
    },
    "3039": {
        "27/03/2020 15:44:42": [
            -154,
            -18
        ],
        "27/03/2020 18:30:21": [
            6,
            27
        ]
    },
    "3040": {
        "27/03/2020 15:44:42": [
            -123,
            8
        ],
        "27/03/2020 18:30:21": [
            -22,
            -3
        ]
    },
    "3041": {
        "27/03/2020 15:44:43": [
            -139,
            -6
        ],
        "27/03/2020 18:30:21": [
            -27,
            -22
        ]
    },
    "2035": {
        "27/03/2020 15:44:43": [
            -118,
            18
        ],
        "27/03/2020 18:30:22": [
            14,
            -7
        ]
    },
    "2036": {
        "27/03/2020 15:44:44": [
            -157,
            23
        ],
        "27/03/2020 18:30:22": [
            27,
            10
        ]
    },
    "2040": {
        "27/03/2020 15:44:44": [
            -139,
            14
        ],
        "27/03/2020 18:30:22": [
            -29,
            21
        ]
    },
    "3047": {
        "27/03/2020 15:44:45": [
            538,
            -160,
            -12
        ],
        "27/03/2020 18:30:22": [
            -12,
            23
        ]
    },
    "3202": {
        "27/03/2020 15:44:45": [
            497,
            -118,
            27
        ],
        "27/03/2020 18:30:23": [
            21,
            -10
        ]
    },
    "3203": {
        "27/03/2020 15:44:46": [
            550,
            -143,
            -3
        ],
        "27/03/2020 18:30:23": [
            -25,
            -10
        ]
    },
    "3204": {
        "27/03/2020 15:44:46": [
            524,
            -169,
            26
        ],
        "27/03/2020 18:30:23": [
            12,
            24
        ]
    },
    "3205": {
        "27/03/2020 15:44:46": [
            542,
            -157,
            -22
        ],
        "27/03/2020 18:30:23": [
            29,
            -19
        ]
    },
    "3206": {
        "27/03/2020 15:44:47": [
            517,
            -123,
            13
        ],
        "27/03/2020 18:30:24": [
            -35,
            -4,
            7
        ]
    },
    "3207": {
        "27/03/2020 15:44:48": [
            549,
            -152,
            -14
        ],
        "27/03/2020 18:30:24": [
            -9,
            22,
            -28
        ]
    },
    "3208": {
        "27/03/2020 15:44:48": [
            520,
            -122,
            17
        ],
        "27/03/2020 18:30:24": [
            -45,
            -14,
            -5
        ]
    },
    "3209": {
        "27/03/2020 15:44:48": [
            499,
            -144,
            -4
        ],
        "27/03/2020 18:30:25": [
            -14,
            17,
            25
        ]
    },
    "3210": {
        "27/03/2020 15:44:49": [
            528,
            -116,
            25
        ],
        "27/03/2020 18:30:25": [
            -51,
            -20,
            -13
        ]
    },
    "4981": {
        "27/03/2020 15:44:49": [
            462,
            -141,
            -2
        ],
        "27/03/2020 18:30:25": [
            -16,
            15
        ]
    },
    "3211": {
        "27/03/2020 15:44:50": [
            539,
            -168,
            28
        ],
        "27/03/2020 18:30:26": [
            -44,
            -13
        ]
    },
    "3212": {
        "27/03/2020 15:44:50": [
            494,
            -113,
            20
        ],
        "27/03/2020 18:30:26": [
            -49,
            -18
        ]
    },
    "3213": {
        "27/03/2020 15:44:51": [
            486,
            -123,
            7
        ],
        "27/03/2020 18:30:26": [
            -60,
            -29
        ]
    },
    "3214": {
        "27/03/2020 15:44:51": [
            494,
            -125,
            18
        ],
        "27/03/2020 18:30:26": [
            -7,
            24
        ]
    },
    "3215": {
        "27/03/2020 15:44:52": [
            490,
            -138,
            15
        ],
        "27/03/2020 18:30:27": [
            -24,
            7
        ]
    },
    "3216": {
        "27/03/2020 15:44:52": [
            484,
            -140,
            -2
        ],
        "27/03/2020 18:30:27": [
            -43,
            -12
        ]
    },
    "3217": {
        "27/03/2020 15:44:53": [
            467,
            -153,
            -27
        ],
        "27/03/2020 18:30:27": [
            -9,
            22
        ]
    },
    "3218": {
        "27/03/2020 15:44:53": [
            507,
            -169,
            5
        ],
        "27/03/2020 18:30:28": [
            -38,
            -7
        ]
    },
    "3219": {
        "27/03/2020 15:44:54": [
            492,
            -121,
            -19
        ],
        "27/03/2020 18:30:28": [
            -3,
            28
        ]
    },
    "3220": {
        "27/03/2020 15:44:54": [
            467,
            -137,
            25
        ],
        "27/03/2020 18:30:28": [
            -21,
            10
        ]
    },
    "3221": {
        "27/03/2020 15:44:55": [
            497,
            -160,
            1
        ],
        "27/03/2020 18:30:28": [
            -46,
            -15
        ]
    },
    "4982": {
        "27/03/2020 15:44:55": [],
        "27/03/2020 18:30:29": []
    }
}