{
    "3222": {
        "21/03/2020 15:39:59": [
            0,
            0
        ],
        "21/03/2020 15:40:18": [
            0,
            0
        ],
        "21/03/2020 17:37:29": [
            0,
            0
        ],
        "21/03/2020 20:27:27": [
            0
        ],
        "21/03/2020 22:30:20": [
            0
        ]
    },
    "3223": {
        "21/03/2020 15:40:00": [
            -6,
            -6
        ],
        "21/03/2020 15:40:18": [
            -6,
            -6
        ],
        "21/03/2020 17:37:29": [
            3,
            3
        ],
        "21/03/2020 20:27:27": [
            -17
        ],
        "21/03/2020 22:30:20": [
            -17
        ]
    },
    "3224": {
        "21/03/2020 15:40:00": [
            -5,
            -5
        ],
        "21/03/2020 15:40:18": [
            -5,
            -5
        ],
        "21/03/2020 17:37:30": [
            10,
            10
        ],
        "21/03/2020 20:27:28": [
            -21
        ],
        "21/03/2020 22:30:21": [
            -21
        ]
    },
    "3225": {
        "21/03/2020 15:40:00": [
            -3,
            -3
        ],
        "21/03/2020 15:40:19": [
            -3,
            -3
        ],
        "21/03/2020 17:37:30": [
            12,
            12
        ],
        "21/03/2020 20:27:28": [
            -28
        ],
        "21/03/2020 22:30:21": [
            -28
        ]
    },
    "3226": {
        "21/03/2020 15:40:00": [
            -1,
            -1
        ],
        "21/03/2020 15:40:19": [
            -1,
            -1
        ],
        "21/03/2020 17:37:30": [
            14,
            14
        ],
        "21/03/2020 20:27:28": [
            25
        ],
        "21/03/2020 22:30:21": [
            25
        ]
    },
    "3227": {
        "21/03/2020 15:40:01": [
            -21,
            -21
        ],
        "21/03/2020 15:40:19": [
            -21,
            -21
        ],
        "21/03/2020 17:37:30": [
            -3,
            -3
        ],
        "21/03/2020 20:27:29": [
            3
        ],
        "21/03/2020 22:30:22": [
            3
        ]
    },
    "3228": {
        "21/03/2020 15:40:01": [
            28,
            28
        ],
        "21/03/2020 15:40:20": [
            28,
            28
        ],
        "21/03/2020 17:37:31": [
            -10,
            -10
        ],
        "21/03/2020 20:27:29": [
            -11
        ],
        "21/03/2020 22:30:22": [
            -11
        ]
    },
    "3229": {
        "21/03/2020 15:40:01": [
            -14,
            -14
        ],
        "21/03/2020 15:40:20": [
            -14,
            -14
        ],
        "21/03/2020 17:37:31": [
            9,
            9
        ],
        "21/03/2020 20:27:30": [
            6
        ],
        "21/03/2020 22:30:23": [
            6
        ]
    },
    "7472": {
        "21/03/2020 15:40:01": [
            17,
            17
        ],
        "21/03/2020 15:40:20": [
            17,
            17
        ],
        "21/03/2020 17:37:31": [
            -17,
            -17
        ],
        "21/03/2020 20:27:30": [
            -24
        ],
        "21/03/2020 22:30:23": [
            -24
        ]
    },
    "3230": {
        "21/03/2020 15:40:02": [
            -15,
            -15
        ],
        "21/03/2020 15:40:21": [
            -15,
            -15
        ],
        "21/03/2020 17:37:32": [
            13,
            13
        ],
        "21/03/2020 20:27:30": [
            50,
            2
        ],
        "21/03/2020 22:30:23": [
            2
        ]
    },
    "3232": {
        "21/03/2020 15:40:02": [
            12,
            12
        ],
        "21/03/2020 15:40:21": [
            12,
            12
        ],
        "21/03/2020 17:37:32": [
            -18,
            -18
        ],
        "21/03/2020 20:27:31": [
            64,
            16
        ],
        "21/03/2020 22:30:24": [
            16
        ]
    },
    "3233": {
        "21/03/2020 15:40:02": [
            -18,
            -18
        ],
        "21/03/2020 15:40:21": [
            -18,
            -18
        ],
        "21/03/2020 17:37:32": [
            12,
            12
        ],
        "21/03/2020 20:27:31": [
            29,
            -19
        ],
        "21/03/2020 22:30:24": [
            -19
        ]
    },
    "3234": {
        "21/03/2020 15:40:03": [
            13,
            13
        ],
        "21/03/2020 15:40:22": [
            13,
            13
        ],
        "21/03/2020 17:37:32": [
            -13,
            -13
        ],
        "21/03/2020 20:27:32": [
            58,
            10
        ],
        "21/03/2020 22:30:25": [
            10
        ]
    },
    "4462": {
        "21/03/2020 15:40:03": [
            0,
            0
        ],
        "21/03/2020 15:40:22": [
            0,
            0
        ],
        "21/03/2020 17:37:33": [
            -18,
            -18
        ],
        "21/03/2020 20:27:32": [
            45,
            -3
        ],
        "21/03/2020 22:30:25": [
            -3
        ]
    },
    "3235": {
        "21/03/2020 15:40:03": [
            -24,
            -24
        ],
        "21/03/2020 15:40:23": [
            -24,
            -24
        ],
        "21/03/2020 17:37:33": [
            23,
            23
        ],
        "21/03/2020 20:27:33": [
            19,
            -29
        ],
        "21/03/2020 22:30:25": [
            -29
        ]
    },
    "3236": {
        "21/03/2020 15:40:04": [
            28,
            28
        ],
        "21/03/2020 15:40:23": [
            28,
            28
        ],
        "21/03/2020 17:37:33": [
            23,
            23
        ],
        "21/03/2020 20:27:33": [
            22,
            22
        ],
        "21/03/2020 22:30:26": [
            -25,
            22
        ]
    },
    "3237": {
        "21/03/2020 15:40:04": [
            8,
            8
        ],
        "21/03/2020 15:40:23": [
            8,
            8
        ],
        "21/03/2020 17:37:33": [
            9,
            9
        ],
        "21/03/2020 20:27:33": [
            0,
            0
        ],
        "21/03/2020 22:30:26": [
            -47,
            0
        ]
    },
    "3238": {
        "21/03/2020 15:40:04": [
            23,
            23
        ],
        "21/03/2020 15:40:24": [
            23,
            23
        ],
        "21/03/2020 17:37:34": [
            -23,
            -23
        ],
        "21/03/2020 20:27:34": [
            4,
            4
        ],
        "21/03/2020 22:30:27": [
            -43,
            4
        ]
    },
    "3239": {
        "21/03/2020 15:40:04": [
            -17,
            -17
        ],
        "21/03/2020 15:40:24": [
            -17,
            -17
        ],
        "21/03/2020 17:37:34": [
            1,
            1
        ],
        "21/03/2020 20:27:34": [
            18,
            18
        ],
        "21/03/2020 22:30:27": [
            -29,
            18
        ]
    },
    "3240": {
        "21/03/2020 15:40:05": [
            -24,
            -24
        ],
        "21/03/2020 15:40:24": [
            -24,
            -24
        ],
        "21/03/2020 17:37:34": [
            5,
            5
        ],
        "21/03/2020 20:27:34": [
            -5,
            -5
        ],
        "21/03/2020 22:30:28": [
            -52,
            -5
        ]
    },
    "3068": {
        "21/03/2020 15:40:05": [
            7,
            7
        ],
        "21/03/2020 15:40:24": [
            7,
            7
        ],
        "21/03/2020 17:37:35": [
            -29,
            -29
        ],
        "21/03/2020 20:27:35": [
            3,
            3
        ],
        "21/03/2020 22:30:29": [
            -44,
            3
        ]
    },
    "3069": {
        "21/03/2020 15:40:05": [
            -7,
            -7
        ],
        "21/03/2020 15:40:25": [
            -7,
            -7
        ],
        "21/03/2020 17:37:35": [
            14,
            14
        ],
        "21/03/2020 20:27:35": [
            -23,
            -23
        ],
        "21/03/2020 22:30:29": [
            -70,
            -23
        ]
    },
    "3070": {
        "21/03/2020 15:40:06": [
            1,
            1
        ],
        "21/03/2020 15:40:25": [
            1,
            1
        ],
        "21/03/2020 17:37:35": [
            142,
            17,
            17
        ],
        "21/03/2020 20:27:36": [
            27,
            27
        ],
        "21/03/2020 22:30:29": [
            27,
            27
        ]
    },
    "2041": {
        "21/03/2020 15:40:06": [
            26,
            26
        ],
        "21/03/2020 15:40:25": [
            26,
            26
        ],
        "21/03/2020 17:37:36": [
            128,
            27,
            27
        ],
        "21/03/2020 20:27:36": [
            25,
            25
        ],
        "21/03/2020 22:30:30": [
            25,
            25
        ]
    },
    "3071": {
        "21/03/2020 15:40:06": [
            -27,
            -27
        ],
        "21/03/2020 15:40:26": [
            -27,
            -27
        ],
        "21/03/2020 17:37:36": [
            125,
            10
        ],
        "21/03/2020 20:27:37": [
            -9,
            -9
        ],
        "21/03/2020 22:30:30": [
            -9,
            -9
        ]
    },
    "3072": {
        "21/03/2020 15:40:07": [
            15,
            15
        ],
        "21/03/2020 15:40:26": [
            15,
            15
        ],
        "21/03/2020 17:37:36": [
            115,
            -8
        ],
        "21/03/2020 20:27:37": [
            28,
            28
        ],
        "21/03/2020 22:30:31": [
            28,
            28
        ]
    },
    "3073": {
        "21/03/2020 15:40:07": [
            3,
            26
        ],
        "21/03/2020 15:40:26": [
            3,
            26
        ],
        "21/03/2020 17:37:36": [
            81,
            3
        ],
        "21/03/2020 20:27:37": [
            -28,
            -28
        ],
        "21/03/2020 22:30:31": [
            -28,
            -28
        ]
    },
    "3074": {
        "21/03/2020 15:40:07": [
            -17,
            4
        ],
        "21/03/2020 15:40:26": [
            -17,
            4
        ],
        "21/03/2020 17:37:37": [
            124,
            -16
        ],
        "21/03/2020 20:27:38": [
            5,
            5
        ],
        "21/03/2020 22:30:31": [
            5,
            5
        ]
    },
    "3075": {
        "21/03/2020 15:40:07": [
            11,
            -29
        ],
        "21/03/2020 15:40:27": [
            11,
            -29
        ],
        "21/03/2020 17:37:37": [
            94,
            12
        ],
        "21/03/2020 20:27:38": [
            29,
            29
        ],
        "21/03/2020 22:30:32": [
            29,
            29
        ]
    },
    "3076": {
        "21/03/2020 15:40:08": [
            -13,
            6
        ],
        "21/03/2020 15:40:27": [
            -13,
            6
        ],
        "21/03/2020 17:37:37": [
            133,
            -11
        ],
        "21/03/2020 20:27:39": [
            -1,
            -1
        ],
        "21/03/2020 22:30:32": [
            -1,
            -1
        ]
    },
    "3077": {
        "21/03/2020 15:40:08": [
            -8,
            20
        ],
        "21/03/2020 15:40:27": [
            -8,
            20
        ],
        "21/03/2020 17:37:38": [
            125,
            -17
        ],
        "21/03/2020 20:27:39": [
            -19,
            -19
        ],
        "21/03/2020 22:30:33": [
            -19,
            -19
        ]
    },
    "3079": {
        "21/03/2020 15:40:08": [
            33,
            -26
        ],
        "21/03/2020 15:40:28": [
            33,
            -26
        ],
        "21/03/2020 17:37:38": [
            109,
            -27
        ],
        "21/03/2020 20:27:40": [
            6,
            6
        ],
        "21/03/2020 22:30:33": [
            6,
            6
        ]
    },
    "3080": {
        "21/03/2020 15:40:09": [
            -5,
            10
        ],
        "21/03/2020 15:40:28": [
            -5,
            10
        ],
        "21/03/2020 17:37:38": [
            83,
            18
        ],
        "21/03/2020 20:27:40": [
            26,
            26
        ],
        "21/03/2020 22:30:34": [
            26,
            26
        ]
    },
    "3081": {
        "21/03/2020 15:40:09": [
            -1,
            25
        ],
        "21/03/2020 15:40:28": [
            -1,
            25
        ],
        "21/03/2020 17:37:39": [
            96,
            -21
        ],
        "21/03/2020 20:27:40": [
            28
        ],
        "21/03/2020 22:30:34": [
            28,
            28
        ]
    },
    "3084": {
        "21/03/2020 15:40:09": [
            2,
            -21
        ],
        "21/03/2020 15:40:29": [
            2,
            -21
        ],
        "21/03/2020 17:37:39": [
            108,
            0
        ],
        "21/03/2020 20:27:41": [
            -30
        ],
        "21/03/2020 22:30:35": [
            -30,
            -30
        ]
    },
    "469": {
        "21/03/2020 15:40:10": [
            36,
            19
        ],
        "21/03/2020 15:40:29": [
            36,
            19
        ],
        "21/03/2020 17:37:39": [
            140
        ],
        "21/03/2020 20:27:41": [
            -4
        ],
        "21/03/2020 22:30:35": [
            -4,
            -4
        ]
    },
    "470": {
        "21/03/2020 15:40:10": [
            35,
            29
        ],
        "21/03/2020 15:40:29": [
            35,
            29
        ],
        "21/03/2020 17:37:40": [
            136,
            21
        ],
        "21/03/2020 20:27:42": [
            -19
        ],
        "21/03/2020 22:30:36": [
            -19,
            -19
        ]
    },
    "471": {
        "21/03/2020 15:40:10": [
            2,
            1
        ],
        "21/03/2020 15:40:30": [
            2,
            1
        ],
        "21/03/2020 17:37:40": [
            102,
            -15
        ],
        "21/03/2020 20:27:42": [
            2
        ],
        "21/03/2020 22:30:36": [
            2,
            2
        ]
    },
    "472": {
        "21/03/2020 15:40:10": [
            27,
            -27
        ],
        "21/03/2020 15:40:30": [
            27,
            -27
        ],
        "21/03/2020 17:37:40": [
            130,
            9
        ],
        "21/03/2020 20:27:42": [
            24
        ],
        "21/03/2020 22:30:36": [
            24,
            24
        ]
    },
    "473": {
        "21/03/2020 15:40:11": [
            11,
            5
        ],
        "21/03/2020 15:40:30": [
            11,
            5
        ],
        "21/03/2020 17:37:40": [
            101,
            -11
        ],
        "21/03/2020 20:27:43": [
            -9
        ],
        "21/03/2020 22:30:37": [
            -9,
            -9
        ]
    },
    "4705": {
        "21/03/2020 15:40:11": [
            2,
            -17
        ],
        "21/03/2020 15:40:31": [
            2,
            -17
        ],
        "21/03/2020 17:37:41": [
            136,
            -25
        ],
        "21/03/2020 20:27:43": [
            22
        ],
        "21/03/2020 22:30:37": [
            22
        ]
    },
    "475": {
        "21/03/2020 15:40:11": [
            34,
            18
        ],
        "21/03/2020 15:40:31": [
            34,
            18
        ],
        "21/03/2020 17:37:41": [
            102,
            8
        ],
        "21/03/2020 20:27:44": [
            -16
        ],
        "21/03/2020 22:30:38": [
            -16
        ]
    },
    "476": {
        "21/03/2020 15:40:11": [
            29,
            18
        ],
        "21/03/2020 15:40:31": [
            29,
            18
        ],
        "21/03/2020 17:37:41": [
            87,
            4
        ],
        "21/03/2020 20:27:44": [
            23
        ],
        "21/03/2020 22:30:38": [
            23
        ]
    },
    "477": {
        "21/03/2020 15:40:12": [
            -5,
            -12
        ],
        "21/03/2020 15:40:32": [
            -5,
            -12
        ],
        "21/03/2020 17:37:42": [
            116,
            -27
        ],
        "21/03/2020 20:27:45": [
            -17
        ],
        "21/03/2020 22:30:38": [
            -17
        ]
    },
    "478": {
        "21/03/2020 15:40:12": [
            -20,
            -22
        ],
        "21/03/2020 15:40:32": [
            -20,
            -22
        ],
        "21/03/2020 17:37:42": [
            104,
            21
        ],
        "21/03/2020 20:27:45": [
            18
        ],
        "21/03/2020 22:30:39": [
            18
        ]
    },
    "479": {
        "21/03/2020 15:40:12": [
            8,
            6
        ],
        "21/03/2020 15:40:32": [
            8,
            6
        ],
        "21/03/2020 17:37:42": [
            131,
            -11
        ],
        "21/03/2020 20:27:45": [
            -25
        ],
        "21/03/2020 22:30:39": [
            -25
        ]
    },
    "480": {
        "21/03/2020 15:40:13": [
            -11,
            -13
        ],
        "21/03/2020 15:40:32": [
            -11,
            -13
        ],
        "21/03/2020 17:37:42": [
            112,
            -29
        ],
        "21/03/2020 20:27:46": [
            0
        ],
        "21/03/2020 22:30:40": [
            0
        ]
    },
    "481": {
        "21/03/2020 15:40:13": [
            21,
            20
        ],
        "21/03/2020 15:40:33": [
            21,
            20
        ],
        "21/03/2020 17:37:43": [
            84,
            4
        ],
        "21/03/2020 20:27:46": [
            19
        ],
        "21/03/2020 22:30:40": [
            19
        ]
    },
    "482": {
        "21/03/2020 15:40:13": [
            18,
            17
        ],
        "21/03/2020 15:40:33": [
            18,
            17
        ],
        "21/03/2020 17:37:43": [
            140,
            1
        ],
        "21/03/2020 20:27:47": [
            -6
        ],
        "21/03/2020 22:30:41": [
            -6
        ]
    },
    "483": {
        "21/03/2020 15:40:13": [
            3,
            6
        ],
        "21/03/2020 15:40:33": [
            3,
            6
        ],
        "21/03/2020 17:37:43": [
            120,
            -20
        ],
        "21/03/2020 20:27:47": [
            26
        ],
        "21/03/2020 22:30:41": [
            26
        ]
    },
    "485": {
        "21/03/2020 15:40:14": [
            -14,
            -2
        ],
        "21/03/2020 15:40:34": [
            -14,
            -2
        ],
        "21/03/2020 17:37:43": [
            90,
            9
        ],
        "21/03/2020 20:27:48": [
            -20
        ],
        "21/03/2020 22:30:41": [
            -20
        ]
    },
    "487": {
        "21/03/2020 15:40:14": [
            27,
            -1
        ],
        "21/03/2020 15:40:34": [
            27,
            -1
        ],
        "21/03/2020 17:37:44": [
            127,
            -26
        ],
        "21/03/2020 20:27:48": [
            17
        ],
        "21/03/2020 22:30:42": [
            17
        ]
    },
    "488": {
        "21/03/2020 15:40:14": [
            -15,
            13
        ],
        "21/03/2020 15:40:34": [
            -15,
            13
        ],
        "21/03/2020 17:37:44": [
            139,
            22
        ],
        "21/03/2020 20:27:48": [
            -119,
            15
        ],
        "21/03/2020 22:30:42": [
            15
        ]
    },
    "489": {
        "21/03/2020 15:40:15": [
            33,
            7
        ],
        "21/03/2020 15:40:34": [
            33,
            7
        ],
        "21/03/2020 17:37:44": [
            133,
            16
        ],
        "21/03/2020 20:27:49": [
            -138,
            -9
        ],
        "21/03/2020 22:30:43": [
            -9
        ]
    },
    "490": {
        "21/03/2020 15:40:15": [
            20,
            0
        ],
        "21/03/2020 15:40:35": [
            20,
            0
        ],
        "21/03/2020 17:37:45": [
            126,
            8
        ],
        "21/03/2020 20:27:49": [
            -97,
            27
        ],
        "21/03/2020 22:30:43": [
            27
        ]
    },
    "491": {
        "21/03/2020 15:40:15": [
            7,
            -6
        ],
        "21/03/2020 15:40:35": [
            7,
            -6
        ],
        "21/03/2020 17:37:45": [
            119
        ],
        "21/03/2020 20:27:50": [
            -117,
            3
        ],
        "21/03/2020 22:30:44": [
            3
        ]
    },
    "492": {
        "21/03/2020 15:40:16": [
            -15,
            -23
        ],
        "21/03/2020 15:40:35": [
            -15,
            -23
        ],
        "21/03/2020 17:37:45": [
            102
        ],
        "21/03/2020 20:27:50": [
            -144,
            -28
        ],
        "21/03/2020 22:30:44": [
            -28
        ]
    },
    "493": {
        "21/03/2020 15:40:16": [
            -11,
            -11
        ],
        "21/03/2020 15:40:36": [
            -11,
            -11
        ],
        "21/03/2020 17:37:45": [
            114
        ],
        "21/03/2020 20:27:51": [
            -149,
            20
        ],
        "21/03/2020 22:30:45": [
            20
        ]
    },
    "494": {
        "21/03/2020 15:40:16": [
            26
        ],
        "21/03/2020 15:40:36": [
            26
        ],
        "21/03/2020 17:37:46": [
            88
        ],
        "21/03/2020 20:27:51": [
            -118,
            -27
        ],
        "21/03/2020 22:30:45": [
            -27
        ]
    },
    "495": {
        "21/03/2020 15:40:16": [
            64,
            17
        ],
        "21/03/2020 15:40:36": [
            64,
            17
        ],
        "21/03/2020 17:37:46": [
            115
        ],
        "21/03/2020 20:27:51": [
            -120,
            11
        ],
        "21/03/2020 22:30:45": [
            11
        ]
    },
    "400": {
        "21/03/2020 15:40:17": [
            34,
            -13
        ],
        "21/03/2020 15:40:36": [
            34,
            -13
        ],
        "21/03/2020 17:37:46": [
            151
        ],
        "21/03/2020 20:27:52": [
            -144,
            -28
        ],
        "21/03/2020 22:30:46": [
            -28
        ]
    },
    "281": {
        "21/03/2020 15:40:17": [
            38,
            -9
        ],
        "21/03/2020 15:40:37": [
            38,
            -9
        ],
        "21/03/2020 17:37:46": [
            115
        ],
        "21/03/2020 20:27:52": [
            -107,
            1
        ],
        "21/03/2020 22:30:46": [
            1
        ]
    },
    "4": {
        "21/03/2020 15:40:17": [
            66,
            19
        ],
        "21/03/2020 15:40:37": [
            66,
            19
        ],
        "21/03/2020 17:37:47": [
            -568,
            134
        ],
        "21/03/2020 20:27:53": [],
        "21/03/2020 22:30:47": []
    },
    "4962": {
        "21/03/2020 15:40:18": [
            0,
            0
        ],
        "21/03/2020 15:40:38": [
            0,
            0
        ],
        "21/03/2020 17:37:48": [],
        "21/03/2020 20:27:54": [],
        "21/03/2020 22:30:48": []
    },
    "1174": {
        "21/03/2020 15:40:37": [],
        "21/03/2020 17:37:47": [
            0,
            0
        ],
        "21/03/2020 20:27:53": [
            0,
            0
        ],
        "21/03/2020 22:30:47": [
            0
        ]
    },
    "3042": {
        "21/03/2020 15:40:38": [],
        "21/03/2020 17:37:47": [],
        "21/03/2020 20:27:54": [
            2,
            -22
        ],
        "21/03/2020 22:30:48": [
            -22
        ]
    },
    "4725": {
        "21/03/2020 15:40:38": [
            19,
            18
        ],
        "21/03/2020 17:37:48": [
            27,
            -22
        ],
        "21/03/2020 20:27:54": [
            -4,
            -4
        ],
        "21/03/2020 22:30:49": [
            -4,
            -4
        ]
    },
    "273": {
        "21/03/2020 15:40:38": [
            8,
            -8
        ],
        "21/03/2020 17:37:48": [
            22
        ],
        "21/03/2020 20:27:55": [
            15,
            15
        ],
        "21/03/2020 22:30:49": [
            15,
            15
        ]
    },
    "405": {
        "21/03/2020 15:40:39": [
            36,
            -26
        ],
        "21/03/2020 17:37:48": [
            -16,
            -4
        ],
        "21/03/2020 20:27:55": [
            -1,
            -1
        ],
        "21/03/2020 22:30:49": [
            -1,
            -1
        ]
    },
    "408": {
        "21/03/2020 15:40:39": [
            56,
            22
        ],
        "21/03/2020 17:37:49": [
            -21,
            -11
        ],
        "21/03/2020 20:27:56": [
            25,
            25
        ],
        "21/03/2020 22:30:50": [
            25,
            25
        ]
    },
    "409": {
        "21/03/2020 15:40:39": [
            22,
            -12
        ],
        "21/03/2020 17:37:49": [
            -1,
            7
        ],
        "21/03/2020 20:27:56": [
            -12,
            -12
        ],
        "21/03/2020 22:30:50": [
            -12,
            -12
        ]
    },
    "410": {
        "21/03/2020 15:40:40": [
            68,
            -8
        ],
        "21/03/2020 17:37:49": [
            -3,
            2
        ],
        "21/03/2020 20:27:56": [
            -21,
            -21
        ],
        "21/03/2020 22:30:51": [
            -21,
            -21
        ]
    },
    "411": {
        "21/03/2020 15:40:40": [
            29,
            29
        ],
        "21/03/2020 17:37:50": [
            29,
            -26
        ],
        "21/03/2020 20:27:57": [
            8,
            8
        ],
        "21/03/2020 22:30:51": [
            8,
            8
        ]
    },
    "412": {
        "21/03/2020 15:40:40": [
            8,
            8
        ],
        "21/03/2020 17:37:50": [
            -2,
            -1
        ],
        "21/03/2020 20:27:57": [
            28,
            28
        ],
        "21/03/2020 22:30:52": [
            28,
            28
        ]
    },
    "413": {
        "21/03/2020 15:40:41": [
            -11,
            -11
        ],
        "21/03/2020 17:37:50": [
            24,
            17
        ],
        "21/03/2020 20:27:58": [
            -4,
            -4
        ],
        "21/03/2020 22:30:52": [
            -4,
            -4
        ]
    },
    "414": {
        "21/03/2020 15:40:41": [
            26,
            26
        ],
        "21/03/2020 17:37:50": [
            25,
            -1
        ],
        "21/03/2020 20:27:58": [
            2
        ],
        "21/03/2020 22:30:52": [
            2,
            2
        ]
    },
    "415": {
        "21/03/2020 15:40:41": [
            12,
            12
        ],
        "21/03/2020 17:37:51": [
            11,
            -15
        ],
        "21/03/2020 20:27:58": [
            -13
        ],
        "21/03/2020 22:30:53": [
            -13,
            -13
        ]
    },
    "416": {
        "21/03/2020 15:40:41": [
            -19,
            -19
        ],
        "21/03/2020 17:37:51": [
            -22,
            13
        ],
        "21/03/2020 20:27:59": [
            13
        ],
        "21/03/2020 22:30:53": [
            13
        ]
    },
    "417": {
        "21/03/2020 15:40:42": [
            -23,
            -23
        ],
        "21/03/2020 17:37:51": [
            20,
            -7
        ],
        "21/03/2020 20:27:59": [
            -11
        ],
        "21/03/2020 22:30:54": [
            -11
        ]
    },
    "418": {
        "21/03/2020 15:40:42": [
            -20,
            -20
        ],
        "21/03/2020 17:37:52": [
            8,
            -21
        ],
        "21/03/2020 20:28:00": [
            -29
        ],
        "21/03/2020 22:30:54": [
            -29
        ]
    },
    "419": {
        "21/03/2020 15:40:42": [
            -17,
            -17
        ],
        "21/03/2020 17:37:52": [
            -5,
            25
        ],
        "21/03/2020 20:28:00": [
            12
        ],
        "21/03/2020 22:30:54": [
            12
        ]
    },
    "420": {
        "21/03/2020 15:40:43": [
            -21,
            -21
        ],
        "21/03/2020 17:37:52": [
            -20,
            5
        ],
        "21/03/2020 20:28:01": [
            -13
        ],
        "21/03/2020 22:30:55": [
            -13
        ]
    },
    "421": {
        "21/03/2020 15:40:43": [
            -27,
            -27
        ],
        "21/03/2020 17:37:52": [
            24,
            -15
        ],
        "21/03/2020 20:28:01": [
            22
        ],
        "21/03/2020 22:30:55": []
    },
    "422": {
        "21/03/2020 15:40:43": [
            -21,
            -21
        ],
        "21/03/2020 17:37:53": [
            17,
            -27
        ],
        "21/03/2020 20:28:01": [
            4
        ],
        "21/03/2020 22:30:56": []
    },
    "423": {
        "21/03/2020 15:40:44": [
            26,
            26
        ],
        "21/03/2020 17:37:53": [
            -11,
            14
        ],
        "21/03/2020 20:28:02": [
            27
        ],
        "21/03/2020 22:30:56": []
    },
    "424": {
        "21/03/2020 15:40:44": [
            -25,
            -25
        ],
        "21/03/2020 17:37:53": [
            -23,
            13
        ],
        "21/03/2020 20:28:02": [
            2
        ],
        "21/03/2020 22:30:57": []
    },
    "425": {
        "21/03/2020 15:40:44": [
            28,
            28
        ],
        "21/03/2020 17:37:54": [
            20,
            -4
        ],
        "21/03/2020 20:28:03": [
            -21
        ],
        "21/03/2020 22:30:57": []
    },
    "426": {
        "21/03/2020 15:40:44": [
            -1,
            -1
        ],
        "21/03/2020 17:37:54": [
            -14,
            22
        ],
        "21/03/2020 20:28:03": [
            2
        ],
        "21/03/2020 22:30:57": []
    },
    "427": {
        "21/03/2020 15:40:45": [
            3,
            3
        ],
        "21/03/2020 17:37:54": [
            -18,
            29
        ],
        "21/03/2020 20:28:04": [
            -12
        ],
        "21/03/2020 22:30:58": []
    },
    "428": {
        "21/03/2020 15:40:45": [
            -18,
            -18
        ],
        "21/03/2020 17:37:54": [
            14,
            -2
        ],
        "21/03/2020 20:28:04": [
            18
        ],
        "21/03/2020 22:30:58": []
    },
    "429": {
        "21/03/2020 15:40:45": [
            24,
            24
        ],
        "21/03/2020 17:37:55": [
            -12,
            29
        ],
        "21/03/2020 20:28:05": [
            -9
        ],
        "21/03/2020 22:30:59": [
            -9
        ]
    },
    "3032": {
        "21/03/2020 15:40:45": [
            7,
            7
        ],
        "21/03/2020 17:37:55": [
            11,
            -14
        ],
        "21/03/2020 20:28:05": [
            -1
        ],
        "21/03/2020 22:30:59": [
            -1
        ]
    },
    "3033": {
        "21/03/2020 15:40:46": [
            15,
            15
        ],
        "21/03/2020 17:37:55": [
            6,
            -23
        ],
        "21/03/2020 20:28:06": [
            8,
            -16
        ],
        "21/03/2020 22:31:00": [
            -16
        ]
    },
    "3034": {
        "21/03/2020 15:40:46": [
            -14,
            -14
        ],
        "21/03/2020 17:37:56": [
            28,
            -11
        ],
        "21/03/2020 20:28:06": [
            22,
            -13
        ],
        "21/03/2020 22:31:00": [
            -13
        ]
    },
    "3036": {
        "21/03/2020 15:40:46": [
            -15
        ],
        "21/03/2020 17:37:56": [
            16
        ],
        "21/03/2020 20:28:06": [
            10,
            21
        ],
        "21/03/2020 22:31:00": [
            21
        ]
    },
    "3037": {
        "21/03/2020 15:40:47": [
            10
        ],
        "21/03/2020 17:37:56": [
            -22
        ],
        "21/03/2020 20:28:07": [
            -28,
            -20
        ],
        "21/03/2020 22:31:01": [
            -20
        ]
    },
    "3038": {
        "21/03/2020 15:40:47": [
            0
        ],
        "21/03/2020 17:37:56": [
            24
        ],
        "21/03/2020 20:28:07": [
            18,
            18
        ],
        "21/03/2020 22:31:01": [
            18
        ]
    },
    "3039": {
        "21/03/2020 15:40:47": [
            -30
        ],
        "21/03/2020 17:37:57": [
            -8
        ],
        "21/03/2020 20:28:08": [
            -13,
            -19
        ],
        "21/03/2020 22:31:02": [
            -19
        ]
    },
    "3040": {
        "21/03/2020 15:40:48": [
            8
        ],
        "21/03/2020 17:37:57": [
            27
        ],
        "21/03/2020 20:28:08": [
            22,
            10
        ],
        "21/03/2020 22:31:02": [
            10
        ]
    },
    "3041": {
        "21/03/2020 15:40:48": [
            17
        ],
        "21/03/2020 17:37:57": [
            24
        ],
        "21/03/2020 20:28:09": [
            18,
            0
        ],
        "21/03/2020 22:31:03": [
            0
        ]
    },
    "2035": {
        "21/03/2020 15:40:48": [
            22
        ],
        "21/03/2020 17:37:57": [
            8
        ],
        "21/03/2020 20:28:09": [
            1,
            -30
        ],
        "21/03/2020 22:31:03": [
            -30
        ]
    },
    "2036": {
        "21/03/2020 15:40:49": [
            -3
        ],
        "21/03/2020 17:37:58": [
            -262,
            22
        ],
        "21/03/2020 20:28:10": [
            4,
            -23
        ],
        "21/03/2020 22:31:04": [
            -23
        ]
    },
    "2040": {
        "21/03/2020 15:40:49": [
            -22
        ],
        "21/03/2020 17:37:58": [
            -243,
            27
        ],
        "21/03/2020 20:28:11": [
            -9,
            -30
        ],
        "21/03/2020 22:31:04": [
            -30
        ]
    },
    "3047": {
        "21/03/2020 15:40:49": [
            -178,
            20
        ],
        "21/03/2020 17:37:58": [
            -267,
            -3
        ],
        "21/03/2020 20:28:12": [
            26,
            -15
        ],
        "21/03/2020 22:31:04": [
            -15
        ]
    },
    "3202": {
        "21/03/2020 15:40:49": [
            -196,
            3
        ],
        "21/03/2020 17:37:59": [
            -226,
            -25
        ],
        "21/03/2020 20:28:12": [
            7,
            16
        ],
        "21/03/2020 22:31:05": [
            16
        ]
    },
    "3203": {
        "21/03/2020 15:40:50": [
            -221,
            -19
        ],
        "21/03/2020 17:37:59": [
            -254,
            2
        ],
        "21/03/2020 20:28:13": [
            -22,
            28
        ],
        "21/03/2020 22:31:05": [
            5,
            28
        ]
    },
    "3204": {
        "21/03/2020 15:40:50": [
            -184,
            26
        ],
        "21/03/2020 17:37:59": [
            -278,
            -23
        ],
        "21/03/2020 20:28:13": [
            20,
            1
        ],
        "21/03/2020 22:31:06": [
            -22,
            1
        ]
    },
    "3205": {
        "21/03/2020 15:40:50": [
            -219,
            -4
        ],
        "21/03/2020 17:37:59": [
            -250,
            2
        ],
        "21/03/2020 20:28:13": [
            -16,
            10
        ],
        "21/03/2020 22:31:06": [
            -52,
            10
        ]
    },
    "3206": {
        "21/03/2020 15:40:51": [
            -185,
            -23
        ],
        "21/03/2020 17:38:00": [
            -274,
            -15
        ],
        "21/03/2020 20:28:14": [
            13,
            -20
        ],
        "21/03/2020 22:31:07": [
            -82,
            -20
        ]
    },
    "3207": {
        "21/03/2020 15:40:51": [
            -213,
            16
        ],
        "21/03/2020 17:38:00": [
            -239,
            26
        ],
        "21/03/2020 20:28:14": [
            -19,
            8
        ],
        "21/03/2020 22:31:07": [
            -54,
            8
        ]
    },
    "3208": {
        "21/03/2020 15:40:51": [
            -183,
            -8
        ],
        "21/03/2020 17:38:00": [
            -267,
            4
        ],
        "21/03/2020 20:28:15": [
            7,
            -25
        ],
        "21/03/2020 22:31:08": [
            -87,
            -25
        ]
    },
    "3209": {
        "21/03/2020 15:40:51": [
            -205,
            -22
        ],
        "21/03/2020 17:38:01": [
            -225,
            -8
        ],
        "21/03/2020 20:28:15": [
            -20,
            9
        ],
        "21/03/2020 22:31:08": [
            -53,
            9
        ]
    },
    "3210": {
        "21/03/2020 15:40:52": [
            -177,
            12
        ],
        "21/03/2020 17:38:01": [
            -255,
            28
        ],
        "21/03/2020 20:28:15": [
            4,
            -26
        ],
        "21/03/2020 22:31:08": [
            -88,
            -26
        ]
    },
    "4981": {
        "21/03/2020 15:40:52": [
            -198,
            -4
        ],
        "21/03/2020 17:38:01": [
            -275,
            13
        ],
        "21/03/2020 20:28:16": [
            -16,
            13
        ],
        "21/03/2020 22:31:09": [
            -49,
            13
        ]
    },
    "3211": {
        "21/03/2020 15:40:52": [
            -222,
            -23
        ],
        "21/03/2020 17:38:01": [
            -237,
            -5
        ],
        "21/03/2020 20:28:16": [
            22,
            -10
        ],
        "21/03/2020 22:31:09": [
            -72,
            -10
        ]
    },
    "3212": {
        "21/03/2020 15:40:53": [
            -221,
            -14
        ],
        "21/03/2020 17:38:02": [
            -234,
            7
        ],
        "21/03/2020 20:28:17": [
            25,
            -9
        ],
        "21/03/2020 22:31:10": [
            -71,
            -9
        ]
    },
    "3213": {
        "21/03/2020 15:40:53": [
            -226,
            -11
        ],
        "21/03/2020 17:38:02": [
            -236,
            11
        ],
        "21/03/2020 20:28:17": [
            23,
            -13
        ],
        "21/03/2020 22:31:10": [
            -75,
            -13
        ]
    },
    "3214": {
        "21/03/2020 15:40:53": [
            -225,
            7
        ],
        "21/03/2020 17:38:02": [
            -223,
            23
        ],
        "21/03/2020 20:28:17": [
            -28,
            -8
        ],
        "21/03/2020 22:31:11": [
            -70,
            -8
        ]
    },
    "3215": {
        "21/03/2020 15:40:53": [
            -235,
            11
        ],
        "21/03/2020 17:38:03": [
            -223,
            22
        ],
        "21/03/2020 20:28:18": [
            28,
            -15
        ],
        "21/03/2020 22:31:11": [
            -77,
            -15
        ]
    },
    "3216": {
        "21/03/2020 15:40:54": [
            -176,
            14
        ],
        "21/03/2020 17:38:03": [
            -226,
            16
        ],
        "21/03/2020 20:28:18": [
            17,
            -20
        ],
        "21/03/2020 22:31:12": [
            -82,
            -20
        ]
    },
    "3217": {
        "21/03/2020 15:40:54": [
            -189,
            5
        ],
        "21/03/2020 17:38:03": [
            -239,
            0
        ],
        "21/03/2020 20:28:19": [
            -3,
            24
        ],
        "21/03/2020 22:31:12": [
            -38,
            24
        ]
    },
    "3218": {
        "21/03/2020 15:40:54": [
            -205,
            -7
        ],
        "21/03/2020 17:38:03": [
            -256,
            -18
        ],
        "21/03/2020 20:28:19": [
            -25,
            6
        ],
        "21/03/2020 22:31:12": [
            -56,
            6
        ]
    },
    "3219": {
        "21/03/2020 15:40:55": [
            -30,
            -216
        ],
        "21/03/2020 17:38:04": [
            -268,
            27
        ],
        "21/03/2020 20:28:19": [
            16,
            -8
        ],
        "21/03/2020 22:31:13": [
            -70,
            -8
        ]
    },
    "3220": {
        "21/03/2020 15:40:55": [
            44,
            -242
        ],
        "21/03/2020 17:38:04": [
            -227,
            13
        ],
        "21/03/2020 20:28:20": [
            -1,
            28
        ],
        "21/03/2020 22:31:13": [
            -34,
            28
        ]
    },
    "3221": {
        "21/03/2020 15:40:55": [
            5,
            -281
        ],
        "21/03/2020 17:38:04": [
            -252,
            -8
        ],
        "21/03/2020 20:28:20": [
            -26,
            -2
        ],
        "21/03/2020 22:31:14": [
            -64,
            -2
        ]
    },
    "4982": {
        "21/03/2020 15:40:56": [],
        "21/03/2020 17:38:05": [],
        "21/03/2020 20:28:21": [],
        "21/03/2020 22:31:14": []
    }
}