{
    "overall_punctuality": -13415,
    "overall_num": 371,
    "overall_avg": -36,
    "daily_punctuality": {
        "Sunday": {
            "num_results": 43,
            "total": -931,
            "avg:": 0,
            "avg": -21
        },
        "Monday": {
            "num_results": 44,
            "total": -4602,
            "avg:": 0,
            "avg": -104
        },
        "Tuesday": {
            "num_results": 61,
            "total": -6260,
            "avg:": 0,
            "avg": -102
        },
        "Wednesday": {
            "num_results": 59,
            "total": 2501,
            "avg:": 0,
            "avg": 43
        },
        "Thursday": {
            "num_results": 44,
            "total": 968,
            "avg:": 0,
            "avg": 22
        },
        "Friday": {
            "num_results": 42,
            "total": 2133,
            "avg:": 0,
            "avg": 51
        },
        "Saturday": {
            "num_results": 78,
            "total": -7224,
            "avg:": 0,
            "avg": -92
        }
    }
}