{
    "overall_punctuality": -5138,
    "overall_num": 58,
    "overall_avg": -88,
    "daily_punctuality": {
        "Sunday": {
            "num_results": 6,
            "total": -939,
            "avg:": 0,
            "avg": -156
        },
        "Monday": {
            "num_results": 8,
            "total": -2493,
            "avg:": 0,
            "avg": -311
        },
        "Tuesday": {
            "num_results": 9,
            "total": -2915,
            "avg:": 0,
            "avg": -323
        },
        "Wednesday": {
            "num_results": 9,
            "total": 594,
            "avg:": 0,
            "avg": 66
        },
        "Thursday": {
            "num_results": 8,
            "total": 329,
            "avg:": 0,
            "avg": 42
        },
        "Friday": {
            "num_results": 8,
            "total": 659,
            "avg:": 0,
            "avg": 83
        },
        "Saturday": {
            "num_results": 10,
            "total": -373,
            "avg:": 0,
            "avg": -37
        }
    }
}