{
    "overall_punctuality": -10401,
    "overall_num": 50,
    "overall_avg": -208,
    "daily_punctuality": {
        "Sunday": {
            "num_results": 6,
            "total": -539,
            "avg:": 0,
            "avg": -89
        },
        "Monday": {
            "num_results": 6,
            "total": -4325,
            "avg:": 0,
            "avg": -720
        },
        "Tuesday": {
            "num_results": 8,
            "total": -2639,
            "avg:": 0,
            "avg": -329
        },
        "Wednesday": {
            "num_results": 8,
            "total": 519,
            "avg:": 0,
            "avg": 65
        },
        "Thursday": {
            "num_results": 6,
            "total": 515,
            "avg:": 0,
            "avg": 86
        },
        "Friday": {
            "num_results": 6,
            "total": 489,
            "avg:": 0,
            "avg": 82
        },
        "Saturday": {
            "num_results": 10,
            "total": -4421,
            "avg:": 0,
            "avg": -442
        }
    }
}