{
    "overall_punctuality": 419,
    "overall_num": 50,
    "overall_avg": 9,
    "daily_punctuality": {
        "Sunday": {
            "num_results": 6,
            "total": 42,
            "avg:": 0,
            "avg": 7
        },
        "Monday": {
            "num_results": 6,
            "total": -62,
            "avg:": 0,
            "avg": -10
        },
        "Tuesday": {
            "num_results": 8,
            "total": -227,
            "avg:": 0,
            "avg": -28
        },
        "Wednesday": {
            "num_results": 8,
            "total": 124,
            "avg:": 0,
            "avg": 16
        },
        "Thursday": {
            "num_results": 6,
            "total": 233,
            "avg:": 0,
            "avg": 39
        },
        "Friday": {
            "num_results": 6,
            "total": 90,
            "avg:": 0,
            "avg": 15
        },
        "Saturday": {
            "num_results": 10,
            "total": 219,
            "avg:": 0,
            "avg": 22
        }
    }
}