{
    "overall_punctuality": -2946,
    "overall_num": 49,
    "overall_avg": -60,
    "daily_punctuality": {
        "Sunday": {
            "num_results": 6,
            "total": -370,
            "avg:": 0,
            "avg": -61
        },
        "Monday": {
            "num_results": 6,
            "total": -6,
            "avg:": 0,
            "avg": -1
        },
        "Tuesday": {
            "num_results": 8,
            "total": -2085,
            "avg:": 0,
            "avg": -260
        },
        "Wednesday": {
            "num_results": 8,
            "total": 812,
            "avg:": 0,
            "avg": 102
        },
        "Thursday": {
            "num_results": 6,
            "total": 158,
            "avg:": 0,
            "avg": 27
        },
        "Friday": {
            "num_results": 6,
            "total": 13,
            "avg:": 0,
            "avg": 3
        },
        "Saturday": {
            "num_results": 9,
            "total": -1468,
            "avg:": 0,
            "avg": -163
        }
    }
}