{
    "overall_punctuality": -10070,
    "overall_num": 50,
    "overall_avg": -201,
    "daily_punctuality": {
        "Sunday": {
            "num_results": 6,
            "total": -405,
            "avg:": 0,
            "avg": -67
        },
        "Monday": {
            "num_results": 6,
            "total": -4562,
            "avg:": 0,
            "avg": -760
        },
        "Tuesday": {
            "num_results": 8,
            "total": -2747,
            "avg:": 0,
            "avg": -343
        },
        "Wednesday": {
            "num_results": 8,
            "total": 1156,
            "avg:": 0,
            "avg": 145
        },
        "Thursday": {
            "num_results": 6,
            "total": 534,
            "avg:": 0,
            "avg": 89
        },
        "Friday": {
            "num_results": 6,
            "total": 616,
            "avg:": 0,
            "avg": 103
        },
        "Saturday": {
            "num_results": 10,
            "total": -4662,
            "avg:": 0,
            "avg": -466
        }
    }
}