{
    "overall_punctuality": 496,
    "overall_num": 50,
    "overall_avg": 10,
    "daily_punctuality": {
        "Sunday": {
            "num_results": 6,
            "total": 107,
            "avg:": 0,
            "avg": 18
        },
        "Monday": {
            "num_results": 6,
            "total": -4,
            "avg:": 0,
            "avg": 0
        },
        "Tuesday": {
            "num_results": 8,
            "total": -179,
            "avg:": 0,
            "avg": -22
        },
        "Wednesday": {
            "num_results": 8,
            "total": 75,
            "avg:": 0,
            "avg": 10
        },
        "Thursday": {
            "num_results": 6,
            "total": 371,
            "avg:": 0,
            "avg": 62
        },
        "Friday": {
            "num_results": 6,
            "total": -13,
            "avg:": 0,
            "avg": -2
        },
        "Saturday": {
            "num_results": 10,
            "total": 139,
            "avg:": 0,
            "avg": 14
        }
    }
}