{
    "overall_punctuality": 93,
    "overall_num": 24,
    "overall_avg": 4,
    "daily_punctuality": {
        "Sunday": {
            "num_results": 3,
            "total": 20,
            "avg:": 0,
            "avg": 7
        },
        "Monday": {
            "num_results": 3,
            "total": 20,
            "avg:": 0,
            "avg": 7
        },
        "Tuesday": {
            "num_results": 3,
            "total": 2,
            "avg:": 0,
            "avg": 1
        },
        "Wednesday": {
            "num_results": 4,
            "total": 53,
            "avg:": 0,
            "avg": 14
        },
        "Thursday": {
            "num_results": 3,
            "total": -21,
            "avg:": 0,
            "avg": -7
        },
        "Friday": {
            "num_results": 2,
            "total": 16,
            "avg:": 0,
            "avg": 8
        },
        "Saturday": {
            "num_results": 6,
            "total": 3,
            "avg:": 0,
            "avg": 1
        }
    }
}