{
    "overall_punctuality": -2430,
    "overall_num": 47,
    "overall_avg": -51,
    "daily_punctuality": {
        "Sunday": {
            "num_results": 5,
            "total": -59,
            "avg:": 0,
            "avg": -11
        },
        "Monday": {
            "num_results": 6,
            "total": -869,
            "avg:": 0,
            "avg": -144
        },
        "Tuesday": {
            "num_results": 8,
            "total": -1184,
            "avg:": 0,
            "avg": -148
        },
        "Wednesday": {
            "num_results": 8,
            "total": 27,
            "avg:": 0,
            "avg": 4
        },
        "Thursday": {
            "num_results": 5,
            "total": -187,
            "avg:": 0,
            "avg": -37
        },
        "Friday": {
            "num_results": 6,
            "total": 134,
            "avg:": 0,
            "avg": 23
        },
        "Saturday": {
            "num_results": 9,
            "total": -292,
            "avg:": 0,
            "avg": -32
        }
    }
}