{
    "overall_punctuality": -3119,
    "overall_num": 48,
    "overall_avg": -64,
    "daily_punctuality": {
        "Sunday": {
            "num_results": 6,
            "total": -162,
            "avg:": 0,
            "avg": -27
        },
        "Monday": {
            "num_results": 6,
            "total": -858,
            "avg:": 0,
            "avg": -143
        },
        "Tuesday": {
            "num_results": 8,
            "total": -1031,
            "avg:": 0,
            "avg": -128
        },
        "Wednesday": {
            "num_results": 8,
            "total": 125,
            "avg:": 0,
            "avg": 16
        },
        "Thursday": {
            "num_results": 6,
            "total": -212,
            "avg:": 0,
            "avg": -35
        },
        "Friday": {
            "num_results": 6,
            "total": 213,
            "avg:": 0,
            "avg": 36
        },
        "Saturday": {
            "num_results": 8,
            "total": -1194,
            "avg:": 0,
            "avg": -149
        }
    }
}