{
    "overall_punctuality": -4229,
    "overall_num": 49,
    "overall_avg": -86,
    "daily_punctuality": {
        "Sunday": {
            "num_results": 6,
            "total": -67,
            "avg:": 0,
            "avg": -11
        },
        "Monday": {
            "num_results": 6,
            "total": -1890,
            "avg:": 0,
            "avg": -315
        },
        "Tuesday": {
            "num_results": 8,
            "total": -1534,
            "avg:": 0,
            "avg": -191
        },
        "Wednesday": {
            "num_results": 8,
            "total": 399,
            "avg:": 0,
            "avg": 50
        },
        "Thursday": {
            "num_results": 6,
            "total": -160,
            "avg:": 0,
            "avg": -26
        },
        "Friday": {
            "num_results": 6,
            "total": 724,
            "avg:": 0,
            "avg": 121
        },
        "Saturday": {
            "num_results": 9,
            "total": -1701,
            "avg:": 0,
            "avg": -189
        }
    }
}