{
    "overall_punctuality": 390,
    "overall_num": 50,
    "overall_avg": 8,
    "daily_punctuality": {
        "Sunday": {
            "num_results": 6,
            "total": 35,
            "avg:": 0,
            "avg": 6
        },
        "Monday": {
            "num_results": 6,
            "total": 108,
            "avg:": 0,
            "avg": 18
        },
        "Tuesday": {
            "num_results": 8,
            "total": 170,
            "avg:": 0,
            "avg": 22
        },
        "Wednesday": {
            "num_results": 8,
            "total": 37,
            "avg:": 0,
            "avg": 5
        },
        "Thursday": {
            "num_results": 6,
            "total": 73,
            "avg:": 0,
            "avg": 13
        },
        "Friday": {
            "num_results": 6,
            "total": 39,
            "avg:": 0,
            "avg": 7
        },
        "Saturday": {
            "num_results": 10,
            "total": -72,
            "avg:": 0,
            "avg": -7
        }
    }
}