{
    "overall_punctuality": -5840,
    "overall_num": 53,
    "overall_avg": -110,
    "daily_punctuality": {
        "Sunday": {
            "num_results": 5,
            "total": 320,
            "avg:": 0,
            "avg": 64
        },
        "Monday": {
            "num_results": 7,
            "total": -2123,
            "avg:": 0,
            "avg": -303
        },
        "Tuesday": {
            "num_results": 8,
            "total": -2727,
            "avg:": 0,
            "avg": -340
        },
        "Wednesday": {
            "num_results": 9,
            "total": 490,
            "avg:": 0,
            "avg": 55
        },
        "Thursday": {
            "num_results": 7,
            "total": 392,
            "avg:": 0,
            "avg": 56
        },
        "Friday": {
            "num_results": 7,
            "total": 630,
            "avg:": 0,
            "avg": 90
        },
        "Saturday": {
            "num_results": 10,
            "total": -2822,
            "avg:": 0,
            "avg": -282
        }
    }
}