{
    "overall_punctuality": 684,
    "overall_num": 132,
    "overall_avg": 6,
    "daily_punctuality": {
        "Sunday": {
            "num_results": 13,
            "total": 26,
            "avg:": 0,
            "avg": 2
        },
        "Monday": {
            "num_results": 17,
            "total": -34,
            "avg:": 0,
            "avg": -2
        },
        "Tuesday": {
            "num_results": 22,
            "total": 360,
            "avg:": 0,
            "avg": 17
        },
        "Wednesday": {
            "num_results": 23,
            "total": 231,
            "avg:": 0,
            "avg": 11
        },
        "Thursday": {
            "num_results": 15,
            "total": 136,
            "avg:": 0,
            "avg": 10
        },
        "Friday": {
            "num_results": 14,
            "total": 68,
            "avg:": 0,
            "avg": 5
        },
        "Saturday": {
            "num_results": 28,
            "total": -103,
            "avg:": 0,
            "avg": -3
        }
    }
}