{
    "overall_punctuality": 1314,
    "overall_num": 135,
    "overall_avg": 10,
    "daily_punctuality": {
        "Sunday": {
            "num_results": 13,
            "total": -121,
            "avg:": 0,
            "avg": -9
        },
        "Monday": {
            "num_results": 17,
            "total": -253,
            "avg:": 0,
            "avg": -14
        },
        "Tuesday": {
            "num_results": 21,
            "total": 303,
            "avg:": 0,
            "avg": 15
        },
        "Wednesday": {
            "num_results": 24,
            "total": 320,
            "avg:": 0,
            "avg": 14
        },
        "Thursday": {
            "num_results": 17,
            "total": 925,
            "avg:": 0,
            "avg": 55
        },
        "Friday": {
            "num_results": 15,
            "total": 329,
            "avg:": 0,
            "avg": 22
        },
        "Saturday": {
            "num_results": 28,
            "total": -189,
            "avg:": 0,
            "avg": -6
        }
    }
}