{
    "overall_punctuality": 1038,
    "overall_num": 244,
    "overall_avg": 5,
    "daily_punctuality": {
        "Sunday": {
            "num_results": 29,
            "total": 215,
            "avg:": 0,
            "avg": 8
        },
        "Monday": {
            "num_results": 30,
            "total": -701,
            "avg:": 0,
            "avg": -23
        },
        "Tuesday": {
            "num_results": 39,
            "total": -168,
            "avg:": 0,
            "avg": -4
        },
        "Wednesday": {
            "num_results": 41,
            "total": 785,
            "avg:": 0,
            "avg": 20
        },
        "Thursday": {
            "num_results": 29,
            "total": 885,
            "avg:": 0,
            "avg": 31
        },
        "Friday": {
            "num_results": 29,
            "total": 693,
            "avg:": 0,
            "avg": 24
        },
        "Saturday": {
            "num_results": 47,
            "total": -671,
            "avg:": 0,
            "avg": -14
        }
    }
}