{
    "overall_punctuality": -679,
    "overall_num": 322,
    "overall_avg": -2,
    "daily_punctuality": {
        "Sunday": {
            "num_results": 38,
            "total": 171,
            "avg:": 0,
            "avg": 5
        },
        "Monday": {
            "num_results": 40,
            "total": -798,
            "avg:": 0,
            "avg": -19
        },
        "Tuesday": {
            "num_results": 49,
            "total": -830,
            "avg:": 0,
            "avg": -16
        },
        "Wednesday": {
            "num_results": 54,
            "total": 524,
            "avg:": 0,
            "avg": 10
        },
        "Thursday": {
            "num_results": 37,
            "total": 900,
            "avg:": 0,
            "avg": 25
        },
        "Friday": {
            "num_results": 35,
            "total": 555,
            "avg:": 0,
            "avg": 16
        },
        "Saturday": {
            "num_results": 69,
            "total": -1201,
            "avg:": 0,
            "avg": -17
        }
    }
}