{
    "overall_punctuality": -835,
    "overall_num": 125,
    "overall_avg": -6,
    "daily_punctuality": {
        "Sunday": {
            "num_results": 13,
            "total": -68,
            "avg:": 0,
            "avg": -5
        },
        "Monday": {
            "num_results": 17,
            "total": 14,
            "avg:": 0,
            "avg": 1
        },
        "Tuesday": {
            "num_results": 21,
            "total": -44,
            "avg:": 0,
            "avg": -2
        },
        "Wednesday": {
            "num_results": 20,
            "total": -325,
            "avg:": 0,
            "avg": -16
        },
        "Thursday": {
            "num_results": 17,
            "total": -206,
            "avg:": 0,
            "avg": -12
        },
        "Friday": {
            "num_results": 11,
            "total": -134,
            "avg:": 0,
            "avg": -12
        },
        "Saturday": {
            "num_results": 26,
            "total": -72,
            "avg:": 0,
            "avg": -2
        }
    }
}