{
    "overall_punctuality": -8,
    "overall_num": 2,
    "overall_avg": -4,
    "daily_punctuality": {
        "Sunday": {
            "num_results": 0,
            "total": 0,
            "avg:": 0
        },
        "Monday": {
            "num_results": 0,
            "total": 0,
            "avg:": 0
        },
        "Tuesday": {
            "num_results": 1,
            "total": 4,
            "avg:": 0,
            "avg": 4
        },
        "Wednesday": {
            "num_results": 1,
            "total": -12,
            "avg:": 0,
            "avg": -12
        },
        "Thursday": {
            "num_results": 0,
            "total": 0,
            "avg:": 0
        },
        "Friday": {
            "num_results": 0,
            "total": 0,
            "avg:": 0
        },
        "Saturday": {
            "num_results": 0,
            "total": 0,
            "avg:": 0
        }
    }
}