{
    "overall_punctuality": 1987,
    "overall_num": 261,
    "overall_avg": 8,
    "daily_punctuality": {
        "Sunday": {
            "num_results": 31,
            "total": 282,
            "avg:": 0,
            "avg": 10
        },
        "Monday": {
            "num_results": 33,
            "total": -2620,
            "avg:": 0,
            "avg": -79
        },
        "Tuesday": {
            "num_results": 42,
            "total": 326,
            "avg:": 0,
            "avg": 8
        },
        "Wednesday": {
            "num_results": 44,
            "total": 1630,
            "avg:": 0,
            "avg": 38
        },
        "Thursday": {
            "num_results": 32,
            "total": 1209,
            "avg:": 0,
            "avg": 38
        },
        "Friday": {
            "num_results": 24,
            "total": 883,
            "avg:": 0,
            "avg": 37
        },
        "Saturday": {
            "num_results": 55,
            "total": 277,
            "avg:": 0,
            "avg": 6
        }
    }
}