{
    "overall_punctuality": -232,
    "overall_num": 49,
    "overall_avg": -4,
    "daily_punctuality": {
        "Sunday": {
            "num_results": 6,
            "total": -64,
            "avg:": 0,
            "avg": -10
        },
        "Monday": {
            "num_results": 6,
            "total": -217,
            "avg:": 0,
            "avg": -36
        },
        "Tuesday": {
            "num_results": 8,
            "total": -204,
            "avg:": 0,
            "avg": -25
        },
        "Wednesday": {
            "num_results": 7,
            "total": -42,
            "avg:": 0,
            "avg": -6
        },
        "Thursday": {
            "num_results": 6,
            "total": 63,
            "avg:": 0,
            "avg": 11
        },
        "Friday": {
            "num_results": 4,
            "total": 150,
            "avg:": 0,
            "avg": 38
        },
        "Saturday": {
            "num_results": 12,
            "total": 82,
            "avg:": 0,
            "avg": 7
        }
    }
}