{
    "overall_punctuality": -607,
    "overall_num": 50,
    "overall_avg": -12,
    "daily_punctuality": {
        "Sunday": {
            "num_results": 6,
            "total": -2,
            "avg:": 0,
            "avg": 0
        },
        "Monday": {
            "num_results": 6,
            "total": -419,
            "avg:": 0,
            "avg": -69
        },
        "Tuesday": {
            "num_results": 8,
            "total": -48,
            "avg:": 0,
            "avg": -6
        },
        "Wednesday": {
            "num_results": 8,
            "total": 56,
            "avg:": 0,
            "avg": 7
        },
        "Thursday": {
            "num_results": 6,
            "total": -1,
            "avg:": 0,
            "avg": 0
        },
        "Friday": {
            "num_results": 4,
            "total": 99,
            "avg:": 0,
            "avg": 25
        },
        "Saturday": {
            "num_results": 12,
            "total": -292,
            "avg:": 0,
            "avg": -24
        }
    }
}