{
    "overall_punctuality": 2388,
    "overall_num": 53,
    "overall_avg": 46,
    "daily_punctuality": {
        "Sunday": {
            "num_results": 6,
            "total": 54,
            "avg:": 0,
            "avg": 9
        },
        "Monday": {
            "num_results": 6,
            "total": 42,
            "avg:": 0,
            "avg": 7
        },
        "Tuesday": {
            "num_results": 8,
            "total": 182,
            "avg:": 0,
            "avg": 23
        },
        "Wednesday": {
            "num_results": 7,
            "total": 468,
            "avg:": 0,
            "avg": 67
        },
        "Thursday": {
            "num_results": 6,
            "total": 425,
            "avg:": 0,
            "avg": 71
        },
        "Friday": {
            "num_results": 4,
            "total": 318,
            "avg:": 0,
            "avg": 80
        },
        "Saturday": {
            "num_results": 16,
            "total": 899,
            "avg:": 0,
            "avg": 57
        }
    }
}