{
    "overall_punctuality": 2467,
    "overall_num": 54,
    "overall_avg": 46,
    "daily_punctuality": {
        "Sunday": {
            "num_results": 6,
            "total": 167,
            "avg:": 0,
            "avg": 28
        },
        "Monday": {
            "num_results": 6,
            "total": -74,
            "avg:": 0,
            "avg": -12
        },
        "Tuesday": {
            "num_results": 8,
            "total": 117,
            "avg:": 0,
            "avg": 15
        },
        "Wednesday": {
            "num_results": 8,
            "total": 431,
            "avg:": 0,
            "avg": 54
        },
        "Thursday": {
            "num_results": 6,
            "total": 454,
            "avg:": 0,
            "avg": 76
        },
        "Friday": {
            "num_results": 4,
            "total": 299,
            "avg:": 0,
            "avg": 75
        },
        "Saturday": {
            "num_results": 16,
            "total": 1073,
            "avg:": 0,
            "avg": 68
        }
    }
}