{
    "overall_punctuality": 312,
    "overall_num": 50,
    "overall_avg": 7,
    "daily_punctuality": {
        "Sunday": {
            "num_results": 6,
            "total": -70,
            "avg:": 0,
            "avg": -11
        },
        "Monday": {
            "num_results": 6,
            "total": 44,
            "avg:": 0,
            "avg": 8
        },
        "Tuesday": {
            "num_results": 8,
            "total": -207,
            "avg:": 0,
            "avg": -25
        },
        "Wednesday": {
            "num_results": 8,
            "total": -18,
            "avg:": 0,
            "avg": -2
        },
        "Thursday": {
            "num_results": 6,
            "total": 298,
            "avg:": 0,
            "avg": 50
        },
        "Friday": {
            "num_results": 4,
            "total": 251,
            "avg:": 0,
            "avg": 63
        },
        "Saturday": {
            "num_results": 12,
            "total": 14,
            "avg:": 0,
            "avg": 2
        }
    }
}