{
    "overall_punctuality": 236,
    "overall_num": 50,
    "overall_avg": 5,
    "daily_punctuality": {
        "Sunday": {
            "num_results": 6,
            "total": -39,
            "avg:": 0,
            "avg": -6
        },
        "Monday": {
            "num_results": 6,
            "total": -28,
            "avg:": 0,
            "avg": -4
        },
        "Tuesday": {
            "num_results": 8,
            "total": -175,
            "avg:": 0,
            "avg": -21
        },
        "Wednesday": {
            "num_results": 8,
            "total": -28,
            "avg:": 0,
            "avg": -3
        },
        "Thursday": {
            "num_results": 6,
            "total": 198,
            "avg:": 0,
            "avg": 33
        },
        "Friday": {
            "num_results": 4,
            "total": 104,
            "avg:": 0,
            "avg": 26
        },
        "Saturday": {
            "num_results": 12,
            "total": 204,
            "avg:": 0,
            "avg": 17
        }
    }
}