{
    "overall_punctuality": 1518,
    "overall_num": 173,
    "overall_avg": 9,
    "daily_punctuality": {
        "Sunday": {
            "num_results": 22,
            "total": 162,
            "avg:": 0,
            "avg": 8
        },
        "Monday": {
            "num_results": 20,
            "total": -671,
            "avg:": 0,
            "avg": -33
        },
        "Tuesday": {
            "num_results": 28,
            "total": 279,
            "avg:": 0,
            "avg": 10
        },
        "Wednesday": {
            "num_results": 30,
            "total": 861,
            "avg:": 0,
            "avg": 29
        },
        "Thursday": {
            "num_results": 19,
            "total": 303,
            "avg:": 0,
            "avg": 16
        },
        "Friday": {
            "num_results": 17,
            "total": 466,
            "avg:": 0,
            "avg": 28
        },
        "Saturday": {
            "num_results": 37,
            "total": 118,
            "avg:": 0,
            "avg": 4
        }
    }
}