{
    "overall_punctuality": 3106,
    "overall_num": 22,
    "overall_avg": 142,
    "daily_punctuality": {
        "Sunday": {
            "num_results": 3,
            "total": 465,
            "avg:": 0,
            "avg": 155
        },
        "Monday": {
            "num_results": 4,
            "total": 2315,
            "avg:": 0,
            "avg": 579
        },
        "Tuesday": {
            "num_results": 4,
            "total": -14,
            "avg:": 0,
            "avg": -3
        },
        "Wednesday": {
            "num_results": 5,
            "total": 269,
            "avg:": 0,
            "avg": 54
        },
        "Thursday": {
            "num_results": 2,
            "total": 14,
            "avg:": 0,
            "avg": 7
        },
        "Friday": {
            "num_results": 2,
            "total": 53,
            "avg:": 0,
            "avg": 27
        },
        "Saturday": {
            "num_results": 2,
            "total": 4,
            "avg:": 0,
            "avg": 2
        }
    }
}