{
    "overall_punctuality": -3690,
    "overall_num": 173,
    "overall_avg": -21,
    "daily_punctuality": {
        "Sunday": {
            "num_results": 20,
            "total": -641,
            "avg:": 0,
            "avg": -32
        },
        "Monday": {
            "num_results": 21,
            "total": -1351,
            "avg:": 0,
            "avg": -64
        },
        "Tuesday": {
            "num_results": 27,
            "total": -2349,
            "avg:": 0,
            "avg": -87
        },
        "Wednesday": {
            "num_results": 29,
            "total": 1536,
            "avg:": 0,
            "avg": 53
        },
        "Thursday": {
            "num_results": 21,
            "total": 2542,
            "avg:": 0,
            "avg": 122
        },
        "Friday": {
            "num_results": 19,
            "total": 1929,
            "avg:": 0,
            "avg": 102
        },
        "Saturday": {
            "num_results": 36,
            "total": -5356,
            "avg:": 0,
            "avg": -148
        }
    }
}