{
    "overall_punctuality": -7018,
    "overall_num": 91,
    "overall_avg": -77,
    "daily_punctuality": {
        "Sunday": {
            "num_results": 9,
            "total": -681,
            "avg:": 0,
            "avg": -75
        },
        "Monday": {
            "num_results": 12,
            "total": -3021,
            "avg:": 0,
            "avg": -251
        },
        "Tuesday": {
            "num_results": 14,
            "total": -2545,
            "avg:": 0,
            "avg": -181
        },
        "Wednesday": {
            "num_results": 16,
            "total": 1617,
            "avg:": 0,
            "avg": 102
        },
        "Thursday": {
            "num_results": 12,
            "total": 1768,
            "avg:": 0,
            "avg": 148
        },
        "Friday": {
            "num_results": 10,
            "total": 1199,
            "avg:": 0,
            "avg": 120
        },
        "Saturday": {
            "num_results": 18,
            "total": -5355,
            "avg:": 0,
            "avg": -297
        }
    }
}