{
    "overall_punctuality": -6034,
    "overall_num": 50,
    "overall_avg": -120,
    "daily_punctuality": {
        "Sunday": {
            "num_results": 6,
            "total": -692,
            "avg:": 0,
            "avg": -115
        },
        "Monday": {
            "num_results": 6,
            "total": -2642,
            "avg:": 0,
            "avg": -440
        },
        "Tuesday": {
            "num_results": 8,
            "total": -1270,
            "avg:": 0,
            "avg": -158
        },
        "Wednesday": {
            "num_results": 8,
            "total": 1417,
            "avg:": 0,
            "avg": 178
        },
        "Thursday": {
            "num_results": 6,
            "total": 1356,
            "avg:": 0,
            "avg": 226
        },
        "Friday": {
            "num_results": 6,
            "total": 900,
            "avg:": 0,
            "avg": 150
        },
        "Saturday": {
            "num_results": 10,
            "total": -5103,
            "avg:": 0,
            "avg": -510
        }
    }
}