{
    "overall_punctuality": -6759,
    "overall_num": 50,
    "overall_avg": -135,
    "daily_punctuality": {
        "Sunday": {
            "num_results": 6,
            "total": -158,
            "avg:": 0,
            "avg": -26
        },
        "Monday": {
            "num_results": 6,
            "total": -1902,
            "avg:": 0,
            "avg": -317
        },
        "Tuesday": {
            "num_results": 8,
            "total": -2832,
            "avg:": 0,
            "avg": -354
        },
        "Wednesday": {
            "num_results": 8,
            "total": 1085,
            "avg:": 0,
            "avg": 136
        },
        "Thursday": {
            "num_results": 6,
            "total": 948,
            "avg:": 0,
            "avg": 158
        },
        "Friday": {
            "num_results": 6,
            "total": 1213,
            "avg:": 0,
            "avg": 203
        },
        "Saturday": {
            "num_results": 10,
            "total": -5113,
            "avg:": 0,
            "avg": -511
        }
    }
}