{
    "overall_punctuality": 339,
    "overall_num": 50,
    "overall_avg": 7,
    "daily_punctuality": {
        "Sunday": {
            "num_results": 6,
            "total": -14,
            "avg:": 0,
            "avg": -2
        },
        "Monday": {
            "num_results": 6,
            "total": -24,
            "avg:": 0,
            "avg": -4
        },
        "Tuesday": {
            "num_results": 8,
            "total": -40,
            "avg:": 0,
            "avg": -5
        },
        "Wednesday": {
            "num_results": 8,
            "total": 112,
            "avg:": 0,
            "avg": 14
        },
        "Thursday": {
            "num_results": 6,
            "total": 163,
            "avg:": 0,
            "avg": 28
        },
        "Friday": {
            "num_results": 6,
            "total": 122,
            "avg:": 0,
            "avg": 21
        },
        "Saturday": {
            "num_results": 10,
            "total": 20,
            "avg:": 0,
            "avg": 2
        }
    }
}