{
    "overall_punctuality": 3584,
    "overall_num": 72,
    "overall_avg": 50,
    "daily_punctuality": {
        "Sunday": {
            "num_results": 9,
            "total": 457,
            "avg:": 0,
            "avg": 51
        },
        "Monday": {
            "num_results": 10,
            "total": 2416,
            "avg:": 0,
            "avg": 242
        },
        "Tuesday": {
            "num_results": 12,
            "total": -30,
            "avg:": 0,
            "avg": -2
        },
        "Wednesday": {
            "num_results": 13,
            "total": 347,
            "avg:": 0,
            "avg": 27
        },
        "Thursday": {
            "num_results": 8,
            "total": 201,
            "avg:": 0,
            "avg": 26
        },
        "Friday": {
            "num_results": 8,
            "total": 371,
            "avg:": 0,
            "avg": 47
        },
        "Saturday": {
            "num_results": 12,
            "total": -178,
            "avg:": 0,
            "avg": -14
        }
    }
}