{
    "overall_punctuality": 3663,
    "overall_num": 72,
    "overall_avg": 51,
    "daily_punctuality": {
        "Sunday": {
            "num_results": 9,
            "total": 675,
            "avg:": 0,
            "avg": 75
        },
        "Monday": {
            "num_results": 10,
            "total": 2331,
            "avg:": 0,
            "avg": 234
        },
        "Tuesday": {
            "num_results": 12,
            "total": -97,
            "avg:": 0,
            "avg": -8
        },
        "Wednesday": {
            "num_results": 13,
            "total": 354,
            "avg:": 0,
            "avg": 28
        },
        "Thursday": {
            "num_results": 8,
            "total": 210,
            "avg:": 0,
            "avg": 27
        },
        "Friday": {
            "num_results": 8,
            "total": 125,
            "avg:": 0,
            "avg": 16
        },
        "Saturday": {
            "num_results": 12,
            "total": 65,
            "avg:": 0,
            "avg": 6
        }
    }
}