{
    "overall_punctuality": 1009,
    "overall_num": 90,
    "overall_avg": 12,
    "daily_punctuality": {
        "Sunday": {
            "num_results": 9,
            "total": -8,
            "avg:": 0,
            "avg": 0
        },
        "Monday": {
            "num_results": 11,
            "total": -232,
            "avg:": 0,
            "avg": -21
        },
        "Tuesday": {
            "num_results": 13,
            "total": 208,
            "avg:": 0,
            "avg": 16
        },
        "Wednesday": {
            "num_results": 15,
            "total": 133,
            "avg:": 0,
            "avg": 9
        },
        "Thursday": {
            "num_results": 12,
            "total": 784,
            "avg:": 0,
            "avg": 66
        },
        "Friday": {
            "num_results": 10,
            "total": 505,
            "avg:": 0,
            "avg": 51
        },
        "Saturday": {
            "num_results": 20,
            "total": -381,
            "avg:": 0,
            "avg": -19
        }
    }
}