{
    "overall_punctuality": 1137,
    "overall_num": 175,
    "overall_avg": 7,
    "daily_punctuality": {
        "Sunday": {
            "num_results": 21,
            "total": 315,
            "avg:": 0,
            "avg": 15
        },
        "Monday": {
            "num_results": 20,
            "total": -430,
            "avg:": 0,
            "avg": -21
        },
        "Tuesday": {
            "num_results": 28,
            "total": -64,
            "avg:": 0,
            "avg": -2
        },
        "Wednesday": {
            "num_results": 28,
            "total": 1258,
            "avg:": 0,
            "avg": 45
        },
        "Thursday": {
            "num_results": 20,
            "total": 577,
            "avg:": 0,
            "avg": 29
        },
        "Friday": {
            "num_results": 18,
            "total": 548,
            "avg:": 0,
            "avg": 31
        },
        "Saturday": {
            "num_results": 40,
            "total": -1067,
            "avg:": 0,
            "avg": -26
        }
    }
}