{
    "overall_punctuality": 2041,
    "overall_num": 284,
    "overall_avg": 8,
    "daily_punctuality": {
        "Sunday": {
            "num_results": 34,
            "total": 968,
            "avg:": 0,
            "avg": 29
        },
        "Monday": {
            "num_results": 35,
            "total": -771,
            "avg:": 0,
            "avg": -22
        },
        "Tuesday": {
            "num_results": 43,
            "total": -297,
            "avg:": 0,
            "avg": -6
        },
        "Wednesday": {
            "num_results": 48,
            "total": 2372,
            "avg:": 0,
            "avg": 50
        },
        "Thursday": {
            "num_results": 34,
            "total": 1344,
            "avg:": 0,
            "avg": 40
        },
        "Friday": {
            "num_results": 27,
            "total": 1170,
            "avg:": 0,
            "avg": 44
        },
        "Saturday": {
            "num_results": 63,
            "total": -2745,
            "avg:": 0,
            "avg": -43
        }
    }
}