{
    "overall_punctuality": -486,
    "overall_num": 22,
    "overall_avg": -22,
    "daily_punctuality": {
        "Sunday": {
            "num_results": 2,
            "total": -210,
            "avg:": 0,
            "avg": -105
        },
        "Monday": {
            "num_results": 3,
            "total": -9,
            "avg:": 0,
            "avg": -3
        },
        "Tuesday": {
            "num_results": 4,
            "total": -342,
            "avg:": 0,
            "avg": -85
        },
        "Wednesday": {
            "num_results": 4,
            "total": 397,
            "avg:": 0,
            "avg": 100
        },
        "Thursday": {
            "num_results": 1,
            "total": 16,
            "avg:": 0,
            "avg": 16
        },
        "Friday": {
            "num_results": 2,
            "total": 34,
            "avg:": 0,
            "avg": 17
        },
        "Saturday": {
            "num_results": 6,
            "total": -372,
            "avg:": 0,
            "avg": -62
        }
    }
}