{
    "overall_punctuality": -336,
    "overall_num": 75,
    "overall_avg": -4,
    "daily_punctuality": {
        "Sunday": {
            "num_results": 9,
            "total": 8,
            "avg:": 0,
            "avg": 1
        },
        "Monday": {
            "num_results": 8,
            "total": -165,
            "avg:": 0,
            "avg": -20
        },
        "Tuesday": {
            "num_results": 12,
            "total": -368,
            "avg:": 0,
            "avg": -30
        },
        "Wednesday": {
            "num_results": 12,
            "total": 719,
            "avg:": 0,
            "avg": 60
        },
        "Thursday": {
            "num_results": 8,
            "total": -29,
            "avg:": 0,
            "avg": -3
        },
        "Friday": {
            "num_results": 8,
            "total": 139,
            "avg:": 0,
            "avg": 18
        },
        "Saturday": {
            "num_results": 18,
            "total": -640,
            "avg:": 0,
            "avg": -35
        }
    }
}