{
    "overall_punctuality": -6505,
    "overall_num": 50,
    "overall_avg": -130,
    "daily_punctuality": {
        "Sunday": {
            "num_results": 6,
            "total": -260,
            "avg:": 0,
            "avg": -43
        },
        "Monday": {
            "num_results": 6,
            "total": -1727,
            "avg:": 0,
            "avg": -287
        },
        "Tuesday": {
            "num_results": 8,
            "total": -1716,
            "avg:": 0,
            "avg": -214
        },
        "Wednesday": {
            "num_results": 8,
            "total": 270,
            "avg:": 0,
            "avg": 34
        },
        "Thursday": {
            "num_results": 6,
            "total": 117,
            "avg:": 0,
            "avg": 20
        },
        "Friday": {
            "num_results": 6,
            "total": 76,
            "avg:": 0,
            "avg": 13
        },
        "Saturday": {
            "num_results": 10,
            "total": -3265,
            "avg:": 0,
            "avg": -326
        }
    }
}