{
    "overall_punctuality": -6727,
    "overall_num": 50,
    "overall_avg": -134,
    "daily_punctuality": {
        "Sunday": {
            "num_results": 6,
            "total": -354,
            "avg:": 0,
            "avg": -59
        },
        "Monday": {
            "num_results": 6,
            "total": -1655,
            "avg:": 0,
            "avg": -275
        },
        "Tuesday": {
            "num_results": 8,
            "total": -1797,
            "avg:": 0,
            "avg": -224
        },
        "Wednesday": {
            "num_results": 8,
            "total": 65,
            "avg:": 0,
            "avg": 9
        },
        "Thursday": {
            "num_results": 6,
            "total": 120,
            "avg:": 0,
            "avg": 20
        },
        "Friday": {
            "num_results": 6,
            "total": 129,
            "avg:": 0,
            "avg": 22
        },
        "Saturday": {
            "num_results": 10,
            "total": -3235,
            "avg:": 0,
            "avg": -323
        }
    }
}