{
    "overall_punctuality": -6777,
    "overall_num": 50,
    "overall_avg": -135,
    "daily_punctuality": {
        "Sunday": {
            "num_results": 6,
            "total": -310,
            "avg:": 0,
            "avg": -51
        },
        "Monday": {
            "num_results": 6,
            "total": -1984,
            "avg:": 0,
            "avg": -330
        },
        "Tuesday": {
            "num_results": 8,
            "total": -2161,
            "avg:": 0,
            "avg": -270
        },
        "Wednesday": {
            "num_results": 8,
            "total": 479,
            "avg:": 0,
            "avg": 60
        },
        "Thursday": {
            "num_results": 6,
            "total": 418,
            "avg:": 0,
            "avg": 70
        },
        "Friday": {
            "num_results": 6,
            "total": 112,
            "avg:": 0,
            "avg": 19
        },
        "Saturday": {
            "num_results": 10,
            "total": -3331,
            "avg:": 0,
            "avg": -333
        }
    }
}