{
    "overall_punctuality": -14198,
    "overall_num": 100,
    "overall_avg": -141,
    "daily_punctuality": {
        "Sunday": {
            "num_results": 12,
            "total": -726,
            "avg:": 0,
            "avg": -60
        },
        "Monday": {
            "num_results": 12,
            "total": -6503,
            "avg:": 0,
            "avg": -541
        },
        "Tuesday": {
            "num_results": 16,
            "total": -5081,
            "avg:": 0,
            "avg": -317
        },
        "Wednesday": {
            "num_results": 16,
            "total": 1247,
            "avg:": 0,
            "avg": 78
        },
        "Thursday": {
            "num_results": 12,
            "total": 1770,
            "avg:": 0,
            "avg": 148
        },
        "Friday": {
            "num_results": 12,
            "total": 1063,
            "avg:": 0,
            "avg": 89
        },
        "Saturday": {
            "num_results": 20,
            "total": -5968,
            "avg:": 0,
            "avg": -298
        }
    }
}