{
    "overall_punctuality": 891,
    "overall_num": 49,
    "overall_avg": 19,
    "daily_punctuality": {
        "Sunday": {
            "num_results": 6,
            "total": 78,
            "avg:": 0,
            "avg": 13
        },
        "Monday": {
            "num_results": 6,
            "total": 41,
            "avg:": 0,
            "avg": 7
        },
        "Tuesday": {
            "num_results": 7,
            "total": 116,
            "avg:": 0,
            "avg": 17
        },
        "Wednesday": {
            "num_results": 8,
            "total": 326,
            "avg:": 0,
            "avg": 41
        },
        "Thursday": {
            "num_results": 6,
            "total": 82,
            "avg:": 0,
            "avg": 14
        },
        "Friday": {
            "num_results": 4,
            "total": 229,
            "avg:": 0,
            "avg": 58
        },
        "Saturday": {
            "num_results": 12,
            "total": 19,
            "avg:": 0,
            "avg": 2
        }
    }
}