{
    "overall_punctuality": 292,
    "overall_num": 52,
    "overall_avg": 6,
    "daily_punctuality": {
        "Sunday": {
            "num_results": 6,
            "total": -20,
            "avg:": 0,
            "avg": -3
        },
        "Monday": {
            "num_results": 6,
            "total": 12,
            "avg:": 0,
            "avg": 2
        },
        "Tuesday": {
            "num_results": 8,
            "total": 26,
            "avg:": 0,
            "avg": 4
        },
        "Wednesday": {
            "num_results": 8,
            "total": 132,
            "avg:": 0,
            "avg": 17
        },
        "Thursday": {
            "num_results": 6,
            "total": 155,
            "avg:": 0,
            "avg": 26
        },
        "Friday": {
            "num_results": 6,
            "total": 66,
            "avg:": 0,
            "avg": 11
        },
        "Saturday": {
            "num_results": 12,
            "total": -79,
            "avg:": 0,
            "avg": -6
        }
    }
}