{
    "overall_punctuality": 2,
    "overall_num": 52,
    "overall_avg": 1,
    "daily_punctuality": {
        "Sunday": {
            "num_results": 6,
            "total": 26,
            "avg:": 0,
            "avg": 5
        },
        "Monday": {
            "num_results": 6,
            "total": -28,
            "avg:": 0,
            "avg": -4
        },
        "Tuesday": {
            "num_results": 8,
            "total": -48,
            "avg:": 0,
            "avg": -6
        },
        "Wednesday": {
            "num_results": 8,
            "total": 77,
            "avg:": 0,
            "avg": 10
        },
        "Thursday": {
            "num_results": 6,
            "total": 46,
            "avg:": 0,
            "avg": 8
        },
        "Friday": {
            "num_results": 6,
            "total": -42,
            "avg:": 0,
            "avg": -7
        },
        "Saturday": {
            "num_results": 12,
            "total": -29,
            "avg:": 0,
            "avg": -2
        }
    }
}