{
    "overall_punctuality": -316,
    "overall_num": 48,
    "overall_avg": -6,
    "daily_punctuality": {
        "Sunday": {
            "num_results": 6,
            "total": -67,
            "avg:": 0,
            "avg": -11
        },
        "Monday": {
            "num_results": 6,
            "total": -202,
            "avg:": 0,
            "avg": -33
        },
        "Tuesday": {
            "num_results": 7,
            "total": -398,
            "avg:": 0,
            "avg": -56
        },
        "Wednesday": {
            "num_results": 8,
            "total": 20,
            "avg:": 0,
            "avg": 3
        },
        "Thursday": {
            "num_results": 6,
            "total": 211,
            "avg:": 0,
            "avg": 36
        },
        "Friday": {
            "num_results": 6,
            "total": 66,
            "avg:": 0,
            "avg": 11
        },
        "Saturday": {
            "num_results": 9,
            "total": 54,
            "avg:": 0,
            "avg": 6
        }
    }
}