{
    "overall_punctuality": -1050,
    "overall_num": 49,
    "overall_avg": -21,
    "daily_punctuality": {
        "Sunday": {
            "num_results": 6,
            "total": 78,
            "avg:": 0,
            "avg": 13
        },
        "Monday": {
            "num_results": 6,
            "total": -496,
            "avg:": 0,
            "avg": -82
        },
        "Tuesday": {
            "num_results": 8,
            "total": -545,
            "avg:": 0,
            "avg": -68
        },
        "Wednesday": {
            "num_results": 8,
            "total": -87,
            "avg:": 0,
            "avg": -10
        },
        "Thursday": {
            "num_results": 6,
            "total": 266,
            "avg:": 0,
            "avg": 45
        },
        "Friday": {
            "num_results": 6,
            "total": -126,
            "avg:": 0,
            "avg": -21
        },
        "Saturday": {
            "num_results": 9,
            "total": -140,
            "avg:": 0,
            "avg": -15
        }
    }
}