{
    "overall_punctuality": -187,
    "overall_num": 52,
    "overall_avg": -3,
    "daily_punctuality": {
        "Sunday": {
            "num_results": 6,
            "total": -109,
            "avg:": 0,
            "avg": -18
        },
        "Monday": {
            "num_results": 6,
            "total": -231,
            "avg:": 0,
            "avg": -38
        },
        "Tuesday": {
            "num_results": 8,
            "total": 51,
            "avg:": 0,
            "avg": 7
        },
        "Wednesday": {
            "num_results": 8,
            "total": 156,
            "avg:": 0,
            "avg": 20
        },
        "Thursday": {
            "num_results": 6,
            "total": 143,
            "avg:": 0,
            "avg": 24
        },
        "Friday": {
            "num_results": 6,
            "total": 210,
            "avg:": 0,
            "avg": 35
        },
        "Saturday": {
            "num_results": 12,
            "total": -407,
            "avg:": 0,
            "avg": -33
        }
    }
}