{
    "overall_punctuality": -342,
    "overall_num": 52,
    "overall_avg": -6,
    "daily_punctuality": {
        "Sunday": {
            "num_results": 6,
            "total": -71,
            "avg:": 0,
            "avg": -11
        },
        "Monday": {
            "num_results": 6,
            "total": -186,
            "avg:": 0,
            "avg": -31
        },
        "Tuesday": {
            "num_results": 8,
            "total": 159,
            "avg:": 0,
            "avg": 20
        },
        "Wednesday": {
            "num_results": 8,
            "total": 140,
            "avg:": 0,
            "avg": 18
        },
        "Thursday": {
            "num_results": 6,
            "total": 107,
            "avg:": 0,
            "avg": 18
        },
        "Friday": {
            "num_results": 6,
            "total": 116,
            "avg:": 0,
            "avg": 20
        },
        "Saturday": {
            "num_results": 12,
            "total": -607,
            "avg:": 0,
            "avg": -50
        }
    }
}