{
    "overall_punctuality": -328,
    "overall_num": 52,
    "overall_avg": -6,
    "daily_punctuality": {
        "Sunday": {
            "num_results": 6,
            "total": -89,
            "avg:": 0,
            "avg": -14
        },
        "Monday": {
            "num_results": 6,
            "total": -197,
            "avg:": 0,
            "avg": -32
        },
        "Tuesday": {
            "num_results": 8,
            "total": 151,
            "avg:": 0,
            "avg": 19
        },
        "Wednesday": {
            "num_results": 8,
            "total": 86,
            "avg:": 0,
            "avg": 11
        },
        "Thursday": {
            "num_results": 6,
            "total": 74,
            "avg:": 0,
            "avg": 13
        },
        "Friday": {
            "num_results": 6,
            "total": 146,
            "avg:": 0,
            "avg": 25
        },
        "Saturday": {
            "num_results": 12,
            "total": -499,
            "avg:": 0,
            "avg": -41
        }
    }
}