{
    "overall_punctuality": 299,
    "overall_num": 52,
    "overall_avg": 6,
    "daily_punctuality": {
        "Sunday": {
            "num_results": 6,
            "total": -34,
            "avg:": 0,
            "avg": -5
        },
        "Monday": {
            "num_results": 6,
            "total": -76,
            "avg:": 0,
            "avg": -12
        },
        "Tuesday": {
            "num_results": 8,
            "total": 249,
            "avg:": 0,
            "avg": 32
        },
        "Wednesday": {
            "num_results": 8,
            "total": 236,
            "avg:": 0,
            "avg": 30
        },
        "Thursday": {
            "num_results": 6,
            "total": 29,
            "avg:": 0,
            "avg": 5
        },
        "Friday": {
            "num_results": 6,
            "total": 122,
            "avg:": 0,
            "avg": 21
        },
        "Saturday": {
            "num_results": 12,
            "total": -227,
            "avg:": 0,
            "avg": -18
        }
    }
}