{
    "overall_punctuality": 1800,
    "overall_num": 148,
    "overall_avg": 13,
    "daily_punctuality": {
        "Sunday": {
            "num_results": 18,
            "total": 304,
            "avg:": 0,
            "avg": 17
        },
        "Monday": {
            "num_results": 18,
            "total": -66,
            "avg:": 0,
            "avg": -3
        },
        "Tuesday": {
            "num_results": 23,
            "total": 646,
            "avg:": 0,
            "avg": 29
        },
        "Wednesday": {
            "num_results": 24,
            "total": 173,
            "avg:": 0,
            "avg": 8
        },
        "Thursday": {
            "num_results": 17,
            "total": 956,
            "avg:": 0,
            "avg": 57
        },
        "Friday": {
            "num_results": 14,
            "total": 434,
            "avg:": 0,
            "avg": 31
        },
        "Saturday": {
            "num_results": 34,
            "total": -647,
            "avg:": 0,
            "avg": -19
        }
    }
}