{
    "overall_punctuality": 2439,
    "overall_num": 148,
    "overall_avg": 17,
    "daily_punctuality": {
        "Sunday": {
            "num_results": 18,
            "total": 332,
            "avg:": 0,
            "avg": 19
        },
        "Monday": {
            "num_results": 18,
            "total": -58,
            "avg:": 0,
            "avg": -3
        },
        "Tuesday": {
            "num_results": 23,
            "total": 488,
            "avg:": 0,
            "avg": 22
        },
        "Wednesday": {
            "num_results": 24,
            "total": 258,
            "avg:": 0,
            "avg": 11
        },
        "Thursday": {
            "num_results": 17,
            "total": 1212,
            "avg:": 0,
            "avg": 72
        },
        "Friday": {
            "num_results": 14,
            "total": 510,
            "avg:": 0,
            "avg": 37
        },
        "Saturday": {
            "num_results": 34,
            "total": -303,
            "avg:": 0,
            "avg": -8
        }
    }
}