{
    "overall_punctuality": -8348,
    "overall_num": 150,
    "overall_avg": -55,
    "daily_punctuality": {
        "Sunday": {
            "num_results": 17,
            "total": -1251,
            "avg:": 0,
            "avg": -73
        },
        "Monday": {
            "num_results": 18,
            "total": -3425,
            "avg:": 0,
            "avg": -190
        },
        "Tuesday": {
            "num_results": 25,
            "total": -1100,
            "avg:": 0,
            "avg": -44
        },
        "Wednesday": {
            "num_results": 26,
            "total": 958,
            "avg:": 0,
            "avg": 37
        },
        "Thursday": {
            "num_results": 18,
            "total": -116,
            "avg:": 0,
            "avg": -6
        },
        "Friday": {
            "num_results": 15,
            "total": -319,
            "avg:": 0,
            "avg": -21
        },
        "Saturday": {
            "num_results": 31,
            "total": -3095,
            "avg:": 0,
            "avg": -99
        }
    }
}