{
    "overall_punctuality": -8432,
    "overall_num": 150,
    "overall_avg": -56,
    "daily_punctuality": {
        "Sunday": {
            "num_results": 17,
            "total": -1047,
            "avg:": 0,
            "avg": -61
        },
        "Monday": {
            "num_results": 18,
            "total": -3640,
            "avg:": 0,
            "avg": -202
        },
        "Tuesday": {
            "num_results": 25,
            "total": -1447,
            "avg:": 0,
            "avg": -57
        },
        "Wednesday": {
            "num_results": 27,
            "total": 853,
            "avg:": 0,
            "avg": 32
        },
        "Thursday": {
            "num_results": 18,
            "total": 258,
            "avg:": 0,
            "avg": 15
        },
        "Friday": {
            "num_results": 14,
            "total": -752,
            "avg:": 0,
            "avg": -53
        },
        "Saturday": {
            "num_results": 31,
            "total": -2657,
            "avg:": 0,
            "avg": -85
        }
    }
}