{
    "overall_punctuality": -6088,
    "overall_num": 100,
    "overall_avg": -60,
    "daily_punctuality": {
        "Sunday": {
            "num_results": 11,
            "total": -466,
            "avg:": 0,
            "avg": -42
        },
        "Monday": {
            "num_results": 12,
            "total": -1949,
            "avg:": 0,
            "avg": -162
        },
        "Tuesday": {
            "num_results": 17,
            "total": -856,
            "avg:": 0,
            "avg": -50
        },
        "Wednesday": {
            "num_results": 19,
            "total": 581,
            "avg:": 0,
            "avg": 31
        },
        "Thursday": {
            "num_results": 12,
            "total": -268,
            "avg:": 0,
            "avg": -22
        },
        "Friday": {
            "num_results": 10,
            "total": -627,
            "avg:": 0,
            "avg": -62
        },
        "Saturday": {
            "num_results": 19,
            "total": -2503,
            "avg:": 0,
            "avg": -131
        }
    }
}