{
    "overall_punctuality": -2763,
    "overall_num": 59,
    "overall_avg": -46,
    "daily_punctuality": {
        "Sunday": {
            "num_results": 8,
            "total": -737,
            "avg:": 0,
            "avg": -92
        },
        "Monday": {
            "num_results": 7,
            "total": -2724,
            "avg:": 0,
            "avg": -389
        },
        "Tuesday": {
            "num_results": 9,
            "total": -1370,
            "avg:": 0,
            "avg": -152
        },
        "Wednesday": {
            "num_results": 10,
            "total": 1394,
            "avg:": 0,
            "avg": 140
        },
        "Thursday": {
            "num_results": 7,
            "total": 936,
            "avg:": 0,
            "avg": 134
        },
        "Friday": {
            "num_results": 5,
            "total": -289,
            "avg:": 0,
            "avg": -57
        },
        "Saturday": {
            "num_results": 13,
            "total": 27,
            "avg:": 0,
            "avg": 3
        }
    }
}