{
    "overall_punctuality": -7803,
    "overall_num": 67,
    "overall_avg": -116,
    "daily_punctuality": {
        "Sunday": {
            "num_results": 2,
            "total": 27,
            "avg:": 0,
            "avg": 14
        },
        "Monday": {
            "num_results": 7,
            "total": -1364,
            "avg:": 0,
            "avg": -194
        },
        "Tuesday": {
            "num_results": 11,
            "total": -2248,
            "avg:": 0,
            "avg": -204
        },
        "Wednesday": {
            "num_results": 13,
            "total": 895,
            "avg:": 0,
            "avg": 69
        },
        "Thursday": {
            "num_results": 10,
            "total": 1843,
            "avg:": 0,
            "avg": 185
        },
        "Friday": {
            "num_results": 7,
            "total": 406,
            "avg:": 0,
            "avg": 58
        },
        "Saturday": {
            "num_results": 17,
            "total": -7362,
            "avg:": 0,
            "avg": -433
        }
    }
}