{
    "overall_punctuality": -10740,
    "overall_num": 71,
    "overall_avg": -151,
    "daily_punctuality": {
        "Sunday": {
            "num_results": 2,
            "total": 7,
            "avg:": 0,
            "avg": 4
        },
        "Monday": {
            "num_results": 9,
            "total": -2957,
            "avg:": 0,
            "avg": -328
        },
        "Tuesday": {
            "num_results": 12,
            "total": -2550,
            "avg:": 0,
            "avg": -212
        },
        "Wednesday": {
            "num_results": 13,
            "total": 909,
            "avg:": 0,
            "avg": 70
        },
        "Thursday": {
            "num_results": 11,
            "total": 1430,
            "avg:": 0,
            "avg": 130
        },
        "Friday": {
            "num_results": 7,
            "total": 383,
            "avg:": 0,
            "avg": 55
        },
        "Saturday": {
            "num_results": 17,
            "total": -7962,
            "avg:": 0,
            "avg": -468
        }
    }
}