{
    "overall_punctuality": 1070,
    "overall_num": 75,
    "overall_avg": 15,
    "daily_punctuality": {
        "Sunday": {
            "num_results": 7,
            "total": -2,
            "avg:": 0,
            "avg": 0
        },
        "Monday": {
            "num_results": 8,
            "total": 275,
            "avg:": 0,
            "avg": 35
        },
        "Tuesday": {
            "num_results": 10,
            "total": 170,
            "avg:": 0,
            "avg": 17
        },
        "Wednesday": {
            "num_results": 12,
            "total": -39,
            "avg:": 0,
            "avg": -3
        },
        "Thursday": {
            "num_results": 8,
            "total": 685,
            "avg:": 0,
            "avg": 86
        },
        "Friday": {
            "num_results": 6,
            "total": 112,
            "avg:": 0,
            "avg": 19
        },
        "Saturday": {
            "num_results": 24,
            "total": -131,
            "avg:": 0,
            "avg": -5
        }
    }
}