{
    "overall_punctuality": -5190,
    "overall_num": 25,
    "overall_avg": -207,
    "daily_punctuality": {
        "Sunday": {
            "num_results": 3,
            "total": -206,
            "avg:": 0,
            "avg": -68
        },
        "Monday": {
            "num_results": 2,
            "total": -825,
            "avg:": 0,
            "avg": -412
        },
        "Tuesday": {
            "num_results": 3,
            "total": -326,
            "avg:": 0,
            "avg": -108
        },
        "Wednesday": {
            "num_results": 4,
            "total": -207,
            "avg:": 0,
            "avg": -51
        },
        "Thursday": {
            "num_results": 3,
            "total": -305,
            "avg:": 0,
            "avg": -101
        },
        "Friday": {
            "num_results": 2,
            "total": 350,
            "avg:": 0,
            "avg": 175
        },
        "Saturday": {
            "num_results": 8,
            "total": -3671,
            "avg:": 0,
            "avg": -458
        }
    }
}