{
    "overall_punctuality": 425,
    "overall_num": 33,
    "overall_avg": 13,
    "daily_punctuality": {
        "Sunday": {
            "num_results": 4,
            "total": 119,
            "avg:": 0,
            "avg": 30
        },
        "Monday": {
            "num_results": 5,
            "total": 129,
            "avg:": 0,
            "avg": 26
        },
        "Tuesday": {
            "num_results": 6,
            "total": 5,
            "avg:": 0,
            "avg": 1
        },
        "Wednesday": {
            "num_results": 5,
            "total": 180,
            "avg:": 0,
            "avg": 36
        },
        "Thursday": {
            "num_results": 5,
            "total": -7,
            "avg:": 0,
            "avg": -1
        },
        "Friday": {
            "num_results": 4,
            "total": -25,
            "avg:": 0,
            "avg": -6
        },
        "Saturday": {
            "num_results": 4,
            "total": 24,
            "avg:": 0,
            "avg": 6
        }
    }
}