{
    "overall_punctuality": 2133,
    "overall_num": 49,
    "overall_avg": 44,
    "daily_punctuality": {
        "Sunday": {
            "num_results": 6,
            "total": 133,
            "avg:": 0,
            "avg": 23
        },
        "Monday": {
            "num_results": 6,
            "total": 1499,
            "avg:": 0,
            "avg": 250
        },
        "Tuesday": {
            "num_results": 8,
            "total": -216,
            "avg:": 0,
            "avg": -27
        },
        "Wednesday": {
            "num_results": 8,
            "total": 686,
            "avg:": 0,
            "avg": 86
        },
        "Thursday": {
            "num_results": 6,
            "total": 205,
            "avg:": 0,
            "avg": 35
        },
        "Friday": {
            "num_results": 4,
            "total": -14,
            "avg:": 0,
            "avg": -3
        },
        "Saturday": {
            "num_results": 11,
            "total": -160,
            "avg:": 0,
            "avg": -14
        }
    }
}