{
    "overall_punctuality": -4525,
    "overall_num": 70,
    "overall_avg": -64,
    "daily_punctuality": {
        "Sunday": {
            "num_results": 9,
            "total": -346,
            "avg:": 0,
            "avg": -38
        },
        "Monday": {
            "num_results": 6,
            "total": -429,
            "avg:": 0,
            "avg": -71
        },
        "Tuesday": {
            "num_results": 10,
            "total": -275,
            "avg:": 0,
            "avg": -27
        },
        "Wednesday": {
            "num_results": 12,
            "total": 207,
            "avg:": 0,
            "avg": 18
        },
        "Thursday": {
            "num_results": 7,
            "total": 37,
            "avg:": 0,
            "avg": 6
        },
        "Friday": {
            "num_results": 6,
            "total": 540,
            "avg:": 0,
            "avg": 90
        },
        "Saturday": {
            "num_results": 20,
            "total": -4259,
            "avg:": 0,
            "avg": -212
        }
    }
}