{
    "overall_punctuality": 573,
    "overall_num": 213,
    "overall_avg": 3,
    "daily_punctuality": {
        "Sunday": {
            "num_results": 25,
            "total": 92,
            "avg:": 0,
            "avg": 4
        },
        "Monday": {
            "num_results": 24,
            "total": -249,
            "avg:": 0,
            "avg": -10
        },
        "Tuesday": {
            "num_results": 39,
            "total": -912,
            "avg:": 0,
            "avg": -23
        },
        "Wednesday": {
            "num_results": 36,
            "total": 1212,
            "avg:": 0,
            "avg": 34
        },
        "Thursday": {
            "num_results": 27,
            "total": 874,
            "avg:": 0,
            "avg": 33
        },
        "Friday": {
            "num_results": 20,
            "total": 224,
            "avg:": 0,
            "avg": 12
        },
        "Saturday": {
            "num_results": 42,
            "total": -668,
            "avg:": 0,
            "avg": -15
        }
    }
}