{
    "overall_punctuality": 1095,
    "overall_num": 233,
    "overall_avg": 5,
    "daily_punctuality": {
        "Sunday": {
            "num_results": 34,
            "total": -1146,
            "avg:": 0,
            "avg": -33
        },
        "Monday": {
            "num_results": 26,
            "total": 270,
            "avg:": 0,
            "avg": 11
        },
        "Tuesday": {
            "num_results": 39,
            "total": -670,
            "avg:": 0,
            "avg": -17
        },
        "Wednesday": {
            "num_results": 38,
            "total": 1379,
            "avg:": 0,
            "avg": 37
        },
        "Thursday": {
            "num_results": 27,
            "total": 331,
            "avg:": 0,
            "avg": 13
        },
        "Friday": {
            "num_results": 23,
            "total": 1259,
            "avg:": 0,
            "avg": 55
        },
        "Saturday": {
            "num_results": 46,
            "total": -328,
            "avg:": 0,
            "avg": -7
        }
    }
}