{
    "overall_punctuality": -17638,
    "overall_num": 257,
    "overall_avg": -68,
    "daily_punctuality": {
        "Sunday": {
            "num_results": 30,
            "total": -1021,
            "avg:": 0,
            "avg": -34
        },
        "Monday": {
            "num_results": 30,
            "total": -1267,
            "avg:": 0,
            "avg": -42
        },
        "Tuesday": {
            "num_results": 44,
            "total": -8635,
            "avg:": 0,
            "avg": -196
        },
        "Wednesday": {
            "num_results": 41,
            "total": 43,
            "avg:": 0,
            "avg": 2
        },
        "Thursday": {
            "num_results": 36,
            "total": 2095,
            "avg:": 0,
            "avg": 59
        },
        "Friday": {
            "num_results": 22,
            "total": -340,
            "avg:": 0,
            "avg": -15
        },
        "Saturday": {
            "num_results": 54,
            "total": -8513,
            "avg:": 0,
            "avg": -157
        }
    }
}