{
    "overall_punctuality": -6871,
    "overall_num": 49,
    "overall_avg": -140,
    "daily_punctuality": {
        "Sunday": {
            "num_results": 6,
            "total": -865,
            "avg:": 0,
            "avg": -144
        },
        "Monday": {
            "num_results": 6,
            "total": -1336,
            "avg:": 0,
            "avg": -222
        },
        "Tuesday": {
            "num_results": 8,
            "total": -2169,
            "avg:": 0,
            "avg": -271
        },
        "Wednesday": {
            "num_results": 8,
            "total": -401,
            "avg:": 0,
            "avg": -50
        },
        "Thursday": {
            "num_results": 7,
            "total": 77,
            "avg:": 0,
            "avg": 11
        },
        "Friday": {
            "num_results": 4,
            "total": -79,
            "avg:": 0,
            "avg": -19
        },
        "Saturday": {
            "num_results": 10,
            "total": -2098,
            "avg:": 0,
            "avg": -209
        }
    }
}