{
    "overall_punctuality": 269,
    "overall_num": 43,
    "overall_avg": 7,
    "daily_punctuality": {
        "Sunday": {
            "num_results": 6,
            "total": 64,
            "avg:": 0,
            "avg": 11
        },
        "Monday": {
            "num_results": 5,
            "total": 35,
            "avg:": 0,
            "avg": 7
        },
        "Tuesday": {
            "num_results": 7,
            "total": 46,
            "avg:": 0,
            "avg": 7
        },
        "Wednesday": {
            "num_results": 5,
            "total": 19,
            "avg:": 0,
            "avg": 4
        },
        "Thursday": {
            "num_results": 5,
            "total": 121,
            "avg:": 0,
            "avg": 25
        },
        "Friday": {
            "num_results": 4,
            "total": 42,
            "avg:": 0,
            "avg": 11
        },
        "Saturday": {
            "num_results": 11,
            "total": -58,
            "avg:": 0,
            "avg": -5
        }
    }
}