{
    "overall_punctuality": -651,
    "overall_num": 50,
    "overall_avg": -13,
    "daily_punctuality": {
        "Sunday": {
            "num_results": 6,
            "total": -154,
            "avg:": 0,
            "avg": -25
        },
        "Monday": {
            "num_results": 6,
            "total": -214,
            "avg:": 0,
            "avg": -35
        },
        "Tuesday": {
            "num_results": 7,
            "total": -141,
            "avg:": 0,
            "avg": -20
        },
        "Wednesday": {
            "num_results": 8,
            "total": 482,
            "avg:": 0,
            "avg": 61
        },
        "Thursday": {
            "num_results": 5,
            "total": -68,
            "avg:": 0,
            "avg": -13
        },
        "Friday": {
            "num_results": 4,
            "total": 40,
            "avg:": 0,
            "avg": 10
        },
        "Saturday": {
            "num_results": 14,
            "total": -596,
            "avg:": 0,
            "avg": -42
        }
    }
}