{
    "overall_punctuality": -719,
    "overall_num": 49,
    "overall_avg": -14,
    "daily_punctuality": {
        "Sunday": {
            "num_results": 6,
            "total": 463,
            "avg:": 0,
            "avg": 78
        },
        "Monday": {
            "num_results": 5,
            "total": -510,
            "avg:": 0,
            "avg": -102
        },
        "Tuesday": {
            "num_results": 7,
            "total": 9,
            "avg:": 0,
            "avg": 2
        },
        "Wednesday": {
            "num_results": 8,
            "total": 447,
            "avg:": 0,
            "avg": 56
        },
        "Thursday": {
            "num_results": 5,
            "total": -57,
            "avg:": 0,
            "avg": -11
        },
        "Friday": {
            "num_results": 4,
            "total": 80,
            "avg:": 0,
            "avg": 20
        },
        "Saturday": {
            "num_results": 14,
            "total": -1151,
            "avg:": 0,
            "avg": -82
        }
    }
}