{
    "overall_punctuality": 118,
    "overall_num": 50,
    "overall_avg": 3,
    "daily_punctuality": {
        "Sunday": {
            "num_results": 6,
            "total": -85,
            "avg:": 0,
            "avg": -14
        },
        "Monday": {
            "num_results": 6,
            "total": -33,
            "avg:": 0,
            "avg": -5
        },
        "Tuesday": {
            "num_results": 8,
            "total": 62,
            "avg:": 0,
            "avg": 8
        },
        "Wednesday": {
            "num_results": 8,
            "total": 58,
            "avg:": 0,
            "avg": 8
        },
        "Thursday": {
            "num_results": 6,
            "total": 103,
            "avg:": 0,
            "avg": 18
        },
        "Friday": {
            "num_results": 6,
            "total": -54,
            "avg:": 0,
            "avg": -9
        },
        "Saturday": {
            "num_results": 10,
            "total": 67,
            "avg:": 0,
            "avg": 7
        }
    }
}