{
    "overall_punctuality": 840,
    "overall_num": 50,
    "overall_avg": 17,
    "daily_punctuality": {
        "Sunday": {
            "num_results": 6,
            "total": -59,
            "avg:": 0,
            "avg": -9
        },
        "Monday": {
            "num_results": 6,
            "total": -30,
            "avg:": 0,
            "avg": -5
        },
        "Tuesday": {
            "num_results": 8,
            "total": 69,
            "avg:": 0,
            "avg": 9
        },
        "Wednesday": {
            "num_results": 8,
            "total": 104,
            "avg:": 0,
            "avg": 13
        },
        "Thursday": {
            "num_results": 6,
            "total": 263,
            "avg:": 0,
            "avg": 44
        },
        "Friday": {
            "num_results": 6,
            "total": 355,
            "avg:": 0,
            "avg": 60
        },
        "Saturday": {
            "num_results": 10,
            "total": 138,
            "avg:": 0,
            "avg": 14
        }
    }
}