{
    "overall_punctuality": 392,
    "overall_num": 22,
    "overall_avg": 18,
    "daily_punctuality": {
        "Sunday": {
            "num_results": 2,
            "total": -21,
            "avg:": 0,
            "avg": -10
        },
        "Monday": {
            "num_results": 3,
            "total": -11,
            "avg:": 0,
            "avg": -3
        },
        "Tuesday": {
            "num_results": 3,
            "total": 31,
            "avg:": 0,
            "avg": 11
        },
        "Wednesday": {
            "num_results": 3,
            "total": -21,
            "avg:": 0,
            "avg": -7
        },
        "Thursday": {
            "num_results": 2,
            "total": 317,
            "avg:": 0,
            "avg": 159
        },
        "Friday": {
            "num_results": 2,
            "total": 15,
            "avg:": 0,
            "avg": 8
        },
        "Saturday": {
            "num_results": 7,
            "total": 82,
            "avg:": 0,
            "avg": 12
        }
    }
}