{
    "overall_punctuality": 882,
    "overall_num": 53,
    "overall_avg": 17,
    "daily_punctuality": {
        "Sunday": {
            "num_results": 6,
            "total": 0,
            "avg:": 0,
            "avg": 0
        },
        "Monday": {
            "num_results": 6,
            "total": -120,
            "avg:": 0,
            "avg": -20
        },
        "Tuesday": {
            "num_results": 9,
            "total": -2,
            "avg:": 0,
            "avg": 0
        },
        "Wednesday": {
            "num_results": 9,
            "total": 468,
            "avg:": 0,
            "avg": 52
        },
        "Thursday": {
            "num_results": 6,
            "total": 255,
            "avg:": 0,
            "avg": 43
        },
        "Friday": {
            "num_results": 7,
            "total": 457,
            "avg:": 0,
            "avg": 66
        },
        "Saturday": {
            "num_results": 10,
            "total": -176,
            "avg:": 0,
            "avg": -17
        }
    }
}