{
    "overall_punctuality": 9,
    "overall_num": 50,
    "overall_avg": 1,
    "daily_punctuality": {
        "Sunday": {
            "num_results": 6,
            "total": 16,
            "avg:": 0,
            "avg": 3
        },
        "Monday": {
            "num_results": 6,
            "total": -168,
            "avg:": 0,
            "avg": -28
        },
        "Tuesday": {
            "num_results": 8,
            "total": -494,
            "avg:": 0,
            "avg": -61
        },
        "Wednesday": {
            "num_results": 8,
            "total": 286,
            "avg:": 0,
            "avg": 36
        },
        "Thursday": {
            "num_results": 6,
            "total": 262,
            "avg:": 0,
            "avg": 44
        },
        "Friday": {
            "num_results": 6,
            "total": 113,
            "avg:": 0,
            "avg": 19
        },
        "Saturday": {
            "num_results": 10,
            "total": -6,
            "avg:": 0,
            "avg": 0
        }
    }
}