{
    "overall_punctuality": -12,
    "overall_num": 50,
    "overall_avg": 0,
    "daily_punctuality": {
        "Sunday": {
            "num_results": 6,
            "total": 77,
            "avg:": 0,
            "avg": 13
        },
        "Monday": {
            "num_results": 6,
            "total": -448,
            "avg:": 0,
            "avg": -74
        },
        "Tuesday": {
            "num_results": 8,
            "total": -279,
            "avg:": 0,
            "avg": -34
        },
        "Wednesday": {
            "num_results": 8,
            "total": 354,
            "avg:": 0,
            "avg": 45
        },
        "Thursday": {
            "num_results": 6,
            "total": 396,
            "avg:": 0,
            "avg": 66
        },
        "Friday": {
            "num_results": 6,
            "total": 115,
            "avg:": 0,
            "avg": 20
        },
        "Saturday": {
            "num_results": 10,
            "total": -227,
            "avg:": 0,
            "avg": -22
        }
    }
}