{
    "overall_punctuality": -6072,
    "overall_num": 50,
    "overall_avg": -121,
    "daily_punctuality": {
        "Sunday": {
            "num_results": 6,
            "total": -253,
            "avg:": 0,
            "avg": -42
        },
        "Monday": {
            "num_results": 6,
            "total": -1397,
            "avg:": 0,
            "avg": -232
        },
        "Tuesday": {
            "num_results": 7,
            "total": -887,
            "avg:": 0,
            "avg": -126
        },
        "Wednesday": {
            "num_results": 8,
            "total": -58,
            "avg:": 0,
            "avg": -7
        },
        "Thursday": {
            "num_results": 6,
            "total": 965,
            "avg:": 0,
            "avg": 161
        },
        "Friday": {
            "num_results": 4,
            "total": -108,
            "avg:": 0,
            "avg": -27
        },
        "Saturday": {
            "num_results": 13,
            "total": -4334,
            "avg:": 0,
            "avg": -333
        }
    }
}