{
    "overall_punctuality": 0,
    "overall_num": 33,
    "overall_avg": 0,
    "daily_punctuality": {
        "Sunday": {
            "num_results": 3,
            "total": 0,
            "avg:": 0,
            "avg": 0
        },
        "Monday": {
            "num_results": 4,
            "total": 0,
            "avg:": 0,
            "avg": 0
        },
        "Tuesday": {
            "num_results": 5,
            "total": 0,
            "avg:": 0,
            "avg": 0
        },
        "Wednesday": {
            "num_results": 6,
            "total": 0,
            "avg:": 0,
            "avg": 0
        },
        "Thursday": {
            "num_results": 6,
            "total": 0,
            "avg:": 0,
            "avg": 0
        },
        "Friday": {
            "num_results": 3,
            "total": 0,
            "avg:": 0,
            "avg": 0
        },
        "Saturday": {
            "num_results": 6,
            "total": 0,
            "avg:": 0,
            "avg": 0
        }
    }
}