{
    "overall_punctuality": -7227,
    "overall_num": 86,
    "overall_avg": -84,
    "daily_punctuality": {
        "Sunday": {
            "num_results": 11,
            "total": 1190,
            "avg:": 0,
            "avg": 109
        },
        "Monday": {
            "num_results": 11,
            "total": -2490,
            "avg:": 0,
            "avg": -226
        },
        "Tuesday": {
            "num_results": 14,
            "total": -3892,
            "avg:": 0,
            "avg": -278
        },
        "Wednesday": {
            "num_results": 15,
            "total": 96,
            "avg:": 0,
            "avg": 7
        },
        "Thursday": {
            "num_results": 12,
            "total": 766,
            "avg:": 0,
            "avg": 64
        },
        "Friday": {
            "num_results": 8,
            "total": -1181,
            "avg:": 0,
            "avg": -147
        },
        "Saturday": {
            "num_results": 15,
            "total": -1716,
            "avg:": 0,
            "avg": -114
        }
    }
}