{
    "overall_punctuality": 1023,
    "overall_num": 95,
    "overall_avg": 11,
    "daily_punctuality": {
        "Sunday": {
            "num_results": 12,
            "total": 645,
            "avg:": 0,
            "avg": 54
        },
        "Monday": {
            "num_results": 11,
            "total": -93,
            "avg:": 0,
            "avg": -8
        },
        "Tuesday": {
            "num_results": 15,
            "total": 105,
            "avg:": 0,
            "avg": 7
        },
        "Wednesday": {
            "num_results": 14,
            "total": 118,
            "avg:": 0,
            "avg": 9
        },
        "Thursday": {
            "num_results": 11,
            "total": 383,
            "avg:": 0,
            "avg": 35
        },
        "Friday": {
            "num_results": 7,
            "total": 255,
            "avg:": 0,
            "avg": 37
        },
        "Saturday": {
            "num_results": 25,
            "total": -390,
            "avg:": 0,
            "avg": -15
        }
    }
}