{
    "overall_punctuality": -8489,
    "overall_num": 91,
    "overall_avg": -93,
    "daily_punctuality": {
        "Sunday": {
            "num_results": 11,
            "total": -1586,
            "avg:": 0,
            "avg": -144
        },
        "Monday": {
            "num_results": 10,
            "total": 912,
            "avg:": 0,
            "avg": 92
        },
        "Tuesday": {
            "num_results": 15,
            "total": -6042,
            "avg:": 0,
            "avg": -402
        },
        "Wednesday": {
            "num_results": 15,
            "total": 477,
            "avg:": 0,
            "avg": 32
        },
        "Thursday": {
            "num_results": 12,
            "total": 2090,
            "avg:": 0,
            "avg": 175
        },
        "Friday": {
            "num_results": 8,
            "total": -783,
            "avg:": 0,
            "avg": -97
        },
        "Saturday": {
            "num_results": 20,
            "total": -3557,
            "avg:": 0,
            "avg": -177
        }
    }
}