{
    "overall_punctuality": -10143,
    "overall_num": 91,
    "overall_avg": -111,
    "daily_punctuality": {
        "Sunday": {
            "num_results": 11,
            "total": -1578,
            "avg:": 0,
            "avg": -143
        },
        "Monday": {
            "num_results": 10,
            "total": 884,
            "avg:": 0,
            "avg": 89
        },
        "Tuesday": {
            "num_results": 15,
            "total": -5931,
            "avg:": 0,
            "avg": -395
        },
        "Wednesday": {
            "num_results": 15,
            "total": 97,
            "avg:": 0,
            "avg": 7
        },
        "Thursday": {
            "num_results": 12,
            "total": 2062,
            "avg:": 0,
            "avg": 172
        },
        "Friday": {
            "num_results": 8,
            "total": -835,
            "avg:": 0,
            "avg": -104
        },
        "Saturday": {
            "num_results": 20,
            "total": -4842,
            "avg:": 0,
            "avg": -242
        }
    }
}