{
    "overall_punctuality": -10775,
    "overall_num": 91,
    "overall_avg": -118,
    "daily_punctuality": {
        "Sunday": {
            "num_results": 10,
            "total": -1673,
            "avg:": 0,
            "avg": -167
        },
        "Monday": {
            "num_results": 10,
            "total": 619,
            "avg:": 0,
            "avg": 62
        },
        "Tuesday": {
            "num_results": 16,
            "total": -6062,
            "avg:": 0,
            "avg": -378
        },
        "Wednesday": {
            "num_results": 15,
            "total": 39,
            "avg:": 0,
            "avg": 3
        },
        "Thursday": {
            "num_results": 12,
            "total": 1894,
            "avg:": 0,
            "avg": 158
        },
        "Friday": {
            "num_results": 8,
            "total": -1086,
            "avg:": 0,
            "avg": -135
        },
        "Saturday": {
            "num_results": 20,
            "total": -4506,
            "avg:": 0,
            "avg": -225
        }
    }
}