{
    "overall_punctuality": -8150,
    "overall_num": 90,
    "overall_avg": -90,
    "daily_punctuality": {
        "Sunday": {
            "num_results": 10,
            "total": -1765,
            "avg:": 0,
            "avg": -176
        },
        "Monday": {
            "num_results": 10,
            "total": 386,
            "avg:": 0,
            "avg": 39
        },
        "Tuesday": {
            "num_results": 15,
            "total": -4595,
            "avg:": 0,
            "avg": -306
        },
        "Wednesday": {
            "num_results": 15,
            "total": 892,
            "avg:": 0,
            "avg": 60
        },
        "Thursday": {
            "num_results": 12,
            "total": 2357,
            "avg:": 0,
            "avg": 197
        },
        "Friday": {
            "num_results": 8,
            "total": -1094,
            "avg:": 0,
            "avg": -136
        },
        "Saturday": {
            "num_results": 20,
            "total": -4331,
            "avg:": 0,
            "avg": -216
        }
    }
}