{
    "overall_punctuality": 1000,
    "overall_num": 45,
    "overall_avg": 23,
    "daily_punctuality": {
        "Sunday": {
            "num_results": 6,
            "total": 586,
            "avg:": 0,
            "avg": 98
        },
        "Monday": {
            "num_results": 5,
            "total": 37,
            "avg:": 0,
            "avg": 8
        },
        "Tuesday": {
            "num_results": 7,
            "total": 37,
            "avg:": 0,
            "avg": 6
        },
        "Wednesday": {
            "num_results": 8,
            "total": 38,
            "avg:": 0,
            "avg": 5
        },
        "Thursday": {
            "num_results": 5,
            "total": 145,
            "avg:": 0,
            "avg": 29
        },
        "Friday": {
            "num_results": 3,
            "total": 30,
            "avg:": 0,
            "avg": 10
        },
        "Saturday": {
            "num_results": 11,
            "total": 127,
            "avg:": 0,
            "avg": 12
        }
    }
}