{
    "overall_punctuality": 1350,
    "overall_num": 94,
    "overall_avg": 15,
    "daily_punctuality": {
        "Sunday": {
            "num_results": 12,
            "total": 818,
            "avg:": 0,
            "avg": 69
        },
        "Monday": {
            "num_results": 11,
            "total": 187,
            "avg:": 0,
            "avg": 17
        },
        "Tuesday": {
            "num_results": 15,
            "total": 155,
            "avg:": 0,
            "avg": 11
        },
        "Wednesday": {
            "num_results": 14,
            "total": -180,
            "avg:": 0,
            "avg": -12
        },
        "Thursday": {
            "num_results": 12,
            "total": 338,
            "avg:": 0,
            "avg": 29
        },
        "Friday": {
            "num_results": 7,
            "total": 32,
            "avg:": 0,
            "avg": 5
        },
        "Saturday": {
            "num_results": 23,
            "total": 0,
            "avg:": 0,
            "avg": 0
        }
    }
}