{
    "overall_punctuality": 1153,
    "overall_num": 123,
    "overall_avg": 10,
    "daily_punctuality": {
        "Sunday": {
            "num_results": 14,
            "total": 626,
            "avg:": 0,
            "avg": 45
        },
        "Monday": {
            "num_results": 15,
            "total": -686,
            "avg:": 0,
            "avg": -45
        },
        "Tuesday": {
            "num_results": 19,
            "total": -701,
            "avg:": 0,
            "avg": -36
        },
        "Wednesday": {
            "num_results": 20,
            "total": 3032,
            "avg:": 0,
            "avg": 152
        },
        "Thursday": {
            "num_results": 14,
            "total": 1423,
            "avg:": 0,
            "avg": 102
        },
        "Friday": {
            "num_results": 9,
            "total": -251,
            "avg:": 0,
            "avg": -27
        },
        "Saturday": {
            "num_results": 32,
            "total": -2290,
            "avg:": 0,
            "avg": -71
        }
    }
}