{
    "overall_punctuality": 1023,
    "overall_num": 122,
    "overall_avg": 9,
    "daily_punctuality": {
        "Sunday": {
            "num_results": 14,
            "total": 374,
            "avg:": 0,
            "avg": 27
        },
        "Monday": {
            "num_results": 15,
            "total": -872,
            "avg:": 0,
            "avg": -58
        },
        "Tuesday": {
            "num_results": 19,
            "total": -531,
            "avg:": 0,
            "avg": -27
        },
        "Wednesday": {
            "num_results": 19,
            "total": 2997,
            "avg:": 0,
            "avg": 158
        },
        "Thursday": {
            "num_results": 14,
            "total": 1302,
            "avg:": 0,
            "avg": 93
        },
        "Friday": {
            "num_results": 9,
            "total": -299,
            "avg:": 0,
            "avg": -33
        },
        "Saturday": {
            "num_results": 32,
            "total": -1948,
            "avg:": 0,
            "avg": -60
        }
    }
}