{
    "overall_punctuality": 5497,
    "overall_num": 276,
    "overall_avg": 20,
    "daily_punctuality": {
        "Sunday": {
            "num_results": 32,
            "total": 346,
            "avg:": 0,
            "avg": 11
        },
        "Monday": {
            "num_results": 32,
            "total": -115,
            "avg:": 0,
            "avg": -3
        },
        "Tuesday": {
            "num_results": 40,
            "total": -12,
            "avg:": 0,
            "avg": 0
        },
        "Wednesday": {
            "num_results": 42,
            "total": 1203,
            "avg:": 0,
            "avg": 29
        },
        "Thursday": {
            "num_results": 31,
            "total": 2988,
            "avg:": 0,
            "avg": 97
        },
        "Friday": {
            "num_results": 26,
            "total": 2221,
            "avg:": 0,
            "avg": 86
        },
        "Saturday": {
            "num_results": 73,
            "total": -1134,
            "avg:": 0,
            "avg": -15
        }
    }
}