{
    "overall_punctuality": -3541,
    "overall_num": 189,
    "overall_avg": -18,
    "daily_punctuality": {
        "Sunday": {
            "num_results": 22,
            "total": -613,
            "avg:": 0,
            "avg": -27
        },
        "Monday": {
            "num_results": 24,
            "total": -3235,
            "avg:": 0,
            "avg": -134
        },
        "Tuesday": {
            "num_results": 29,
            "total": -2745,
            "avg:": 0,
            "avg": -94
        },
        "Wednesday": {
            "num_results": 31,
            "total": 1452,
            "avg:": 0,
            "avg": 47
        },
        "Thursday": {
            "num_results": 24,
            "total": 1609,
            "avg:": 0,
            "avg": 68
        },
        "Friday": {
            "num_results": 17,
            "total": 597,
            "avg:": 0,
            "avg": 36
        },
        "Saturday": {
            "num_results": 42,
            "total": -606,
            "avg:": 0,
            "avg": -14
        }
    }
}