{
    "overall_punctuality": -900,
    "overall_num": 147,
    "overall_avg": -6,
    "daily_punctuality": {
        "Sunday": {
            "num_results": 17,
            "total": -461,
            "avg:": 0,
            "avg": -27
        },
        "Monday": {
            "num_results": 18,
            "total": -3483,
            "avg:": 0,
            "avg": -193
        },
        "Tuesday": {
            "num_results": 24,
            "total": 436,
            "avg:": 0,
            "avg": 19
        },
        "Wednesday": {
            "num_results": 24,
            "total": 2172,
            "avg:": 0,
            "avg": 91
        },
        "Thursday": {
            "num_results": 18,
            "total": 995,
            "avg:": 0,
            "avg": 56
        },
        "Friday": {
            "num_results": 16,
            "total": 820,
            "avg:": 0,
            "avg": 52
        },
        "Saturday": {
            "num_results": 30,
            "total": -1379,
            "avg:": 0,
            "avg": -45
        }
    }
}