{
    "overall_punctuality": -5236,
    "overall_num": 147,
    "overall_avg": -35,
    "daily_punctuality": {
        "Sunday": {
            "num_results": 17,
            "total": -335,
            "avg:": 0,
            "avg": -19
        },
        "Monday": {
            "num_results": 18,
            "total": -3449,
            "avg:": 0,
            "avg": -191
        },
        "Tuesday": {
            "num_results": 24,
            "total": -2119,
            "avg:": 0,
            "avg": -88
        },
        "Wednesday": {
            "num_results": 24,
            "total": 1637,
            "avg:": 0,
            "avg": 69
        },
        "Thursday": {
            "num_results": 18,
            "total": 1071,
            "avg:": 0,
            "avg": 60
        },
        "Friday": {
            "num_results": 16,
            "total": 1484,
            "avg:": 0,
            "avg": 93
        },
        "Saturday": {
            "num_results": 30,
            "total": -3525,
            "avg:": 0,
            "avg": -117
        }
    }
}