{
    "overall_punctuality": -4934,
    "overall_num": 97,
    "overall_avg": -50,
    "daily_punctuality": {
        "Sunday": {
            "num_results": 12,
            "total": -1124,
            "avg:": 0,
            "avg": -93
        },
        "Monday": {
            "num_results": 12,
            "total": -2814,
            "avg:": 0,
            "avg": -234
        },
        "Tuesday": {
            "num_results": 15,
            "total": -1998,
            "avg:": 0,
            "avg": -133
        },
        "Wednesday": {
            "num_results": 16,
            "total": 3163,
            "avg:": 0,
            "avg": 198
        },
        "Thursday": {
            "num_results": 12,
            "total": 283,
            "avg:": 0,
            "avg": 24
        },
        "Friday": {
            "num_results": 10,
            "total": 1647,
            "avg:": 0,
            "avg": 165
        },
        "Saturday": {
            "num_results": 20,
            "total": -4091,
            "avg:": 0,
            "avg": -204
        }
    }
}