{
    "overall_punctuality": -8527,
    "overall_num": 88,
    "overall_avg": -96,
    "daily_punctuality": {
        "Sunday": {
            "num_results": 9,
            "total": -307,
            "avg:": 0,
            "avg": -34
        },
        "Monday": {
            "num_results": 9,
            "total": -3034,
            "avg:": 0,
            "avg": -337
        },
        "Tuesday": {
            "num_results": 15,
            "total": -2453,
            "avg:": 0,
            "avg": -163
        },
        "Wednesday": {
            "num_results": 15,
            "total": 281,
            "avg:": 0,
            "avg": 19
        },
        "Thursday": {
            "num_results": 11,
            "total": -111,
            "avg:": 0,
            "avg": -10
        },
        "Friday": {
            "num_results": 9,
            "total": 205,
            "avg:": 0,
            "avg": 23
        },
        "Saturday": {
            "num_results": 20,
            "total": -3108,
            "avg:": 0,
            "avg": -155
        }
    }
}