{
    "overall_punctuality": -8843,
    "overall_num": 92,
    "overall_avg": -96,
    "daily_punctuality": {
        "Sunday": {
            "num_results": 10,
            "total": -156,
            "avg:": 0,
            "avg": -15
        },
        "Monday": {
            "num_results": 10,
            "total": -3623,
            "avg:": 0,
            "avg": -362
        },
        "Tuesday": {
            "num_results": 16,
            "total": -2937,
            "avg:": 0,
            "avg": -183
        },
        "Wednesday": {
            "num_results": 15,
            "total": 734,
            "avg:": 0,
            "avg": 49
        },
        "Thursday": {
            "num_results": 11,
            "total": 285,
            "avg:": 0,
            "avg": 26
        },
        "Friday": {
            "num_results": 10,
            "total": -116,
            "avg:": 0,
            "avg": -11
        },
        "Saturday": {
            "num_results": 20,
            "total": -3030,
            "avg:": 0,
            "avg": -151
        }
    }
}