{
    "overall_punctuality": 1482,
    "overall_num": 192,
    "overall_avg": 8,
    "daily_punctuality": {
        "Sunday": {
            "num_results": 21,
            "total": -1270,
            "avg:": 0,
            "avg": -60
        },
        "Monday": {
            "num_results": 21,
            "total": 2284,
            "avg:": 0,
            "avg": 109
        },
        "Tuesday": {
            "num_results": 33,
            "total": -7212,
            "avg:": 0,
            "avg": -218
        },
        "Wednesday": {
            "num_results": 30,
            "total": 3423,
            "avg:": 0,
            "avg": 115
        },
        "Thursday": {
            "num_results": 24,
            "total": 2757,
            "avg:": 0,
            "avg": 115
        },
        "Friday": {
            "num_results": 17,
            "total": 3443,
            "avg:": 0,
            "avg": 203
        },
        "Saturday": {
            "num_results": 46,
            "total": -1943,
            "avg:": 0,
            "avg": -42
        }
    }
}