{
    "overall_punctuality": -4212,
    "overall_num": 54,
    "overall_avg": -78,
    "daily_punctuality": {
        "Sunday": {
            "num_results": 6,
            "total": -850,
            "avg:": 0,
            "avg": -141
        },
        "Monday": {
            "num_results": 6,
            "total": 3528,
            "avg:": 0,
            "avg": 588
        },
        "Tuesday": {
            "num_results": 8,
            "total": -1720,
            "avg:": 0,
            "avg": -215
        },
        "Wednesday": {
            "num_results": 8,
            "total": 675,
            "avg:": 0,
            "avg": 85
        },
        "Thursday": {
            "num_results": 6,
            "total": -98,
            "avg:": 0,
            "avg": -16
        },
        "Friday": {
            "num_results": 4,
            "total": 62,
            "avg:": 0,
            "avg": 16
        },
        "Saturday": {
            "num_results": 16,
            "total": -5809,
            "avg:": 0,
            "avg": -363
        }
    }
}