{
    "overall_punctuality": -4973,
    "overall_num": 54,
    "overall_avg": -92,
    "daily_punctuality": {
        "Sunday": {
            "num_results": 6,
            "total": -1137,
            "avg:": 0,
            "avg": -189
        },
        "Monday": {
            "num_results": 6,
            "total": 3486,
            "avg:": 0,
            "avg": 581
        },
        "Tuesday": {
            "num_results": 8,
            "total": -3089,
            "avg:": 0,
            "avg": -386
        },
        "Wednesday": {
            "num_results": 8,
            "total": 622,
            "avg:": 0,
            "avg": 78
        },
        "Thursday": {
            "num_results": 6,
            "total": 460,
            "avg:": 0,
            "avg": 77
        },
        "Friday": {
            "num_results": 4,
            "total": 76,
            "avg:": 0,
            "avg": 19
        },
        "Saturday": {
            "num_results": 16,
            "total": -5391,
            "avg:": 0,
            "avg": -336
        }
    }
}