{
    "overall_punctuality": 2058,
    "overall_num": 123,
    "overall_avg": 17,
    "daily_punctuality": {
        "Sunday": {
            "num_results": 14,
            "total": 308,
            "avg:": 0,
            "avg": 22
        },
        "Monday": {
            "num_results": 16,
            "total": 31,
            "avg:": 0,
            "avg": 2
        },
        "Tuesday": {
            "num_results": 20,
            "total": 167,
            "avg:": 0,
            "avg": 9
        },
        "Wednesday": {
            "num_results": 19,
            "total": 1196,
            "avg:": 0,
            "avg": 63
        },
        "Thursday": {
            "num_results": 15,
            "total": -102,
            "avg:": 0,
            "avg": -6
        },
        "Friday": {
            "num_results": 11,
            "total": 134,
            "avg:": 0,
            "avg": 13
        },
        "Saturday": {
            "num_results": 28,
            "total": 324,
            "avg:": 0,
            "avg": 12
        }
    }
}