{
    "overall_punctuality": -6567,
    "overall_num": 305,
    "overall_avg": -21,
    "daily_punctuality": {
        "Sunday": {
            "num_results": 41,
            "total": -3180,
            "avg:": 0,
            "avg": -77
        },
        "Monday": {
            "num_results": 36,
            "total": -233,
            "avg:": 0,
            "avg": -6
        },
        "Tuesday": {
            "num_results": 49,
            "total": -4694,
            "avg:": 0,
            "avg": -95
        },
        "Wednesday": {
            "num_results": 48,
            "total": 3136,
            "avg:": 0,
            "avg": 66
        },
        "Thursday": {
            "num_results": 39,
            "total": 3174,
            "avg:": 0,
            "avg": 82
        },
        "Friday": {
            "num_results": 31,
            "total": 2884,
            "avg:": 0,
            "avg": 94
        },
        "Saturday": {
            "num_results": 61,
            "total": -7654,
            "avg:": 0,
            "avg": -125
        }
    }
}