{
    "overall_punctuality": 2043,
    "overall_num": 166,
    "overall_avg": 13,
    "daily_punctuality": {
        "Sunday": {
            "num_results": 18,
            "total": 2199,
            "avg:": 0,
            "avg": 123
        },
        "Monday": {
            "num_results": 18,
            "total": -611,
            "avg:": 0,
            "avg": -33
        },
        "Tuesday": {
            "num_results": 24,
            "total": 46,
            "avg:": 0,
            "avg": 2
        },
        "Wednesday": {
            "num_results": 24,
            "total": 1818,
            "avg:": 0,
            "avg": 76
        },
        "Thursday": {
            "num_results": 18,
            "total": -72,
            "avg:": 0,
            "avg": -4
        },
        "Friday": {
            "num_results": 16,
            "total": 1060,
            "avg:": 0,
            "avg": 67
        },
        "Saturday": {
            "num_results": 48,
            "total": -2397,
            "avg:": 0,
            "avg": -49
        }
    }
}