{
    "overall_punctuality": 173,
    "overall_num": 25,
    "overall_avg": 7,
    "daily_punctuality": {
        "Sunday": {
            "num_results": 3,
            "total": 16,
            "avg:": 0,
            "avg": 6
        },
        "Monday": {
            "num_results": 2,
            "total": -1,
            "avg:": 0,
            "avg": 0
        },
        "Tuesday": {
            "num_results": 4,
            "total": -19,
            "avg:": 0,
            "avg": -4
        },
        "Wednesday": {
            "num_results": 6,
            "total": 189,
            "avg:": 0,
            "avg": 32
        },
        "Thursday": {
            "num_results": 3,
            "total": 46,
            "avg:": 0,
            "avg": 16
        },
        "Friday": {
            "num_results": 2,
            "total": -106,
            "avg:": 0,
            "avg": -53
        },
        "Saturday": {
            "num_results": 5,
            "total": 48,
            "avg:": 0,
            "avg": 10
        }
    }
}