{
    "overall_punctuality": -2091,
    "overall_num": 50,
    "overall_avg": -41,
    "daily_punctuality": {
        "Sunday": {
            "num_results": 6,
            "total": 15,
            "avg:": 0,
            "avg": 3
        },
        "Monday": {
            "num_results": 6,
            "total": -1014,
            "avg:": 0,
            "avg": -169
        },
        "Tuesday": {
            "num_results": 7,
            "total": -1399,
            "avg:": 0,
            "avg": -199
        },
        "Wednesday": {
            "num_results": 8,
            "total": 327,
            "avg:": 0,
            "avg": 41
        },
        "Thursday": {
            "num_results": 6,
            "total": 294,
            "avg:": 0,
            "avg": 49
        },
        "Friday": {
            "num_results": 4,
            "total": 414,
            "avg:": 0,
            "avg": 104
        },
        "Saturday": {
            "num_results": 13,
            "total": -728,
            "avg:": 0,
            "avg": -56
        }
    }
}