{
    "overall_punctuality": -7763,
    "overall_num": 48,
    "overall_avg": -161,
    "daily_punctuality": {
        "Sunday": {
            "num_results": 6,
            "total": -1092,
            "avg:": 0,
            "avg": -182
        },
        "Monday": {
            "num_results": 6,
            "total": -3167,
            "avg:": 0,
            "avg": -527
        },
        "Tuesday": {
            "num_results": 8,
            "total": -3819,
            "avg:": 0,
            "avg": -477
        },
        "Wednesday": {
            "num_results": 8,
            "total": 2590,
            "avg:": 0,
            "avg": 324
        },
        "Thursday": {
            "num_results": 6,
            "total": 944,
            "avg:": 0,
            "avg": 158
        },
        "Friday": {
            "num_results": 4,
            "total": -348,
            "avg:": 0,
            "avg": -87
        },
        "Saturday": {
            "num_results": 10,
            "total": -2871,
            "avg:": 0,
            "avg": -287
        }
    }
}