{
    "overall_punctuality": 851,
    "overall_num": 305,
    "overall_avg": 3,
    "daily_punctuality": {
        "Sunday": {
            "num_results": 42,
            "total": -1353,
            "avg:": 0,
            "avg": -32
        },
        "Monday": {
            "num_results": 35,
            "total": 306,
            "avg:": 0,
            "avg": 9
        },
        "Tuesday": {
            "num_results": 50,
            "total": -1202,
            "avg:": 0,
            "avg": -24
        },
        "Wednesday": {
            "num_results": 50,
            "total": 1308,
            "avg:": 0,
            "avg": 27
        },
        "Thursday": {
            "num_results": 35,
            "total": 1034,
            "avg:": 0,
            "avg": 30
        },
        "Friday": {
            "num_results": 32,
            "total": 1743,
            "avg:": 0,
            "avg": 55
        },
        "Saturday": {
            "num_results": 61,
            "total": -985,
            "avg:": 0,
            "avg": -16
        }
    }
}