{
    "overall_punctuality": -27,
    "overall_num": 51,
    "overall_avg": 0,
    "daily_punctuality": {
        "Sunday": {
            "num_results": 6,
            "total": 31,
            "avg:": 0,
            "avg": 6
        },
        "Monday": {
            "num_results": 6,
            "total": -26,
            "avg:": 0,
            "avg": -4
        },
        "Tuesday": {
            "num_results": 8,
            "total": -18,
            "avg:": 0,
            "avg": -2
        },
        "Wednesday": {
            "num_results": 8,
            "total": 7,
            "avg:": 0,
            "avg": 1
        },
        "Thursday": {
            "num_results": 6,
            "total": -75,
            "avg:": 0,
            "avg": -12
        },
        "Friday": {
            "num_results": 6,
            "total": 85,
            "avg:": 0,
            "avg": 15
        },
        "Saturday": {
            "num_results": 11,
            "total": -31,
            "avg:": 0,
            "avg": -2
        }
    }
}