{
    "overall_punctuality": -3636,
    "overall_num": 49,
    "overall_avg": -74,
    "daily_punctuality": {
        "Sunday": {
            "num_results": 6,
            "total": -518,
            "avg:": 0,
            "avg": -86
        },
        "Monday": {
            "num_results": 6,
            "total": -1527,
            "avg:": 0,
            "avg": -254
        },
        "Tuesday": {
            "num_results": 8,
            "total": -2139,
            "avg:": 0,
            "avg": -267
        },
        "Wednesday": {
            "num_results": 8,
            "total": 1192,
            "avg:": 0,
            "avg": 149
        },
        "Thursday": {
            "num_results": 6,
            "total": 568,
            "avg:": 0,
            "avg": 95
        },
        "Friday": {
            "num_results": 6,
            "total": 750,
            "avg:": 0,
            "avg": 125
        },
        "Saturday": {
            "num_results": 9,
            "total": -1962,
            "avg:": 0,
            "avg": -218
        }
    }
}