{
    "overall_punctuality": -4334,
    "overall_num": 27,
    "overall_avg": -160,
    "daily_punctuality": {
        "Sunday": {
            "num_results": 3,
            "total": -681,
            "avg:": 0,
            "avg": -227
        },
        "Monday": {
            "num_results": 4,
            "total": -2586,
            "avg:": 0,
            "avg": -646
        },
        "Tuesday": {
            "num_results": 4,
            "total": -1130,
            "avg:": 0,
            "avg": -282
        },
        "Wednesday": {
            "num_results": 5,
            "total": 188,
            "avg:": 0,
            "avg": 38
        },
        "Thursday": {
            "num_results": 4,
            "total": -561,
            "avg:": 0,
            "avg": -140
        },
        "Friday": {
            "num_results": 2,
            "total": 481,
            "avg:": 0,
            "avg": 241
        },
        "Saturday": {
            "num_results": 5,
            "total": -45,
            "avg:": 0,
            "avg": -9
        }
    }
}