{
    "overall_punctuality": -13315,
    "overall_num": 88,
    "overall_avg": -151,
    "daily_punctuality": {
        "Sunday": {
            "num_results": 12,
            "total": -2880,
            "avg:": 0,
            "avg": -240
        },
        "Monday": {
            "num_results": 9,
            "total": -4045,
            "avg:": 0,
            "avg": -449
        },
        "Tuesday": {
            "num_results": 12,
            "total": -4959,
            "avg:": 0,
            "avg": -413
        },
        "Wednesday": {
            "num_results": 16,
            "total": 2832,
            "avg:": 0,
            "avg": 177
        },
        "Thursday": {
            "num_results": 12,
            "total": 2219,
            "avg:": 0,
            "avg": 185
        },
        "Friday": {
            "num_results": 7,
            "total": -291,
            "avg:": 0,
            "avg": -41
        },
        "Saturday": {
            "num_results": 20,
            "total": -6191,
            "avg:": 0,
            "avg": -309
        }
    }
}