{
    "overall_punctuality": -7278,
    "overall_num": 444,
    "overall_avg": -16,
    "daily_punctuality": {
        "Sunday": {
            "num_results": 56,
            "total": -1954,
            "avg:": 0,
            "avg": -34
        },
        "Monday": {
            "num_results": 55,
            "total": -4288,
            "avg:": 0,
            "avg": -77
        },
        "Tuesday": {
            "num_results": 71,
            "total": -8348,
            "avg:": 0,
            "avg": -117
        },
        "Wednesday": {
            "num_results": 71,
            "total": 4315,
            "avg:": 0,
            "avg": 61
        },
        "Thursday": {
            "num_results": 56,
            "total": 6232,
            "avg:": 0,
            "avg": 112
        },
        "Friday": {
            "num_results": 49,
            "total": 4693,
            "avg:": 0,
            "avg": 96
        },
        "Saturday": {
            "num_results": 86,
            "total": -7928,
            "avg:": 0,
            "avg": -92
        }
    }
}