{
    "overall_punctuality": -103,
    "overall_num": 31,
    "overall_avg": -3,
    "daily_punctuality": {
        "Sunday": {
            "num_results": 3,
            "total": 3,
            "avg:": 0,
            "avg": 1
        },
        "Monday": {
            "num_results": 4,
            "total": -9,
            "avg:": 0,
            "avg": -2
        },
        "Tuesday": {
            "num_results": 4,
            "total": 18,
            "avg:": 0,
            "avg": 5
        },
        "Wednesday": {
            "num_results": 6,
            "total": -15,
            "avg:": 0,
            "avg": -2
        },
        "Thursday": {
            "num_results": 6,
            "total": -10,
            "avg:": 0,
            "avg": -1
        },
        "Friday": {
            "num_results": 4,
            "total": -38,
            "avg:": 0,
            "avg": -9
        },
        "Saturday": {
            "num_results": 4,
            "total": -52,
            "avg:": 0,
            "avg": -13
        }
    }
}