{
    "overall_punctuality": -9847,
    "overall_num": 281,
    "overall_avg": -35,
    "daily_punctuality": {
        "Sunday": {
            "num_results": 38,
            "total": -5385,
            "avg:": 0,
            "avg": -141
        },
        "Monday": {
            "num_results": 35,
            "total": -531,
            "avg:": 0,
            "avg": -15
        },
        "Tuesday": {
            "num_results": 45,
            "total": -3441,
            "avg:": 0,
            "avg": -76
        },
        "Wednesday": {
            "num_results": 43,
            "total": 3050,
            "avg:": 0,
            "avg": 71
        },
        "Thursday": {
            "num_results": 35,
            "total": 3791,
            "avg:": 0,
            "avg": 109
        },
        "Friday": {
            "num_results": 29,
            "total": 2218,
            "avg:": 0,
            "avg": 77
        },
        "Saturday": {
            "num_results": 56,
            "total": -9549,
            "avg:": 0,
            "avg": -170
        }
    }
}