{
    "overall_punctuality": 671,
    "overall_num": 35,
    "overall_avg": 20,
    "daily_punctuality": {
        "Sunday": {
            "num_results": 4,
            "total": 317,
            "avg:": 0,
            "avg": 80
        },
        "Monday": {
            "num_results": 4,
            "total": 7,
            "avg:": 0,
            "avg": 2
        },
        "Tuesday": {
            "num_results": 5,
            "total": 49,
            "avg:": 0,
            "avg": 10
        },
        "Wednesday": {
            "num_results": 6,
            "total": 104,
            "avg:": 0,
            "avg": 18
        },
        "Thursday": {
            "num_results": 6,
            "total": 88,
            "avg:": 0,
            "avg": 15
        },
        "Friday": {
            "num_results": 4,
            "total": 58,
            "avg:": 0,
            "avg": 15
        },
        "Saturday": {
            "num_results": 6,
            "total": 48,
            "avg:": 0,
            "avg": 8
        }
    }
}