{
    "overall_punctuality": -4124,
    "overall_num": 275,
    "overall_avg": -14,
    "daily_punctuality": {
        "Sunday": {
            "num_results": 23,
            "total": 2292,
            "avg:": 0,
            "avg": 100
        },
        "Monday": {
            "num_results": 33,
            "total": -1986,
            "avg:": 0,
            "avg": -60
        },
        "Tuesday": {
            "num_results": 50,
            "total": -4756,
            "avg:": 0,
            "avg": -95
        },
        "Wednesday": {
            "num_results": 51,
            "total": -927,
            "avg:": 0,
            "avg": -18
        },
        "Thursday": {
            "num_results": 42,
            "total": 1353,
            "avg:": 0,
            "avg": 33
        },
        "Friday": {
            "num_results": 26,
            "total": 829,
            "avg:": 0,
            "avg": 32
        },
        "Saturday": {
            "num_results": 50,
            "total": -929,
            "avg:": 0,
            "avg": -18
        }
    }
}