{
    "overall_punctuality": -232,
    "overall_num": 21,
    "overall_avg": -11,
    "daily_punctuality": {
        "Sunday": {
            "num_results": 1,
            "total": 14,
            "avg:": 0,
            "avg": 14
        },
        "Monday": {
            "num_results": 3,
            "total": 10,
            "avg:": 0,
            "avg": 4
        },
        "Tuesday": {
            "num_results": 4,
            "total": -326,
            "avg:": 0,
            "avg": -81
        },
        "Wednesday": {
            "num_results": 5,
            "total": 32,
            "avg:": 0,
            "avg": 7
        },
        "Thursday": {
            "num_results": 3,
            "total": 5,
            "avg:": 0,
            "avg": 2
        },
        "Friday": {
            "num_results": 2,
            "total": 207,
            "avg:": 0,
            "avg": 104
        },
        "Saturday": {
            "num_results": 3,
            "total": -174,
            "avg:": 0,
            "avg": -58
        }
    }
}