{
    "overall_punctuality": -4348,
    "overall_num": 102,
    "overall_avg": -42,
    "daily_punctuality": {
        "Sunday": {
            "num_results": 18,
            "total": -3468,
            "avg:": 0,
            "avg": -192
        },
        "Monday": {
            "num_results": 12,
            "total": 368,
            "avg:": 0,
            "avg": 31
        },
        "Tuesday": {
            "num_results": 16,
            "total": -772,
            "avg:": 0,
            "avg": -48
        },
        "Wednesday": {
            "num_results": 12,
            "total": 1626,
            "avg:": 0,
            "avg": 136
        },
        "Thursday": {
            "num_results": 12,
            "total": 2192,
            "avg:": 0,
            "avg": 183
        },
        "Friday": {
            "num_results": 12,
            "total": 1382,
            "avg:": 0,
            "avg": 116
        },
        "Saturday": {
            "num_results": 20,
            "total": -5676,
            "avg:": 0,
            "avg": -283
        }
    }
}