{
    "overall_punctuality": -2863,
    "overall_num": 203,
    "overall_avg": -14,
    "daily_punctuality": {
        "Sunday": {
            "num_results": 17,
            "total": 30,
            "avg:": 0,
            "avg": 2
        },
        "Monday": {
            "num_results": 23,
            "total": -907,
            "avg:": 0,
            "avg": -39
        },
        "Tuesday": {
            "num_results": 33,
            "total": -2752,
            "avg:": 0,
            "avg": -83
        },
        "Wednesday": {
            "num_results": 35,
            "total": 768,
            "avg:": 0,
            "avg": 22
        },
        "Thursday": {
            "num_results": 27,
            "total": 595,
            "avg:": 0,
            "avg": 23
        },
        "Friday": {
            "num_results": 20,
            "total": 1028,
            "avg:": 0,
            "avg": 52
        },
        "Saturday": {
            "num_results": 48,
            "total": -1625,
            "avg:": 0,
            "avg": -33
        }
    }
}