{
    "overall_punctuality": -2247,
    "overall_num": 199,
    "overall_avg": -11,
    "daily_punctuality": {
        "Sunday": {
            "num_results": 19,
            "total": 516,
            "avg:": 0,
            "avg": 28
        },
        "Monday": {
            "num_results": 21,
            "total": -1320,
            "avg:": 0,
            "avg": -62
        },
        "Tuesday": {
            "num_results": 33,
            "total": -2571,
            "avg:": 0,
            "avg": -77
        },
        "Wednesday": {
            "num_results": 35,
            "total": 853,
            "avg:": 0,
            "avg": 25
        },
        "Thursday": {
            "num_results": 26,
            "total": 441,
            "avg:": 0,
            "avg": 17
        },
        "Friday": {
            "num_results": 18,
            "total": 967,
            "avg:": 0,
            "avg": 54
        },
        "Saturday": {
            "num_results": 47,
            "total": -1133,
            "avg:": 0,
            "avg": -24
        }
    }
}