{
    "overall_punctuality": 1172,
    "overall_num": 110,
    "overall_avg": 11,
    "daily_punctuality": {
        "Sunday": {
            "num_results": 18,
            "total": 312,
            "avg:": 0,
            "avg": 18
        },
        "Monday": {
            "num_results": 12,
            "total": 262,
            "avg:": 0,
            "avg": 22
        },
        "Tuesday": {
            "num_results": 16,
            "total": 300,
            "avg:": 0,
            "avg": 19
        },
        "Wednesday": {
            "num_results": 16,
            "total": 130,
            "avg:": 0,
            "avg": 9
        },
        "Thursday": {
            "num_results": 12,
            "total": 148,
            "avg:": 0,
            "avg": 13
        },
        "Friday": {
            "num_results": 12,
            "total": 180,
            "avg:": 0,
            "avg": 15
        },
        "Saturday": {
            "num_results": 24,
            "total": -160,
            "avg:": 0,
            "avg": -6
        }
    }
}