{
    "overall_punctuality": -280,
    "overall_num": 46,
    "overall_avg": -6,
    "daily_punctuality": {
        "Sunday": {
            "num_results": 6,
            "total": -58,
            "avg:": 0,
            "avg": -9
        },
        "Monday": {
            "num_results": 6,
            "total": -46,
            "avg:": 0,
            "avg": -7
        },
        "Tuesday": {
            "num_results": 7,
            "total": -72,
            "avg:": 0,
            "avg": -10
        },
        "Wednesday": {
            "num_results": 7,
            "total": 5,
            "avg:": 0,
            "avg": 1
        },
        "Thursday": {
            "num_results": 6,
            "total": -41,
            "avg:": 0,
            "avg": -6
        },
        "Friday": {
            "num_results": 6,
            "total": -74,
            "avg:": 0,
            "avg": -12
        },
        "Saturday": {
            "num_results": 8,
            "total": 6,
            "avg:": 0,
            "avg": 1
        }
    }
}