{
    "overall_punctuality": 1072,
    "overall_num": 100,
    "overall_avg": 11,
    "daily_punctuality": {
        "Sunday": {
            "num_results": 12,
            "total": 92,
            "avg:": 0,
            "avg": 8
        },
        "Monday": {
            "num_results": 12,
            "total": 127,
            "avg:": 0,
            "avg": 11
        },
        "Tuesday": {
            "num_results": 16,
            "total": 155,
            "avg:": 0,
            "avg": 10
        },
        "Wednesday": {
            "num_results": 16,
            "total": 333,
            "avg:": 0,
            "avg": 21
        },
        "Thursday": {
            "num_results": 12,
            "total": 256,
            "avg:": 0,
            "avg": 22
        },
        "Friday": {
            "num_results": 12,
            "total": 100,
            "avg:": 0,
            "avg": 9
        },
        "Saturday": {
            "num_results": 20,
            "total": 9,
            "avg:": 0,
            "avg": 1
        }
    }
}