{
    "overall_punctuality": -52,
    "overall_num": 52,
    "overall_avg": -1,
    "daily_punctuality": {
        "Sunday": {
            "num_results": 6,
            "total": -8,
            "avg:": 0,
            "avg": -1
        },
        "Monday": {
            "num_results": 6,
            "total": -43,
            "avg:": 0,
            "avg": -7
        },
        "Tuesday": {
            "num_results": 8,
            "total": -32,
            "avg:": 0,
            "avg": -4
        },
        "Wednesday": {
            "num_results": 8,
            "total": -15,
            "avg:": 0,
            "avg": -1
        },
        "Thursday": {
            "num_results": 6,
            "total": 82,
            "avg:": 0,
            "avg": 14
        },
        "Friday": {
            "num_results": 6,
            "total": -7,
            "avg:": 0,
            "avg": -1
        },
        "Saturday": {
            "num_results": 12,
            "total": -29,
            "avg:": 0,
            "avg": -2
        }
    }
}