{
    "overall_punctuality": -185,
    "overall_num": 80,
    "overall_avg": -2,
    "daily_punctuality": {
        "Sunday": {
            "num_results": 6,
            "total": -4,
            "avg:": 0,
            "avg": 0
        },
        "Monday": {
            "num_results": 12,
            "total": 18,
            "avg:": 0,
            "avg": 2
        },
        "Tuesday": {
            "num_results": 12,
            "total": 84,
            "avg:": 0,
            "avg": 7
        },
        "Wednesday": {
            "num_results": 15,
            "total": 15,
            "avg:": 0,
            "avg": 1
        },
        "Thursday": {
            "num_results": 11,
            "total": 29,
            "avg:": 0,
            "avg": 3
        },
        "Friday": {
            "num_results": 8,
            "total": 22,
            "avg:": 0,
            "avg": 3
        },
        "Saturday": {
            "num_results": 16,
            "total": -349,
            "avg:": 0,
            "avg": -21
        }
    }
}