{
    "overall_punctuality": -1074,
    "overall_num": 80,
    "overall_avg": -13,
    "daily_punctuality": {
        "Sunday": {
            "num_results": 8,
            "total": -318,
            "avg:": 0,
            "avg": -39
        },
        "Monday": {
            "num_results": 12,
            "total": -528,
            "avg:": 0,
            "avg": -44
        },
        "Tuesday": {
            "num_results": 14,
            "total": -2686,
            "avg:": 0,
            "avg": -191
        },
        "Wednesday": {
            "num_results": 14,
            "total": 1065,
            "avg:": 0,
            "avg": 77
        },
        "Thursday": {
            "num_results": 11,
            "total": 2096,
            "avg:": 0,
            "avg": 191
        },
        "Friday": {
            "num_results": 7,
            "total": 1118,
            "avg:": 0,
            "avg": 160
        },
        "Saturday": {
            "num_results": 14,
            "total": -1821,
            "avg:": 0,
            "avg": -130
        }
    }
}