{
    "overall_punctuality": -382,
    "overall_num": 38,
    "overall_avg": -10,
    "daily_punctuality": {
        "Sunday": {
            "num_results": 3,
            "total": -22,
            "avg:": 0,
            "avg": -7
        },
        "Monday": {
            "num_results": 5,
            "total": -35,
            "avg:": 0,
            "avg": -7
        },
        "Tuesday": {
            "num_results": 7,
            "total": -286,
            "avg:": 0,
            "avg": -40
        },
        "Wednesday": {
            "num_results": 7,
            "total": -68,
            "avg:": 0,
            "avg": -9
        },
        "Thursday": {
            "num_results": 6,
            "total": 125,
            "avg:": 0,
            "avg": 21
        },
        "Friday": {
            "num_results": 4,
            "total": 3,
            "avg:": 0,
            "avg": 1
        },
        "Saturday": {
            "num_results": 6,
            "total": -99,
            "avg:": 0,
            "avg": -16
        }
    }
}