{
    "overall_punctuality": -320,
    "overall_num": 38,
    "overall_avg": -8,
    "daily_punctuality": {
        "Sunday": {
            "num_results": 3,
            "total": 2,
            "avg:": 0,
            "avg": 1
        },
        "Monday": {
            "num_results": 5,
            "total": -60,
            "avg:": 0,
            "avg": -12
        },
        "Tuesday": {
            "num_results": 7,
            "total": -372,
            "avg:": 0,
            "avg": -53
        },
        "Wednesday": {
            "num_results": 7,
            "total": -22,
            "avg:": 0,
            "avg": -3
        },
        "Thursday": {
            "num_results": 6,
            "total": 164,
            "avg:": 0,
            "avg": 28
        },
        "Friday": {
            "num_results": 4,
            "total": -89,
            "avg:": 0,
            "avg": -22
        },
        "Saturday": {
            "num_results": 6,
            "total": 57,
            "avg:": 0,
            "avg": 10
        }
    }
}