{
    "overall_punctuality": -4962,
    "overall_num": 46,
    "overall_avg": -107,
    "daily_punctuality": {
        "Sunday": {
            "num_results": 6,
            "total": -860,
            "avg:": 0,
            "avg": -143
        },
        "Monday": {
            "num_results": 6,
            "total": -2544,
            "avg:": 0,
            "avg": -424
        },
        "Tuesday": {
            "num_results": 7,
            "total": -3522,
            "avg:": 0,
            "avg": -503
        },
        "Wednesday": {
            "num_results": 8,
            "total": 1050,
            "avg:": 0,
            "avg": 132
        },
        "Thursday": {
            "num_results": 6,
            "total": 1990,
            "avg:": 0,
            "avg": 332
        },
        "Friday": {
            "num_results": 4,
            "total": 538,
            "avg:": 0,
            "avg": 135
        },
        "Saturday": {
            "num_results": 9,
            "total": -1614,
            "avg:": 0,
            "avg": -179
        }
    }
}