{
    "overall_punctuality": -3518,
    "overall_num": 45,
    "overall_avg": -78,
    "daily_punctuality": {
        "Sunday": {
            "num_results": 6,
            "total": -522,
            "avg:": 0,
            "avg": -87
        },
        "Monday": {
            "num_results": 5,
            "total": -528,
            "avg:": 0,
            "avg": -105
        },
        "Tuesday": {
            "num_results": 6,
            "total": -1976,
            "avg:": 0,
            "avg": -329
        },
        "Wednesday": {
            "num_results": 8,
            "total": 479,
            "avg:": 0,
            "avg": 60
        },
        "Thursday": {
            "num_results": 6,
            "total": 653,
            "avg:": 0,
            "avg": 109
        },
        "Friday": {
            "num_results": 4,
            "total": 746,
            "avg:": 0,
            "avg": 187
        },
        "Saturday": {
            "num_results": 10,
            "total": -2370,
            "avg:": 0,
            "avg": -237
        }
    }
}