{
    "overall_punctuality": -2931,
    "overall_num": 51,
    "overall_avg": -57,
    "daily_punctuality": {
        "Sunday": {
            "num_results": 6,
            "total": -859,
            "avg:": 0,
            "avg": -143
        },
        "Monday": {
            "num_results": 6,
            "total": -692,
            "avg:": 0,
            "avg": -115
        },
        "Tuesday": {
            "num_results": 8,
            "total": -2003,
            "avg:": 0,
            "avg": -250
        },
        "Wednesday": {
            "num_results": 8,
            "total": 1426,
            "avg:": 0,
            "avg": 179
        },
        "Thursday": {
            "num_results": 6,
            "total": 3205,
            "avg:": 0,
            "avg": 535
        },
        "Friday": {
            "num_results": 6,
            "total": 242,
            "avg:": 0,
            "avg": 41
        },
        "Saturday": {
            "num_results": 11,
            "total": -4250,
            "avg:": 0,
            "avg": -386
        }
    }
}