{
    "overall_punctuality": 20,
    "overall_num": 87,
    "overall_avg": 1,
    "daily_punctuality": {
        "Sunday": {
            "num_results": 9,
            "total": 131,
            "avg:": 0,
            "avg": 15
        },
        "Monday": {
            "num_results": 10,
            "total": -47,
            "avg:": 0,
            "avg": -4
        },
        "Tuesday": {
            "num_results": 15,
            "total": -66,
            "avg:": 0,
            "avg": -4
        },
        "Wednesday": {
            "num_results": 15,
            "total": 426,
            "avg:": 0,
            "avg": 29
        },
        "Thursday": {
            "num_results": 12,
            "total": 260,
            "avg:": 0,
            "avg": 22
        },
        "Friday": {
            "num_results": 8,
            "total": 224,
            "avg:": 0,
            "avg": 28
        },
        "Saturday": {
            "num_results": 18,
            "total": -908,
            "avg:": 0,
            "avg": -50
        }
    }
}