{
    "overall_punctuality": -4671,
    "overall_num": 47,
    "overall_avg": -99,
    "daily_punctuality": {
        "Sunday": {
            "num_results": 6,
            "total": -1835,
            "avg:": 0,
            "avg": -305
        },
        "Monday": {
            "num_results": 6,
            "total": -1583,
            "avg:": 0,
            "avg": -263
        },
        "Tuesday": {
            "num_results": 7,
            "total": -2696,
            "avg:": 0,
            "avg": -385
        },
        "Wednesday": {
            "num_results": 8,
            "total": 1060,
            "avg:": 0,
            "avg": 133
        },
        "Thursday": {
            "num_results": 6,
            "total": 2182,
            "avg:": 0,
            "avg": 364
        },
        "Friday": {
            "num_results": 4,
            "total": 553,
            "avg:": 0,
            "avg": 139
        },
        "Saturday": {
            "num_results": 10,
            "total": -2352,
            "avg:": 0,
            "avg": -235
        }
    }
}