{
    "overall_punctuality": 524,
    "overall_num": 77,
    "overall_avg": 7,
    "daily_punctuality": {
        "Sunday": {
            "num_results": 9,
            "total": 53,
            "avg:": 0,
            "avg": 6
        },
        "Monday": {
            "num_results": 9,
            "total": 99,
            "avg:": 0,
            "avg": 11
        },
        "Tuesday": {
            "num_results": 11,
            "total": -20,
            "avg:": 0,
            "avg": -1
        },
        "Wednesday": {
            "num_results": 12,
            "total": -122,
            "avg:": 0,
            "avg": -10
        },
        "Thursday": {
            "num_results": 8,
            "total": 41,
            "avg:": 0,
            "avg": 6
        },
        "Friday": {
            "num_results": 6,
            "total": 70,
            "avg:": 0,
            "avg": 12
        },
        "Saturday": {
            "num_results": 22,
            "total": 403,
            "avg:": 0,
            "avg": 19
        }
    }
}