{
    "overall_punctuality": -8441,
    "overall_num": 69,
    "overall_avg": -122,
    "daily_punctuality": {
        "Sunday": {
            "num_results": 6,
            "total": 501,
            "avg:": 0,
            "avg": 84
        },
        "Monday": {
            "num_results": 8,
            "total": -2818,
            "avg:": 0,
            "avg": -352
        },
        "Tuesday": {
            "num_results": 11,
            "total": -1135,
            "avg:": 0,
            "avg": -103
        },
        "Wednesday": {
            "num_results": 11,
            "total": -252,
            "avg:": 0,
            "avg": -22
        },
        "Thursday": {
            "num_results": 8,
            "total": 1356,
            "avg:": 0,
            "avg": 170
        },
        "Friday": {
            "num_results": 5,
            "total": -108,
            "avg:": 0,
            "avg": -21
        },
        "Saturday": {
            "num_results": 20,
            "total": -5985,
            "avg:": 0,
            "avg": -299
        }
    }
}