{
    "overall_punctuality": -1401,
    "overall_num": 66,
    "overall_avg": -21,
    "daily_punctuality": {
        "Sunday": {
            "num_results": 7,
            "total": 25,
            "avg:": 0,
            "avg": 4
        },
        "Monday": {
            "num_results": 9,
            "total": -948,
            "avg:": 0,
            "avg": -105
        },
        "Tuesday": {
            "num_results": 10,
            "total": -936,
            "avg:": 0,
            "avg": -93
        },
        "Wednesday": {
            "num_results": 10,
            "total": 253,
            "avg:": 0,
            "avg": 26
        },
        "Thursday": {
            "num_results": 9,
            "total": 741,
            "avg:": 0,
            "avg": 83
        },
        "Friday": {
            "num_results": 8,
            "total": 509,
            "avg:": 0,
            "avg": 64
        },
        "Saturday": {
            "num_results": 13,
            "total": -1045,
            "avg:": 0,
            "avg": -80
        }
    }
}