{
    "overall_punctuality": -4379,
    "overall_num": 61,
    "overall_avg": -71,
    "daily_punctuality": {
        "Sunday": {
            "num_results": 5,
            "total": -141,
            "avg:": 0,
            "avg": -28
        },
        "Monday": {
            "num_results": 7,
            "total": -433,
            "avg:": 0,
            "avg": -61
        },
        "Tuesday": {
            "num_results": 10,
            "total": -2569,
            "avg:": 0,
            "avg": -256
        },
        "Wednesday": {
            "num_results": 10,
            "total": 246,
            "avg:": 0,
            "avg": 25
        },
        "Thursday": {
            "num_results": 9,
            "total": 565,
            "avg:": 0,
            "avg": 63
        },
        "Friday": {
            "num_results": 6,
            "total": 160,
            "avg:": 0,
            "avg": 27
        },
        "Saturday": {
            "num_results": 14,
            "total": -2207,
            "avg:": 0,
            "avg": -157
        }
    }
}