{
    "overall_punctuality": -4381,
    "overall_num": 37,
    "overall_avg": -118,
    "daily_punctuality": {
        "Sunday": {
            "num_results": 3,
            "total": -57,
            "avg:": 0,
            "avg": -19
        },
        "Monday": {
            "num_results": 6,
            "total": -1942,
            "avg:": 0,
            "avg": -323
        },
        "Tuesday": {
            "num_results": 7,
            "total": -2342,
            "avg:": 0,
            "avg": -334
        },
        "Wednesday": {
            "num_results": 5,
            "total": 243,
            "avg:": 0,
            "avg": 49
        },
        "Thursday": {
            "num_results": 5,
            "total": 371,
            "avg:": 0,
            "avg": 75
        },
        "Friday": {
            "num_results": 4,
            "total": 8,
            "avg:": 0,
            "avg": 2
        },
        "Saturday": {
            "num_results": 7,
            "total": -662,
            "avg:": 0,
            "avg": -94
        }
    }
}