{
    "overall_punctuality": -1119,
    "overall_num": 45,
    "overall_avg": -24,
    "daily_punctuality": {
        "Sunday": {
            "num_results": 5,
            "total": -64,
            "avg:": 0,
            "avg": -12
        },
        "Monday": {
            "num_results": 6,
            "total": -66,
            "avg:": 0,
            "avg": -11
        },
        "Tuesday": {
            "num_results": 8,
            "total": -560,
            "avg:": 0,
            "avg": -70
        },
        "Wednesday": {
            "num_results": 6,
            "total": 403,
            "avg:": 0,
            "avg": 68
        },
        "Thursday": {
            "num_results": 4,
            "total": 205,
            "avg:": 0,
            "avg": 52
        },
        "Friday": {
            "num_results": 4,
            "total": 28,
            "avg:": 0,
            "avg": 7
        },
        "Saturday": {
            "num_results": 12,
            "total": -1065,
            "avg:": 0,
            "avg": -88
        }
    }
}