{
    "overall_punctuality": -1381,
    "overall_num": 60,
    "overall_avg": -23,
    "daily_punctuality": {
        "Sunday": {
            "num_results": 5,
            "total": -84,
            "avg:": 0,
            "avg": -16
        },
        "Monday": {
            "num_results": 8,
            "total": -212,
            "avg:": 0,
            "avg": -26
        },
        "Tuesday": {
            "num_results": 11,
            "total": -1853,
            "avg:": 0,
            "avg": -168
        },
        "Wednesday": {
            "num_results": 10,
            "total": 677,
            "avg:": 0,
            "avg": 68
        },
        "Thursday": {
            "num_results": 7,
            "total": 874,
            "avg:": 0,
            "avg": 125
        },
        "Friday": {
            "num_results": 6,
            "total": 135,
            "avg:": 0,
            "avg": 23
        },
        "Saturday": {
            "num_results": 13,
            "total": -918,
            "avg:": 0,
            "avg": -70
        }
    }
}