{
    "overall_punctuality": -1538,
    "overall_num": 60,
    "overall_avg": -25,
    "daily_punctuality": {
        "Sunday": {
            "num_results": 5,
            "total": -28,
            "avg:": 0,
            "avg": -5
        },
        "Monday": {
            "num_results": 8,
            "total": -218,
            "avg:": 0,
            "avg": -27
        },
        "Tuesday": {
            "num_results": 11,
            "total": -1845,
            "avg:": 0,
            "avg": -167
        },
        "Wednesday": {
            "num_results": 10,
            "total": 601,
            "avg:": 0,
            "avg": 61
        },
        "Thursday": {
            "num_results": 7,
            "total": 873,
            "avg:": 0,
            "avg": 125
        },
        "Friday": {
            "num_results": 6,
            "total": 54,
            "avg:": 0,
            "avg": 9
        },
        "Saturday": {
            "num_results": 13,
            "total": -975,
            "avg:": 0,
            "avg": -75
        }
    }
}