{
    "overall_punctuality": -18352,
    "overall_num": 151,
    "overall_avg": -121,
    "daily_punctuality": {
        "Sunday": {
            "num_results": 17,
            "total": -1612,
            "avg:": 0,
            "avg": -94
        },
        "Monday": {
            "num_results": 20,
            "total": -4993,
            "avg:": 0,
            "avg": -249
        },
        "Tuesday": {
            "num_results": 25,
            "total": -9672,
            "avg:": 0,
            "avg": -386
        },
        "Wednesday": {
            "num_results": 25,
            "total": 939,
            "avg:": 0,
            "avg": 38
        },
        "Thursday": {
            "num_results": 18,
            "total": 2514,
            "avg:": 0,
            "avg": 140
        },
        "Friday": {
            "num_results": 14,
            "total": 2045,
            "avg:": 0,
            "avg": 147
        },
        "Saturday": {
            "num_results": 32,
            "total": -7573,
            "avg:": 0,
            "avg": -236
        }
    }
}