{
    "overall_punctuality": 694,
    "overall_num": 70,
    "overall_avg": 10,
    "daily_punctuality": {
        "Sunday": {
            "num_results": 8,
            "total": -65,
            "avg:": 0,
            "avg": -8
        },
        "Monday": {
            "num_results": 9,
            "total": 121,
            "avg:": 0,
            "avg": 14
        },
        "Tuesday": {
            "num_results": 10,
            "total": -198,
            "avg:": 0,
            "avg": -19
        },
        "Wednesday": {
            "num_results": 12,
            "total": 6,
            "avg:": 0,
            "avg": 1
        },
        "Thursday": {
            "num_results": 10,
            "total": 337,
            "avg:": 0,
            "avg": 34
        },
        "Friday": {
            "num_results": 6,
            "total": 28,
            "avg:": 0,
            "avg": 5
        },
        "Saturday": {
            "num_results": 15,
            "total": 465,
            "avg:": 0,
            "avg": 31
        }
    }
}