{
    "overall_punctuality": 107,
    "overall_num": 68,
    "overall_avg": 2,
    "daily_punctuality": {
        "Sunday": {
            "num_results": 8,
            "total": 44,
            "avg:": 0,
            "avg": 6
        },
        "Monday": {
            "num_results": 9,
            "total": -207,
            "avg:": 0,
            "avg": -23
        },
        "Tuesday": {
            "num_results": 10,
            "total": -61,
            "avg:": 0,
            "avg": -6
        },
        "Wednesday": {
            "num_results": 11,
            "total": 27,
            "avg:": 0,
            "avg": 3
        },
        "Thursday": {
            "num_results": 9,
            "total": 191,
            "avg:": 0,
            "avg": 22
        },
        "Friday": {
            "num_results": 6,
            "total": -4,
            "avg:": 0,
            "avg": 0
        },
        "Saturday": {
            "num_results": 15,
            "total": 117,
            "avg:": 0,
            "avg": 8
        }
    }
}