{
    "overall_punctuality": -40,
    "overall_num": 18,
    "overall_avg": -2,
    "daily_punctuality": {
        "Sunday": {
            "num_results": 1,
            "total": 15,
            "avg:": 0,
            "avg": 15
        },
        "Monday": {
            "num_results": 1,
            "total": -125,
            "avg:": 0,
            "avg": -125
        },
        "Tuesday": {
            "num_results": 5,
            "total": 138,
            "avg:": 0,
            "avg": 28
        },
        "Wednesday": {
            "num_results": 3,
            "total": 26,
            "avg:": 0,
            "avg": 9
        },
        "Thursday": {
            "num_results": 0,
            "total": 0,
            "avg:": 0
        },
        "Friday": {
            "num_results": 2,
            "total": 7,
            "avg:": 0,
            "avg": 4
        },
        "Saturday": {
            "num_results": 6,
            "total": -101,
            "avg:": 0,
            "avg": -16
        }
    }
}