{
    "overall_punctuality": 316,
    "overall_num": 18,
    "overall_avg": 18,
    "daily_punctuality": {
        "Sunday": {
            "num_results": 1,
            "total": -14,
            "avg:": 0,
            "avg": -14
        },
        "Monday": {
            "num_results": 2,
            "total": 76,
            "avg:": 0,
            "avg": 38
        },
        "Tuesday": {
            "num_results": 4,
            "total": 150,
            "avg:": 0,
            "avg": 38
        },
        "Wednesday": {
            "num_results": 3,
            "total": -2,
            "avg:": 0,
            "avg": 0
        },
        "Thursday": {
            "num_results": 0,
            "total": 0,
            "avg:": 0
        },
        "Friday": {
            "num_results": 2,
            "total": 9,
            "avg:": 0,
            "avg": 5
        },
        "Saturday": {
            "num_results": 6,
            "total": 97,
            "avg:": 0,
            "avg": 17
        }
    }
}