{
    "overall_punctuality": 362,
    "overall_num": 88,
    "overall_avg": 5,
    "daily_punctuality": {
        "Sunday": {
            "num_results": 9,
            "total": -17,
            "avg:": 0,
            "avg": -1
        },
        "Monday": {
            "num_results": 11,
            "total": 66,
            "avg:": 0,
            "avg": 6
        },
        "Tuesday": {
            "num_results": 14,
            "total": 6,
            "avg:": 0,
            "avg": 1
        },
        "Wednesday": {
            "num_results": 15,
            "total": 96,
            "avg:": 0,
            "avg": 7
        },
        "Thursday": {
            "num_results": 10,
            "total": 140,
            "avg:": 0,
            "avg": 14
        },
        "Friday": {
            "num_results": 8,
            "total": -13,
            "avg:": 0,
            "avg": -1
        },
        "Saturday": {
            "num_results": 21,
            "total": 84,
            "avg:": 0,
            "avg": 4
        }
    }
}