{
    "overall_punctuality": -7936,
    "overall_num": 48,
    "overall_avg": -165,
    "daily_punctuality": {
        "Sunday": {
            "num_results": 6,
            "total": -850,
            "avg:": 0,
            "avg": -141
        },
        "Monday": {
            "num_results": 6,
            "total": -3347,
            "avg:": 0,
            "avg": -557
        },
        "Tuesday": {
            "num_results": 8,
            "total": -3877,
            "avg:": 0,
            "avg": -484
        },
        "Wednesday": {
            "num_results": 8,
            "total": 2540,
            "avg:": 0,
            "avg": 318
        },
        "Thursday": {
            "num_results": 6,
            "total": 1004,
            "avg:": 0,
            "avg": 168
        },
        "Friday": {
            "num_results": 4,
            "total": -383,
            "avg:": 0,
            "avg": -95
        },
        "Saturday": {
            "num_results": 10,
            "total": -3023,
            "avg:": 0,
            "avg": -302
        }
    }
}