{
    "overall_punctuality": 569,
    "overall_num": 53,
    "overall_avg": 11,
    "daily_punctuality": {
        "Sunday": {
            "num_results": 6,
            "total": -27,
            "avg:": 0,
            "avg": -4
        },
        "Monday": {
            "num_results": 6,
            "total": -68,
            "avg:": 0,
            "avg": -11
        },
        "Tuesday": {
            "num_results": 10,
            "total": -85,
            "avg:": 0,
            "avg": -8
        },
        "Wednesday": {
            "num_results": 9,
            "total": 88,
            "avg:": 0,
            "avg": 10
        },
        "Thursday": {
            "num_results": 6,
            "total": 140,
            "avg:": 0,
            "avg": 24
        },
        "Friday": {
            "num_results": 4,
            "total": 138,
            "avg:": 0,
            "avg": 35
        },
        "Saturday": {
            "num_results": 12,
            "total": 383,
            "avg:": 0,
            "avg": 32
        }
    }
}