{
    "overall_punctuality": 1072,
    "overall_num": 82,
    "overall_avg": 14,
    "daily_punctuality": {
        "Sunday": {
            "num_results": 8,
            "total": 62,
            "avg:": 0,
            "avg": 8
        },
        "Monday": {
            "num_results": 12,
            "total": 210,
            "avg:": 0,
            "avg": 18
        },
        "Tuesday": {
            "num_results": 12,
            "total": 102,
            "avg:": 0,
            "avg": 9
        },
        "Wednesday": {
            "num_results": 13,
            "total": 9,
            "avg:": 0,
            "avg": 1
        },
        "Thursday": {
            "num_results": 11,
            "total": 34,
            "avg:": 0,
            "avg": 4
        },
        "Friday": {
            "num_results": 8,
            "total": -83,
            "avg:": 0,
            "avg": -10
        },
        "Saturday": {
            "num_results": 18,
            "total": 738,
            "avg:": 0,
            "avg": 41
        }
    }
}