{
    "overall_punctuality": 1534,
    "overall_num": 80,
    "overall_avg": 20,
    "daily_punctuality": {
        "Sunday": {
            "num_results": 8,
            "total": 20,
            "avg:": 0,
            "avg": 3
        },
        "Monday": {
            "num_results": 12,
            "total": 238,
            "avg:": 0,
            "avg": 20
        },
        "Tuesday": {
            "num_results": 12,
            "total": 263,
            "avg:": 0,
            "avg": 22
        },
        "Wednesday": {
            "num_results": 12,
            "total": 228,
            "avg:": 0,
            "avg": 19
        },
        "Thursday": {
            "num_results": 10,
            "total": 279,
            "avg:": 0,
            "avg": 28
        },
        "Friday": {
            "num_results": 8,
            "total": 70,
            "avg:": 0,
            "avg": 9
        },
        "Saturday": {
            "num_results": 18,
            "total": 436,
            "avg:": 0,
            "avg": 25
        }
    }
}