{
    "overall_punctuality": -2664,
    "overall_num": 48,
    "overall_avg": -55,
    "daily_punctuality": {
        "Sunday": {
            "num_results": 6,
            "total": -1138,
            "avg:": 0,
            "avg": -189
        },
        "Monday": {
            "num_results": 6,
            "total": -1077,
            "avg:": 0,
            "avg": -179
        },
        "Tuesday": {
            "num_results": 8,
            "total": -2546,
            "avg:": 0,
            "avg": -318
        },
        "Wednesday": {
            "num_results": 8,
            "total": 2579,
            "avg:": 0,
            "avg": 323
        },
        "Thursday": {
            "num_results": 6,
            "total": 267,
            "avg:": 0,
            "avg": 45
        },
        "Friday": {
            "num_results": 4,
            "total": 68,
            "avg:": 0,
            "avg": 17
        },
        "Saturday": {
            "num_results": 10,
            "total": -817,
            "avg:": 0,
            "avg": -81
        }
    }
}