{
    "overall_punctuality": 1701,
    "overall_num": 50,
    "overall_avg": 35,
    "daily_punctuality": {
        "Sunday": {
            "num_results": 6,
            "total": 179,
            "avg:": 0,
            "avg": 30
        },
        "Monday": {
            "num_results": 6,
            "total": -34,
            "avg:": 0,
            "avg": -5
        },
        "Tuesday": {
            "num_results": 8,
            "total": -273,
            "avg:": 0,
            "avg": -34
        },
        "Wednesday": {
            "num_results": 8,
            "total": 389,
            "avg:": 0,
            "avg": 49
        },
        "Thursday": {
            "num_results": 6,
            "total": 263,
            "avg:": 0,
            "avg": 44
        },
        "Friday": {
            "num_results": 4,
            "total": 331,
            "avg:": 0,
            "avg": 83
        },
        "Saturday": {
            "num_results": 12,
            "total": 846,
            "avg:": 0,
            "avg": 71
        }
    }
}