{
    "overall_punctuality": -1249,
    "overall_num": 14,
    "overall_avg": -89,
    "daily_punctuality": {
        "Sunday": {
            "num_results": 0,
            "total": 0,
            "avg:": 0
        },
        "Monday": {
            "num_results": 0,
            "total": 0,
            "avg:": 0
        },
        "Tuesday": {
            "num_results": 4,
            "total": -1763,
            "avg:": 0,
            "avg": -440
        },
        "Wednesday": {
            "num_results": 3,
            "total": -6,
            "avg:": 0,
            "avg": -2
        },
        "Thursday": {
            "num_results": 3,
            "total": 829,
            "avg:": 0,
            "avg": 277
        },
        "Friday": {
            "num_results": 2,
            "total": -3,
            "avg:": 0,
            "avg": -1
        },
        "Saturday": {
            "num_results": 2,
            "total": -306,
            "avg:": 0,
            "avg": -153
        }
    }
}