{
    "overall_punctuality": -1587,
    "overall_num": 17,
    "overall_avg": -93,
    "daily_punctuality": {
        "Sunday": {
            "num_results": 2,
            "total": -263,
            "avg:": 0,
            "avg": -131
        },
        "Monday": {
            "num_results": 1,
            "total": -388,
            "avg:": 0,
            "avg": -388
        },
        "Tuesday": {
            "num_results": 4,
            "total": -1687,
            "avg:": 0,
            "avg": -421
        },
        "Wednesday": {
            "num_results": 3,
            "total": 219,
            "avg:": 0,
            "avg": 73
        },
        "Thursday": {
            "num_results": 3,
            "total": 815,
            "avg:": 0,
            "avg": 272
        },
        "Friday": {
            "num_results": 2,
            "total": 16,
            "avg:": 0,
            "avg": 8
        },
        "Saturday": {
            "num_results": 2,
            "total": -299,
            "avg:": 0,
            "avg": -149
        }
    }
}