{
    "overall_punctuality": 173,
    "overall_num": 17,
    "overall_avg": 11,
    "daily_punctuality": {
        "Sunday": {
            "num_results": 3,
            "total": 2,
            "avg:": 0,
            "avg": 1
        },
        "Monday": {
            "num_results": 2,
            "total": 13,
            "avg:": 0,
            "avg": 7
        },
        "Tuesday": {
            "num_results": 1,
            "total": 0,
            "avg:": 0,
            "avg": 0
        },
        "Wednesday": {
            "num_results": 4,
            "total": 64,
            "avg:": 0,
            "avg": 16
        },
        "Thursday": {
            "num_results": 3,
            "total": 49,
            "avg:": 0,
            "avg": 17
        },
        "Friday": {
            "num_results": 2,
            "total": 31,
            "avg:": 0,
            "avg": 16
        },
        "Saturday": {
            "num_results": 2,
            "total": 14,
            "avg:": 0,
            "avg": 7
        }
    }
}