{
    "overall_punctuality": 179,
    "overall_num": 14,
    "overall_avg": 13,
    "daily_punctuality": {
        "Sunday": {
            "num_results": 2,
            "total": 20,
            "avg:": 0,
            "avg": 10
        },
        "Monday": {
            "num_results": 2,
            "total": 16,
            "avg:": 0,
            "avg": 8
        },
        "Tuesday": {
            "num_results": 2,
            "total": 51,
            "avg:": 0,
            "avg": 26
        },
        "Wednesday": {
            "num_results": 3,
            "total": -53,
            "avg:": 0,
            "avg": -17
        },
        "Thursday": {
            "num_results": 0,
            "total": 0,
            "avg:": 0
        },
        "Friday": {
            "num_results": 2,
            "total": 5,
            "avg:": 0,
            "avg": 3
        },
        "Saturday": {
            "num_results": 3,
            "total": 140,
            "avg:": 0,
            "avg": 47
        }
    }
}