{
    "overall_punctuality": 986,
    "overall_num": 134,
    "overall_avg": 8,
    "daily_punctuality": {
        "Sunday": {
            "num_results": 21,
            "total": -2600,
            "avg:": 0,
            "avg": -123
        },
        "Monday": {
            "num_results": 15,
            "total": -575,
            "avg:": 0,
            "avg": -38
        },
        "Tuesday": {
            "num_results": 21,
            "total": -2687,
            "avg:": 0,
            "avg": -127
        },
        "Wednesday": {
            "num_results": 22,
            "total": 3284,
            "avg:": 0,
            "avg": 150
        },
        "Thursday": {
            "num_results": 16,
            "total": 1955,
            "avg:": 0,
            "avg": 123
        },
        "Friday": {
            "num_results": 14,
            "total": 2598,
            "avg:": 0,
            "avg": 186
        },
        "Saturday": {
            "num_results": 25,
            "total": -989,
            "avg:": 0,
            "avg": -39
        }
    }
}