{
    "overall_punctuality": 436,
    "overall_num": 29,
    "overall_avg": 16,
    "daily_punctuality": {
        "Sunday": {
            "num_results": 3,
            "total": 56,
            "avg:": 0,
            "avg": 19
        },
        "Monday": {
            "num_results": 3,
            "total": 137,
            "avg:": 0,
            "avg": 46
        },
        "Tuesday": {
            "num_results": 5,
            "total": -50,
            "avg:": 0,
            "avg": -10
        },
        "Wednesday": {
            "num_results": 4,
            "total": 0,
            "avg:": 0,
            "avg": 0
        },
        "Thursday": {
            "num_results": 5,
            "total": 226,
            "avg:": 0,
            "avg": 46
        },
        "Friday": {
            "num_results": 3,
            "total": 28,
            "avg:": 0,
            "avg": 10
        },
        "Saturday": {
            "num_results": 6,
            "total": 39,
            "avg:": 0,
            "avg": 7
        }
    }
}