{
    "overall_punctuality": -6314,
    "overall_num": 47,
    "overall_avg": -134,
    "daily_punctuality": {
        "Sunday": {
            "num_results": 6,
            "total": -1554,
            "avg:": 0,
            "avg": -259
        },
        "Monday": {
            "num_results": 6,
            "total": 212,
            "avg:": 0,
            "avg": 36
        },
        "Tuesday": {
            "num_results": 8,
            "total": -2383,
            "avg:": 0,
            "avg": -297
        },
        "Wednesday": {
            "num_results": 8,
            "total": 116,
            "avg:": 0,
            "avg": 15
        },
        "Thursday": {
            "num_results": 6,
            "total": 512,
            "avg:": 0,
            "avg": 86
        },
        "Friday": {
            "num_results": 4,
            "total": 531,
            "avg:": 0,
            "avg": 133
        },
        "Saturday": {
            "num_results": 9,
            "total": -3748,
            "avg:": 0,
            "avg": -416
        }
    }
}