{
    "overall_punctuality": -10080,
    "overall_num": 50,
    "overall_avg": -201,
    "daily_punctuality": {
        "Sunday": {
            "num_results": 6,
            "total": -1628,
            "avg:": 0,
            "avg": -271
        },
        "Monday": {
            "num_results": 6,
            "total": -1443,
            "avg:": 0,
            "avg": -240
        },
        "Tuesday": {
            "num_results": 8,
            "total": -3362,
            "avg:": 0,
            "avg": -420
        },
        "Wednesday": {
            "num_results": 8,
            "total": 209,
            "avg:": 0,
            "avg": 27
        },
        "Thursday": {
            "num_results": 6,
            "total": 518,
            "avg:": 0,
            "avg": 87
        },
        "Friday": {
            "num_results": 6,
            "total": 267,
            "avg:": 0,
            "avg": 45
        },
        "Saturday": {
            "num_results": 10,
            "total": -4641,
            "avg:": 0,
            "avg": -464
        }
    }
}