{
    "overall_punctuality": 677,
    "overall_num": 63,
    "overall_avg": 11,
    "daily_punctuality": {
        "Sunday": {
            "num_results": 7,
            "total": 78,
            "avg:": 0,
            "avg": 12
        },
        "Monday": {
            "num_results": 8,
            "total": 152,
            "avg:": 0,
            "avg": 19
        },
        "Tuesday": {
            "num_results": 11,
            "total": 103,
            "avg:": 0,
            "avg": 10
        },
        "Wednesday": {
            "num_results": 11,
            "total": 257,
            "avg:": 0,
            "avg": 24
        },
        "Thursday": {
            "num_results": 9,
            "total": 480,
            "avg:": 0,
            "avg": 54
        },
        "Friday": {
            "num_results": 6,
            "total": 35,
            "avg:": 0,
            "avg": 6
        },
        "Saturday": {
            "num_results": 11,
            "total": -428,
            "avg:": 0,
            "avg": -38
        }
    }
}