{
    "overall_punctuality": -4532,
    "overall_num": 75,
    "overall_avg": -60,
    "daily_punctuality": {
        "Sunday": {
            "num_results": 9,
            "total": 414,
            "avg:": 0,
            "avg": 46
        },
        "Monday": {
            "num_results": 11,
            "total": 231,
            "avg:": 0,
            "avg": 21
        },
        "Tuesday": {
            "num_results": 12,
            "total": -2446,
            "avg:": 0,
            "avg": -203
        },
        "Wednesday": {
            "num_results": 14,
            "total": 883,
            "avg:": 0,
            "avg": 64
        },
        "Thursday": {
            "num_results": 8,
            "total": 535,
            "avg:": 0,
            "avg": 67
        },
        "Friday": {
            "num_results": 9,
            "total": 798,
            "avg:": 0,
            "avg": 89
        },
        "Saturday": {
            "num_results": 12,
            "total": -4947,
            "avg:": 0,
            "avg": -412
        }
    }
}