{
    "overall_punctuality": 9,
    "overall_num": 26,
    "overall_avg": 1,
    "daily_punctuality": {
        "Sunday": {
            "num_results": 3,
            "total": 56,
            "avg:": 0,
            "avg": 19
        },
        "Monday": {
            "num_results": 4,
            "total": 32,
            "avg:": 0,
            "avg": 8
        },
        "Tuesday": {
            "num_results": 4,
            "total": -8,
            "avg:": 0,
            "avg": -2
        },
        "Wednesday": {
            "num_results": 4,
            "total": -49,
            "avg:": 0,
            "avg": -12
        },
        "Thursday": {
            "num_results": 3,
            "total": 32,
            "avg:": 0,
            "avg": 11
        },
        "Friday": {
            "num_results": 2,
            "total": -55,
            "avg:": 0,
            "avg": -27
        },
        "Saturday": {
            "num_results": 6,
            "total": 1,
            "avg:": 0,
            "avg": 1
        }
    }
}