{
    "overall_punctuality": 232,
    "overall_num": 26,
    "overall_avg": 9,
    "daily_punctuality": {
        "Sunday": {
            "num_results": 3,
            "total": 54,
            "avg:": 0,
            "avg": 18
        },
        "Monday": {
            "num_results": 4,
            "total": 50,
            "avg:": 0,
            "avg": 13
        },
        "Tuesday": {
            "num_results": 4,
            "total": 15,
            "avg:": 0,
            "avg": 4
        },
        "Wednesday": {
            "num_results": 5,
            "total": -23,
            "avg:": 0,
            "avg": -4
        },
        "Thursday": {
            "num_results": 3,
            "total": 46,
            "avg:": 0,
            "avg": 16
        },
        "Friday": {
            "num_results": 2,
            "total": -23,
            "avg:": 0,
            "avg": -11
        },
        "Saturday": {
            "num_results": 5,
            "total": 113,
            "avg:": 0,
            "avg": 23
        }
    }
}