{
    "overall_punctuality": 167,
    "overall_num": 27,
    "overall_avg": 7,
    "daily_punctuality": {
        "Sunday": {
            "num_results": 3,
            "total": 9,
            "avg:": 0,
            "avg": 3
        },
        "Monday": {
            "num_results": 3,
            "total": 46,
            "avg:": 0,
            "avg": 16
        },
        "Tuesday": {
            "num_results": 5,
            "total": 37,
            "avg:": 0,
            "avg": 8
        },
        "Wednesday": {
            "num_results": 5,
            "total": 5,
            "avg:": 0,
            "avg": 1
        },
        "Thursday": {
            "num_results": 3,
            "total": 13,
            "avg:": 0,
            "avg": 5
        },
        "Friday": {
            "num_results": 2,
            "total": 11,
            "avg:": 0,
            "avg": 6
        },
        "Saturday": {
            "num_results": 6,
            "total": 46,
            "avg:": 0,
            "avg": 8
        }
    }
}