{
    "overall_punctuality": -8270,
    "overall_num": 50,
    "overall_avg": -165,
    "daily_punctuality": {
        "Sunday": {
            "num_results": 6,
            "total": -127,
            "avg:": 0,
            "avg": -21
        },
        "Monday": {
            "num_results": 6,
            "total": -2449,
            "avg:": 0,
            "avg": -408
        },
        "Tuesday": {
            "num_results": 8,
            "total": -2844,
            "avg:": 0,
            "avg": -355
        },
        "Wednesday": {
            "num_results": 8,
            "total": 765,
            "avg:": 0,
            "avg": 96
        },
        "Thursday": {
            "num_results": 6,
            "total": 519,
            "avg:": 0,
            "avg": 87
        },
        "Friday": {
            "num_results": 6,
            "total": 1112,
            "avg:": 0,
            "avg": 186
        },
        "Saturday": {
            "num_results": 10,
            "total": -5246,
            "avg:": 0,
            "avg": -524
        }
    }
}