{
    "overall_punctuality": -95,
    "overall_num": 54,
    "overall_avg": -1,
    "daily_punctuality": {
        "Sunday": {
            "num_results": 6,
            "total": 72,
            "avg:": 0,
            "avg": 12
        },
        "Monday": {
            "num_results": 6,
            "total": -2,
            "avg:": 0,
            "avg": 0
        },
        "Tuesday": {
            "num_results": 8,
            "total": -179,
            "avg:": 0,
            "avg": -22
        },
        "Wednesday": {
            "num_results": 8,
            "total": 170,
            "avg:": 0,
            "avg": 22
        },
        "Thursday": {
            "num_results": 6,
            "total": 19,
            "avg:": 0,
            "avg": 4
        },
        "Friday": {
            "num_results": 6,
            "total": 138,
            "avg:": 0,
            "avg": 23
        },
        "Saturday": {
            "num_results": 14,
            "total": -313,
            "avg:": 0,
            "avg": -22
        }
    }
}