{
    "overall_punctuality": 667,
    "overall_num": 56,
    "overall_avg": 12,
    "daily_punctuality": {
        "Sunday": {
            "num_results": 6,
            "total": 44,
            "avg:": 0,
            "avg": 8
        },
        "Monday": {
            "num_results": 6,
            "total": 3,
            "avg:": 0,
            "avg": 1
        },
        "Tuesday": {
            "num_results": 8,
            "total": 71,
            "avg:": 0,
            "avg": 9
        },
        "Wednesday": {
            "num_results": 8,
            "total": 72,
            "avg:": 0,
            "avg": 9
        },
        "Thursday": {
            "num_results": 6,
            "total": 232,
            "avg:": 0,
            "avg": 39
        },
        "Friday": {
            "num_results": 6,
            "total": -14,
            "avg:": 0,
            "avg": -2
        },
        "Saturday": {
            "num_results": 16,
            "total": 259,
            "avg:": 0,
            "avg": 17
        }
    }
}