{
    "overall_punctuality": -54,
    "overall_num": 14,
    "overall_avg": -3,
    "daily_punctuality": {
        "Sunday": {
            "num_results": 0,
            "total": 0,
            "avg:": 0
        },
        "Monday": {
            "num_results": 2,
            "total": 28,
            "avg:": 0,
            "avg": 14
        },
        "Tuesday": {
            "num_results": 3,
            "total": 49,
            "avg:": 0,
            "avg": 17
        },
        "Wednesday": {
            "num_results": 3,
            "total": -29,
            "avg:": 0,
            "avg": -9
        },
        "Thursday": {
            "num_results": 2,
            "total": -48,
            "avg:": 0,
            "avg": -24
        },
        "Friday": {
            "num_results": 4,
            "total": -54,
            "avg:": 0,
            "avg": -13
        },
        "Saturday": {
            "num_results": 0,
            "total": 0,
            "avg:": 0
        }
    }
}