{
    "overall_punctuality": -11576,
    "overall_num": 96,
    "overall_avg": -120,
    "daily_punctuality": {
        "Sunday": {
            "num_results": 12,
            "total": -1764,
            "avg:": 0,
            "avg": -147
        },
        "Monday": {
            "num_results": 12,
            "total": -4496,
            "avg:": 0,
            "avg": -374
        },
        "Tuesday": {
            "num_results": 12,
            "total": -5164,
            "avg:": 0,
            "avg": -430
        },
        "Wednesday": {
            "num_results": 16,
            "total": 1900,
            "avg:": 0,
            "avg": 119
        },
        "Thursday": {
            "num_results": 12,
            "total": -732,
            "avg:": 0,
            "avg": -61
        },
        "Friday": {
            "num_results": 12,
            "total": 1012,
            "avg:": 0,
            "avg": 85
        },
        "Saturday": {
            "num_results": 20,
            "total": -2332,
            "avg:": 0,
            "avg": -116
        }
    }
}