{
    "overall_punctuality": -2049,
    "overall_num": 105,
    "overall_avg": -19,
    "daily_punctuality": {
        "Sunday": {
            "num_results": 12,
            "total": -339,
            "avg:": 0,
            "avg": -28
        },
        "Monday": {
            "num_results": 12,
            "total": -1065,
            "avg:": 0,
            "avg": -88
        },
        "Tuesday": {
            "num_results": 16,
            "total": -1632,
            "avg:": 0,
            "avg": -102
        },
        "Wednesday": {
            "num_results": 16,
            "total": 831,
            "avg:": 0,
            "avg": 52
        },
        "Thursday": {
            "num_results": 12,
            "total": 541,
            "avg:": 0,
            "avg": 46
        },
        "Friday": {
            "num_results": 12,
            "total": 971,
            "avg:": 0,
            "avg": 81
        },
        "Saturday": {
            "num_results": 25,
            "total": -1356,
            "avg:": 0,
            "avg": -54
        }
    }
}