{
    "overall_punctuality": -12122,
    "overall_num": 94,
    "overall_avg": -128,
    "daily_punctuality": {
        "Sunday": {
            "num_results": 12,
            "total": -1598,
            "avg:": 0,
            "avg": -133
        },
        "Monday": {
            "num_results": 12,
            "total": -4210,
            "avg:": 0,
            "avg": -350
        },
        "Tuesday": {
            "num_results": 14,
            "total": -5766,
            "avg:": 0,
            "avg": -411
        },
        "Wednesday": {
            "num_results": 16,
            "total": 2072,
            "avg:": 0,
            "avg": 130
        },
        "Thursday": {
            "num_results": 12,
            "total": -876,
            "avg:": 0,
            "avg": -73
        },
        "Friday": {
            "num_results": 12,
            "total": 684,
            "avg:": 0,
            "avg": 57
        },
        "Saturday": {
            "num_results": 16,
            "total": -2428,
            "avg:": 0,
            "avg": -151
        }
    }
}