{
    "overall_punctuality": -2680,
    "overall_num": 84,
    "overall_avg": -31,
    "daily_punctuality": {
        "Sunday": {
            "num_results": 12,
            "total": -315,
            "avg:": 0,
            "avg": -26
        },
        "Monday": {
            "num_results": 10,
            "total": -1067,
            "avg:": 0,
            "avg": -106
        },
        "Tuesday": {
            "num_results": 13,
            "total": -1298,
            "avg:": 0,
            "avg": -99
        },
        "Wednesday": {
            "num_results": 15,
            "total": 686,
            "avg:": 0,
            "avg": 46
        },
        "Thursday": {
            "num_results": 12,
            "total": 417,
            "avg:": 0,
            "avg": 35
        },
        "Friday": {
            "num_results": 8,
            "total": 17,
            "avg:": 0,
            "avg": 3
        },
        "Saturday": {
            "num_results": 14,
            "total": -1120,
            "avg:": 0,
            "avg": -80
        }
    }
}