{
    "overall_punctuality": -3197,
    "overall_num": 81,
    "overall_avg": -39,
    "daily_punctuality": {
        "Sunday": {
            "num_results": 12,
            "total": -349,
            "avg:": 0,
            "avg": -29
        },
        "Monday": {
            "num_results": 9,
            "total": -1369,
            "avg:": 0,
            "avg": -152
        },
        "Tuesday": {
            "num_results": 13,
            "total": -1159,
            "avg:": 0,
            "avg": -89
        },
        "Wednesday": {
            "num_results": 15,
            "total": 527,
            "avg:": 0,
            "avg": 36
        },
        "Thursday": {
            "num_results": 11,
            "total": 491,
            "avg:": 0,
            "avg": 45
        },
        "Friday": {
            "num_results": 8,
            "total": -108,
            "avg:": 0,
            "avg": -13
        },
        "Saturday": {
            "num_results": 13,
            "total": -1230,
            "avg:": 0,
            "avg": -94
        }
    }
}