{
    "overall_punctuality": -487,
    "overall_num": 1,
    "overall_avg": -487,
    "daily_punctuality": {
        "Sunday": {
            "num_results": 0,
            "total": 0,
            "avg:": 0
        },
        "Monday": {
            "num_results": 0,
            "total": 0,
            "avg:": 0
        },
        "Tuesday": {
            "num_results": 1,
            "total": -487,
            "avg:": 0,
            "avg": -487
        },
        "Wednesday": {
            "num_results": 0,
            "total": 0,
            "avg:": 0
        },
        "Thursday": {
            "num_results": 0,
            "total": 0,
            "avg:": 0
        },
        "Friday": {
            "num_results": 0,
            "total": 0,
            "avg:": 0
        },
        "Saturday": {
            "num_results": 0,
            "total": 0,
            "avg:": 0
        }
    }
}