{
    "overall_punctuality": 342,
    "overall_num": 71,
    "overall_avg": 5,
    "daily_punctuality": {
        "Sunday": {
            "num_results": 7,
            "total": 51,
            "avg:": 0,
            "avg": 8
        },
        "Monday": {
            "num_results": 10,
            "total": -279,
            "avg:": 0,
            "avg": -27
        },
        "Tuesday": {
            "num_results": 12,
            "total": 124,
            "avg:": 0,
            "avg": 11
        },
        "Wednesday": {
            "num_results": 10,
            "total": 836,
            "avg:": 0,
            "avg": 84
        },
        "Thursday": {
            "num_results": 9,
            "total": -181,
            "avg:": 0,
            "avg": -20
        },
        "Friday": {
            "num_results": 7,
            "total": -154,
            "avg:": 0,
            "avg": -22
        },
        "Saturday": {
            "num_results": 16,
            "total": -55,
            "avg:": 0,
            "avg": -3
        }
    }
}