{
    "overall_punctuality": 92314,
    "overall_num": 67,
    "overall_avg": 1378,
    "daily_punctuality": {
        "Sunday": {
            "num_results": 7,
            "total": 975,
            "avg:": 0,
            "avg": 140
        },
        "Monday": {
            "num_results": 8,
            "total": -81,
            "avg:": 0,
            "avg": -10
        },
        "Tuesday": {
            "num_results": 13,
            "total": 87527,
            "avg:": 0,
            "avg": 6733
        },
        "Wednesday": {
            "num_results": 14,
            "total": 3142,
            "avg:": 0,
            "avg": 225
        },
        "Thursday": {
            "num_results": 7,
            "total": 747,
            "avg:": 0,
            "avg": 107
        },
        "Friday": {
            "num_results": 6,
            "total": 239,
            "avg:": 0,
            "avg": 40
        },
        "Saturday": {
            "num_results": 12,
            "total": -235,
            "avg:": 0,
            "avg": -19
        }
    }
}