{
    "overall_punctuality": -257,
    "overall_num": 30,
    "overall_avg": -8,
    "daily_punctuality": {
        "Sunday": {
            "num_results": 3,
            "total": -40,
            "avg:": 0,
            "avg": -13
        },
        "Monday": {
            "num_results": 5,
            "total": 26,
            "avg:": 0,
            "avg": 6
        },
        "Tuesday": {
            "num_results": 5,
            "total": -22,
            "avg:": 0,
            "avg": -4
        },
        "Wednesday": {
            "num_results": 5,
            "total": -89,
            "avg:": 0,
            "avg": -17
        },
        "Thursday": {
            "num_results": 3,
            "total": -40,
            "avg:": 0,
            "avg": -13
        },
        "Friday": {
            "num_results": 4,
            "total": -41,
            "avg:": 0,
            "avg": -10
        },
        "Saturday": {
            "num_results": 5,
            "total": -51,
            "avg:": 0,
            "avg": -10
        }
    }
}