{
    "overall_punctuality": 3,
    "overall_num": 49,
    "overall_avg": 1,
    "daily_punctuality": {
        "Sunday": {
            "num_results": 6,
            "total": 16,
            "avg:": 0,
            "avg": 3
        },
        "Monday": {
            "num_results": 5,
            "total": -110,
            "avg:": 0,
            "avg": -22
        },
        "Tuesday": {
            "num_results": 8,
            "total": -85,
            "avg:": 0,
            "avg": -10
        },
        "Wednesday": {
            "num_results": 8,
            "total": -17,
            "avg:": 0,
            "avg": -2
        },
        "Thursday": {
            "num_results": 6,
            "total": 26,
            "avg:": 0,
            "avg": 5
        },
        "Friday": {
            "num_results": 4,
            "total": 34,
            "avg:": 0,
            "avg": 9
        },
        "Saturday": {
            "num_results": 12,
            "total": 139,
            "avg:": 0,
            "avg": 12
        }
    }
}