{
    "overall_punctuality": -1370,
    "overall_num": 49,
    "overall_avg": -27,
    "daily_punctuality": {
        "Sunday": {
            "num_results": 5,
            "total": -343,
            "avg:": 0,
            "avg": -68
        },
        "Monday": {
            "num_results": 5,
            "total": -444,
            "avg:": 0,
            "avg": -88
        },
        "Tuesday": {
            "num_results": 9,
            "total": -1257,
            "avg:": 0,
            "avg": -139
        },
        "Wednesday": {
            "num_results": 9,
            "total": 495,
            "avg:": 0,
            "avg": 55
        },
        "Thursday": {
            "num_results": 6,
            "total": 98,
            "avg:": 0,
            "avg": 17
        },
        "Friday": {
            "num_results": 5,
            "total": -34,
            "avg:": 0,
            "avg": -6
        },
        "Saturday": {
            "num_results": 10,
            "total": 115,
            "avg:": 0,
            "avg": 12
        }
    }
}