{
    "overall_punctuality": 1284,
    "overall_num": 90,
    "overall_avg": 15,
    "daily_punctuality": {
        "Sunday": {
            "num_results": 9,
            "total": -78,
            "avg:": 0,
            "avg": -8
        },
        "Monday": {
            "num_results": 11,
            "total": 65,
            "avg:": 0,
            "avg": 6
        },
        "Tuesday": {
            "num_results": 15,
            "total": 322,
            "avg:": 0,
            "avg": 22
        },
        "Wednesday": {
            "num_results": 15,
            "total": 889,
            "avg:": 0,
            "avg": 60
        },
        "Thursday": {
            "num_results": 12,
            "total": 115,
            "avg:": 0,
            "avg": 10
        },
        "Friday": {
            "num_results": 10,
            "total": -36,
            "avg:": 0,
            "avg": -3
        },
        "Saturday": {
            "num_results": 18,
            "total": 7,
            "avg:": 0,
            "avg": 1
        }
    }
}