{
    "overall_punctuality": -75,
    "overall_num": 29,
    "overall_avg": -2,
    "daily_punctuality": {
        "Sunday": {
            "num_results": 3,
            "total": -62,
            "avg:": 0,
            "avg": -20
        },
        "Monday": {
            "num_results": 5,
            "total": -227,
            "avg:": 0,
            "avg": -45
        },
        "Tuesday": {
            "num_results": 5,
            "total": 160,
            "avg:": 0,
            "avg": 32
        },
        "Wednesday": {
            "num_results": 5,
            "total": 40,
            "avg:": 0,
            "avg": 8
        },
        "Thursday": {
            "num_results": 3,
            "total": -29,
            "avg:": 0,
            "avg": -9
        },
        "Friday": {
            "num_results": 4,
            "total": 1,
            "avg:": 0,
            "avg": 1
        },
        "Saturday": {
            "num_results": 4,
            "total": 42,
            "avg:": 0,
            "avg": 11
        }
    }
}