{
    "overall_punctuality": -8936,
    "overall_num": 133,
    "overall_avg": -67,
    "daily_punctuality": {
        "Sunday": {
            "num_results": 15,
            "total": -1769,
            "avg:": 0,
            "avg": -117
        },
        "Monday": {
            "num_results": 17,
            "total": -4056,
            "avg:": 0,
            "avg": -238
        },
        "Tuesday": {
            "num_results": 19,
            "total": -2812,
            "avg:": 0,
            "avg": -148
        },
        "Wednesday": {
            "num_results": 21,
            "total": 3890,
            "avg:": 0,
            "avg": 186
        },
        "Thursday": {
            "num_results": 16,
            "total": 1623,
            "avg:": 0,
            "avg": 102
        },
        "Friday": {
            "num_results": 15,
            "total": 1033,
            "avg:": 0,
            "avg": 69
        },
        "Saturday": {
            "num_results": 30,
            "total": -6845,
            "avg:": 0,
            "avg": -228
        }
    }
}