{
    "overall_punctuality": -8730,
    "overall_num": 134,
    "overall_avg": -65,
    "daily_punctuality": {
        "Sunday": {
            "num_results": 15,
            "total": -1767,
            "avg:": 0,
            "avg": -117
        },
        "Monday": {
            "num_results": 17,
            "total": -4611,
            "avg:": 0,
            "avg": -271
        },
        "Tuesday": {
            "num_results": 19,
            "total": -3274,
            "avg:": 0,
            "avg": -172
        },
        "Wednesday": {
            "num_results": 21,
            "total": 4178,
            "avg:": 0,
            "avg": 199
        },
        "Thursday": {
            "num_results": 17,
            "total": 3004,
            "avg:": 0,
            "avg": 177
        },
        "Friday": {
            "num_results": 15,
            "total": 749,
            "avg:": 0,
            "avg": 50
        },
        "Saturday": {
            "num_results": 30,
            "total": -7009,
            "avg:": 0,
            "avg": -233
        }
    }
}