{
    "overall_punctuality": 1915,
    "overall_num": 140,
    "overall_avg": 14,
    "daily_punctuality": {
        "Sunday": {
            "num_results": 15,
            "total": 562,
            "avg:": 0,
            "avg": 38
        },
        "Monday": {
            "num_results": 16,
            "total": -157,
            "avg:": 0,
            "avg": -9
        },
        "Tuesday": {
            "num_results": 22,
            "total": 273,
            "avg:": 0,
            "avg": 13
        },
        "Wednesday": {
            "num_results": 24,
            "total": 885,
            "avg:": 0,
            "avg": 37
        },
        "Thursday": {
            "num_results": 15,
            "total": 482,
            "avg:": 0,
            "avg": 33
        },
        "Friday": {
            "num_results": 16,
            "total": 1094,
            "avg:": 0,
            "avg": 69
        },
        "Saturday": {
            "num_results": 32,
            "total": -1224,
            "avg:": 0,
            "avg": -38
        }
    }
}