{
    "overall_punctuality": 1447,
    "overall_num": 108,
    "overall_avg": 14,
    "daily_punctuality": {
        "Sunday": {
            "num_results": 12,
            "total": 358,
            "avg:": 0,
            "avg": 30
        },
        "Monday": {
            "num_results": 12,
            "total": 242,
            "avg:": 0,
            "avg": 21
        },
        "Tuesday": {
            "num_results": 16,
            "total": -50,
            "avg:": 0,
            "avg": -3
        },
        "Wednesday": {
            "num_results": 16,
            "total": 654,
            "avg:": 0,
            "avg": 41
        },
        "Thursday": {
            "num_results": 12,
            "total": 617,
            "avg:": 0,
            "avg": 52
        },
        "Friday": {
            "num_results": 12,
            "total": 949,
            "avg:": 0,
            "avg": 80
        },
        "Saturday": {
            "num_results": 28,
            "total": -1323,
            "avg:": 0,
            "avg": -47
        }
    }
}