{
    "overall_punctuality": 1912,
    "overall_num": 37,
    "overall_avg": 52,
    "daily_punctuality": {
        "Sunday": {
            "num_results": 3,
            "total": 368,
            "avg:": 0,
            "avg": 123
        },
        "Monday": {
            "num_results": 5,
            "total": -196,
            "avg:": 0,
            "avg": -39
        },
        "Tuesday": {
            "num_results": 9,
            "total": 821,
            "avg:": 0,
            "avg": 92
        },
        "Wednesday": {
            "num_results": 7,
            "total": 219,
            "avg:": 0,
            "avg": 32
        },
        "Thursday": {
            "num_results": 4,
            "total": 987,
            "avg:": 0,
            "avg": 247
        },
        "Friday": {
            "num_results": 4,
            "total": 249,
            "avg:": 0,
            "avg": 63
        },
        "Saturday": {
            "num_results": 5,
            "total": -536,
            "avg:": 0,
            "avg": -107
        }
    }
}