{
    "overall_punctuality": -3612,
    "overall_num": 45,
    "overall_avg": -80,
    "daily_punctuality": {
        "Sunday": {
            "num_results": 4,
            "total": -171,
            "avg:": 0,
            "avg": -42
        },
        "Monday": {
            "num_results": 4,
            "total": -319,
            "avg:": 0,
            "avg": -79
        },
        "Tuesday": {
            "num_results": 10,
            "total": -3577,
            "avg:": 0,
            "avg": -357
        },
        "Wednesday": {
            "num_results": 8,
            "total": 368,
            "avg:": 0,
            "avg": 46
        },
        "Thursday": {
            "num_results": 7,
            "total": 353,
            "avg:": 0,
            "avg": 51
        },
        "Friday": {
            "num_results": 4,
            "total": 274,
            "avg:": 0,
            "avg": 69
        },
        "Saturday": {
            "num_results": 8,
            "total": -540,
            "avg:": 0,
            "avg": -67
        }
    }
}