{
    "overall_punctuality": -214,
    "overall_num": 104,
    "overall_avg": -2,
    "daily_punctuality": {
        "Sunday": {
            "num_results": 12,
            "total": -2,
            "avg:": 0,
            "avg": 0
        },
        "Monday": {
            "num_results": 12,
            "total": -40,
            "avg:": 0,
            "avg": -3
        },
        "Tuesday": {
            "num_results": 16,
            "total": -56,
            "avg:": 0,
            "avg": -3
        },
        "Wednesday": {
            "num_results": 16,
            "total": -105,
            "avg:": 0,
            "avg": -6
        },
        "Thursday": {
            "num_results": 12,
            "total": 4,
            "avg:": 0,
            "avg": 1
        },
        "Friday": {
            "num_results": 10,
            "total": 31,
            "avg:": 0,
            "avg": 4
        },
        "Saturday": {
            "num_results": 26,
            "total": -46,
            "avg:": 0,
            "avg": -1
        }
    }
}