{
    "overall_punctuality": 223,
    "overall_num": 25,
    "overall_avg": 9,
    "daily_punctuality": {
        "Sunday": {
            "num_results": 3,
            "total": -43,
            "avg:": 0,
            "avg": -14
        },
        "Monday": {
            "num_results": 2,
            "total": 30,
            "avg:": 0,
            "avg": 15
        },
        "Tuesday": {
            "num_results": 4,
            "total": -21,
            "avg:": 0,
            "avg": -5
        },
        "Wednesday": {
            "num_results": 6,
            "total": 331,
            "avg:": 0,
            "avg": 56
        },
        "Thursday": {
            "num_results": 3,
            "total": -8,
            "avg:": 0,
            "avg": -2
        },
        "Friday": {
            "num_results": 2,
            "total": -67,
            "avg:": 0,
            "avg": -33
        },
        "Saturday": {
            "num_results": 5,
            "total": 1,
            "avg:": 0,
            "avg": 1
        }
    }
}