{
    "overall_punctuality": 25,
    "overall_num": 26,
    "overall_avg": 1,
    "daily_punctuality": {
        "Sunday": {
            "num_results": 3,
            "total": 7,
            "avg:": 0,
            "avg": 3
        },
        "Monday": {
            "num_results": 3,
            "total": 32,
            "avg:": 0,
            "avg": 11
        },
        "Tuesday": {
            "num_results": 6,
            "total": -99,
            "avg:": 0,
            "avg": -16
        },
        "Wednesday": {
            "num_results": 4,
            "total": 35,
            "avg:": 0,
            "avg": 9
        },
        "Thursday": {
            "num_results": 3,
            "total": 79,
            "avg:": 0,
            "avg": 27
        },
        "Friday": {
            "num_results": 2,
            "total": 17,
            "avg:": 0,
            "avg": 9
        },
        "Saturday": {
            "num_results": 5,
            "total": -46,
            "avg:": 0,
            "avg": -9
        }
    }
}