{
    "overall_punctuality": -4083,
    "overall_num": 20,
    "overall_avg": -204,
    "daily_punctuality": {
        "Sunday": {
            "num_results": 3,
            "total": -710,
            "avg:": 0,
            "avg": -236
        },
        "Monday": {
            "num_results": 3,
            "total": -1431,
            "avg:": 0,
            "avg": -477
        },
        "Tuesday": {
            "num_results": 4,
            "total": -1296,
            "avg:": 0,
            "avg": -324
        },
        "Wednesday": {
            "num_results": 4,
            "total": 248,
            "avg:": 0,
            "avg": 62
        },
        "Thursday": {
            "num_results": 2,
            "total": -6,
            "avg:": 0,
            "avg": -3
        },
        "Friday": {
            "num_results": 1,
            "total": -6,
            "avg:": 0,
            "avg": -6
        },
        "Saturday": {
            "num_results": 3,
            "total": -882,
            "avg:": 0,
            "avg": -294
        }
    }
}