{
    "overall_punctuality": 9,
    "overall_num": 22,
    "overall_avg": 1,
    "daily_punctuality": {
        "Sunday": {
            "num_results": 2,
            "total": 12,
            "avg:": 0,
            "avg": 6
        },
        "Monday": {
            "num_results": 3,
            "total": -33,
            "avg:": 0,
            "avg": -11
        },
        "Tuesday": {
            "num_results": 2,
            "total": -21,
            "avg:": 0,
            "avg": -10
        },
        "Wednesday": {
            "num_results": 4,
            "total": -18,
            "avg:": 0,
            "avg": -4
        },
        "Thursday": {
            "num_results": 2,
            "total": 18,
            "avg:": 0,
            "avg": 9
        },
        "Friday": {
            "num_results": 3,
            "total": -39,
            "avg:": 0,
            "avg": -13
        },
        "Saturday": {
            "num_results": 6,
            "total": 90,
            "avg:": 0,
            "avg": 15
        }
    }
}