{
    "overall_punctuality": -208,
    "overall_num": 22,
    "overall_avg": -9,
    "daily_punctuality": {
        "Sunday": {
            "num_results": 2,
            "total": 16,
            "avg:": 0,
            "avg": 8
        },
        "Monday": {
            "num_results": 3,
            "total": -51,
            "avg:": 0,
            "avg": -17
        },
        "Tuesday": {
            "num_results": 2,
            "total": 11,
            "avg:": 0,
            "avg": 6
        },
        "Wednesday": {
            "num_results": 3,
            "total": -10,
            "avg:": 0,
            "avg": -3
        },
        "Thursday": {
            "num_results": 2,
            "total": -37,
            "avg:": 0,
            "avg": -18
        },
        "Friday": {
            "num_results": 3,
            "total": -59,
            "avg:": 0,
            "avg": -19
        },
        "Saturday": {
            "num_results": 7,
            "total": -78,
            "avg:": 0,
            "avg": -11
        }
    }
}