{
    "overall_punctuality": -2320,
    "overall_num": 22,
    "overall_avg": -105,
    "daily_punctuality": {
        "Sunday": {
            "num_results": 3,
            "total": -882,
            "avg:": 0,
            "avg": -294
        },
        "Monday": {
            "num_results": 1,
            "total": -182,
            "avg:": 0,
            "avg": -182
        },
        "Tuesday": {
            "num_results": 4,
            "total": -1094,
            "avg:": 0,
            "avg": -273
        },
        "Wednesday": {
            "num_results": 4,
            "total": 122,
            "avg:": 0,
            "avg": 31
        },
        "Thursday": {
            "num_results": 3,
            "total": 274,
            "avg:": 0,
            "avg": 92
        },
        "Friday": {
            "num_results": 2,
            "total": -28,
            "avg:": 0,
            "avg": -14
        },
        "Saturday": {
            "num_results": 5,
            "total": -530,
            "avg:": 0,
            "avg": -106
        }
    }
}