{
    "overall_punctuality": 1065,
    "overall_num": 79,
    "overall_avg": 14,
    "daily_punctuality": {
        "Sunday": {
            "num_results": 9,
            "total": 50,
            "avg:": 0,
            "avg": 6
        },
        "Monday": {
            "num_results": 8,
            "total": 171,
            "avg:": 0,
            "avg": 22
        },
        "Tuesday": {
            "num_results": 13,
            "total": -317,
            "avg:": 0,
            "avg": -24
        },
        "Wednesday": {
            "num_results": 13,
            "total": 461,
            "avg:": 0,
            "avg": 36
        },
        "Thursday": {
            "num_results": 9,
            "total": 155,
            "avg:": 0,
            "avg": 18
        },
        "Friday": {
            "num_results": 9,
            "total": 191,
            "avg:": 0,
            "avg": 22
        },
        "Saturday": {
            "num_results": 18,
            "total": 354,
            "avg:": 0,
            "avg": 20
        }
    }
}