{
    "overall_punctuality": -787,
    "overall_num": 23,
    "overall_avg": -34,
    "daily_punctuality": {
        "Sunday": {
            "num_results": 2,
            "total": -319,
            "avg:": 0,
            "avg": -159
        },
        "Monday": {
            "num_results": 1,
            "total": 127,
            "avg:": 0,
            "avg": 127
        },
        "Tuesday": {
            "num_results": 4,
            "total": -1497,
            "avg:": 0,
            "avg": -374
        },
        "Wednesday": {
            "num_results": 4,
            "total": -66,
            "avg:": 0,
            "avg": -16
        },
        "Thursday": {
            "num_results": 3,
            "total": 426,
            "avg:": 0,
            "avg": 142
        },
        "Friday": {
            "num_results": 3,
            "total": 92,
            "avg:": 0,
            "avg": 31
        },
        "Saturday": {
            "num_results": 6,
            "total": 450,
            "avg:": 0,
            "avg": 75
        }
    }
}