{
    "overall_punctuality": 654,
    "overall_num": 48,
    "overall_avg": 14,
    "daily_punctuality": {
        "Sunday": {
            "num_results": 6,
            "total": -9,
            "avg:": 0,
            "avg": -1
        },
        "Monday": {
            "num_results": 6,
            "total": 309,
            "avg:": 0,
            "avg": 52
        },
        "Tuesday": {
            "num_results": 8,
            "total": -29,
            "avg:": 0,
            "avg": -3
        },
        "Wednesday": {
            "num_results": 8,
            "total": 119,
            "avg:": 0,
            "avg": 15
        },
        "Thursday": {
            "num_results": 6,
            "total": 129,
            "avg:": 0,
            "avg": 22
        },
        "Friday": {
            "num_results": 3,
            "total": 62,
            "avg:": 0,
            "avg": 21
        },
        "Saturday": {
            "num_results": 11,
            "total": 73,
            "avg:": 0,
            "avg": 7
        }
    }
}