{
    "overall_punctuality": 2001,
    "overall_num": 5,
    "overall_avg": 401,
    "daily_punctuality": {
        "Sunday": {
            "num_results": 0,
            "total": 0,
            "avg:": 0
        },
        "Monday": {
            "num_results": 1,
            "total": -26,
            "avg:": 0,
            "avg": -26
        },
        "Tuesday": {
            "num_results": 2,
            "total": -52,
            "avg:": 0,
            "avg": -26
        },
        "Wednesday": {
            "num_results": 2,
            "total": 2079,
            "avg:": 0,
            "avg": 1040
        },
        "Thursday": {
            "num_results": 0,
            "total": 0,
            "avg:": 0
        },
        "Friday": {
            "num_results": 0,
            "total": 0,
            "avg:": 0
        },
        "Saturday": {
            "num_results": 0,
            "total": 0,
            "avg:": 0
        }
    }
}