{
    "overall_punctuality": 44,
    "overall_num": 5,
    "overall_avg": 9,
    "daily_punctuality": {
        "Sunday": {
            "num_results": 0,
            "total": 0,
            "avg:": 0
        },
        "Monday": {
            "num_results": 1,
            "total": -2,
            "avg:": 0,
            "avg": -2
        },
        "Tuesday": {
            "num_results": 1,
            "total": -2,
            "avg:": 0,
            "avg": -2
        },
        "Wednesday": {
            "num_results": 1,
            "total": 16,
            "avg:": 0,
            "avg": 16
        },
        "Thursday": {
            "num_results": 1,
            "total": 16,
            "avg:": 0,
            "avg": 16
        },
        "Friday": {
            "num_results": 1,
            "total": 16,
            "avg:": 0,
            "avg": 16
        },
        "Saturday": {
            "num_results": 0,
            "total": 0,
            "avg:": 0
        }
    }
}