{
    "overall_punctuality": 1893,
    "overall_num": 136,
    "overall_avg": 14,
    "daily_punctuality": {
        "Sunday": {
            "num_results": 21,
            "total": -23,
            "avg:": 0,
            "avg": -1
        },
        "Monday": {
            "num_results": 16,
            "total": -444,
            "avg:": 0,
            "avg": -27
        },
        "Tuesday": {
            "num_results": 22,
            "total": -2533,
            "avg:": 0,
            "avg": -115
        },
        "Wednesday": {
            "num_results": 22,
            "total": 2939,
            "avg:": 0,
            "avg": 134
        },
        "Thursday": {
            "num_results": 16,
            "total": 621,
            "avg:": 0,
            "avg": 39
        },
        "Friday": {
            "num_results": 14,
            "total": 2082,
            "avg:": 0,
            "avg": 149
        },
        "Saturday": {
            "num_results": 25,
            "total": -749,
            "avg:": 0,
            "avg": -29
        }
    }
}