{
    "overall_punctuality": 1086,
    "overall_num": 47,
    "overall_avg": 24,
    "daily_punctuality": {
        "Sunday": {
            "num_results": 6,
            "total": -12,
            "avg:": 0,
            "avg": -2
        },
        "Monday": {
            "num_results": 6,
            "total": 534,
            "avg:": 0,
            "avg": 89
        },
        "Tuesday": {
            "num_results": 7,
            "total": -205,
            "avg:": 0,
            "avg": -29
        },
        "Wednesday": {
            "num_results": 8,
            "total": 73,
            "avg:": 0,
            "avg": 10
        },
        "Thursday": {
            "num_results": 6,
            "total": 951,
            "avg:": 0,
            "avg": 159
        },
        "Friday": {
            "num_results": 4,
            "total": -81,
            "avg:": 0,
            "avg": -20
        },
        "Saturday": {
            "num_results": 10,
            "total": -174,
            "avg:": 0,
            "avg": -17
        }
    }
}