{
    "overall_punctuality": 500,
    "overall_num": 25,
    "overall_avg": 20,
    "daily_punctuality": {
        "Sunday": {
            "num_results": 3,
            "total": 236,
            "avg:": 0,
            "avg": 79
        },
        "Monday": {
            "num_results": 4,
            "total": 183,
            "avg:": 0,
            "avg": 46
        },
        "Tuesday": {
            "num_results": 4,
            "total": 37,
            "avg:": 0,
            "avg": 10
        },
        "Wednesday": {
            "num_results": 4,
            "total": -27,
            "avg:": 0,
            "avg": -6
        },
        "Thursday": {
            "num_results": 3,
            "total": 9,
            "avg:": 0,
            "avg": 3
        },
        "Friday": {
            "num_results": 2,
            "total": 10,
            "avg:": 0,
            "avg": 5
        },
        "Saturday": {
            "num_results": 5,
            "total": 52,
            "avg:": 0,
            "avg": 11
        }
    }
}