{
    "overall_punctuality": 309,
    "overall_num": 29,
    "overall_avg": 11,
    "daily_punctuality": {
        "Sunday": {
            "num_results": 3,
            "total": 225,
            "avg:": 0,
            "avg": 75
        },
        "Monday": {
            "num_results": 4,
            "total": 126,
            "avg:": 0,
            "avg": 32
        },
        "Tuesday": {
            "num_results": 5,
            "total": -97,
            "avg:": 0,
            "avg": -19
        },
        "Wednesday": {
            "num_results": 5,
            "total": -32,
            "avg:": 0,
            "avg": -6
        },
        "Thursday": {
            "num_results": 3,
            "total": 17,
            "avg:": 0,
            "avg": 6
        },
        "Friday": {
            "num_results": 2,
            "total": -11,
            "avg:": 0,
            "avg": -5
        },
        "Saturday": {
            "num_results": 7,
            "total": 81,
            "avg:": 0,
            "avg": 12
        }
    }
}