{
    "overall_punctuality": 355,
    "overall_num": 33,
    "overall_avg": 11,
    "daily_punctuality": {
        "Sunday": {
            "num_results": 3,
            "total": 882,
            "avg:": 0,
            "avg": 294
        },
        "Monday": {
            "num_results": 5,
            "total": -1185,
            "avg:": 0,
            "avg": -237
        },
        "Tuesday": {
            "num_results": 5,
            "total": -116,
            "avg:": 0,
            "avg": -23
        },
        "Wednesday": {
            "num_results": 5,
            "total": 266,
            "avg:": 0,
            "avg": 54
        },
        "Thursday": {
            "num_results": 5,
            "total": -387,
            "avg:": 0,
            "avg": -77
        },
        "Friday": {
            "num_results": 5,
            "total": 770,
            "avg:": 0,
            "avg": 154
        },
        "Saturday": {
            "num_results": 5,
            "total": 125,
            "avg:": 0,
            "avg": 25
        }
    }
}