{
    "overall_punctuality": 91,
    "overall_num": 53,
    "overall_avg": 2,
    "daily_punctuality": {
        "Sunday": {
            "num_results": 6,
            "total": 1,
            "avg:": 0,
            "avg": 1
        },
        "Monday": {
            "num_results": 7,
            "total": -519,
            "avg:": 0,
            "avg": -74
        },
        "Tuesday": {
            "num_results": 8,
            "total": -378,
            "avg:": 0,
            "avg": -47
        },
        "Wednesday": {
            "num_results": 8,
            "total": 72,
            "avg:": 0,
            "avg": 9
        },
        "Thursday": {
            "num_results": 8,
            "total": 1327,
            "avg:": 0,
            "avg": 166
        },
        "Friday": {
            "num_results": 6,
            "total": 127,
            "avg:": 0,
            "avg": 22
        },
        "Saturday": {
            "num_results": 10,
            "total": -539,
            "avg:": 0,
            "avg": -53
        }
    }
}