{
    "overall_punctuality": -131,
    "overall_num": 52,
    "overall_avg": -2,
    "daily_punctuality": {
        "Sunday": {
            "num_results": 6,
            "total": 25,
            "avg:": 0,
            "avg": 5
        },
        "Monday": {
            "num_results": 7,
            "total": -519,
            "avg:": 0,
            "avg": -74
        },
        "Tuesday": {
            "num_results": 8,
            "total": -501,
            "avg:": 0,
            "avg": -62
        },
        "Wednesday": {
            "num_results": 7,
            "total": -41,
            "avg:": 0,
            "avg": -5
        },
        "Thursday": {
            "num_results": 8,
            "total": 1313,
            "avg:": 0,
            "avg": 165
        },
        "Friday": {
            "num_results": 6,
            "total": 179,
            "avg:": 0,
            "avg": 30
        },
        "Saturday": {
            "num_results": 10,
            "total": -587,
            "avg:": 0,
            "avg": -58
        }
    }
}