{
    "overall_punctuality": 49,
    "overall_num": 45,
    "overall_avg": 2,
    "daily_punctuality": {
        "Sunday": {
            "num_results": 4,
            "total": -21,
            "avg:": 0,
            "avg": -5
        },
        "Monday": {
            "num_results": 6,
            "total": -49,
            "avg:": 0,
            "avg": -8
        },
        "Tuesday": {
            "num_results": 7,
            "total": 11,
            "avg:": 0,
            "avg": 2
        },
        "Wednesday": {
            "num_results": 8,
            "total": -71,
            "avg:": 0,
            "avg": -8
        },
        "Thursday": {
            "num_results": 6,
            "total": 36,
            "avg:": 0,
            "avg": 6
        },
        "Friday": {
            "num_results": 4,
            "total": -144,
            "avg:": 0,
            "avg": -36
        },
        "Saturday": {
            "num_results": 10,
            "total": 287,
            "avg:": 0,
            "avg": 29
        }
    }
}