{
    "overall_punctuality": -1799,
    "overall_num": 120,
    "overall_avg": -14,
    "daily_punctuality": {
        "Sunday": {
            "num_results": 15,
            "total": -68,
            "avg:": 0,
            "avg": -4
        },
        "Monday": {
            "num_results": 16,
            "total": -502,
            "avg:": 0,
            "avg": -31
        },
        "Tuesday": {
            "num_results": 19,
            "total": -2433,
            "avg:": 0,
            "avg": -128
        },
        "Wednesday": {
            "num_results": 19,
            "total": 1699,
            "avg:": 0,
            "avg": 90
        },
        "Thursday": {
            "num_results": 18,
            "total": 494,
            "avg:": 0,
            "avg": 28
        },
        "Friday": {
            "num_results": 11,
            "total": 191,
            "avg:": 0,
            "avg": 18
        },
        "Saturday": {
            "num_results": 22,
            "total": -1180,
            "avg:": 0,
            "avg": -53
        }
    }
}