{
    "overall_punctuality": -8671,
    "overall_num": 156,
    "overall_avg": -55,
    "daily_punctuality": {
        "Sunday": {
            "num_results": 17,
            "total": -1188,
            "avg:": 0,
            "avg": -69
        },
        "Monday": {
            "num_results": 22,
            "total": -2418,
            "avg:": 0,
            "avg": -109
        },
        "Tuesday": {
            "num_results": 27,
            "total": -5152,
            "avg:": 0,
            "avg": -190
        },
        "Wednesday": {
            "num_results": 27,
            "total": 847,
            "avg:": 0,
            "avg": 32
        },
        "Thursday": {
            "num_results": 22,
            "total": 1892,
            "avg:": 0,
            "avg": 86
        },
        "Friday": {
            "num_results": 15,
            "total": -431,
            "avg:": 0,
            "avg": -28
        },
        "Saturday": {
            "num_results": 26,
            "total": -2221,
            "avg:": 0,
            "avg": -85
        }
    }
}