{
    "overall_punctuality": 2343,
    "overall_num": 71,
    "overall_avg": 33,
    "daily_punctuality": {
        "Sunday": {
            "num_results": 9,
            "total": 100,
            "avg:": 0,
            "avg": 12
        },
        "Monday": {
            "num_results": 8,
            "total": 215,
            "avg:": 0,
            "avg": 27
        },
        "Tuesday": {
            "num_results": 14,
            "total": -382,
            "avg:": 0,
            "avg": -27
        },
        "Wednesday": {
            "num_results": 12,
            "total": 401,
            "avg:": 0,
            "avg": 34
        },
        "Thursday": {
            "num_results": 10,
            "total": 663,
            "avg:": 0,
            "avg": 67
        },
        "Friday": {
            "num_results": 7,
            "total": 747,
            "avg:": 0,
            "avg": 107
        },
        "Saturday": {
            "num_results": 11,
            "total": 599,
            "avg:": 0,
            "avg": 55
        }
    }
}