{
    "overall_punctuality": -5383,
    "overall_num": 100,
    "overall_avg": -53,
    "daily_punctuality": {
        "Sunday": {
            "num_results": 12,
            "total": -169,
            "avg:": 0,
            "avg": -14
        },
        "Monday": {
            "num_results": 15,
            "total": -2313,
            "avg:": 0,
            "avg": -154
        },
        "Tuesday": {
            "num_results": 17,
            "total": -3492,
            "avg:": 0,
            "avg": -205
        },
        "Wednesday": {
            "num_results": 17,
            "total": 1053,
            "avg:": 0,
            "avg": 62
        },
        "Thursday": {
            "num_results": 13,
            "total": 1189,
            "avg:": 0,
            "avg": 92
        },
        "Friday": {
            "num_results": 10,
            "total": -359,
            "avg:": 0,
            "avg": -35
        },
        "Saturday": {
            "num_results": 16,
            "total": -1292,
            "avg:": 0,
            "avg": -80
        }
    }
}