{
    "overall_punctuality": 483,
    "overall_num": 134,
    "overall_avg": 4,
    "daily_punctuality": {
        "Sunday": {
            "num_results": 21,
            "total": -685,
            "avg:": 0,
            "avg": -32
        },
        "Monday": {
            "num_results": 15,
            "total": -325,
            "avg:": 0,
            "avg": -21
        },
        "Tuesday": {
            "num_results": 21,
            "total": -2622,
            "avg:": 0,
            "avg": -124
        },
        "Wednesday": {
            "num_results": 22,
            "total": 2163,
            "avg:": 0,
            "avg": 99
        },
        "Thursday": {
            "num_results": 16,
            "total": 272,
            "avg:": 0,
            "avg": 17
        },
        "Friday": {
            "num_results": 14,
            "total": 2468,
            "avg:": 0,
            "avg": 177
        },
        "Saturday": {
            "num_results": 25,
            "total": -788,
            "avg:": 0,
            "avg": -31
        }
    }
}