{
    "overall_punctuality": -2322,
    "overall_num": 31,
    "overall_avg": -74,
    "daily_punctuality": {
        "Sunday": {
            "num_results": 2,
            "total": 384,
            "avg:": 0,
            "avg": 192
        },
        "Monday": {
            "num_results": 3,
            "total": -1161,
            "avg:": 0,
            "avg": -387
        },
        "Tuesday": {
            "num_results": 5,
            "total": -563,
            "avg:": 0,
            "avg": -112
        },
        "Wednesday": {
            "num_results": 7,
            "total": 409,
            "avg:": 0,
            "avg": 59
        },
        "Thursday": {
            "num_results": 5,
            "total": 99,
            "avg:": 0,
            "avg": 20
        },
        "Friday": {
            "num_results": 5,
            "total": -82,
            "avg:": 0,
            "avg": -16
        },
        "Saturday": {
            "num_results": 4,
            "total": -1408,
            "avg:": 0,
            "avg": -352
        }
    }
}