{
    "overall_punctuality": -3000,
    "overall_num": 31,
    "overall_avg": -96,
    "daily_punctuality": {
        "Sunday": {
            "num_results": 2,
            "total": 400,
            "avg:": 0,
            "avg": 200
        },
        "Monday": {
            "num_results": 3,
            "total": -1116,
            "avg:": 0,
            "avg": -372
        },
        "Tuesday": {
            "num_results": 6,
            "total": -1181,
            "avg:": 0,
            "avg": -196
        },
        "Wednesday": {
            "num_results": 6,
            "total": 350,
            "avg:": 0,
            "avg": 59
        },
        "Thursday": {
            "num_results": 5,
            "total": 73,
            "avg:": 0,
            "avg": 15
        },
        "Friday": {
            "num_results": 5,
            "total": -127,
            "avg:": 0,
            "avg": -25
        },
        "Saturday": {
            "num_results": 4,
            "total": -1399,
            "avg:": 0,
            "avg": -349
        }
    }
}