{
    "overall_punctuality": -2863,
    "overall_num": 31,
    "overall_avg": -92,
    "daily_punctuality": {
        "Sunday": {
            "num_results": 2,
            "total": 424,
            "avg:": 0,
            "avg": 212
        },
        "Monday": {
            "num_results": 4,
            "total": -1136,
            "avg:": 0,
            "avg": -284
        },
        "Tuesday": {
            "num_results": 6,
            "total": -1178,
            "avg:": 0,
            "avg": -196
        },
        "Wednesday": {
            "num_results": 5,
            "total": 358,
            "avg:": 0,
            "avg": 72
        },
        "Thursday": {
            "num_results": 6,
            "total": 211,
            "avg:": 0,
            "avg": 36
        },
        "Friday": {
            "num_results": 5,
            "total": -141,
            "avg:": 0,
            "avg": -28
        },
        "Saturday": {
            "num_results": 3,
            "total": -1401,
            "avg:": 0,
            "avg": -467
        }
    }
}