{
    "overall_punctuality": -2733,
    "overall_num": 31,
    "overall_avg": -88,
    "daily_punctuality": {
        "Sunday": {
            "num_results": 2,
            "total": 467,
            "avg:": 0,
            "avg": 234
        },
        "Monday": {
            "num_results": 4,
            "total": -1200,
            "avg:": 0,
            "avg": -300
        },
        "Tuesday": {
            "num_results": 5,
            "total": -1081,
            "avg:": 0,
            "avg": -216
        },
        "Wednesday": {
            "num_results": 5,
            "total": 283,
            "avg:": 0,
            "avg": 57
        },
        "Thursday": {
            "num_results": 7,
            "total": 287,
            "avg:": 0,
            "avg": 41
        },
        "Friday": {
            "num_results": 5,
            "total": -111,
            "avg:": 0,
            "avg": -22
        },
        "Saturday": {
            "num_results": 3,
            "total": -1378,
            "avg:": 0,
            "avg": -459
        }
    }
}