{
    "overall_punctuality": -2871,
    "overall_num": 33,
    "overall_avg": -87,
    "daily_punctuality": {
        "Sunday": {
            "num_results": 2,
            "total": 384,
            "avg:": 0,
            "avg": 192
        },
        "Monday": {
            "num_results": 4,
            "total": -1166,
            "avg:": 0,
            "avg": -291
        },
        "Tuesday": {
            "num_results": 7,
            "total": -1215,
            "avg:": 0,
            "avg": -173
        },
        "Wednesday": {
            "num_results": 5,
            "total": 301,
            "avg:": 0,
            "avg": 61
        },
        "Thursday": {
            "num_results": 7,
            "total": 310,
            "avg:": 0,
            "avg": 45
        },
        "Friday": {
            "num_results": 5,
            "total": -151,
            "avg:": 0,
            "avg": -30
        },
        "Saturday": {
            "num_results": 3,
            "total": -1334,
            "avg:": 0,
            "avg": -444
        }
    }
}