{
    "overall_punctuality": -3764,
    "overall_num": 35,
    "overall_avg": -107,
    "daily_punctuality": {
        "Sunday": {
            "num_results": 3,
            "total": 562,
            "avg:": 0,
            "avg": 188
        },
        "Monday": {
            "num_results": 4,
            "total": -1125,
            "avg:": 0,
            "avg": -281
        },
        "Tuesday": {
            "num_results": 7,
            "total": -1273,
            "avg:": 0,
            "avg": -181
        },
        "Wednesday": {
            "num_results": 5,
            "total": 371,
            "avg:": 0,
            "avg": 75
        },
        "Thursday": {
            "num_results": 6,
            "total": 261,
            "avg:": 0,
            "avg": 44
        },
        "Friday": {
            "num_results": 5,
            "total": -120,
            "avg:": 0,
            "avg": -24
        },
        "Saturday": {
            "num_results": 5,
            "total": -2440,
            "avg:": 0,
            "avg": -488
        }
    }
}