{
    "overall_punctuality": -3503,
    "overall_num": 35,
    "overall_avg": -100,
    "daily_punctuality": {
        "Sunday": {
            "num_results": 3,
            "total": 538,
            "avg:": 0,
            "avg": 180
        },
        "Monday": {
            "num_results": 4,
            "total": -1202,
            "avg:": 0,
            "avg": -300
        },
        "Tuesday": {
            "num_results": 7,
            "total": -1249,
            "avg:": 0,
            "avg": -178
        },
        "Wednesday": {
            "num_results": 5,
            "total": 322,
            "avg:": 0,
            "avg": 65
        },
        "Thursday": {
            "num_results": 6,
            "total": 249,
            "avg:": 0,
            "avg": 42
        },
        "Friday": {
            "num_results": 5,
            "total": 453,
            "avg:": 0,
            "avg": 91
        },
        "Saturday": {
            "num_results": 5,
            "total": -2614,
            "avg:": 0,
            "avg": -522
        }
    }
}