{
    "overall_punctuality": -1315,
    "overall_num": 25,
    "overall_avg": -52,
    "daily_punctuality": {
        "Sunday": {
            "num_results": 1,
            "total": 124,
            "avg:": 0,
            "avg": 124
        },
        "Monday": {
            "num_results": 3,
            "total": -19,
            "avg:": 0,
            "avg": -6
        },
        "Tuesday": {
            "num_results": 4,
            "total": -1383,
            "avg:": 0,
            "avg": -345
        },
        "Wednesday": {
            "num_results": 7,
            "total": 1326,
            "avg:": 0,
            "avg": 190
        },
        "Thursday": {
            "num_results": 3,
            "total": 157,
            "avg:": 0,
            "avg": 53
        },
        "Friday": {
            "num_results": 3,
            "total": 704,
            "avg:": 0,
            "avg": 235
        },
        "Saturday": {
            "num_results": 4,
            "total": -2224,
            "avg:": 0,
            "avg": -556
        }
    }
}