{
    "overall_punctuality": 2554,
    "overall_num": 27,
    "overall_avg": 95,
    "daily_punctuality": {
        "Sunday": {
            "num_results": 3,
            "total": 140,
            "avg:": 0,
            "avg": 47
        },
        "Monday": {
            "num_results": 3,
            "total": -2,
            "avg:": 0,
            "avg": 0
        },
        "Tuesday": {
            "num_results": 5,
            "total": -33,
            "avg:": 0,
            "avg": -6
        },
        "Wednesday": {
            "num_results": 5,
            "total": 1153,
            "avg:": 0,
            "avg": 231
        },
        "Thursday": {
            "num_results": 4,
            "total": 35,
            "avg:": 0,
            "avg": 9
        },
        "Friday": {
            "num_results": 2,
            "total": 1249,
            "avg:": 0,
            "avg": 625
        },
        "Saturday": {
            "num_results": 5,
            "total": 12,
            "avg:": 0,
            "avg": 3
        }
    }
}