{
    "overall_punctuality": 930,
    "overall_num": 22,
    "overall_avg": 43,
    "daily_punctuality": {
        "Sunday": {
            "num_results": 2,
            "total": 277,
            "avg:": 0,
            "avg": 139
        },
        "Monday": {
            "num_results": 5,
            "total": 319,
            "avg:": 0,
            "avg": 64
        },
        "Tuesday": {
            "num_results": 5,
            "total": 193,
            "avg:": 0,
            "avg": 39
        },
        "Wednesday": {
            "num_results": 3,
            "total": 15,
            "avg:": 0,
            "avg": 5
        },
        "Thursday": {
            "num_results": 3,
            "total": 11,
            "avg:": 0,
            "avg": 4
        },
        "Friday": {
            "num_results": 2,
            "total": 143,
            "avg:": 0,
            "avg": 72
        },
        "Saturday": {
            "num_results": 2,
            "total": -28,
            "avg:": 0,
            "avg": -14
        }
    }
}