{
    "overall_punctuality": 867,
    "overall_num": 22,
    "overall_avg": 40,
    "daily_punctuality": {
        "Sunday": {
            "num_results": 2,
            "total": 241,
            "avg:": 0,
            "avg": 121
        },
        "Monday": {
            "num_results": 5,
            "total": 276,
            "avg:": 0,
            "avg": 56
        },
        "Tuesday": {
            "num_results": 5,
            "total": 253,
            "avg:": 0,
            "avg": 51
        },
        "Wednesday": {
            "num_results": 3,
            "total": 14,
            "avg:": 0,
            "avg": 5
        },
        "Thursday": {
            "num_results": 3,
            "total": -60,
            "avg:": 0,
            "avg": -20
        },
        "Friday": {
            "num_results": 2,
            "total": 132,
            "avg:": 0,
            "avg": 66
        },
        "Saturday": {
            "num_results": 2,
            "total": 11,
            "avg:": 0,
            "avg": 6
        }
    }
}