{
    "overall_punctuality": -1727,
    "overall_num": 134,
    "overall_avg": -12,
    "daily_punctuality": {
        "Sunday": {
            "num_results": 21,
            "total": 13,
            "avg:": 0,
            "avg": 1
        },
        "Monday": {
            "num_results": 14,
            "total": -798,
            "avg:": 0,
            "avg": -57
        },
        "Tuesday": {
            "num_results": 19,
            "total": 211,
            "avg:": 0,
            "avg": 12
        },
        "Wednesday": {
            "num_results": 20,
            "total": 263,
            "avg:": 0,
            "avg": 14
        },
        "Thursday": {
            "num_results": 16,
            "total": -398,
            "avg:": 0,
            "avg": -24
        },
        "Friday": {
            "num_results": 13,
            "total": -298,
            "avg:": 0,
            "avg": -22
        },
        "Saturday": {
            "num_results": 31,
            "total": -720,
            "avg:": 0,
            "avg": -23
        }
    }
}