{
    "overall_punctuality": 2058,
    "overall_num": 23,
    "overall_avg": 90,
    "daily_punctuality": {
        "Sunday": {
            "num_results": 1,
            "total": 199,
            "avg:": 0,
            "avg": 199
        },
        "Monday": {
            "num_results": 4,
            "total": 361,
            "avg:": 0,
            "avg": 91
        },
        "Tuesday": {
            "num_results": 4,
            "total": 254,
            "avg:": 0,
            "avg": 64
        },
        "Wednesday": {
            "num_results": 5,
            "total": 280,
            "avg:": 0,
            "avg": 56
        },
        "Thursday": {
            "num_results": 4,
            "total": 518,
            "avg:": 0,
            "avg": 130
        },
        "Friday": {
            "num_results": 3,
            "total": 447,
            "avg:": 0,
            "avg": 149
        },
        "Saturday": {
            "num_results": 2,
            "total": -1,
            "avg:": 0,
            "avg": 0
        }
    }
}