{
    "overall_punctuality": 1506,
    "overall_num": 24,
    "overall_avg": 63,
    "daily_punctuality": {
        "Sunday": {
            "num_results": 1,
            "total": 207,
            "avg:": 0,
            "avg": 207
        },
        "Monday": {
            "num_results": 4,
            "total": 331,
            "avg:": 0,
            "avg": 83
        },
        "Tuesday": {
            "num_results": 5,
            "total": -344,
            "avg:": 0,
            "avg": -68
        },
        "Wednesday": {
            "num_results": 5,
            "total": 297,
            "avg:": 0,
            "avg": 60
        },
        "Thursday": {
            "num_results": 4,
            "total": 525,
            "avg:": 0,
            "avg": 132
        },
        "Friday": {
            "num_results": 3,
            "total": 495,
            "avg:": 0,
            "avg": 165
        },
        "Saturday": {
            "num_results": 2,
            "total": -5,
            "avg:": 0,
            "avg": -2
        }
    }
}