{
    "overall_punctuality": -1146,
    "overall_num": 134,
    "overall_avg": -8,
    "daily_punctuality": {
        "Sunday": {
            "num_results": 21,
            "total": 183,
            "avg:": 0,
            "avg": 9
        },
        "Monday": {
            "num_results": 14,
            "total": -700,
            "avg:": 0,
            "avg": -50
        },
        "Tuesday": {
            "num_results": 19,
            "total": -25,
            "avg:": 0,
            "avg": -1
        },
        "Wednesday": {
            "num_results": 20,
            "total": 100,
            "avg:": 0,
            "avg": 5
        },
        "Thursday": {
            "num_results": 16,
            "total": -91,
            "avg:": 0,
            "avg": -5
        },
        "Friday": {
            "num_results": 13,
            "total": -61,
            "avg:": 0,
            "avg": -4
        },
        "Saturday": {
            "num_results": 31,
            "total": -552,
            "avg:": 0,
            "avg": -17
        }
    }
}