{
    "overall_punctuality": 735,
    "overall_num": 54,
    "overall_avg": 14,
    "daily_punctuality": {
        "Sunday": {
            "num_results": 5,
            "total": 1601,
            "avg:": 0,
            "avg": 321
        },
        "Monday": {
            "num_results": 5,
            "total": -1487,
            "avg:": 0,
            "avg": -297
        },
        "Tuesday": {
            "num_results": 10,
            "total": -2294,
            "avg:": 0,
            "avg": -229
        },
        "Wednesday": {
            "num_results": 9,
            "total": 576,
            "avg:": 0,
            "avg": 64
        },
        "Thursday": {
            "num_results": 8,
            "total": 1472,
            "avg:": 0,
            "avg": 184
        },
        "Friday": {
            "num_results": 6,
            "total": 811,
            "avg:": 0,
            "avg": 136
        },
        "Saturday": {
            "num_results": 11,
            "total": 56,
            "avg:": 0,
            "avg": 6
        }
    }
}