{
    "overall_punctuality": -1229,
    "overall_num": 131,
    "overall_avg": -9,
    "daily_punctuality": {
        "Sunday": {
            "num_results": 21,
            "total": 224,
            "avg:": 0,
            "avg": 11
        },
        "Monday": {
            "num_results": 14,
            "total": -645,
            "avg:": 0,
            "avg": -46
        },
        "Tuesday": {
            "num_results": 19,
            "total": 29,
            "avg:": 0,
            "avg": 2
        },
        "Wednesday": {
            "num_results": 20,
            "total": 397,
            "avg:": 0,
            "avg": 20
        },
        "Thursday": {
            "num_results": 15,
            "total": -208,
            "avg:": 0,
            "avg": -13
        },
        "Friday": {
            "num_results": 13,
            "total": -84,
            "avg:": 0,
            "avg": -6
        },
        "Saturday": {
            "num_results": 29,
            "total": -942,
            "avg:": 0,
            "avg": -32
        }
    }
}