{
    "overall_punctuality": -387,
    "overall_num": 46,
    "overall_avg": -8,
    "daily_punctuality": {
        "Sunday": {
            "num_results": 5,
            "total": 1620,
            "avg:": 0,
            "avg": 324
        },
        "Monday": {
            "num_results": 4,
            "total": -1499,
            "avg:": 0,
            "avg": -374
        },
        "Tuesday": {
            "num_results": 10,
            "total": -3081,
            "avg:": 0,
            "avg": -308
        },
        "Wednesday": {
            "num_results": 8,
            "total": 653,
            "avg:": 0,
            "avg": 82
        },
        "Thursday": {
            "num_results": 6,
            "total": 1702,
            "avg:": 0,
            "avg": 284
        },
        "Friday": {
            "num_results": 5,
            "total": 648,
            "avg:": 0,
            "avg": 130
        },
        "Saturday": {
            "num_results": 8,
            "total": -430,
            "avg:": 0,
            "avg": -53
        }
    }
}