{
    "overall_punctuality": 435,
    "overall_num": 45,
    "overall_avg": 10,
    "daily_punctuality": {
        "Sunday": {
            "num_results": 5,
            "total": 435,
            "avg:": 0,
            "avg": 87
        },
        "Monday": {
            "num_results": 6,
            "total": 0,
            "avg:": 0,
            "avg": 0
        },
        "Tuesday": {
            "num_results": 8,
            "total": 0,
            "avg:": 0,
            "avg": 0
        },
        "Wednesday": {
            "num_results": 7,
            "total": 0,
            "avg:": 0,
            "avg": 0
        },
        "Thursday": {
            "num_results": 5,
            "total": 0,
            "avg:": 0,
            "avg": 0
        },
        "Friday": {
            "num_results": 4,
            "total": 0,
            "avg:": 0,
            "avg": 0
        },
        "Saturday": {
            "num_results": 10,
            "total": 0,
            "avg:": 0,
            "avg": 0
        }
    }
}