{
    "overall_punctuality": -1423,
    "overall_num": 125,
    "overall_avg": -11,
    "daily_punctuality": {
        "Sunday": {
            "num_results": 15,
            "total": 181,
            "avg:": 0,
            "avg": 13
        },
        "Monday": {
            "num_results": 14,
            "total": -421,
            "avg:": 0,
            "avg": -30
        },
        "Tuesday": {
            "num_results": 18,
            "total": 101,
            "avg:": 0,
            "avg": 6
        },
        "Wednesday": {
            "num_results": 20,
            "total": 197,
            "avg:": 0,
            "avg": 10
        },
        "Thursday": {
            "num_results": 15,
            "total": -384,
            "avg:": 0,
            "avg": -25
        },
        "Friday": {
            "num_results": 14,
            "total": -230,
            "avg:": 0,
            "avg": -16
        },
        "Saturday": {
            "num_results": 29,
            "total": -867,
            "avg:": 0,
            "avg": -29
        }
    }
}