{
    "overall_punctuality": -70,
    "overall_num": 47,
    "overall_avg": -1,
    "daily_punctuality": {
        "Sunday": {
            "num_results": 6,
            "total": 375,
            "avg:": 0,
            "avg": 63
        },
        "Monday": {
            "num_results": 6,
            "total": -215,
            "avg:": 0,
            "avg": -35
        },
        "Tuesday": {
            "num_results": 8,
            "total": -437,
            "avg:": 0,
            "avg": -54
        },
        "Wednesday": {
            "num_results": 7,
            "total": 101,
            "avg:": 0,
            "avg": 15
        },
        "Thursday": {
            "num_results": 6,
            "total": 13,
            "avg:": 0,
            "avg": 3
        },
        "Friday": {
            "num_results": 4,
            "total": 106,
            "avg:": 0,
            "avg": 27
        },
        "Saturday": {
            "num_results": 10,
            "total": -13,
            "avg:": 0,
            "avg": -1
        }
    }
}