{
    "overall_punctuality": 463,
    "overall_num": 46,
    "overall_avg": 11,
    "daily_punctuality": {
        "Sunday": {
            "num_results": 6,
            "total": 428,
            "avg:": 0,
            "avg": 72
        },
        "Monday": {
            "num_results": 6,
            "total": -60,
            "avg:": 0,
            "avg": -10
        },
        "Tuesday": {
            "num_results": 8,
            "total": -370,
            "avg:": 0,
            "avg": -46
        },
        "Wednesday": {
            "num_results": 7,
            "total": 160,
            "avg:": 0,
            "avg": 23
        },
        "Thursday": {
            "num_results": 6,
            "total": 80,
            "avg:": 0,
            "avg": 14
        },
        "Friday": {
            "num_results": 4,
            "total": 138,
            "avg:": 0,
            "avg": 35
        },
        "Saturday": {
            "num_results": 9,
            "total": 87,
            "avg:": 0,
            "avg": 10
        }
    }
}