{
    "overall_punctuality": -4661,
    "overall_num": 166,
    "overall_avg": -28,
    "daily_punctuality": {
        "Sunday": {
            "num_results": 18,
            "total": -47,
            "avg:": 0,
            "avg": -2
        },
        "Monday": {
            "num_results": 20,
            "total": -2639,
            "avg:": 0,
            "avg": -131
        },
        "Tuesday": {
            "num_results": 28,
            "total": -3582,
            "avg:": 0,
            "avg": -127
        },
        "Wednesday": {
            "num_results": 26,
            "total": 756,
            "avg:": 0,
            "avg": 30
        },
        "Thursday": {
            "num_results": 20,
            "total": 1739,
            "avg:": 0,
            "avg": 87
        },
        "Friday": {
            "num_results": 16,
            "total": 976,
            "avg:": 0,
            "avg": 61
        },
        "Saturday": {
            "num_results": 38,
            "total": -1864,
            "avg:": 0,
            "avg": -49
        }
    }
}