{
    "overall_punctuality": -6607,
    "overall_num": 94,
    "overall_avg": -70,
    "daily_punctuality": {
        "Sunday": {
            "num_results": 8,
            "total": -113,
            "avg:": 0,
            "avg": -14
        },
        "Monday": {
            "num_results": 11,
            "total": -1145,
            "avg:": 0,
            "avg": -104
        },
        "Tuesday": {
            "num_results": 18,
            "total": -4319,
            "avg:": 0,
            "avg": -239
        },
        "Wednesday": {
            "num_results": 18,
            "total": -538,
            "avg:": 0,
            "avg": -29
        },
        "Thursday": {
            "num_results": 13,
            "total": 752,
            "avg:": 0,
            "avg": 58
        },
        "Friday": {
            "num_results": 9,
            "total": 1264,
            "avg:": 0,
            "avg": 141
        },
        "Saturday": {
            "num_results": 17,
            "total": -2508,
            "avg:": 0,
            "avg": -147
        }
    }
}