{
    "overall_punctuality": -1119,
    "overall_num": 47,
    "overall_avg": -23,
    "daily_punctuality": {
        "Sunday": {
            "num_results": 5,
            "total": 42,
            "avg:": 0,
            "avg": 9
        },
        "Monday": {
            "num_results": 6,
            "total": -349,
            "avg:": 0,
            "avg": -58
        },
        "Tuesday": {
            "num_results": 8,
            "total": -987,
            "avg:": 0,
            "avg": -123
        },
        "Wednesday": {
            "num_results": 8,
            "total": 337,
            "avg:": 0,
            "avg": 43
        },
        "Thursday": {
            "num_results": 6,
            "total": 380,
            "avg:": 0,
            "avg": 64
        },
        "Friday": {
            "num_results": 4,
            "total": 1049,
            "avg:": 0,
            "avg": 263
        },
        "Saturday": {
            "num_results": 10,
            "total": -1591,
            "avg:": 0,
            "avg": -159
        }
    }
}