{
    "overall_punctuality": -740,
    "overall_num": 14,
    "overall_avg": -52,
    "daily_punctuality": {
        "Sunday": {
            "num_results": 2,
            "total": -308,
            "avg:": 0,
            "avg": -154
        },
        "Monday": {
            "num_results": 2,
            "total": -249,
            "avg:": 0,
            "avg": -124
        },
        "Tuesday": {
            "num_results": 2,
            "total": -159,
            "avg:": 0,
            "avg": -79
        },
        "Wednesday": {
            "num_results": 3,
            "total": 515,
            "avg:": 0,
            "avg": 172
        },
        "Thursday": {
            "num_results": 3,
            "total": 42,
            "avg:": 0,
            "avg": 14
        },
        "Friday": {
            "num_results": 1,
            "total": 148,
            "avg:": 0,
            "avg": 148
        },
        "Saturday": {
            "num_results": 1,
            "total": -729,
            "avg:": 0,
            "avg": -729
        }
    }
}