{
    "overall_punctuality": -793,
    "overall_num": 13,
    "overall_avg": -61,
    "daily_punctuality": {
        "Sunday": {
            "num_results": 2,
            "total": -278,
            "avg:": 0,
            "avg": -139
        },
        "Monday": {
            "num_results": 2,
            "total": -282,
            "avg:": 0,
            "avg": -141
        },
        "Tuesday": {
            "num_results": 2,
            "total": -148,
            "avg:": 0,
            "avg": -74
        },
        "Wednesday": {
            "num_results": 3,
            "total": 513,
            "avg:": 0,
            "avg": 171
        },
        "Thursday": {
            "num_results": 2,
            "total": -26,
            "avg:": 0,
            "avg": -13
        },
        "Friday": {
            "num_results": 1,
            "total": 146,
            "avg:": 0,
            "avg": 146
        },
        "Saturday": {
            "num_results": 1,
            "total": -718,
            "avg:": 0,
            "avg": -718
        }
    }
}