{
    "overall_punctuality": -813,
    "overall_num": 13,
    "overall_avg": -62,
    "daily_punctuality": {
        "Sunday": {
            "num_results": 2,
            "total": -271,
            "avg:": 0,
            "avg": -135
        },
        "Monday": {
            "num_results": 2,
            "total": -208,
            "avg:": 0,
            "avg": -104
        },
        "Tuesday": {
            "num_results": 2,
            "total": -180,
            "avg:": 0,
            "avg": -90
        },
        "Wednesday": {
            "num_results": 3,
            "total": 483,
            "avg:": 0,
            "avg": 161
        },
        "Thursday": {
            "num_results": 2,
            "total": -14,
            "avg:": 0,
            "avg": -7
        },
        "Friday": {
            "num_results": 1,
            "total": 111,
            "avg:": 0,
            "avg": 111
        },
        "Saturday": {
            "num_results": 1,
            "total": -734,
            "avg:": 0,
            "avg": -734
        }
    }
}