{
    "overall_punctuality": 23,
    "overall_num": 16,
    "overall_avg": 2,
    "daily_punctuality": {
        "Sunday": {
            "num_results": 1,
            "total": 3,
            "avg:": 0,
            "avg": 3
        },
        "Monday": {
            "num_results": 0,
            "total": 0,
            "avg:": 0
        },
        "Tuesday": {
            "num_results": 4,
            "total": -9,
            "avg:": 0,
            "avg": -2
        },
        "Wednesday": {
            "num_results": 3,
            "total": 25,
            "avg:": 0,
            "avg": 9
        },
        "Thursday": {
            "num_results": 1,
            "total": -28,
            "avg:": 0,
            "avg": -28
        },
        "Friday": {
            "num_results": 2,
            "total": 9,
            "avg:": 0,
            "avg": 5
        },
        "Saturday": {
            "num_results": 5,
            "total": 23,
            "avg:": 0,
            "avg": 5
        }
    }
}