{
    "overall_punctuality": -140,
    "overall_num": 16,
    "overall_avg": -8,
    "daily_punctuality": {
        "Sunday": {
            "num_results": 1,
            "total": -13,
            "avg:": 0,
            "avg": -13
        },
        "Monday": {
            "num_results": 0,
            "total": 0,
            "avg:": 0
        },
        "Tuesday": {
            "num_results": 4,
            "total": 15,
            "avg:": 0,
            "avg": 4
        },
        "Wednesday": {
            "num_results": 3,
            "total": -48,
            "avg:": 0,
            "avg": -16
        },
        "Thursday": {
            "num_results": 0,
            "total": 0,
            "avg:": 0
        },
        "Friday": {
            "num_results": 2,
            "total": -35,
            "avg:": 0,
            "avg": -17
        },
        "Saturday": {
            "num_results": 6,
            "total": -59,
            "avg:": 0,
            "avg": -9
        }
    }
}