{
    "overall_punctuality": -3165,
    "overall_num": 22,
    "overall_avg": -143,
    "daily_punctuality": {
        "Sunday": {
            "num_results": 3,
            "total": -448,
            "avg:": 0,
            "avg": -149
        },
        "Monday": {
            "num_results": 4,
            "total": -1897,
            "avg:": 0,
            "avg": -474
        },
        "Tuesday": {
            "num_results": 4,
            "total": -1527,
            "avg:": 0,
            "avg": -381
        },
        "Wednesday": {
            "num_results": 4,
            "total": 3,
            "avg:": 0,
            "avg": 1
        },
        "Thursday": {
            "num_results": 3,
            "total": 540,
            "avg:": 0,
            "avg": 180
        },
        "Friday": {
            "num_results": 2,
            "total": 141,
            "avg:": 0,
            "avg": 71
        },
        "Saturday": {
            "num_results": 2,
            "total": 23,
            "avg:": 0,
            "avg": 12
        }
    }
}