{
    "overall_punctuality": -74,
    "overall_num": 25,
    "overall_avg": -2,
    "daily_punctuality": {
        "Sunday": {
            "num_results": 3,
            "total": -20,
            "avg:": 0,
            "avg": -6
        },
        "Monday": {
            "num_results": 3,
            "total": -40,
            "avg:": 0,
            "avg": -13
        },
        "Tuesday": {
            "num_results": 4,
            "total": -96,
            "avg:": 0,
            "avg": -24
        },
        "Wednesday": {
            "num_results": 4,
            "total": 82,
            "avg:": 0,
            "avg": 21
        },
        "Thursday": {
            "num_results": 3,
            "total": 59,
            "avg:": 0,
            "avg": 20
        },
        "Friday": {
            "num_results": 2,
            "total": 34,
            "avg:": 0,
            "avg": 17
        },
        "Saturday": {
            "num_results": 6,
            "total": -93,
            "avg:": 0,
            "avg": -15
        }
    }
}