{
    "overall_punctuality": -6525,
    "overall_num": 131,
    "overall_avg": -49,
    "daily_punctuality": {
        "Sunday": {
            "num_results": 15,
            "total": -2211,
            "avg:": 0,
            "avg": -147
        },
        "Monday": {
            "num_results": 17,
            "total": -3265,
            "avg:": 0,
            "avg": -192
        },
        "Tuesday": {
            "num_results": 19,
            "total": -3602,
            "avg:": 0,
            "avg": -189
        },
        "Wednesday": {
            "num_results": 18,
            "total": 4486,
            "avg:": 0,
            "avg": 250
        },
        "Thursday": {
            "num_results": 17,
            "total": 3780,
            "avg:": 0,
            "avg": 223
        },
        "Friday": {
            "num_results": 14,
            "total": 744,
            "avg:": 0,
            "avg": 54
        },
        "Saturday": {
            "num_results": 31,
            "total": -6457,
            "avg:": 0,
            "avg": -208
        }
    }
}