{
    "overall_punctuality": -6179,
    "overall_num": 132,
    "overall_avg": -46,
    "daily_punctuality": {
        "Sunday": {
            "num_results": 15,
            "total": -2086,
            "avg:": 0,
            "avg": -139
        },
        "Monday": {
            "num_results": 17,
            "total": -3178,
            "avg:": 0,
            "avg": -186
        },
        "Tuesday": {
            "num_results": 19,
            "total": -3362,
            "avg:": 0,
            "avg": -176
        },
        "Wednesday": {
            "num_results": 19,
            "total": 4431,
            "avg:": 0,
            "avg": 234
        },
        "Thursday": {
            "num_results": 17,
            "total": 3712,
            "avg:": 0,
            "avg": 219
        },
        "Friday": {
            "num_results": 14,
            "total": 914,
            "avg:": 0,
            "avg": 66
        },
        "Saturday": {
            "num_results": 31,
            "total": -6610,
            "avg:": 0,
            "avg": -213
        }
    }
}