{
    "overall_punctuality": -8532,
    "overall_num": 131,
    "overall_avg": -65,
    "daily_punctuality": {
        "Sunday": {
            "num_results": 15,
            "total": -2065,
            "avg:": 0,
            "avg": -137
        },
        "Monday": {
            "num_results": 16,
            "total": -4040,
            "avg:": 0,
            "avg": -252
        },
        "Tuesday": {
            "num_results": 20,
            "total": -4140,
            "avg:": 0,
            "avg": -207
        },
        "Wednesday": {
            "num_results": 19,
            "total": 3886,
            "avg:": 0,
            "avg": 205
        },
        "Thursday": {
            "num_results": 17,
            "total": 3742,
            "avg:": 0,
            "avg": 221
        },
        "Friday": {
            "num_results": 14,
            "total": 1453,
            "avg:": 0,
            "avg": 104
        },
        "Saturday": {
            "num_results": 30,
            "total": -7368,
            "avg:": 0,
            "avg": -245
        }
    }
}