{
    "overall_punctuality": 76830,
    "overall_num": 130,
    "overall_avg": 591,
    "daily_punctuality": {
        "Sunday": {
            "num_results": 15,
            "total": -2174,
            "avg:": 0,
            "avg": -144
        },
        "Monday": {
            "num_results": 16,
            "total": -4458,
            "avg:": 0,
            "avg": -278
        },
        "Tuesday": {
            "num_results": 20,
            "total": 81214,
            "avg:": 0,
            "avg": 4061
        },
        "Wednesday": {
            "num_results": 19,
            "total": 4889,
            "avg:": 0,
            "avg": 258
        },
        "Thursday": {
            "num_results": 17,
            "total": 3655,
            "avg:": 0,
            "avg": 215
        },
        "Friday": {
            "num_results": 14,
            "total": 1369,
            "avg:": 0,
            "avg": 98
        },
        "Saturday": {
            "num_results": 29,
            "total": -7665,
            "avg:": 0,
            "avg": -264
        }
    }
}