{
    "overall_punctuality": 1828,
    "overall_num": 27,
    "overall_avg": 68,
    "daily_punctuality": {
        "Sunday": {
            "num_results": 3,
            "total": 869,
            "avg:": 0,
            "avg": 290
        },
        "Monday": {
            "num_results": 2,
            "total": -157,
            "avg:": 0,
            "avg": -78
        },
        "Tuesday": {
            "num_results": 5,
            "total": 537,
            "avg:": 0,
            "avg": 108
        },
        "Wednesday": {
            "num_results": 4,
            "total": 450,
            "avg:": 0,
            "avg": 113
        },
        "Thursday": {
            "num_results": 5,
            "total": 1632,
            "avg:": 0,
            "avg": 327
        },
        "Friday": {
            "num_results": 2,
            "total": -388,
            "avg:": 0,
            "avg": -194
        },
        "Saturday": {
            "num_results": 6,
            "total": -1115,
            "avg:": 0,
            "avg": -185
        }
    }
}