{
    "overall_punctuality": 1747,
    "overall_num": 28,
    "overall_avg": 63,
    "daily_punctuality": {
        "Sunday": {
            "num_results": 4,
            "total": 817,
            "avg:": 0,
            "avg": 205
        },
        "Monday": {
            "num_results": 2,
            "total": -127,
            "avg:": 0,
            "avg": -63
        },
        "Tuesday": {
            "num_results": 5,
            "total": 573,
            "avg:": 0,
            "avg": 115
        },
        "Wednesday": {
            "num_results": 4,
            "total": 394,
            "avg:": 0,
            "avg": 99
        },
        "Thursday": {
            "num_results": 5,
            "total": 1575,
            "avg:": 0,
            "avg": 315
        },
        "Friday": {
            "num_results": 2,
            "total": -386,
            "avg:": 0,
            "avg": -193
        },
        "Saturday": {
            "num_results": 6,
            "total": -1099,
            "avg:": 0,
            "avg": -183
        }
    }
}