{
    "overall_punctuality": 726,
    "overall_num": 28,
    "overall_avg": 26,
    "daily_punctuality": {
        "Sunday": {
            "num_results": 3,
            "total": 405,
            "avg:": 0,
            "avg": 135
        },
        "Monday": {
            "num_results": 4,
            "total": -47,
            "avg:": 0,
            "avg": -11
        },
        "Tuesday": {
            "num_results": 5,
            "total": 35,
            "avg:": 0,
            "avg": 7
        },
        "Wednesday": {
            "num_results": 5,
            "total": 83,
            "avg:": 0,
            "avg": 17
        },
        "Thursday": {
            "num_results": 3,
            "total": 94,
            "avg:": 0,
            "avg": 32
        },
        "Friday": {
            "num_results": 3,
            "total": 6,
            "avg:": 0,
            "avg": 2
        },
        "Saturday": {
            "num_results": 5,
            "total": 150,
            "avg:": 0,
            "avg": 30
        }
    }
}