{
    "overall_punctuality": -574,
    "overall_num": 127,
    "overall_avg": -4,
    "daily_punctuality": {
        "Sunday": {
            "num_results": 12,
            "total": -187,
            "avg:": 0,
            "avg": -15
        },
        "Monday": {
            "num_results": 17,
            "total": -81,
            "avg:": 0,
            "avg": -4
        },
        "Tuesday": {
            "num_results": 21,
            "total": -1218,
            "avg:": 0,
            "avg": -58
        },
        "Wednesday": {
            "num_results": 22,
            "total": 1339,
            "avg:": 0,
            "avg": 61
        },
        "Thursday": {
            "num_results": 18,
            "total": 1301,
            "avg:": 0,
            "avg": 73
        },
        "Friday": {
            "num_results": 12,
            "total": 117,
            "avg:": 0,
            "avg": 10
        },
        "Saturday": {
            "num_results": 25,
            "total": -1845,
            "avg:": 0,
            "avg": -73
        }
    }
}