{
    "overall_punctuality": -347,
    "overall_num": 54,
    "overall_avg": -6,
    "daily_punctuality": {
        "Sunday": {
            "num_results": 6,
            "total": -89,
            "avg:": 0,
            "avg": -14
        },
        "Monday": {
            "num_results": 6,
            "total": -30,
            "avg:": 0,
            "avg": -5
        },
        "Tuesday": {
            "num_results": 8,
            "total": 29,
            "avg:": 0,
            "avg": 4
        },
        "Wednesday": {
            "num_results": 8,
            "total": 3,
            "avg:": 0,
            "avg": 1
        },
        "Thursday": {
            "num_results": 6,
            "total": 159,
            "avg:": 0,
            "avg": 27
        },
        "Friday": {
            "num_results": 6,
            "total": -112,
            "avg:": 0,
            "avg": -18
        },
        "Saturday": {
            "num_results": 14,
            "total": -307,
            "avg:": 0,
            "avg": -21
        }
    }
}