{
    "overall_punctuality": -2194,
    "overall_num": 131,
    "overall_avg": -16,
    "daily_punctuality": {
        "Sunday": {
            "num_results": 14,
            "total": -341,
            "avg:": 0,
            "avg": -24
        },
        "Monday": {
            "num_results": 17,
            "total": -743,
            "avg:": 0,
            "avg": -43
        },
        "Tuesday": {
            "num_results": 23,
            "total": -1805,
            "avg:": 0,
            "avg": -78
        },
        "Wednesday": {
            "num_results": 22,
            "total": 1068,
            "avg:": 0,
            "avg": 49
        },
        "Thursday": {
            "num_results": 18,
            "total": 1646,
            "avg:": 0,
            "avg": 92
        },
        "Friday": {
            "num_results": 12,
            "total": 281,
            "avg:": 0,
            "avg": 24
        },
        "Saturday": {
            "num_results": 25,
            "total": -2300,
            "avg:": 0,
            "avg": -92
        }
    }
}