{
    "overall_punctuality": 1692,
    "overall_num": 27,
    "overall_avg": 63,
    "daily_punctuality": {
        "Sunday": {
            "num_results": 3,
            "total": 476,
            "avg:": 0,
            "avg": 159
        },
        "Monday": {
            "num_results": 2,
            "total": -137,
            "avg:": 0,
            "avg": -68
        },
        "Tuesday": {
            "num_results": 4,
            "total": 333,
            "avg:": 0,
            "avg": 84
        },
        "Wednesday": {
            "num_results": 4,
            "total": 701,
            "avg:": 0,
            "avg": 176
        },
        "Thursday": {
            "num_results": 6,
            "total": 1725,
            "avg:": 0,
            "avg": 288
        },
        "Friday": {
            "num_results": 2,
            "total": -298,
            "avg:": 0,
            "avg": -149
        },
        "Saturday": {
            "num_results": 6,
            "total": -1108,
            "avg:": 0,
            "avg": -184
        }
    }
}