{
    "overall_punctuality": -1096,
    "overall_num": 34,
    "overall_avg": -32,
    "daily_punctuality": {
        "Sunday": {
            "num_results": 3,
            "total": 638,
            "avg:": 0,
            "avg": 213
        },
        "Monday": {
            "num_results": 3,
            "total": -516,
            "avg:": 0,
            "avg": -172
        },
        "Tuesday": {
            "num_results": 7,
            "total": -1519,
            "avg:": 0,
            "avg": -217
        },
        "Wednesday": {
            "num_results": 6,
            "total": 292,
            "avg:": 0,
            "avg": 49
        },
        "Thursday": {
            "num_results": 6,
            "total": 1722,
            "avg:": 0,
            "avg": 287
        },
        "Friday": {
            "num_results": 4,
            "total": -485,
            "avg:": 0,
            "avg": -121
        },
        "Saturday": {
            "num_results": 5,
            "total": -1228,
            "avg:": 0,
            "avg": -245
        }
    }
}