{
    "overall_punctuality": 1911,
    "overall_num": 25,
    "overall_avg": 77,
    "daily_punctuality": {
        "Sunday": {
            "num_results": 3,
            "total": 592,
            "avg:": 0,
            "avg": 198
        },
        "Monday": {
            "num_results": 2,
            "total": 267,
            "avg:": 0,
            "avg": 134
        },
        "Tuesday": {
            "num_results": 5,
            "total": 275,
            "avg:": 0,
            "avg": 55
        },
        "Wednesday": {
            "num_results": 4,
            "total": 565,
            "avg:": 0,
            "avg": 142
        },
        "Thursday": {
            "num_results": 4,
            "total": 1590,
            "avg:": 0,
            "avg": 398
        },
        "Friday": {
            "num_results": 2,
            "total": -300,
            "avg:": 0,
            "avg": -150
        },
        "Saturday": {
            "num_results": 5,
            "total": -1078,
            "avg:": 0,
            "avg": -215
        }
    }
}