{
    "overall_punctuality": 3135,
    "overall_num": 28,
    "overall_avg": 112,
    "daily_punctuality": {
        "Sunday": {
            "num_results": 3,
            "total": 680,
            "avg:": 0,
            "avg": 227
        },
        "Monday": {
            "num_results": 2,
            "total": 337,
            "avg:": 0,
            "avg": 169
        },
        "Tuesday": {
            "num_results": 5,
            "total": 277,
            "avg:": 0,
            "avg": 56
        },
        "Wednesday": {
            "num_results": 6,
            "total": 2083,
            "avg:": 0,
            "avg": 348
        },
        "Thursday": {
            "num_results": 4,
            "total": 1460,
            "avg:": 0,
            "avg": 365
        },
        "Friday": {
            "num_results": 2,
            "total": -342,
            "avg:": 0,
            "avg": -171
        },
        "Saturday": {
            "num_results": 6,
            "total": -1360,
            "avg:": 0,
            "avg": -226
        }
    }
}