{
    "overall_punctuality": 283,
    "overall_num": 27,
    "overall_avg": 11,
    "daily_punctuality": {
        "Sunday": {
            "num_results": 3,
            "total": 22,
            "avg:": 0,
            "avg": 8
        },
        "Monday": {
            "num_results": 4,
            "total": 33,
            "avg:": 0,
            "avg": 9
        },
        "Tuesday": {
            "num_results": 4,
            "total": 42,
            "avg:": 0,
            "avg": 11
        },
        "Wednesday": {
            "num_results": 5,
            "total": 40,
            "avg:": 0,
            "avg": 8
        },
        "Thursday": {
            "num_results": 3,
            "total": 26,
            "avg:": 0,
            "avg": 9
        },
        "Friday": {
            "num_results": 2,
            "total": 17,
            "avg:": 0,
            "avg": 9
        },
        "Saturday": {
            "num_results": 6,
            "total": 103,
            "avg:": 0,
            "avg": 18
        }
    }
}