{
    "overall_punctuality": 333,
    "overall_num": 23,
    "overall_avg": 15,
    "daily_punctuality": {
        "Sunday": {
            "num_results": 1,
            "total": -8,
            "avg:": 0,
            "avg": -8
        },
        "Monday": {
            "num_results": 4,
            "total": 2,
            "avg:": 0,
            "avg": 1
        },
        "Tuesday": {
            "num_results": 4,
            "total": 147,
            "avg:": 0,
            "avg": 37
        },
        "Wednesday": {
            "num_results": 5,
            "total": 20,
            "avg:": 0,
            "avg": 4
        },
        "Thursday": {
            "num_results": 3,
            "total": 59,
            "avg:": 0,
            "avg": 20
        },
        "Friday": {
            "num_results": 3,
            "total": 46,
            "avg:": 0,
            "avg": 16
        },
        "Saturday": {
            "num_results": 3,
            "total": 67,
            "avg:": 0,
            "avg": 23
        }
    }
}