{
    "overall_punctuality": 1125,
    "overall_num": 28,
    "overall_avg": 41,
    "daily_punctuality": {
        "Sunday": {
            "num_results": 3,
            "total": 431,
            "avg:": 0,
            "avg": 144
        },
        "Monday": {
            "num_results": 3,
            "total": 190,
            "avg:": 0,
            "avg": 64
        },
        "Tuesday": {
            "num_results": 5,
            "total": 10,
            "avg:": 0,
            "avg": 2
        },
        "Wednesday": {
            "num_results": 6,
            "total": 278,
            "avg:": 0,
            "avg": 47
        },
        "Thursday": {
            "num_results": 3,
            "total": 105,
            "avg:": 0,
            "avg": 35
        },
        "Friday": {
            "num_results": 3,
            "total": 9,
            "avg:": 0,
            "avg": 3
        },
        "Saturday": {
            "num_results": 5,
            "total": 102,
            "avg:": 0,
            "avg": 21
        }
    }
}