{
    "overall_punctuality": -1133,
    "overall_num": 77,
    "overall_avg": -14,
    "daily_punctuality": {
        "Sunday": {
            "num_results": 8,
            "total": -123,
            "avg:": 0,
            "avg": -15
        },
        "Monday": {
            "num_results": 9,
            "total": -231,
            "avg:": 0,
            "avg": -25
        },
        "Tuesday": {
            "num_results": 14,
            "total": -694,
            "avg:": 0,
            "avg": -49
        },
        "Wednesday": {
            "num_results": 14,
            "total": 48,
            "avg:": 0,
            "avg": 4
        },
        "Thursday": {
            "num_results": 11,
            "total": -27,
            "avg:": 0,
            "avg": -2
        },
        "Friday": {
            "num_results": 8,
            "total": -87,
            "avg:": 0,
            "avg": -10
        },
        "Saturday": {
            "num_results": 13,
            "total": -19,
            "avg:": 0,
            "avg": -1
        }
    }
}