{
    "overall_punctuality": -18572,
    "overall_num": 119,
    "overall_avg": -156,
    "daily_punctuality": {
        "Sunday": {
            "num_results": 15,
            "total": -2408,
            "avg:": 0,
            "avg": -160
        },
        "Monday": {
            "num_results": 13,
            "total": -5802,
            "avg:": 0,
            "avg": -446
        },
        "Tuesday": {
            "num_results": 18,
            "total": -4896,
            "avg:": 0,
            "avg": -272
        },
        "Wednesday": {
            "num_results": 20,
            "total": 1045,
            "avg:": 0,
            "avg": 53
        },
        "Thursday": {
            "num_results": 15,
            "total": 1959,
            "avg:": 0,
            "avg": 131
        },
        "Friday": {
            "num_results": 10,
            "total": 1878,
            "avg:": 0,
            "avg": 188
        },
        "Saturday": {
            "num_results": 28,
            "total": -10348,
            "avg:": 0,
            "avg": -369
        }
    }
}