{
    "overall_punctuality": -7999,
    "overall_num": 248,
    "overall_avg": -32,
    "daily_punctuality": {
        "Sunday": {
            "num_results": 27,
            "total": 947,
            "avg:": 0,
            "avg": 36
        },
        "Monday": {
            "num_results": 32,
            "total": -1822,
            "avg:": 0,
            "avg": -56
        },
        "Tuesday": {
            "num_results": 40,
            "total": -2152,
            "avg:": 0,
            "avg": -53
        },
        "Wednesday": {
            "num_results": 39,
            "total": 86,
            "avg:": 0,
            "avg": 3
        },
        "Thursday": {
            "num_results": 31,
            "total": 534,
            "avg:": 0,
            "avg": 18
        },
        "Friday": {
            "num_results": 25,
            "total": 767,
            "avg:": 0,
            "avg": 31
        },
        "Saturday": {
            "num_results": 54,
            "total": -6359,
            "avg:": 0,
            "avg": -117
        }
    }
}