{
    "overall_punctuality": -18717,
    "overall_num": 146,
    "overall_avg": -128,
    "daily_punctuality": {
        "Sunday": {
            "num_results": 17,
            "total": -1688,
            "avg:": 0,
            "avg": -99
        },
        "Monday": {
            "num_results": 19,
            "total": -4847,
            "avg:": 0,
            "avg": -255
        },
        "Tuesday": {
            "num_results": 24,
            "total": -9823,
            "avg:": 0,
            "avg": -409
        },
        "Wednesday": {
            "num_results": 24,
            "total": 810,
            "avg:": 0,
            "avg": 34
        },
        "Thursday": {
            "num_results": 18,
            "total": 2602,
            "avg:": 0,
            "avg": 145
        },
        "Friday": {
            "num_results": 13,
            "total": 1284,
            "avg:": 0,
            "avg": 99
        },
        "Saturday": {
            "num_results": 31,
            "total": -7055,
            "avg:": 0,
            "avg": -227
        }
    }
}