{
    "overall_punctuality": 64,
    "overall_num": 50,
    "overall_avg": 2,
    "daily_punctuality": {
        "Sunday": {
            "num_results": 6,
            "total": -32,
            "avg:": 0,
            "avg": -5
        },
        "Monday": {
            "num_results": 6,
            "total": 50,
            "avg:": 0,
            "avg": 9
        },
        "Tuesday": {
            "num_results": 8,
            "total": 75,
            "avg:": 0,
            "avg": 10
        },
        "Wednesday": {
            "num_results": 8,
            "total": 27,
            "avg:": 0,
            "avg": 4
        },
        "Thursday": {
            "num_results": 6,
            "total": -20,
            "avg:": 0,
            "avg": -3
        },
        "Friday": {
            "num_results": 4,
            "total": -32,
            "avg:": 0,
            "avg": -8
        },
        "Saturday": {
            "num_results": 12,
            "total": -4,
            "avg:": 0,
            "avg": 0
        }
    }
}