{
    "overall_punctuality": -442,
    "overall_num": 16,
    "overall_avg": -27,
    "daily_punctuality": {
        "Sunday": {
            "num_results": 3,
            "total": -246,
            "avg:": 0,
            "avg": -82
        },
        "Monday": {
            "num_results": 3,
            "total": -216,
            "avg:": 0,
            "avg": -72
        },
        "Tuesday": {
            "num_results": 2,
            "total": -155,
            "avg:": 0,
            "avg": -77
        },
        "Wednesday": {
            "num_results": 4,
            "total": 235,
            "avg:": 0,
            "avg": 59
        },
        "Thursday": {
            "num_results": 2,
            "total": -58,
            "avg:": 0,
            "avg": -29
        },
        "Friday": {
            "num_results": 2,
            "total": -2,
            "avg:": 0,
            "avg": -1
        },
        "Saturday": {
            "num_results": 0,
            "total": 0,
            "avg:": 0
        }
    }
}