{
    "overall_punctuality": -3526,
    "overall_num": 46,
    "overall_avg": -76,
    "daily_punctuality": {
        "Sunday": {
            "num_results": 5,
            "total": -327,
            "avg:": 0,
            "avg": -65
        },
        "Monday": {
            "num_results": 6,
            "total": -36,
            "avg:": 0,
            "avg": -6
        },
        "Tuesday": {
            "num_results": 7,
            "total": -1237,
            "avg:": 0,
            "avg": -176
        },
        "Wednesday": {
            "num_results": 8,
            "total": -47,
            "avg:": 0,
            "avg": -5
        },
        "Thursday": {
            "num_results": 6,
            "total": -218,
            "avg:": 0,
            "avg": -36
        },
        "Friday": {
            "num_results": 4,
            "total": 163,
            "avg:": 0,
            "avg": 41
        },
        "Saturday": {
            "num_results": 10,
            "total": -1824,
            "avg:": 0,
            "avg": -182
        }
    }
}