{
    "overall_punctuality": 1364,
    "overall_num": 102,
    "overall_avg": 14,
    "daily_punctuality": {
        "Sunday": {
            "num_results": 12,
            "total": 129,
            "avg:": 0,
            "avg": 11
        },
        "Monday": {
            "num_results": 13,
            "total": -387,
            "avg:": 0,
            "avg": -29
        },
        "Tuesday": {
            "num_results": 16,
            "total": 328,
            "avg:": 0,
            "avg": 21
        },
        "Wednesday": {
            "num_results": 16,
            "total": 231,
            "avg:": 0,
            "avg": 15
        },
        "Thursday": {
            "num_results": 14,
            "total": 95,
            "avg:": 0,
            "avg": 7
        },
        "Friday": {
            "num_results": 11,
            "total": 420,
            "avg:": 0,
            "avg": 39
        },
        "Saturday": {
            "num_results": 20,
            "total": 548,
            "avg:": 0,
            "avg": 28
        }
    }
}