{
    "overall_punctuality": -2341,
    "overall_num": 22,
    "overall_avg": -106,
    "daily_punctuality": {
        "Sunday": {
            "num_results": 3,
            "total": -863,
            "avg:": 0,
            "avg": -287
        },
        "Monday": {
            "num_results": 1,
            "total": -225,
            "avg:": 0,
            "avg": -225
        },
        "Tuesday": {
            "num_results": 4,
            "total": -1142,
            "avg:": 0,
            "avg": -285
        },
        "Wednesday": {
            "num_results": 4,
            "total": 137,
            "avg:": 0,
            "avg": 35
        },
        "Thursday": {
            "num_results": 3,
            "total": 292,
            "avg:": 0,
            "avg": 98
        },
        "Friday": {
            "num_results": 2,
            "total": -4,
            "avg:": 0,
            "avg": -2
        },
        "Saturday": {
            "num_results": 5,
            "total": -536,
            "avg:": 0,
            "avg": -107
        }
    }
}