{
    "overall_punctuality": 680,
    "overall_num": 50,
    "overall_avg": 14,
    "daily_punctuality": {
        "Sunday": {
            "num_results": 6,
            "total": 114,
            "avg:": 0,
            "avg": 19
        },
        "Monday": {
            "num_results": 6,
            "total": 240,
            "avg:": 0,
            "avg": 40
        },
        "Tuesday": {
            "num_results": 8,
            "total": 8,
            "avg:": 0,
            "avg": 1
        },
        "Wednesday": {
            "num_results": 8,
            "total": 83,
            "avg:": 0,
            "avg": 11
        },
        "Thursday": {
            "num_results": 6,
            "total": 108,
            "avg:": 0,
            "avg": 18
        },
        "Friday": {
            "num_results": 4,
            "total": -30,
            "avg:": 0,
            "avg": -7
        },
        "Saturday": {
            "num_results": 12,
            "total": 157,
            "avg:": 0,
            "avg": 14
        }
    }
}