{
    "overall_punctuality": -1179,
    "overall_num": 88,
    "overall_avg": -13,
    "daily_punctuality": {
        "Sunday": {
            "num_results": 11,
            "total": 706,
            "avg:": 0,
            "avg": 65
        },
        "Monday": {
            "num_results": 12,
            "total": -532,
            "avg:": 0,
            "avg": -44
        },
        "Tuesday": {
            "num_results": 14,
            "total": -1219,
            "avg:": 0,
            "avg": -87
        },
        "Wednesday": {
            "num_results": 14,
            "total": 538,
            "avg:": 0,
            "avg": 39
        },
        "Thursday": {
            "num_results": 12,
            "total": 444,
            "avg:": 0,
            "avg": 37
        },
        "Friday": {
            "num_results": 8,
            "total": -279,
            "avg:": 0,
            "avg": -34
        },
        "Saturday": {
            "num_results": 17,
            "total": -837,
            "avg:": 0,
            "avg": -49
        }
    }
}