{
    "overall_punctuality": -2043,
    "overall_num": 90,
    "overall_avg": -22,
    "daily_punctuality": {
        "Sunday": {
            "num_results": 10,
            "total": 135,
            "avg:": 0,
            "avg": 14
        },
        "Monday": {
            "num_results": 11,
            "total": -518,
            "avg:": 0,
            "avg": -47
        },
        "Tuesday": {
            "num_results": 16,
            "total": -1741,
            "avg:": 0,
            "avg": -108
        },
        "Wednesday": {
            "num_results": 15,
            "total": 833,
            "avg:": 0,
            "avg": 56
        },
        "Thursday": {
            "num_results": 12,
            "total": 637,
            "avg:": 0,
            "avg": 54
        },
        "Friday": {
            "num_results": 8,
            "total": -131,
            "avg:": 0,
            "avg": -16
        },
        "Saturday": {
            "num_results": 18,
            "total": -1258,
            "avg:": 0,
            "avg": -69
        }
    }
}