{
    "overall_punctuality": 484,
    "overall_num": 50,
    "overall_avg": 10,
    "daily_punctuality": {
        "Sunday": {
            "num_results": 6,
            "total": 61,
            "avg:": 0,
            "avg": 11
        },
        "Monday": {
            "num_results": 6,
            "total": -2,
            "avg:": 0,
            "avg": 0
        },
        "Tuesday": {
            "num_results": 8,
            "total": -131,
            "avg:": 0,
            "avg": -16
        },
        "Wednesday": {
            "num_results": 8,
            "total": 49,
            "avg:": 0,
            "avg": 7
        },
        "Thursday": {
            "num_results": 6,
            "total": 173,
            "avg:": 0,
            "avg": 29
        },
        "Friday": {
            "num_results": 6,
            "total": 10,
            "avg:": 0,
            "avg": 2
        },
        "Saturday": {
            "num_results": 10,
            "total": 324,
            "avg:": 0,
            "avg": 33
        }
    }
}