{
    "overall_punctuality": 2323,
    "overall_num": 188,
    "overall_avg": 13,
    "daily_punctuality": {
        "Sunday": {
            "num_results": 22,
            "total": 161,
            "avg:": 0,
            "avg": 8
        },
        "Monday": {
            "num_results": 23,
            "total": -1432,
            "avg:": 0,
            "avg": -62
        },
        "Tuesday": {
            "num_results": 32,
            "total": 342,
            "avg:": 0,
            "avg": 11
        },
        "Wednesday": {
            "num_results": 30,
            "total": 1374,
            "avg:": 0,
            "avg": 46
        },
        "Thursday": {
            "num_results": 26,
            "total": 1445,
            "avg:": 0,
            "avg": 56
        },
        "Friday": {
            "num_results": 17,
            "total": 451,
            "avg:": 0,
            "avg": 27
        },
        "Saturday": {
            "num_results": 38,
            "total": -18,
            "avg:": 0,
            "avg": 0
        }
    }
}