{
    "overall_punctuality": 212,
    "overall_num": 39,
    "overall_avg": 6,
    "daily_punctuality": {
        "Sunday": {
            "num_results": 3,
            "total": -1,
            "avg:": 0,
            "avg": 0
        },
        "Monday": {
            "num_results": 3,
            "total": -55,
            "avg:": 0,
            "avg": -18
        },
        "Tuesday": {
            "num_results": 7,
            "total": 153,
            "avg:": 0,
            "avg": 22
        },
        "Wednesday": {
            "num_results": 6,
            "total": 127,
            "avg:": 0,
            "avg": 22
        },
        "Thursday": {
            "num_results": 6,
            "total": -30,
            "avg:": 0,
            "avg": -5
        },
        "Friday": {
            "num_results": 4,
            "total": 147,
            "avg:": 0,
            "avg": 37
        },
        "Saturday": {
            "num_results": 10,
            "total": -129,
            "avg:": 0,
            "avg": -12
        }
    }
}