{
    "overall_punctuality": 394,
    "overall_num": 52,
    "overall_avg": 8,
    "daily_punctuality": {
        "Sunday": {
            "num_results": 6,
            "total": 199,
            "avg:": 0,
            "avg": 34
        },
        "Monday": {
            "num_results": 6,
            "total": 9,
            "avg:": 0,
            "avg": 2
        },
        "Tuesday": {
            "num_results": 8,
            "total": -169,
            "avg:": 0,
            "avg": -21
        },
        "Wednesday": {
            "num_results": 8,
            "total": 115,
            "avg:": 0,
            "avg": 15
        },
        "Thursday": {
            "num_results": 6,
            "total": 37,
            "avg:": 0,
            "avg": 7
        },
        "Friday": {
            "num_results": 6,
            "total": 171,
            "avg:": 0,
            "avg": 29
        },
        "Saturday": {
            "num_results": 12,
            "total": 32,
            "avg:": 0,
            "avg": 3
        }
    }
}