{
    "overall_punctuality": -3189,
    "overall_num": 50,
    "overall_avg": -63,
    "daily_punctuality": {
        "Sunday": {
            "num_results": 4,
            "total": -2,
            "avg:": 0,
            "avg": 0
        },
        "Monday": {
            "num_results": 5,
            "total": 74,
            "avg:": 0,
            "avg": 15
        },
        "Tuesday": {
            "num_results": 7,
            "total": -1352,
            "avg:": 0,
            "avg": -193
        },
        "Wednesday": {
            "num_results": 8,
            "total": 633,
            "avg:": 0,
            "avg": 80
        },
        "Thursday": {
            "num_results": 6,
            "total": 626,
            "avg:": 0,
            "avg": 105
        },
        "Friday": {
            "num_results": 4,
            "total": 64,
            "avg:": 0,
            "avg": 16
        },
        "Saturday": {
            "num_results": 16,
            "total": -3232,
            "avg:": 0,
            "avg": -202
        }
    }
}