{
    "overall_punctuality": -186,
    "overall_num": 130,
    "overall_avg": -1,
    "daily_punctuality": {
        "Sunday": {
            "num_results": 14,
            "total": -15,
            "avg:": 0,
            "avg": -1
        },
        "Monday": {
            "num_results": 16,
            "total": -984,
            "avg:": 0,
            "avg": -61
        },
        "Tuesday": {
            "num_results": 21,
            "total": -797,
            "avg:": 0,
            "avg": -37
        },
        "Wednesday": {
            "num_results": 22,
            "total": 296,
            "avg:": 0,
            "avg": 14
        },
        "Thursday": {
            "num_results": 13,
            "total": 455,
            "avg:": 0,
            "avg": 35
        },
        "Friday": {
            "num_results": 11,
            "total": 368,
            "avg:": 0,
            "avg": 34
        },
        "Saturday": {
            "num_results": 33,
            "total": 491,
            "avg:": 0,
            "avg": 15
        }
    }
}