{
    "overall_punctuality": 336,
    "overall_num": 131,
    "overall_avg": 3,
    "daily_punctuality": {
        "Sunday": {
            "num_results": 14,
            "total": 235,
            "avg:": 0,
            "avg": 17
        },
        "Monday": {
            "num_results": 15,
            "total": -782,
            "avg:": 0,
            "avg": -52
        },
        "Tuesday": {
            "num_results": 21,
            "total": -683,
            "avg:": 0,
            "avg": -32
        },
        "Wednesday": {
            "num_results": 21,
            "total": 687,
            "avg:": 0,
            "avg": 33
        },
        "Thursday": {
            "num_results": 15,
            "total": 626,
            "avg:": 0,
            "avg": 42
        },
        "Friday": {
            "num_results": 12,
            "total": -8,
            "avg:": 0,
            "avg": 0
        },
        "Saturday": {
            "num_results": 33,
            "total": 261,
            "avg:": 0,
            "avg": 8
        }
    }
}