{
    "overall_punctuality": -6215,
    "overall_num": 87,
    "overall_avg": -71,
    "daily_punctuality": {
        "Sunday": {
            "num_results": 10,
            "total": -1400,
            "avg:": 0,
            "avg": -140
        },
        "Monday": {
            "num_results": 10,
            "total": -4466,
            "avg:": 0,
            "avg": -446
        },
        "Tuesday": {
            "num_results": 12,
            "total": -2632,
            "avg:": 0,
            "avg": -219
        },
        "Wednesday": {
            "num_results": 16,
            "total": 2352,
            "avg:": 0,
            "avg": 147
        },
        "Thursday": {
            "num_results": 11,
            "total": 1125,
            "avg:": 0,
            "avg": 103
        },
        "Friday": {
            "num_results": 12,
            "total": 1138,
            "avg:": 0,
            "avg": 95
        },
        "Saturday": {
            "num_results": 16,
            "total": -2332,
            "avg:": 0,
            "avg": -145
        }
    }
}