{
    "overall_punctuality": -2034,
    "overall_num": 24,
    "overall_avg": -84,
    "daily_punctuality": {
        "Sunday": {
            "num_results": 2,
            "total": -19,
            "avg:": 0,
            "avg": -9
        },
        "Monday": {
            "num_results": 2,
            "total": 131,
            "avg:": 0,
            "avg": 66
        },
        "Tuesday": {
            "num_results": 5,
            "total": -1161,
            "avg:": 0,
            "avg": -232
        },
        "Wednesday": {
            "num_results": 3,
            "total": -57,
            "avg:": 0,
            "avg": -19
        },
        "Thursday": {
            "num_results": 4,
            "total": 27,
            "avg:": 0,
            "avg": 7
        },
        "Friday": {
            "num_results": 2,
            "total": 100,
            "avg:": 0,
            "avg": 50
        },
        "Saturday": {
            "num_results": 6,
            "total": -1055,
            "avg:": 0,
            "avg": -175
        }
    }
}