{
    "overall_punctuality": -1612,
    "overall_num": 137,
    "overall_avg": -11,
    "daily_punctuality": {
        "Sunday": {
            "num_results": 15,
            "total": -144,
            "avg:": 0,
            "avg": -9
        },
        "Monday": {
            "num_results": 17,
            "total": -1358,
            "avg:": 0,
            "avg": -79
        },
        "Tuesday": {
            "num_results": 22,
            "total": -1290,
            "avg:": 0,
            "avg": -58
        },
        "Wednesday": {
            "num_results": 21,
            "total": 817,
            "avg:": 0,
            "avg": 39
        },
        "Thursday": {
            "num_results": 16,
            "total": 287,
            "avg:": 0,
            "avg": 18
        },
        "Friday": {
            "num_results": 13,
            "total": -100,
            "avg:": 0,
            "avg": -7
        },
        "Saturday": {
            "num_results": 33,
            "total": 176,
            "avg:": 0,
            "avg": 6
        }
    }
}