{
    "overall_punctuality": 152,
    "overall_num": 21,
    "overall_avg": 8,
    "daily_punctuality": {
        "Sunday": {
            "num_results": 2,
            "total": 38,
            "avg:": 0,
            "avg": 19
        },
        "Monday": {
            "num_results": 2,
            "total": 49,
            "avg:": 0,
            "avg": 25
        },
        "Tuesday": {
            "num_results": 4,
            "total": 152,
            "avg:": 0,
            "avg": 38
        },
        "Wednesday": {
            "num_results": 3,
            "total": 0,
            "avg:": 0,
            "avg": 0
        },
        "Thursday": {
            "num_results": 3,
            "total": -18,
            "avg:": 0,
            "avg": -6
        },
        "Friday": {
            "num_results": 2,
            "total": -18,
            "avg:": 0,
            "avg": -9
        },
        "Saturday": {
            "num_results": 5,
            "total": -51,
            "avg:": 0,
            "avg": -10
        }
    }
}