{
    "overall_punctuality": -1990,
    "overall_num": 137,
    "overall_avg": -14,
    "daily_punctuality": {
        "Sunday": {
            "num_results": 16,
            "total": -147,
            "avg:": 0,
            "avg": -9
        },
        "Monday": {
            "num_results": 16,
            "total": -1714,
            "avg:": 0,
            "avg": -107
        },
        "Tuesday": {
            "num_results": 22,
            "total": -1830,
            "avg:": 0,
            "avg": -83
        },
        "Wednesday": {
            "num_results": 21,
            "total": 967,
            "avg:": 0,
            "avg": 47
        },
        "Thursday": {
            "num_results": 17,
            "total": 744,
            "avg:": 0,
            "avg": 44
        },
        "Friday": {
            "num_results": 12,
            "total": -80,
            "avg:": 0,
            "avg": -6
        },
        "Saturday": {
            "num_results": 33,
            "total": 70,
            "avg:": 0,
            "avg": 3
        }
    }
}