{
    "overall_punctuality": -2292,
    "overall_num": 139,
    "overall_avg": -16,
    "daily_punctuality": {
        "Sunday": {
            "num_results": 16,
            "total": -207,
            "avg:": 0,
            "avg": -12
        },
        "Monday": {
            "num_results": 16,
            "total": -1607,
            "avg:": 0,
            "avg": -100
        },
        "Tuesday": {
            "num_results": 21,
            "total": -1437,
            "avg:": 0,
            "avg": -68
        },
        "Wednesday": {
            "num_results": 23,
            "total": 401,
            "avg:": 0,
            "avg": 18
        },
        "Thursday": {
            "num_results": 17,
            "total": 797,
            "avg:": 0,
            "avg": 47
        },
        "Friday": {
            "num_results": 14,
            "total": -145,
            "avg:": 0,
            "avg": -10
        },
        "Saturday": {
            "num_results": 32,
            "total": -94,
            "avg:": 0,
            "avg": -2
        }
    }
}