{
    "overall_punctuality": -12586,
    "overall_num": 69,
    "overall_avg": -182,
    "daily_punctuality": {
        "Sunday": {
            "num_results": 8,
            "total": -2148,
            "avg:": 0,
            "avg": -268
        },
        "Monday": {
            "num_results": 8,
            "total": -1891,
            "avg:": 0,
            "avg": -236
        },
        "Tuesday": {
            "num_results": 12,
            "total": -5465,
            "avg:": 0,
            "avg": -455
        },
        "Wednesday": {
            "num_results": 12,
            "total": 439,
            "avg:": 0,
            "avg": 37
        },
        "Thursday": {
            "num_results": 9,
            "total": 864,
            "avg:": 0,
            "avg": 96
        },
        "Friday": {
            "num_results": 6,
            "total": 752,
            "avg:": 0,
            "avg": 126
        },
        "Saturday": {
            "num_results": 14,
            "total": -5137,
            "avg:": 0,
            "avg": -366
        }
    }
}