{
    "overall_punctuality": -4065,
    "overall_num": 446,
    "overall_avg": -9,
    "daily_punctuality": {
        "Sunday": {
            "num_results": 46,
            "total": -216,
            "avg:": 0,
            "avg": -4
        },
        "Monday": {
            "num_results": 56,
            "total": -1729,
            "avg:": 0,
            "avg": -30
        },
        "Tuesday": {
            "num_results": 74,
            "total": -2395,
            "avg:": 0,
            "avg": -32
        },
        "Wednesday": {
            "num_results": 77,
            "total": -194,
            "avg:": 0,
            "avg": -2
        },
        "Thursday": {
            "num_results": 55,
            "total": 1178,
            "avg:": 0,
            "avg": 22
        },
        "Friday": {
            "num_results": 42,
            "total": -391,
            "avg:": 0,
            "avg": -9
        },
        "Saturday": {
            "num_results": 96,
            "total": -318,
            "avg:": 0,
            "avg": -3
        }
    }
}