{
    "overall_punctuality": -52,
    "overall_num": 47,
    "overall_avg": -1,
    "daily_punctuality": {
        "Sunday": {
            "num_results": 6,
            "total": -123,
            "avg:": 0,
            "avg": -20
        },
        "Monday": {
            "num_results": 5,
            "total": 29,
            "avg:": 0,
            "avg": 6
        },
        "Tuesday": {
            "num_results": 8,
            "total": 15,
            "avg:": 0,
            "avg": 2
        },
        "Wednesday": {
            "num_results": 8,
            "total": 152,
            "avg:": 0,
            "avg": 19
        },
        "Thursday": {
            "num_results": 6,
            "total": 15,
            "avg:": 0,
            "avg": 3
        },
        "Friday": {
            "num_results": 4,
            "total": 24,
            "avg:": 0,
            "avg": 6
        },
        "Saturday": {
            "num_results": 10,
            "total": -164,
            "avg:": 0,
            "avg": -16
        }
    }
}