{
    "overall_punctuality": 0,
    "overall_num": 61,
    "overall_avg": 0,
    "daily_punctuality": {
        "Sunday": {
            "num_results": 7,
            "total": 0,
            "avg:": 0,
            "avg": 0
        },
        "Monday": {
            "num_results": 7,
            "total": 0,
            "avg:": 0,
            "avg": 0
        },
        "Tuesday": {
            "num_results": 8,
            "total": 0,
            "avg:": 0,
            "avg": 0
        },
        "Wednesday": {
            "num_results": 6,
            "total": 0,
            "avg:": 0,
            "avg": 0
        },
        "Thursday": {
            "num_results": 11,
            "total": 0,
            "avg:": 0,
            "avg": 0
        },
        "Friday": {
            "num_results": 6,
            "total": 0,
            "avg:": 0,
            "avg": 0
        },
        "Saturday": {
            "num_results": 16,
            "total": 0,
            "avg:": 0,
            "avg": 0
        }
    }
}