{
    "overall_punctuality": 263,
    "overall_num": 96,
    "overall_avg": 3,
    "daily_punctuality": {
        "Sunday": {
            "num_results": 12,
            "total": -7,
            "avg:": 0,
            "avg": 0
        },
        "Monday": {
            "num_results": 12,
            "total": 23,
            "avg:": 0,
            "avg": 2
        },
        "Tuesday": {
            "num_results": 14,
            "total": 43,
            "avg:": 0,
            "avg": 4
        },
        "Wednesday": {
            "num_results": 15,
            "total": 42,
            "avg:": 0,
            "avg": 3
        },
        "Thursday": {
            "num_results": 11,
            "total": 52,
            "avg:": 0,
            "avg": 5
        },
        "Friday": {
            "num_results": 8,
            "total": 11,
            "avg:": 0,
            "avg": 2
        },
        "Saturday": {
            "num_results": 24,
            "total": 99,
            "avg:": 0,
            "avg": 5
        }
    }
}