{
    "overall_punctuality": -6657,
    "overall_num": 74,
    "overall_avg": -89,
    "daily_punctuality": {
        "Sunday": {
            "num_results": 8,
            "total": 220,
            "avg:": 0,
            "avg": 28
        },
        "Monday": {
            "num_results": 9,
            "total": -2323,
            "avg:": 0,
            "avg": -258
        },
        "Tuesday": {
            "num_results": 12,
            "total": -1089,
            "avg:": 0,
            "avg": -90
        },
        "Wednesday": {
            "num_results": 11,
            "total": -8,
            "avg:": 0,
            "avg": 0
        },
        "Thursday": {
            "num_results": 9,
            "total": 1826,
            "avg:": 0,
            "avg": 203
        },
        "Friday": {
            "num_results": 5,
            "total": 79,
            "avg:": 0,
            "avg": 16
        },
        "Saturday": {
            "num_results": 20,
            "total": -5362,
            "avg:": 0,
            "avg": -268
        }
    }
}