{
    "overall_punctuality": -887,
    "overall_num": 259,
    "overall_avg": -3,
    "daily_punctuality": {
        "Sunday": {
            "num_results": 26,
            "total": -78,
            "avg:": 0,
            "avg": -3
        },
        "Monday": {
            "num_results": 33,
            "total": -842,
            "avg:": 0,
            "avg": -25
        },
        "Tuesday": {
            "num_results": 41,
            "total": -2007,
            "avg:": 0,
            "avg": -48
        },
        "Wednesday": {
            "num_results": 43,
            "total": 1287,
            "avg:": 0,
            "avg": 30
        },
        "Thursday": {
            "num_results": 35,
            "total": 583,
            "avg:": 0,
            "avg": 17
        },
        "Friday": {
            "num_results": 24,
            "total": 818,
            "avg:": 0,
            "avg": 35
        },
        "Saturday": {
            "num_results": 57,
            "total": -648,
            "avg:": 0,
            "avg": -11
        }
    }
}