{
    "overall_punctuality": 208,
    "overall_num": 45,
    "overall_avg": 5,
    "daily_punctuality": {
        "Sunday": {
            "num_results": 4,
            "total": -17,
            "avg:": 0,
            "avg": -4
        },
        "Monday": {
            "num_results": 6,
            "total": -99,
            "avg:": 0,
            "avg": -16
        },
        "Tuesday": {
            "num_results": 7,
            "total": -115,
            "avg:": 0,
            "avg": -16
        },
        "Wednesday": {
            "num_results": 8,
            "total": 77,
            "avg:": 0,
            "avg": 10
        },
        "Thursday": {
            "num_results": 6,
            "total": 148,
            "avg:": 0,
            "avg": 25
        },
        "Friday": {
            "num_results": 4,
            "total": -17,
            "avg:": 0,
            "avg": -4
        },
        "Saturday": {
            "num_results": 10,
            "total": 231,
            "avg:": 0,
            "avg": 24
        }
    }
}