{
    "overall_punctuality": -6940,
    "overall_num": 56,
    "overall_avg": -123,
    "daily_punctuality": {
        "Sunday": {
            "num_results": 6,
            "total": -2153,
            "avg:": 0,
            "avg": -358
        },
        "Monday": {
            "num_results": 6,
            "total": -1556,
            "avg:": 0,
            "avg": -259
        },
        "Tuesday": {
            "num_results": 8,
            "total": -2319,
            "avg:": 0,
            "avg": -289
        },
        "Wednesday": {
            "num_results": 8,
            "total": 2140,
            "avg:": 0,
            "avg": 268
        },
        "Thursday": {
            "num_results": 6,
            "total": 834,
            "avg:": 0,
            "avg": 139
        },
        "Friday": {
            "num_results": 6,
            "total": 382,
            "avg:": 0,
            "avg": 64
        },
        "Saturday": {
            "num_results": 16,
            "total": -4268,
            "avg:": 0,
            "avg": -266
        }
    }
}