{
    "overall_punctuality": -911,
    "overall_num": 15,
    "overall_avg": -60,
    "daily_punctuality": {
        "Sunday": {
            "num_results": 3,
            "total": -211,
            "avg:": 0,
            "avg": -70
        },
        "Monday": {
            "num_results": 2,
            "total": -202,
            "avg:": 0,
            "avg": -101
        },
        "Tuesday": {
            "num_results": 2,
            "total": -171,
            "avg:": 0,
            "avg": -85
        },
        "Wednesday": {
            "num_results": 3,
            "total": 370,
            "avg:": 0,
            "avg": 124
        },
        "Thursday": {
            "num_results": 2,
            "total": -80,
            "avg:": 0,
            "avg": -40
        },
        "Friday": {
            "num_results": 2,
            "total": 92,
            "avg:": 0,
            "avg": 46
        },
        "Saturday": {
            "num_results": 1,
            "total": -709,
            "avg:": 0,
            "avg": -709
        }
    }
}