{
    "overall_punctuality": -263,
    "overall_num": 45,
    "overall_avg": -5,
    "daily_punctuality": {
        "Sunday": {
            "num_results": 5,
            "total": 1600,
            "avg:": 0,
            "avg": 320
        },
        "Monday": {
            "num_results": 4,
            "total": -1582,
            "avg:": 0,
            "avg": -395
        },
        "Tuesday": {
            "num_results": 9,
            "total": -2785,
            "avg:": 0,
            "avg": -309
        },
        "Wednesday": {
            "num_results": 8,
            "total": 574,
            "avg:": 0,
            "avg": 72
        },
        "Thursday": {
            "num_results": 6,
            "total": 1780,
            "avg:": 0,
            "avg": 297
        },
        "Friday": {
            "num_results": 5,
            "total": 580,
            "avg:": 0,
            "avg": 116
        },
        "Saturday": {
            "num_results": 8,
            "total": -430,
            "avg:": 0,
            "avg": -53
        }
    }
}