{
    "overall_punctuality": -3239,
    "overall_num": 45,
    "overall_avg": -71,
    "daily_punctuality": {
        "Sunday": {
            "num_results": 6,
            "total": -554,
            "avg:": 0,
            "avg": -92
        },
        "Monday": {
            "num_results": 5,
            "total": -524,
            "avg:": 0,
            "avg": -104
        },
        "Tuesday": {
            "num_results": 6,
            "total": -1726,
            "avg:": 0,
            "avg": -287
        },
        "Wednesday": {
            "num_results": 8,
            "total": 501,
            "avg:": 0,
            "avg": 63
        },
        "Thursday": {
            "num_results": 6,
            "total": 534,
            "avg:": 0,
            "avg": 89
        },
        "Friday": {
            "num_results": 4,
            "total": 847,
            "avg:": 0,
            "avg": 212
        },
        "Saturday": {
            "num_results": 10,
            "total": -2317,
            "avg:": 0,
            "avg": -231
        }
    }
}