{
    "overall_punctuality": -3702,
    "overall_num": 45,
    "overall_avg": -82,
    "daily_punctuality": {
        "Sunday": {
            "num_results": 6,
            "total": -9,
            "avg:": 0,
            "avg": -1
        },
        "Monday": {
            "num_results": 5,
            "total": -933,
            "avg:": 0,
            "avg": -186
        },
        "Tuesday": {
            "num_results": 6,
            "total": -1770,
            "avg:": 0,
            "avg": -295
        },
        "Wednesday": {
            "num_results": 7,
            "total": 498,
            "avg:": 0,
            "avg": 72
        },
        "Thursday": {
            "num_results": 6,
            "total": 113,
            "avg:": 0,
            "avg": 19
        },
        "Friday": {
            "num_results": 5,
            "total": 441,
            "avg:": 0,
            "avg": 89
        },
        "Saturday": {
            "num_results": 10,
            "total": -2042,
            "avg:": 0,
            "avg": -204
        }
    }
}