{
    "overall_punctuality": 315,
    "overall_num": 94,
    "overall_avg": 4,
    "daily_punctuality": {
        "Sunday": {
            "num_results": 9,
            "total": 1193,
            "avg:": 0,
            "avg": 133
        },
        "Monday": {
            "num_results": 13,
            "total": -536,
            "avg:": 0,
            "avg": -41
        },
        "Tuesday": {
            "num_results": 16,
            "total": 456,
            "avg:": 0,
            "avg": 29
        },
        "Wednesday": {
            "num_results": 15,
            "total": 304,
            "avg:": 0,
            "avg": 21
        },
        "Thursday": {
            "num_results": 12,
            "total": 73,
            "avg:": 0,
            "avg": 7
        },
        "Friday": {
            "num_results": 9,
            "total": 251,
            "avg:": 0,
            "avg": 28
        },
        "Saturday": {
            "num_results": 20,
            "total": -1426,
            "avg:": 0,
            "avg": -71
        }
    }
}