{
    "overall_punctuality": -182,
    "overall_num": 57,
    "overall_avg": -3,
    "daily_punctuality": {
        "Sunday": {
            "num_results": 7,
            "total": 1927,
            "avg:": 0,
            "avg": 276
        },
        "Monday": {
            "num_results": 7,
            "total": -397,
            "avg:": 0,
            "avg": -56
        },
        "Tuesday": {
            "num_results": 8,
            "total": 532,
            "avg:": 0,
            "avg": 67
        },
        "Wednesday": {
            "num_results": 9,
            "total": -56,
            "avg:": 0,
            "avg": -6
        },
        "Thursday": {
            "num_results": 8,
            "total": -74,
            "avg:": 0,
            "avg": -9
        },
        "Friday": {
            "num_results": 5,
            "total": 187,
            "avg:": 0,
            "avg": 38
        },
        "Saturday": {
            "num_results": 13,
            "total": -2301,
            "avg:": 0,
            "avg": -177
        }
    }
}