{
    "overall_punctuality": -649,
    "overall_num": 56,
    "overall_avg": -11,
    "daily_punctuality": {
        "Sunday": {
            "num_results": 6,
            "total": 1975,
            "avg:": 0,
            "avg": 330
        },
        "Monday": {
            "num_results": 7,
            "total": -289,
            "avg:": 0,
            "avg": -41
        },
        "Tuesday": {
            "num_results": 8,
            "total": -166,
            "avg:": 0,
            "avg": -20
        },
        "Wednesday": {
            "num_results": 9,
            "total": 7,
            "avg:": 0,
            "avg": 1
        },
        "Thursday": {
            "num_results": 8,
            "total": -69,
            "avg:": 0,
            "avg": -8
        },
        "Friday": {
            "num_results": 5,
            "total": 169,
            "avg:": 0,
            "avg": 34
        },
        "Saturday": {
            "num_results": 13,
            "total": -2276,
            "avg:": 0,
            "avg": -175
        }
    }
}