{
    "overall_punctuality": -392,
    "overall_num": 58,
    "overall_avg": -6,
    "daily_punctuality": {
        "Sunday": {
            "num_results": 6,
            "total": 1845,
            "avg:": 0,
            "avg": 308
        },
        "Monday": {
            "num_results": 8,
            "total": -831,
            "avg:": 0,
            "avg": -103
        },
        "Tuesday": {
            "num_results": 8,
            "total": 436,
            "avg:": 0,
            "avg": 55
        },
        "Wednesday": {
            "num_results": 9,
            "total": 534,
            "avg:": 0,
            "avg": 60
        },
        "Thursday": {
            "num_results": 8,
            "total": 61,
            "avg:": 0,
            "avg": 8
        },
        "Friday": {
            "num_results": 5,
            "total": 127,
            "avg:": 0,
            "avg": 26
        },
        "Saturday": {
            "num_results": 14,
            "total": -2564,
            "avg:": 0,
            "avg": -183
        }
    }
}