{
    "overall_punctuality": 1553,
    "overall_num": 61,
    "overall_avg": 26,
    "daily_punctuality": {
        "Sunday": {
            "num_results": 7,
            "total": 883,
            "avg:": 0,
            "avg": 127
        },
        "Monday": {
            "num_results": 7,
            "total": -89,
            "avg:": 0,
            "avg": -12
        },
        "Tuesday": {
            "num_results": 10,
            "total": 303,
            "avg:": 0,
            "avg": 31
        },
        "Wednesday": {
            "num_results": 10,
            "total": 2,
            "avg:": 0,
            "avg": 1
        },
        "Thursday": {
            "num_results": 9,
            "total": 274,
            "avg:": 0,
            "avg": 31
        },
        "Friday": {
            "num_results": 5,
            "total": -2,
            "avg:": 0,
            "avg": 0
        },
        "Saturday": {
            "num_results": 13,
            "total": 182,
            "avg:": 0,
            "avg": 14
        }
    }
}