{
    "overall_punctuality": 1112,
    "overall_num": 58,
    "overall_avg": 20,
    "daily_punctuality": {
        "Sunday": {
            "num_results": 6,
            "total": 693,
            "avg:": 0,
            "avg": 116
        },
        "Monday": {
            "num_results": 8,
            "total": 33,
            "avg:": 0,
            "avg": 5
        },
        "Tuesday": {
            "num_results": 9,
            "total": 178,
            "avg:": 0,
            "avg": 20
        },
        "Wednesday": {
            "num_results": 11,
            "total": -136,
            "avg:": 0,
            "avg": -12
        },
        "Thursday": {
            "num_results": 7,
            "total": 254,
            "avg:": 0,
            "avg": 37
        },
        "Friday": {
            "num_results": 5,
            "total": 15,
            "avg:": 0,
            "avg": 3
        },
        "Saturday": {
            "num_results": 12,
            "total": 75,
            "avg:": 0,
            "avg": 7
        }
    }
}