{
    "overall_punctuality": 178,
    "overall_num": 24,
    "overall_avg": 8,
    "daily_punctuality": {
        "Sunday": {
            "num_results": 3,
            "total": 30,
            "avg:": 0,
            "avg": 10
        },
        "Monday": {
            "num_results": 3,
            "total": -33,
            "avg:": 0,
            "avg": -11
        },
        "Tuesday": {
            "num_results": 4,
            "total": -3,
            "avg:": 0,
            "avg": 0
        },
        "Wednesday": {
            "num_results": 4,
            "total": 16,
            "avg:": 0,
            "avg": 4
        },
        "Thursday": {
            "num_results": 3,
            "total": -1,
            "avg:": 0,
            "avg": 0
        },
        "Friday": {
            "num_results": 1,
            "total": 1,
            "avg:": 0,
            "avg": 1
        },
        "Saturday": {
            "num_results": 6,
            "total": 168,
            "avg:": 0,
            "avg": 28
        }
    }
}