{
    "overall_punctuality": 2053,
    "overall_num": 5,
    "overall_avg": 411,
    "daily_punctuality": {
        "Sunday": {
            "num_results": 0,
            "total": 0,
            "avg:": 0
        },
        "Monday": {
            "num_results": 1,
            "total": -10,
            "avg:": 0,
            "avg": -10
        },
        "Tuesday": {
            "num_results": 2,
            "total": -20,
            "avg:": 0,
            "avg": -10
        },
        "Wednesday": {
            "num_results": 2,
            "total": 2083,
            "avg:": 0,
            "avg": 1042
        },
        "Thursday": {
            "num_results": 0,
            "total": 0,
            "avg:": 0
        },
        "Friday": {
            "num_results": 0,
            "total": 0,
            "avg:": 0
        },
        "Saturday": {
            "num_results": 0,
            "total": 0,
            "avg:": 0
        }
    }
}