{
    "overall_punctuality": -4015,
    "overall_num": 69,
    "overall_avg": -58,
    "daily_punctuality": {
        "Sunday": {
            "num_results": 9,
            "total": -811,
            "avg:": 0,
            "avg": -90
        },
        "Monday": {
            "num_results": 9,
            "total": -2989,
            "avg:": 0,
            "avg": -332
        },
        "Tuesday": {
            "num_results": 11,
            "total": -993,
            "avg:": 0,
            "avg": -90
        },
        "Wednesday": {
            "num_results": 10,
            "total": 990,
            "avg:": 0,
            "avg": 99
        },
        "Thursday": {
            "num_results": 9,
            "total": 571,
            "avg:": 0,
            "avg": 64
        },
        "Friday": {
            "num_results": 7,
            "total": 664,
            "avg:": 0,
            "avg": 95
        },
        "Saturday": {
            "num_results": 14,
            "total": -1447,
            "avg:": 0,
            "avg": -103
        }
    }
}