{
    "overall_punctuality": 697,
    "overall_num": 41,
    "overall_avg": 17,
    "daily_punctuality": {
        "Sunday": {
            "num_results": 4,
            "total": 58,
            "avg:": 0,
            "avg": 15
        },
        "Monday": {
            "num_results": 6,
            "total": 97,
            "avg:": 0,
            "avg": 17
        },
        "Tuesday": {
            "num_results": 6,
            "total": 98,
            "avg:": 0,
            "avg": 17
        },
        "Wednesday": {
            "num_results": 6,
            "total": 99,
            "avg:": 0,
            "avg": 17
        },
        "Thursday": {
            "num_results": 5,
            "total": 89,
            "avg:": 0,
            "avg": 18
        },
        "Friday": {
            "num_results": 4,
            "total": 66,
            "avg:": 0,
            "avg": 17
        },
        "Saturday": {
            "num_results": 10,
            "total": 190,
            "avg:": 0,
            "avg": 19
        }
    }
}