{
    "overall_punctuality": 6130,
    "overall_num": 94,
    "overall_avg": 66,
    "daily_punctuality": {
        "Sunday": {
            "num_results": 10,
            "total": 3491,
            "avg:": 0,
            "avg": 350
        },
        "Monday": {
            "num_results": 13,
            "total": -254,
            "avg:": 0,
            "avg": -19
        },
        "Tuesday": {
            "num_results": 18,
            "total": 286,
            "avg:": 0,
            "avg": 16
        },
        "Wednesday": {
            "num_results": 16,
            "total": 1398,
            "avg:": 0,
            "avg": 88
        },
        "Thursday": {
            "num_results": 12,
            "total": 713,
            "avg:": 0,
            "avg": 60
        },
        "Friday": {
            "num_results": 7,
            "total": 136,
            "avg:": 0,
            "avg": 20
        },
        "Saturday": {
            "num_results": 18,
            "total": 360,
            "avg:": 0,
            "avg": 20
        }
    }
}