{
    "overall_punctuality": 8680,
    "overall_num": 140,
    "overall_avg": 62,
    "daily_punctuality": {
        "Sunday": {
            "num_results": 14,
            "total": 3306,
            "avg:": 0,
            "avg": 237
        },
        "Monday": {
            "num_results": 19,
            "total": -847,
            "avg:": 0,
            "avg": -44
        },
        "Tuesday": {
            "num_results": 26,
            "total": 320,
            "avg:": 0,
            "avg": 13
        },
        "Wednesday": {
            "num_results": 24,
            "total": 1269,
            "avg:": 0,
            "avg": 53
        },
        "Thursday": {
            "num_results": 17,
            "total": 1126,
            "avg:": 0,
            "avg": 67
        },
        "Friday": {
            "num_results": 12,
            "total": 506,
            "avg:": 0,
            "avg": 43
        },
        "Saturday": {
            "num_results": 28,
            "total": 3000,
            "avg:": 0,
            "avg": 108
        }
    }
}