{
    "overall_punctuality": -1415,
    "overall_num": 67,
    "overall_avg": -21,
    "daily_punctuality": {
        "Sunday": {
            "num_results": 8,
            "total": -371,
            "avg:": 0,
            "avg": -46
        },
        "Monday": {
            "num_results": 7,
            "total": -318,
            "avg:": 0,
            "avg": -45
        },
        "Tuesday": {
            "num_results": 12,
            "total": -1667,
            "avg:": 0,
            "avg": -138
        },
        "Wednesday": {
            "num_results": 11,
            "total": 429,
            "avg:": 0,
            "avg": 39
        },
        "Thursday": {
            "num_results": 9,
            "total": 817,
            "avg:": 0,
            "avg": 91
        },
        "Friday": {
            "num_results": 6,
            "total": 43,
            "avg:": 0,
            "avg": 8
        },
        "Saturday": {
            "num_results": 14,
            "total": -348,
            "avg:": 0,
            "avg": -24
        }
    }
}