{
    "overall_punctuality": -3826,
    "overall_num": 34,
    "overall_avg": -112,
    "daily_punctuality": {
        "Sunday": {
            "num_results": 1,
            "total": 382,
            "avg:": 0,
            "avg": 382
        },
        "Monday": {
            "num_results": 5,
            "total": -2116,
            "avg:": 0,
            "avg": -423
        },
        "Tuesday": {
            "num_results": 7,
            "total": -1404,
            "avg:": 0,
            "avg": -200
        },
        "Wednesday": {
            "num_results": 6,
            "total": 1144,
            "avg:": 0,
            "avg": 191
        },
        "Thursday": {
            "num_results": 5,
            "total": 226,
            "avg:": 0,
            "avg": 46
        },
        "Friday": {
            "num_results": 5,
            "total": 440,
            "avg:": 0,
            "avg": 88
        },
        "Saturday": {
            "num_results": 5,
            "total": -2498,
            "avg:": 0,
            "avg": -499
        }
    }
}