{
    "overall_punctuality": 9116,
    "overall_num": 138,
    "overall_avg": 67,
    "daily_punctuality": {
        "Sunday": {
            "num_results": 14,
            "total": 3582,
            "avg:": 0,
            "avg": 256
        },
        "Monday": {
            "num_results": 19,
            "total": -886,
            "avg:": 0,
            "avg": -46
        },
        "Tuesday": {
            "num_results": 25,
            "total": 373,
            "avg:": 0,
            "avg": 15
        },
        "Wednesday": {
            "num_results": 23,
            "total": 1309,
            "avg:": 0,
            "avg": 57
        },
        "Thursday": {
            "num_results": 17,
            "total": 1222,
            "avg:": 0,
            "avg": 72
        },
        "Friday": {
            "num_results": 12,
            "total": 460,
            "avg:": 0,
            "avg": 39
        },
        "Saturday": {
            "num_results": 28,
            "total": 3056,
            "avg:": 0,
            "avg": 110
        }
    }
}