{
    "overall_punctuality": 353,
    "overall_num": 4,
    "overall_avg": 89,
    "daily_punctuality": {
        "Sunday": {
            "num_results": 0,
            "total": 0,
            "avg:": 0
        },
        "Monday": {
            "num_results": 1,
            "total": -448,
            "avg:": 0,
            "avg": -448
        },
        "Tuesday": {
            "num_results": 0,
            "total": 0,
            "avg:": 0
        },
        "Wednesday": {
            "num_results": 1,
            "total": 249,
            "avg:": 0,
            "avg": 249
        },
        "Thursday": {
            "num_results": 0,
            "total": 0,
            "avg:": 0
        },
        "Friday": {
            "num_results": 2,
            "total": 552,
            "avg:": 0,
            "avg": 276
        },
        "Saturday": {
            "num_results": 0,
            "total": 0,
            "avg:": 0
        }
    }
}