{
    "overall_punctuality": -9443,
    "overall_num": 55,
    "overall_avg": -171,
    "daily_punctuality": {
        "Sunday": {
            "num_results": 6,
            "total": -1787,
            "avg:": 0,
            "avg": -297
        },
        "Monday": {
            "num_results": 6,
            "total": -1601,
            "avg:": 0,
            "avg": -266
        },
        "Tuesday": {
            "num_results": 9,
            "total": -3653,
            "avg:": 0,
            "avg": -405
        },
        "Wednesday": {
            "num_results": 10,
            "total": -377,
            "avg:": 0,
            "avg": -37
        },
        "Thursday": {
            "num_results": 6,
            "total": 2303,
            "avg:": 0,
            "avg": 384
        },
        "Friday": {
            "num_results": 6,
            "total": -171,
            "avg:": 0,
            "avg": -28
        },
        "Saturday": {
            "num_results": 12,
            "total": -4157,
            "avg:": 0,
            "avg": -346
        }
    }
}