{
    "overall_punctuality": 250,
    "overall_num": 52,
    "overall_avg": 5,
    "daily_punctuality": {
        "Sunday": {
            "num_results": 6,
            "total": -57,
            "avg:": 0,
            "avg": -9
        },
        "Monday": {
            "num_results": 6,
            "total": -84,
            "avg:": 0,
            "avg": -14
        },
        "Tuesday": {
            "num_results": 8,
            "total": 116,
            "avg:": 0,
            "avg": 15
        },
        "Wednesday": {
            "num_results": 8,
            "total": 157,
            "avg:": 0,
            "avg": 20
        },
        "Thursday": {
            "num_results": 6,
            "total": -96,
            "avg:": 0,
            "avg": -16
        },
        "Friday": {
            "num_results": 6,
            "total": 209,
            "avg:": 0,
            "avg": 35
        },
        "Saturday": {
            "num_results": 12,
            "total": 5,
            "avg:": 0,
            "avg": 1
        }
    }
}