{
    "overall_punctuality": -1414,
    "overall_num": 49,
    "overall_avg": -28,
    "daily_punctuality": {
        "Sunday": {
            "num_results": 6,
            "total": -76,
            "avg:": 0,
            "avg": -12
        },
        "Monday": {
            "num_results": 6,
            "total": -1379,
            "avg:": 0,
            "avg": -229
        },
        "Tuesday": {
            "num_results": 8,
            "total": -327,
            "avg:": 0,
            "avg": -40
        },
        "Wednesday": {
            "num_results": 8,
            "total": 866,
            "avg:": 0,
            "avg": 109
        },
        "Thursday": {
            "num_results": 6,
            "total": 614,
            "avg:": 0,
            "avg": 103
        },
        "Friday": {
            "num_results": 6,
            "total": 641,
            "avg:": 0,
            "avg": 107
        },
        "Saturday": {
            "num_results": 9,
            "total": -1753,
            "avg:": 0,
            "avg": -194
        }
    }
}