{
    "overall_punctuality": -10071,
    "overall_num": 50,
    "overall_avg": -201,
    "daily_punctuality": {
        "Sunday": {
            "num_results": 6,
            "total": -199,
            "avg:": 0,
            "avg": -33
        },
        "Monday": {
            "num_results": 6,
            "total": -4390,
            "avg:": 0,
            "avg": -731
        },
        "Tuesday": {
            "num_results": 8,
            "total": -2724,
            "avg:": 0,
            "avg": -340
        },
        "Wednesday": {
            "num_results": 8,
            "total": 613,
            "avg:": 0,
            "avg": 77
        },
        "Thursday": {
            "num_results": 6,
            "total": 833,
            "avg:": 0,
            "avg": 139
        },
        "Friday": {
            "num_results": 6,
            "total": 396,
            "avg:": 0,
            "avg": 66
        },
        "Saturday": {
            "num_results": 10,
            "total": -4600,
            "avg:": 0,
            "avg": -460
        }
    }
}