{
    "overall_punctuality": -6448,
    "overall_num": 50,
    "overall_avg": -128,
    "daily_punctuality": {
        "Sunday": {
            "num_results": 6,
            "total": 38,
            "avg:": 0,
            "avg": 7
        },
        "Monday": {
            "num_results": 6,
            "total": -2309,
            "avg:": 0,
            "avg": -384
        },
        "Tuesday": {
            "num_results": 8,
            "total": -2003,
            "avg:": 0,
            "avg": -250
        },
        "Wednesday": {
            "num_results": 8,
            "total": 1054,
            "avg:": 0,
            "avg": 132
        },
        "Thursday": {
            "num_results": 6,
            "total": 521,
            "avg:": 0,
            "avg": 87
        },
        "Friday": {
            "num_results": 6,
            "total": 1146,
            "avg:": 0,
            "avg": 191
        },
        "Saturday": {
            "num_results": 10,
            "total": -4895,
            "avg:": 0,
            "avg": -489
        }
    }
}