{
    "overall_punctuality": -2812,
    "overall_num": 47,
    "overall_avg": -59,
    "daily_punctuality": {
        "Sunday": {
            "num_results": 6,
            "total": -412,
            "avg:": 0,
            "avg": -68
        },
        "Monday": {
            "num_results": 6,
            "total": -439,
            "avg:": 0,
            "avg": -73
        },
        "Tuesday": {
            "num_results": 8,
            "total": -2008,
            "avg:": 0,
            "avg": -251
        },
        "Wednesday": {
            "num_results": 8,
            "total": -23,
            "avg:": 0,
            "avg": -2
        },
        "Thursday": {
            "num_results": 6,
            "total": 904,
            "avg:": 0,
            "avg": 151
        },
        "Friday": {
            "num_results": 4,
            "total": 259,
            "avg:": 0,
            "avg": 65
        },
        "Saturday": {
            "num_results": 9,
            "total": -1093,
            "avg:": 0,
            "avg": -121
        }
    }
}