{
    "overall_punctuality": 248,
    "overall_num": 32,
    "overall_avg": 8,
    "daily_punctuality": {
        "Sunday": {
            "num_results": 4,
            "total": -3,
            "avg:": 0,
            "avg": 0
        },
        "Monday": {
            "num_results": 4,
            "total": 60,
            "avg:": 0,
            "avg": 15
        },
        "Tuesday": {
            "num_results": 4,
            "total": -25,
            "avg:": 0,
            "avg": -6
        },
        "Wednesday": {
            "num_results": 6,
            "total": 11,
            "avg:": 0,
            "avg": 2
        },
        "Thursday": {
            "num_results": 5,
            "total": 216,
            "avg:": 0,
            "avg": 44
        },
        "Friday": {
            "num_results": 3,
            "total": 48,
            "avg:": 0,
            "avg": 16
        },
        "Saturday": {
            "num_results": 6,
            "total": -59,
            "avg:": 0,
            "avg": -9
        }
    }
}