{
    "overall_punctuality": -8719,
    "overall_num": 69,
    "overall_avg": -126,
    "daily_punctuality": {
        "Sunday": {
            "num_results": 2,
            "total": 7,
            "avg:": 0,
            "avg": 4
        },
        "Monday": {
            "num_results": 8,
            "total": -2144,
            "avg:": 0,
            "avg": -268
        },
        "Tuesday": {
            "num_results": 12,
            "total": -2498,
            "avg:": 0,
            "avg": -208
        },
        "Wednesday": {
            "num_results": 13,
            "total": 1124,
            "avg:": 0,
            "avg": 87
        },
        "Thursday": {
            "num_results": 11,
            "total": 1667,
            "avg:": 0,
            "avg": 152
        },
        "Friday": {
            "num_results": 7,
            "total": 484,
            "avg:": 0,
            "avg": 70
        },
        "Saturday": {
            "num_results": 16,
            "total": -7359,
            "avg:": 0,
            "avg": -459
        }
    }
}