{
    "overall_punctuality": 487,
    "overall_num": 32,
    "overall_avg": 16,
    "daily_punctuality": {
        "Sunday": {
            "num_results": 3,
            "total": 29,
            "avg:": 0,
            "avg": 10
        },
        "Monday": {
            "num_results": 3,
            "total": 73,
            "avg:": 0,
            "avg": 25
        },
        "Tuesday": {
            "num_results": 5,
            "total": 30,
            "avg:": 0,
            "avg": 6
        },
        "Wednesday": {
            "num_results": 4,
            "total": -23,
            "avg:": 0,
            "avg": -5
        },
        "Thursday": {
            "num_results": 5,
            "total": 70,
            "avg:": 0,
            "avg": 14
        },
        "Friday": {
            "num_results": 4,
            "total": 248,
            "avg:": 0,
            "avg": 62
        },
        "Saturday": {
            "num_results": 8,
            "total": 60,
            "avg:": 0,
            "avg": 8
        }
    }
}