{
    "overall_punctuality": 263,
    "overall_num": 34,
    "overall_avg": 8,
    "daily_punctuality": {
        "Sunday": {
            "num_results": 3,
            "total": 9,
            "avg:": 0,
            "avg": 3
        },
        "Monday": {
            "num_results": 3,
            "total": 28,
            "avg:": 0,
            "avg": 10
        },
        "Tuesday": {
            "num_results": 5,
            "total": -87,
            "avg:": 0,
            "avg": -17
        },
        "Wednesday": {
            "num_results": 6,
            "total": 81,
            "avg:": 0,
            "avg": 14
        },
        "Thursday": {
            "num_results": 5,
            "total": -73,
            "avg:": 0,
            "avg": -14
        },
        "Friday": {
            "num_results": 4,
            "total": 257,
            "avg:": 0,
            "avg": 65
        },
        "Saturday": {
            "num_results": 8,
            "total": 48,
            "avg:": 0,
            "avg": 6
        }
    }
}