{
    "overall_punctuality": 152,
    "overall_num": 48,
    "overall_avg": 4,
    "daily_punctuality": {
        "Sunday": {
            "num_results": 6,
            "total": 0,
            "avg:": 0,
            "avg": 0
        },
        "Monday": {
            "num_results": 6,
            "total": -153,
            "avg:": 0,
            "avg": -25
        },
        "Tuesday": {
            "num_results": 8,
            "total": -286,
            "avg:": 0,
            "avg": -35
        },
        "Wednesday": {
            "num_results": 8,
            "total": 105,
            "avg:": 0,
            "avg": 14
        },
        "Thursday": {
            "num_results": 6,
            "total": 708,
            "avg:": 0,
            "avg": 118
        },
        "Friday": {
            "num_results": 4,
            "total": 161,
            "avg:": 0,
            "avg": 41
        },
        "Saturday": {
            "num_results": 10,
            "total": -383,
            "avg:": 0,
            "avg": -38
        }
    }
}