{
    "overall_punctuality": 2053,
    "overall_num": 313,
    "overall_avg": 7,
    "daily_punctuality": {
        "Sunday": {
            "num_results": 35,
            "total": 838,
            "avg:": 0,
            "avg": 24
        },
        "Monday": {
            "num_results": 39,
            "total": -2886,
            "avg:": 0,
            "avg": -74
        },
        "Tuesday": {
            "num_results": 49,
            "total": 23,
            "avg:": 0,
            "avg": 1
        },
        "Wednesday": {
            "num_results": 52,
            "total": 1988,
            "avg:": 0,
            "avg": 39
        },
        "Thursday": {
            "num_results": 38,
            "total": 1516,
            "avg:": 0,
            "avg": 40
        },
        "Friday": {
            "num_results": 31,
            "total": 1006,
            "avg:": 0,
            "avg": 33
        },
        "Saturday": {
            "num_results": 69,
            "total": -432,
            "avg:": 0,
            "avg": -6
        }
    }
}