{
    "overall_punctuality": 337,
    "overall_num": 311,
    "overall_avg": 2,
    "daily_punctuality": {
        "Sunday": {
            "num_results": 33,
            "total": 818,
            "avg:": 0,
            "avg": 25
        },
        "Monday": {
            "num_results": 37,
            "total": -2339,
            "avg:": 0,
            "avg": -63
        },
        "Tuesday": {
            "num_results": 49,
            "total": -462,
            "avg:": 0,
            "avg": -9
        },
        "Wednesday": {
            "num_results": 52,
            "total": 1474,
            "avg:": 0,
            "avg": 29
        },
        "Thursday": {
            "num_results": 38,
            "total": 1205,
            "avg:": 0,
            "avg": 32
        },
        "Friday": {
            "num_results": 31,
            "total": 472,
            "avg:": 0,
            "avg": 16
        },
        "Saturday": {
            "num_results": 71,
            "total": -831,
            "avg:": 0,
            "avg": -11
        }
    }
}