{
    "overall_punctuality": -13255,
    "overall_num": 313,
    "overall_avg": -42,
    "daily_punctuality": {
        "Sunday": {
            "num_results": 37,
            "total": -589,
            "avg:": 0,
            "avg": -15
        },
        "Monday": {
            "num_results": 40,
            "total": -3226,
            "avg:": 0,
            "avg": -80
        },
        "Tuesday": {
            "num_results": 50,
            "total": -5793,
            "avg:": 0,
            "avg": -115
        },
        "Wednesday": {
            "num_results": 50,
            "total": 1596,
            "avg:": 0,
            "avg": 32
        },
        "Thursday": {
            "num_results": 39,
            "total": 1156,
            "avg:": 0,
            "avg": 30
        },
        "Friday": {
            "num_results": 31,
            "total": 1778,
            "avg:": 0,
            "avg": 58
        },
        "Saturday": {
            "num_results": 66,
            "total": -8177,
            "avg:": 0,
            "avg": -123
        }
    }
}