{
    "overall_punctuality": 51,
    "overall_num": 2,
    "overall_avg": 26,
    "daily_punctuality": {
        "Sunday": {
            "num_results": 0,
            "total": 0,
            "avg": 0
        },
        "Monday": {
            "num_results": 0,
            "total": 0,
            "avg": 0
        },
        "Tuesday": {
            "num_results": 1,
            "total": 26,
            
            "avg": 26
        },
        "Wednesday": {
            "num_results": 1,
            "total": 25,
            "avg": 0,
            "avg": 25
        },
        "Thursday": {
            "num_results": 0,
            "total": 0,
            "avg": 0
        },
        "Friday": {
            "num_results": 0,
            "total": 0,
            "avg": 0
        },
        "Saturday": {
            "num_results": 0,
            "total": 0,
            "avg": 0
        }
    }
}