{
    "overall_punctuality": 139,
    "overall_num": 4,
    "overall_avg": 35,
    "daily_punctuality": {
        "Sunday": {
            "num_results": 0,
            "total": 0,
            "avg:": 0
        },
        "Monday": {
            "num_results": 1,
            "total": 115,
            "avg:": 0,
            "avg": 115
        },
        "Tuesday": {
            "num_results": 0,
            "total": 0,
            "avg:": 0
        },
        "Wednesday": {
            "num_results": 1,
            "total": -3,
            "avg:": 0,
            "avg": -3
        },
        "Thursday": {
            "num_results": 1,
            "total": -30,
            "avg:": 0,
            "avg": -30
        },
        "Friday": {
            "num_results": 1,
            "total": 57,
            "avg:": 0,
            "avg": 57
        },
        "Saturday": {
            "num_results": 0,
            "total": 0,
            "avg:": 0
        }
    }
}