{
    "overall_punctuality": 1198,
    "overall_num": 89,
    "overall_avg": 14,
    "daily_punctuality": {
        "Sunday": {
            "num_results": 9,
            "total": 16,
            "avg:": 0,
            "avg": 2
        },
        "Monday": {
            "num_results": 10,
            "total": 277,
            "avg:": 0,
            "avg": 28
        },
        "Tuesday": {
            "num_results": 14,
            "total": 226,
            "avg:": 0,
            "avg": 17
        },
        "Wednesday": {
            "num_results": 16,
            "total": 613,
            "avg:": 0,
            "avg": 39
        },
        "Thursday": {
            "num_results": 12,
            "total": 267,
            "avg:": 0,
            "avg": 23
        },
        "Friday": {
            "num_results": 10,
            "total": 35,
            "avg:": 0,
            "avg": 4
        },
        "Saturday": {
            "num_results": 18,
            "total": -236,
            "avg:": 0,
            "avg": -13
        }
    }
}