{
    "overall_punctuality": -1884,
    "overall_num": 151,
    "overall_avg": -12,
    "daily_punctuality": {
        "Sunday": {
            "num_results": 15,
            "total": -169,
            "avg:": 0,
            "avg": -11
        },
        "Monday": {
            "num_results": 19,
            "total": -894,
            "avg:": 0,
            "avg": -47
        },
        "Tuesday": {
            "num_results": 28,
            "total": -1084,
            "avg:": 0,
            "avg": -38
        },
        "Wednesday": {
            "num_results": 24,
            "total": 330,
            "avg:": 0,
            "avg": 14
        },
        "Thursday": {
            "num_results": 23,
            "total": 266,
            "avg:": 0,
            "avg": 12
        },
        "Friday": {
            "num_results": 16,
            "total": 425,
            "avg:": 0,
            "avg": 27
        },
        "Saturday": {
            "num_results": 26,
            "total": -758,
            "avg:": 0,
            "avg": -29
        }
    }
}