{
    "overall_punctuality": -92,
    "overall_num": 8,
    "overall_avg": -11,
    "daily_punctuality": {
        "Sunday": {
            "num_results": 2,
            "total": -24,
            "avg:": 0,
            "avg": -12
        },
        "Monday": {
            "num_results": 1,
            "total": 21,
            "avg:": 0,
            "avg": 21
        },
        "Tuesday": {
            "num_results": 1,
            "total": -30,
            "avg:": 0,
            "avg": -30
        },
        "Wednesday": {
            "num_results": 1,
            "total": -12,
            "avg:": 0,
            "avg": -12
        },
        "Thursday": {
            "num_results": 2,
            "total": -25,
            "avg:": 0,
            "avg": -12
        },
        "Friday": {
            "num_results": 0,
            "total": 0,
            "avg:": 0
        },
        "Saturday": {
            "num_results": 1,
            "total": -22,
            "avg:": 0,
            "avg": -22
        }
    }
}