{
    "overall_punctuality": -16277,
    "overall_num": 92,
    "overall_avg": -176,
    "daily_punctuality": {
        "Sunday": {
            "num_results": 12,
            "total": -3375,
            "avg:": 0,
            "avg": -281
        },
        "Monday": {
            "num_results": 9,
            "total": -4653,
            "avg:": 0,
            "avg": -517
        },
        "Tuesday": {
            "num_results": 13,
            "total": -5186,
            "avg:": 0,
            "avg": -398
        },
        "Wednesday": {
            "num_results": 17,
            "total": 372,
            "avg:": 0,
            "avg": 22
        },
        "Thursday": {
            "num_results": 12,
            "total": 2428,
            "avg:": 0,
            "avg": 203
        },
        "Friday": {
            "num_results": 10,
            "total": -217,
            "avg:": 0,
            "avg": -21
        },
        "Saturday": {
            "num_results": 19,
            "total": -5646,
            "avg:": 0,
            "avg": -297
        }
    }
}