{
    "overall_punctuality": 2748,
    "overall_num": 24,
    "overall_avg": 115,
    "daily_punctuality": {
        "Sunday": {
            "num_results": 2,
            "total": 130,
            "avg:": 0,
            "avg": 65
        },
        "Monday": {
            "num_results": 4,
            "total": 261,
            "avg:": 0,
            "avg": 66
        },
        "Tuesday": {
            "num_results": 4,
            "total": -45,
            "avg:": 0,
            "avg": -11
        },
        "Wednesday": {
            "num_results": 5,
            "total": 1220,
            "avg:": 0,
            "avg": 244
        },
        "Thursday": {
            "num_results": 3,
            "total": -7,
            "avg:": 0,
            "avg": -2
        },
        "Friday": {
            "num_results": 1,
            "total": 1121,
            "avg:": 0,
            "avg": 1121
        },
        "Saturday": {
            "num_results": 5,
            "total": 68,
            "avg:": 0,
            "avg": 14
        }
    }
}