{
    "overall_punctuality": -1406,
    "overall_num": 68,
    "overall_avg": -20,
    "daily_punctuality": {
        "Sunday": {
            "num_results": 8,
            "total": -267,
            "avg:": 0,
            "avg": -33
        },
        "Monday": {
            "num_results": 7,
            "total": -380,
            "avg:": 0,
            "avg": -54
        },
        "Tuesday": {
            "num_results": 12,
            "total": -1803,
            "avg:": 0,
            "avg": -150
        },
        "Wednesday": {
            "num_results": 12,
            "total": 355,
            "avg:": 0,
            "avg": 30
        },
        "Thursday": {
            "num_results": 9,
            "total": 795,
            "avg:": 0,
            "avg": 89
        },
        "Friday": {
            "num_results": 6,
            "total": -28,
            "avg:": 0,
            "avg": -4
        },
        "Saturday": {
            "num_results": 14,
            "total": -78,
            "avg:": 0,
            "avg": -5
        }
    }
}