{
    "overall_punctuality": -6375,
    "overall_num": 54,
    "overall_avg": -118,
    "daily_punctuality": {
        "Sunday": {
            "num_results": 6,
            "total": 56,
            "avg:": 0,
            "avg": 10
        },
        "Monday": {
            "num_results": 7,
            "total": -1991,
            "avg:": 0,
            "avg": -284
        },
        "Tuesday": {
            "num_results": 8,
            "total": -2336,
            "avg:": 0,
            "avg": -292
        },
        "Wednesday": {
            "num_results": 9,
            "total": 442,
            "avg:": 0,
            "avg": 50
        },
        "Thursday": {
            "num_results": 7,
            "total": 432,
            "avg:": 0,
            "avg": 62
        },
        "Friday": {
            "num_results": 7,
            "total": 499,
            "avg:": 0,
            "avg": 72
        },
        "Saturday": {
            "num_results": 10,
            "total": -3477,
            "avg:": 0,
            "avg": -347
        }
    }
}