{
    "overall_punctuality": 280,
    "overall_num": 144,
    "overall_avg": 2,
    "daily_punctuality": {
        "Sunday": {
            "num_results": 16,
            "total": 652,
            "avg:": 0,
            "avg": 41
        },
        "Monday": {
            "num_results": 19,
            "total": -330,
            "avg:": 0,
            "avg": -17
        },
        "Tuesday": {
            "num_results": 23,
            "total": -606,
            "avg:": 0,
            "avg": -26
        },
        "Wednesday": {
            "num_results": 25,
            "total": 87,
            "avg:": 0,
            "avg": 4
        },
        "Thursday": {
            "num_results": 19,
            "total": 342,
            "avg:": 0,
            "avg": 18
        },
        "Friday": {
            "num_results": 12,
            "total": 143,
            "avg:": 0,
            "avg": 12
        },
        "Saturday": {
            "num_results": 30,
            "total": -8,
            "avg:": 0,
            "avg": 0
        }
    }
}