{
    "overall_punctuality": -145,
    "overall_num": 81,
    "overall_avg": -1,
    "daily_punctuality": {
        "Sunday": {
            "num_results": 7,
            "total": 76,
            "avg:": 0,
            "avg": 11
        },
        "Monday": {
            "num_results": 12,
            "total": -81,
            "avg:": 0,
            "avg": -6
        },
        "Tuesday": {
            "num_results": 16,
            "total": 151,
            "avg:": 0,
            "avg": 10
        },
        "Wednesday": {
            "num_results": 15,
            "total": -39,
            "avg:": 0,
            "avg": -2
        },
        "Thursday": {
            "num_results": 11,
            "total": -128,
            "avg:": 0,
            "avg": -11
        },
        "Friday": {
            "num_results": 8,
            "total": -89,
            "avg:": 0,
            "avg": -11
        },
        "Saturday": {
            "num_results": 12,
            "total": -35,
            "avg:": 0,
            "avg": -2
        }
    }
}