{
    "overall_punctuality": -2360,
    "overall_num": 76,
    "overall_avg": -31,
    "daily_punctuality": {
        "Sunday": {
            "num_results": 7,
            "total": -207,
            "avg:": 0,
            "avg": -29
        },
        "Monday": {
            "num_results": 9,
            "total": -1334,
            "avg:": 0,
            "avg": -148
        },
        "Tuesday": {
            "num_results": 16,
            "total": -1044,
            "avg:": 0,
            "avg": -65
        },
        "Wednesday": {
            "num_results": 14,
            "total": -216,
            "avg:": 0,
            "avg": -15
        },
        "Thursday": {
            "num_results": 11,
            "total": 305,
            "avg:": 0,
            "avg": 28
        },
        "Friday": {
            "num_results": 8,
            "total": 182,
            "avg:": 0,
            "avg": 23
        },
        "Saturday": {
            "num_results": 11,
            "total": -46,
            "avg:": 0,
            "avg": -4
        }
    }
}