{
    "overall_punctuality": -44,
    "overall_num": 2,
    "overall_avg": -22,
    "daily_punctuality": {
        "Sunday": {
            "num_results": 1,
            "total": -29,
            "avg:": 0,
            "avg": -29
        },
        "Monday": {
            "num_results": 0,
            "total": 0,
            "avg:": 0
        },
        "Tuesday": {
            "num_results": 0,
            "total": 0,
            "avg:": 0
        },
        "Wednesday": {
            "num_results": 1,
            "total": -15,
            "avg:": 0,
            "avg": -15
        },
        "Thursday": {
            "num_results": 0,
            "total": 0,
            "avg:": 0
        },
        "Friday": {
            "num_results": 0,
            "total": 0,
            "avg:": 0
        },
        "Saturday": {
            "num_results": 0,
            "total": 0,
            "avg:": 0
        }
    }
}