{
    "overall_punctuality": 30,
    "overall_num": 21,
    "overall_avg": 2,
    "daily_punctuality": {
        "Sunday": {
            "num_results": 2,
            "total": -5,
            "avg:": 0,
            "avg": -2
        },
        "Monday": {
            "num_results": 3,
            "total": 7,
            "avg:": 0,
            "avg": 3
        },
        "Tuesday": {
            "num_results": 3,
            "total": -1,
            "avg:": 0,
            "avg": 0
        },
        "Wednesday": {
            "num_results": 3,
            "total": -23,
            "avg:": 0,
            "avg": -7
        },
        "Thursday": {
            "num_results": 3,
            "total": -16,
            "avg:": 0,
            "avg": -5
        },
        "Friday": {
            "num_results": 2,
            "total": 6,
            "avg:": 0,
            "avg": 3
        },
        "Saturday": {
            "num_results": 5,
            "total": 62,
            "avg:": 0,
            "avg": 13
        }
    }
}