{
    "overall_punctuality": -10992,
    "overall_num": 46,
    "overall_avg": -238,
    "daily_punctuality": {
        "Sunday": {
            "num_results": 5,
            "total": -757,
            "avg:": 0,
            "avg": -151
        },
        "Monday": {
            "num_results": 6,
            "total": -2291,
            "avg:": 0,
            "avg": -381
        },
        "Tuesday": {
            "num_results": 7,
            "total": -3319,
            "avg:": 0,
            "avg": -474
        },
        "Wednesday": {
            "num_results": 8,
            "total": -417,
            "avg:": 0,
            "avg": -52
        },
        "Thursday": {
            "num_results": 6,
            "total": 35,
            "avg:": 0,
            "avg": 6
        },
        "Friday": {
            "num_results": 4,
            "total": -97,
            "avg:": 0,
            "avg": -24
        },
        "Saturday": {
            "num_results": 10,
            "total": -4146,
            "avg:": 0,
            "avg": -414
        }
    }
}