{
    "overall_punctuality": -5272,
    "overall_num": 38,
    "overall_avg": -138,
    "daily_punctuality": {
        "Sunday": {
            "num_results": 5,
            "total": -948,
            "avg:": 0,
            "avg": -189
        },
        "Monday": {
            "num_results": 4,
            "total": -3126,
            "avg:": 0,
            "avg": -781
        },
        "Tuesday": {
            "num_results": 5,
            "total": -899,
            "avg:": 0,
            "avg": -179
        },
        "Wednesday": {
            "num_results": 7,
            "total": 1123,
            "avg:": 0,
            "avg": 161
        },
        "Thursday": {
            "num_results": 6,
            "total": 100,
            "avg:": 0,
            "avg": 17
        },
        "Friday": {
            "num_results": 4,
            "total": -581,
            "avg:": 0,
            "avg": -145
        },
        "Saturday": {
            "num_results": 7,
            "total": -941,
            "avg:": 0,
            "avg": -134
        }
    }
}