{
    "overall_punctuality": -1654,
    "overall_num": 40,
    "overall_avg": -41,
    "daily_punctuality": {
        "Sunday": {
            "num_results": 4,
            "total": -328,
            "avg:": 0,
            "avg": -82
        },
        "Monday": {
            "num_results": 3,
            "total": -221,
            "avg:": 0,
            "avg": -73
        },
        "Tuesday": {
            "num_results": 8,
            "total": -1124,
            "avg:": 0,
            "avg": -140
        },
        "Wednesday": {
            "num_results": 8,
            "total": 144,
            "avg:": 0,
            "avg": 18
        },
        "Thursday": {
            "num_results": 6,
            "total": -5,
            "avg:": 0,
            "avg": 0
        },
        "Friday": {
            "num_results": 4,
            "total": -26,
            "avg:": 0,
            "avg": -6
        },
        "Saturday": {
            "num_results": 7,
            "total": -94,
            "avg:": 0,
            "avg": -13
        }
    }
}