{
    "overall_punctuality": -1085,
    "overall_num": 6,
    "overall_avg": -180,
    "daily_punctuality": {
        "Sunday": {
            "num_results": 1,
            "total": -305,
            "avg:": 0,
            "avg": -305
        },
        "Monday": {
            "num_results": 1,
            "total": -239,
            "avg:": 0,
            "avg": -239
        },
        "Tuesday": {
            "num_results": 0,
            "total": 0,
            "avg:": 0
        },
        "Wednesday": {
            "num_results": 1,
            "total": 72,
            "avg:": 0,
            "avg": 72
        },
        "Thursday": {
            "num_results": 1,
            "total": 126,
            "avg:": 0,
            "avg": 126
        },
        "Friday": {
            "num_results": 1,
            "total": -27,
            "avg:": 0,
            "avg": -27
        },
        "Saturday": {
            "num_results": 1,
            "total": -712,
            "avg:": 0,
            "avg": -712
        }
    }
}