{
    "overall_punctuality": -14,
    "overall_num": 2,
    "overall_avg": -7,
    "daily_punctuality": {
        "Sunday": {
            "num_results": 0,
            "total": 0,
            "avg:": 0
        },
        "Monday": {
            "num_results": 1,
            "total": -25,
            "avg:": 0,
            "avg": -25
        },
        "Tuesday": {
            "num_results": 0,
            "total": 0,
            "avg:": 0
        },
        "Wednesday": {
            "num_results": 0,
            "total": 0,
            "avg:": 0
        },
        "Thursday": {
            "num_results": 1,
            "total": 11,
            "avg:": 0,
            "avg": 11
        },
        "Friday": {
            "num_results": 0,
            "total": 0,
            "avg:": 0
        },
        "Saturday": {
            "num_results": 0,
            "total": 0,
            "avg:": 0
        }
    }
}