{
    "overall_punctuality": -483,
    "overall_num": 3,
    "overall_avg": -161,
    "daily_punctuality": {
        "Sunday": {
            "num_results": 0,
            "total": 0,
            "avg:": 0
        },
        "Monday": {
            "num_results": 1,
            "total": -608,
            "avg:": 0,
            "avg": -608
        },
        "Tuesday": {
            "num_results": 0,
            "total": 0,
            "avg:": 0
        },
        "Wednesday": {
            "num_results": 1,
            "total": 125,
            "avg:": 0,
            "avg": 125
        },
        "Thursday": {
            "num_results": 0,
            "total": 0,
            "avg:": 0
        },
        "Friday": {
            "num_results": 1,
            "total": 0,
            "avg:": 0,
            "avg": 0
        },
        "Saturday": {
            "num_results": 0,
            "total": 0,
            "avg:": 0
        }
    }
}