{
    "overall_punctuality": -8487,
    "overall_num": 50,
    "overall_avg": -169,
    "daily_punctuality": {
        "Sunday": {
            "num_results": 6,
            "total": -669,
            "avg:": 0,
            "avg": -111
        },
        "Monday": {
            "num_results": 6,
            "total": -2778,
            "avg:": 0,
            "avg": -463
        },
        "Tuesday": {
            "num_results": 8,
            "total": -2164,
            "avg:": 0,
            "avg": -270
        },
        "Wednesday": {
            "num_results": 8,
            "total": 317,
            "avg:": 0,
            "avg": 40
        },
        "Thursday": {
            "num_results": 6,
            "total": 124,
            "avg:": 0,
            "avg": 21
        },
        "Friday": {
            "num_results": 6,
            "total": -379,
            "avg:": 0,
            "avg": -63
        },
        "Saturday": {
            "num_results": 10,
            "total": -2938,
            "avg:": 0,
            "avg": -293
        }
    }
}