{
    "overall_punctuality": -181,
    "overall_num": 28,
    "overall_avg": -6,
    "daily_punctuality": {
        "Sunday": {
            "num_results": 3,
            "total": -40,
            "avg:": 0,
            "avg": -13
        },
        "Monday": {
            "num_results": 4,
            "total": -241,
            "avg:": 0,
            "avg": -60
        },
        "Tuesday": {
            "num_results": 5,
            "total": -6,
            "avg:": 0,
            "avg": -1
        },
        "Wednesday": {
            "num_results": 6,
            "total": 3,
            "avg:": 0,
            "avg": 1
        },
        "Thursday": {
            "num_results": 3,
            "total": 95,
            "avg:": 0,
            "avg": 32
        },
        "Friday": {
            "num_results": 3,
            "total": -14,
            "avg:": 0,
            "avg": -4
        },
        "Saturday": {
            "num_results": 4,
            "total": 22,
            "avg:": 0,
            "avg": 6
        }
    }
}