{
    "overall_punctuality": -1361,
    "overall_num": 41,
    "overall_avg": -33,
    "daily_punctuality": {
        "Sunday": {
            "num_results": 5,
            "total": -180,
            "avg:": 0,
            "avg": -36
        },
        "Monday": {
            "num_results": 4,
            "total": -407,
            "avg:": 0,
            "avg": -101
        },
        "Tuesday": {
            "num_results": 8,
            "total": -1180,
            "avg:": 0,
            "avg": -147
        },
        "Wednesday": {
            "num_results": 7,
            "total": 157,
            "avg:": 0,
            "avg": 23
        },
        "Thursday": {
            "num_results": 6,
            "total": 167,
            "avg:": 0,
            "avg": 28
        },
        "Friday": {
            "num_results": 4,
            "total": 52,
            "avg:": 0,
            "avg": 13
        },
        "Saturday": {
            "num_results": 7,
            "total": 30,
            "avg:": 0,
            "avg": 5
        }
    }
}