{
    "overall_punctuality": 354,
    "overall_num": 92,
    "overall_avg": 4,
    "daily_punctuality": {
        "Sunday": {
            "num_results": 10,
            "total": 94,
            "avg:": 0,
            "avg": 10
        },
        "Monday": {
            "num_results": 12,
            "total": -206,
            "avg:": 0,
            "avg": -17
        },
        "Tuesday": {
            "num_results": 16,
            "total": -139,
            "avg:": 0,
            "avg": -8
        },
        "Wednesday": {
            "num_results": 13,
            "total": 328,
            "avg:": 0,
            "avg": 26
        },
        "Thursday": {
            "num_results": 12,
            "total": 302,
            "avg:": 0,
            "avg": 26
        },
        "Friday": {
            "num_results": 10,
            "total": 164,
            "avg:": 0,
            "avg": 17
        },
        "Saturday": {
            "num_results": 19,
            "total": -189,
            "avg:": 0,
            "avg": -9
        }
    }
}