{
    "overall_punctuality": 2172,
    "overall_num": 24,
    "overall_avg": 91,
    "daily_punctuality": {
        "Sunday": {
            "num_results": 3,
            "total": 647,
            "avg:": 0,
            "avg": 216
        },
        "Monday": {
            "num_results": 2,
            "total": 253,
            "avg:": 0,
            "avg": 127
        },
        "Tuesday": {
            "num_results": 4,
            "total": 324,
            "avg:": 0,
            "avg": 81
        },
        "Wednesday": {
            "num_results": 4,
            "total": 497,
            "avg:": 0,
            "avg": 125
        },
        "Thursday": {
            "num_results": 4,
            "total": 1651,
            "avg:": 0,
            "avg": 413
        },
        "Friday": {
            "num_results": 2,
            "total": -375,
            "avg:": 0,
            "avg": -187
        },
        "Saturday": {
            "num_results": 5,
            "total": -825,
            "avg:": 0,
            "avg": -165
        }
    }
}