{
    "overall_punctuality": -4552,
    "overall_num": 106,
    "overall_avg": -42,
    "daily_punctuality": {
        "Sunday": {
            "num_results": 12,
            "total": -1220,
            "avg:": 0,
            "avg": -101
        },
        "Monday": {
            "num_results": 12,
            "total": -1438,
            "avg:": 0,
            "avg": -119
        },
        "Tuesday": {
            "num_results": 16,
            "total": -2562,
            "avg:": 0,
            "avg": -160
        },
        "Wednesday": {
            "num_results": 16,
            "total": 2174,
            "avg:": 0,
            "avg": 136
        },
        "Thursday": {
            "num_results": 12,
            "total": 779,
            "avg:": 0,
            "avg": 65
        },
        "Friday": {
            "num_results": 12,
            "total": 1359,
            "avg:": 0,
            "avg": 114
        },
        "Saturday": {
            "num_results": 26,
            "total": -3644,
            "avg:": 0,
            "avg": -140
        }
    }
}