{
    "overall_punctuality": -8147,
    "overall_num": 115,
    "overall_avg": -70,
    "daily_punctuality": {
        "Sunday": {
            "num_results": 12,
            "total": -1347,
            "avg:": 0,
            "avg": -112
        },
        "Monday": {
            "num_results": 14,
            "total": -2329,
            "avg:": 0,
            "avg": -166
        },
        "Tuesday": {
            "num_results": 18,
            "total": -4024,
            "avg:": 0,
            "avg": -223
        },
        "Wednesday": {
            "num_results": 17,
            "total": 1916,
            "avg:": 0,
            "avg": 113
        },
        "Thursday": {
            "num_results": 14,
            "total": 1018,
            "avg:": 0,
            "avg": 73
        },
        "Friday": {
            "num_results": 14,
            "total": 794,
            "avg:": 0,
            "avg": 57
        },
        "Saturday": {
            "num_results": 26,
            "total": -4175,
            "avg:": 0,
            "avg": -160
        }
    }
}