{
    "overall_punctuality": -561,
    "overall_num": 91,
    "overall_avg": -6,
    "daily_punctuality": {
        "Sunday": {
            "num_results": 12,
            "total": 263,
            "avg:": 0,
            "avg": 22
        },
        "Monday": {
            "num_results": 11,
            "total": -130,
            "avg:": 0,
            "avg": -11
        },
        "Tuesday": {
            "num_results": 14,
            "total": -198,
            "avg:": 0,
            "avg": -14
        },
        "Wednesday": {
            "num_results": 14,
            "total": -118,
            "avg:": 0,
            "avg": -8
        },
        "Thursday": {
            "num_results": 10,
            "total": 265,
            "avg:": 0,
            "avg": 27
        },
        "Friday": {
            "num_results": 7,
            "total": -8,
            "avg:": 0,
            "avg": -1
        },
        "Saturday": {
            "num_results": 23,
            "total": -635,
            "avg:": 0,
            "avg": -27
        }
    }
}