{
    "overall_punctuality": -97,
    "overall_num": 16,
    "overall_avg": -6,
    "daily_punctuality": {
        "Sunday": {
            "num_results": 0,
            "total": 0,
            "avg:": 0
        },
        "Monday": {
            "num_results": 0,
            "total": 0,
            "avg:": 0
        },
        "Tuesday": {
            "num_results": 0,
            "total": 0,
            "avg:": 0
        },
        "Wednesday": {
            "num_results": 0,
            "total": 0,
            "avg:": 0
        },
        "Thursday": {
            "num_results": 0,
            "total": 0,
            "avg:": 0
        },
        "Friday": {
            "num_results": 0,
            "total": 0,
            "avg:": 0
        },
        "Saturday": {
            "num_results": 16,
            "total": -97,
            "avg:": 0,
            "avg": -6
        }
    }
}