{
    "overall_punctuality": 3621,
    "overall_num": 46,
    "overall_avg": 79,
    "daily_punctuality": {
        "Sunday": {
            "num_results": 5,
            "total": 14,
            "avg:": 0,
            "avg": 3
        },
        "Monday": {
            "num_results": 6,
            "total": 39,
            "avg:": 0,
            "avg": 7
        },
        "Tuesday": {
            "num_results": 8,
            "total": -34,
            "avg:": 0,
            "avg": -4
        },
        "Wednesday": {
            "num_results": 7,
            "total": 131,
            "avg:": 0,
            "avg": 19
        },
        "Thursday": {
            "num_results": 6,
            "total": 475,
            "avg:": 0,
            "avg": 80
        },
        "Friday": {
            "num_results": 4,
            "total": 190,
            "avg:": 0,
            "avg": 48
        },
        "Saturday": {
            "num_results": 10,
            "total": 2806,
            "avg:": 0,
            "avg": 281
        }
    }
}