{
    "overall_punctuality": -39,
    "overall_num": 3,
    "overall_avg": -13,
    "daily_punctuality": {
        "Sunday": {
            "num_results": 0,
            "total": 0,
            "avg:": 0
        },
        "Monday": {
            "num_results": 1,
            "total": -24,
            "avg:": 0,
            "avg": -24
        },
        "Tuesday": {
            "num_results": 1,
            "total": -24,
            "avg:": 0,
            "avg": -24
        },
        "Wednesday": {
            "num_results": 1,
            "total": 9,
            "avg:": 0,
            "avg": 9
        },
        "Thursday": {
            "num_results": 0,
            "total": 0,
            "avg:": 0
        },
        "Friday": {
            "num_results": 0,
            "total": 0,
            "avg:": 0
        },
        "Saturday": {
            "num_results": 0,
            "total": 0,
            "avg:": 0
        }
    }
}