{
    "overall_punctuality": -6643,
    "overall_num": 50,
    "overall_avg": -132,
    "daily_punctuality": {
        "Sunday": {
            "num_results": 6,
            "total": 170,
            "avg:": 0,
            "avg": 29
        },
        "Monday": {
            "num_results": 6,
            "total": -1973,
            "avg:": 0,
            "avg": -328
        },
        "Tuesday": {
            "num_results": 8,
            "total": -2448,
            "avg:": 0,
            "avg": -306
        },
        "Wednesday": {
            "num_results": 8,
            "total": 728,
            "avg:": 0,
            "avg": 91
        },
        "Thursday": {
            "num_results": 6,
            "total": 410,
            "avg:": 0,
            "avg": 69
        },
        "Friday": {
            "num_results": 6,
            "total": 1080,
            "avg:": 0,
            "avg": 180
        },
        "Saturday": {
            "num_results": 10,
            "total": -4610,
            "avg:": 0,
            "avg": -461
        }
    }
}