{
    "overall_punctuality": 396,
    "overall_num": 50,
    "overall_avg": 8,
    "daily_punctuality": {
        "Sunday": {
            "num_results": 6,
            "total": 48,
            "avg:": 0,
            "avg": 8
        },
        "Monday": {
            "num_results": 6,
            "total": -49,
            "avg:": 0,
            "avg": -8
        },
        "Tuesday": {
            "num_results": 8,
            "total": 72,
            "avg:": 0,
            "avg": 9
        },
        "Wednesday": {
            "num_results": 8,
            "total": 56,
            "avg:": 0,
            "avg": 7
        },
        "Thursday": {
            "num_results": 6,
            "total": 197,
            "avg:": 0,
            "avg": 33
        },
        "Friday": {
            "num_results": 6,
            "total": 174,
            "avg:": 0,
            "avg": 29
        },
        "Saturday": {
            "num_results": 10,
            "total": -102,
            "avg:": 0,
            "avg": -10
        }
    }
}