{
    "overall_punctuality": 1581,
    "overall_num": 42,
    "overall_avg": 38,
    "daily_punctuality": {
        "Sunday": {
            "num_results": 6,
            "total": 274,
            "avg:": 0,
            "avg": 46
        },
        "Monday": {
            "num_results": 6,
            "total": 1441,
            "avg:": 0,
            "avg": 241
        },
        "Tuesday": {
            "num_results": 8,
            "total": -399,
            "avg:": 0,
            "avg": -49
        },
        "Wednesday": {
            "num_results": 6,
            "total": 666,
            "avg:": 0,
            "avg": 111
        },
        "Thursday": {
            "num_results": 6,
            "total": -6,
            "avg:": 0,
            "avg": -1
        },
        "Friday": {
            "num_results": 2,
            "total": -80,
            "avg:": 0,
            "avg": -40
        },
        "Saturday": {
            "num_results": 8,
            "total": -315,
            "avg:": 0,
            "avg": -39
        }
    }
}