{
    "overall_punctuality": -5684,
    "overall_num": 514,
    "overall_avg": -11,
    "daily_punctuality": {
        "Sunday": {
            "num_results": 58,
            "total": 19,
            "avg:": 0,
            "avg": 1
        },
        "Monday": {
            "num_results": 62,
            "total": -6668,
            "avg:": 0,
            "avg": -107
        },
        "Tuesday": {
            "num_results": 82,
            "total": -4996,
            "avg:": 0,
            "avg": -60
        },
        "Wednesday": {
            "num_results": 82,
            "total": 5942,
            "avg:": 0,
            "avg": 73
        },
        "Thursday": {
            "num_results": 61,
            "total": 4941,
            "avg:": 0,
            "avg": 81
        },
        "Friday": {
            "num_results": 49,
            "total": 942,
            "avg:": 0,
            "avg": 20
        },
        "Saturday": {
            "num_results": 120,
            "total": -5864,
            "avg:": 0,
            "avg": -48
        }
    }
}