{
    "overall_punctuality": -3839,
    "overall_num": 52,
    "overall_avg": -73,
    "daily_punctuality": {
        "Sunday": {
            "num_results": 6,
            "total": -531,
            "avg:": 0,
            "avg": -88
        },
        "Monday": {
            "num_results": 6,
            "total": -2441,
            "avg:": 0,
            "avg": -406
        },
        "Tuesday": {
            "num_results": 8,
            "total": -2079,
            "avg:": 0,
            "avg": -259
        },
        "Wednesday": {
            "num_results": 8,
            "total": 888,
            "avg:": 0,
            "avg": 111
        },
        "Thursday": {
            "num_results": 6,
            "total": 2934,
            "avg:": 0,
            "avg": 489
        },
        "Friday": {
            "num_results": 6,
            "total": 850,
            "avg:": 0,
            "avg": 142
        },
        "Saturday": {
            "num_results": 12,
            "total": -3460,
            "avg:": 0,
            "avg": -288
        }
    }
}