{
    "overall_punctuality": -2378,
    "overall_num": 203,
    "overall_avg": -11,
    "daily_punctuality": {
        "Sunday": {
            "num_results": 22,
            "total": -339,
            "avg:": 0,
            "avg": -15
        },
        "Monday": {
            "num_results": 26,
            "total": -5223,
            "avg:": 0,
            "avg": -200
        },
        "Tuesday": {
            "num_results": 33,
            "total": -3325,
            "avg:": 0,
            "avg": -100
        },
        "Wednesday": {
            "num_results": 36,
            "total": 4580,
            "avg:": 0,
            "avg": 128
        },
        "Thursday": {
            "num_results": 24,
            "total": 5396,
            "avg:": 0,
            "avg": 225
        },
        "Friday": {
            "num_results": 17,
            "total": -163,
            "avg:": 0,
            "avg": -9
        },
        "Saturday": {
            "num_results": 45,
            "total": -3304,
            "avg:": 0,
            "avg": -73
        }
    }
}