{
    "overall_punctuality": 2523,
    "overall_num": 214,
    "overall_avg": 12,
    "daily_punctuality": {
        "Sunday": {
            "num_results": 24,
            "total": 48,
            "avg:": 0,
            "avg": 2
        },
        "Monday": {
            "num_results": 26,
            "total": -2745,
            "avg:": 0,
            "avg": -105
        },
        "Tuesday": {
            "num_results": 31,
            "total": -2657,
            "avg:": 0,
            "avg": -85
        },
        "Wednesday": {
            "num_results": 31,
            "total": 3112,
            "avg:": 0,
            "avg": 101
        },
        "Thursday": {
            "num_results": 28,
            "total": 4105,
            "avg:": 0,
            "avg": 147
        },
        "Friday": {
            "num_results": 20,
            "total": 1675,
            "avg:": 0,
            "avg": 84
        },
        "Saturday": {
            "num_results": 54,
            "total": -1015,
            "avg:": 0,
            "avg": -18
        }
    }
}