{
    "overall_punctuality": 2252,
    "overall_num": 230,
    "overall_avg": 10,
    "daily_punctuality": {
        "Sunday": {
            "num_results": 24,
            "total": 2947,
            "avg:": 0,
            "avg": 123
        },
        "Monday": {
            "num_results": 26,
            "total": -1171,
            "avg:": 0,
            "avg": -45
        },
        "Tuesday": {
            "num_results": 34,
            "total": -1253,
            "avg:": 0,
            "avg": -36
        },
        "Wednesday": {
            "num_results": 34,
            "total": 2799,
            "avg:": 0,
            "avg": 83
        },
        "Thursday": {
            "num_results": 30,
            "total": 1447,
            "avg:": 0,
            "avg": 49
        },
        "Friday": {
            "num_results": 22,
            "total": 2321,
            "avg:": 0,
            "avg": 106
        },
        "Saturday": {
            "num_results": 60,
            "total": -4838,
            "avg:": 0,
            "avg": -80
        }
    }
}