{
    "overall_punctuality": -1281,
    "overall_num": 232,
    "overall_avg": -5,
    "daily_punctuality": {
        "Sunday": {
            "num_results": 24,
            "total": 2838,
            "avg:": 0,
            "avg": 119
        },
        "Monday": {
            "num_results": 24,
            "total": -1242,
            "avg:": 0,
            "avg": -51
        },
        "Tuesday": {
            "num_results": 36,
            "total": -1434,
            "avg:": 0,
            "avg": -39
        },
        "Wednesday": {
            "num_results": 34,
            "total": 2444,
            "avg:": 0,
            "avg": 72
        },
        "Thursday": {
            "num_results": 30,
            "total": 1026,
            "avg:": 0,
            "avg": 35
        },
        "Friday": {
            "num_results": 22,
            "total": 2206,
            "avg:": 0,
            "avg": 101
        },
        "Saturday": {
            "num_results": 62,
            "total": -7119,
            "avg:": 0,
            "avg": -114
        }
    }
}