{
    "overall_punctuality": -4909,
    "overall_num": 233,
    "overall_avg": -21,
    "daily_punctuality": {
        "Sunday": {
            "num_results": 24,
            "total": 2189,
            "avg:": 0,
            "avg": 92
        },
        "Monday": {
            "num_results": 26,
            "total": -1496,
            "avg:": 0,
            "avg": -57
        },
        "Tuesday": {
            "num_results": 35,
            "total": -1903,
            "avg:": 0,
            "avg": -54
        },
        "Wednesday": {
            "num_results": 34,
            "total": 2605,
            "avg:": 0,
            "avg": 77
        },
        "Thursday": {
            "num_results": 30,
            "total": 1530,
            "avg:": 0,
            "avg": 51
        },
        "Friday": {
            "num_results": 22,
            "total": 2154,
            "avg:": 0,
            "avg": 98
        },
        "Saturday": {
            "num_results": 62,
            "total": -9988,
            "avg:": 0,
            "avg": -161
        }
    }
}