{
    "overall_punctuality": 85,
    "overall_num": 57,
    "overall_avg": 2,
    "daily_punctuality": {
        "Sunday": {
            "num_results": 6,
            "total": -39,
            "avg:": 0,
            "avg": -6
        },
        "Monday": {
            "num_results": 7,
            "total": -36,
            "avg:": 0,
            "avg": -5
        },
        "Tuesday": {
            "num_results": 10,
            "total": 24,
            "avg:": 0,
            "avg": 3
        },
        "Wednesday": {
            "num_results": 7,
            "total": -412,
            "avg:": 0,
            "avg": -58
        },
        "Thursday": {
            "num_results": 10,
            "total": 309,
            "avg:": 0,
            "avg": 31
        },
        "Friday": {
            "num_results": 5,
            "total": 234,
            "avg:": 0,
            "avg": 47
        },
        "Saturday": {
            "num_results": 12,
            "total": 5,
            "avg:": 0,
            "avg": 1
        }
    }
}