{
    "overall_punctuality": -41,
    "overall_num": 59,
    "overall_avg": 0,
    "daily_punctuality": {
        "Sunday": {
            "num_results": 6,
            "total": -80,
            "avg:": 0,
            "avg": -13
        },
        "Monday": {
            "num_results": 7,
            "total": 17,
            "avg:": 0,
            "avg": 3
        },
        "Tuesday": {
            "num_results": 10,
            "total": 102,
            "avg:": 0,
            "avg": 11
        },
        "Wednesday": {
            "num_results": 9,
            "total": -268,
            "avg:": 0,
            "avg": -29
        },
        "Thursday": {
            "num_results": 10,
            "total": 207,
            "avg:": 0,
            "avg": 21
        },
        "Friday": {
            "num_results": 5,
            "total": 182,
            "avg:": 0,
            "avg": 37
        },
        "Saturday": {
            "num_results": 12,
            "total": -201,
            "avg:": 0,
            "avg": -16
        }
    }
}