{
    "overall_punctuality": 1626,
    "overall_num": 52,
    "overall_avg": 32,
    "daily_punctuality": {
        "Sunday": {
            "num_results": 6,
            "total": 50,
            "avg:": 0,
            "avg": 9
        },
        "Monday": {
            "num_results": 6,
            "total": -136,
            "avg:": 0,
            "avg": -22
        },
        "Tuesday": {
            "num_results": 8,
            "total": 211,
            "avg:": 0,
            "avg": 27
        },
        "Wednesday": {
            "num_results": 8,
            "total": -141,
            "avg:": 0,
            "avg": -17
        },
        "Thursday": {
            "num_results": 6,
            "total": 113,
            "avg:": 0,
            "avg": 19
        },
        "Friday": {
            "num_results": 4,
            "total": 28,
            "avg:": 0,
            "avg": 7
        },
        "Saturday": {
            "num_results": 14,
            "total": 1501,
            "avg:": 0,
            "avg": 108
        }
    }
}