{
    "overall_punctuality": -202,
    "overall_num": 50,
    "overall_avg": -4,
    "daily_punctuality": {
        "Sunday": {
            "num_results": 5,
            "total": 112,
            "avg:": 0,
            "avg": 23
        },
        "Monday": {
            "num_results": 6,
            "total": -563,
            "avg:": 0,
            "avg": -93
        },
        "Tuesday": {
            "num_results": 8,
            "total": -52,
            "avg:": 0,
            "avg": -6
        },
        "Wednesday": {
            "num_results": 8,
            "total": 8,
            "avg:": 0,
            "avg": 1
        },
        "Thursday": {
            "num_results": 6,
            "total": 78,
            "avg:": 0,
            "avg": 13
        },
        "Friday": {
            "num_results": 6,
            "total": 115,
            "avg:": 0,
            "avg": 20
        },
        "Saturday": {
            "num_results": 11,
            "total": 100,
            "avg:": 0,
            "avg": 10
        }
    }
}