{
    "overall_punctuality": -531,
    "overall_num": 84,
    "overall_avg": -6,
    "daily_punctuality": {
        "Sunday": {
            "num_results": 8,
            "total": 46,
            "avg:": 0,
            "avg": 6
        },
        "Monday": {
            "num_results": 11,
            "total": -564,
            "avg:": 0,
            "avg": -51
        },
        "Tuesday": {
            "num_results": 16,
            "total": -157,
            "avg:": 0,
            "avg": -9
        },
        "Wednesday": {
            "num_results": 14,
            "total": 97,
            "avg:": 0,
            "avg": 7
        },
        "Thursday": {
            "num_results": 10,
            "total": -37,
            "avg:": 0,
            "avg": -3
        },
        "Friday": {
            "num_results": 9,
            "total": 158,
            "avg:": 0,
            "avg": 18
        },
        "Saturday": {
            "num_results": 16,
            "total": -74,
            "avg:": 0,
            "avg": -4
        }
    }
}