{
    "overall_punctuality": -1720,
    "overall_num": 99,
    "overall_avg": -17,
    "daily_punctuality": {
        "Sunday": {
            "num_results": 12,
            "total": 428,
            "avg:": 0,
            "avg": 36
        },
        "Monday": {
            "num_results": 11,
            "total": -1580,
            "avg:": 0,
            "avg": -143
        },
        "Tuesday": {
            "num_results": 18,
            "total": -464,
            "avg:": 0,
            "avg": -25
        },
        "Wednesday": {
            "num_results": 17,
            "total": 1087,
            "avg:": 0,
            "avg": 64
        },
        "Thursday": {
            "num_results": 13,
            "total": 491,
            "avg:": 0,
            "avg": 38
        },
        "Friday": {
            "num_results": 9,
            "total": -172,
            "avg:": 0,
            "avg": -19
        },
        "Saturday": {
            "num_results": 19,
            "total": -1510,
            "avg:": 0,
            "avg": -79
        }
    }
}