{
    "overall_punctuality": -1682,
    "overall_num": 92,
    "overall_avg": -18,
    "daily_punctuality": {
        "Sunday": {
            "num_results": 10,
            "total": -406,
            "avg:": 0,
            "avg": -40
        },
        "Monday": {
            "num_results": 10,
            "total": -532,
            "avg:": 0,
            "avg": -53
        },
        "Tuesday": {
            "num_results": 16,
            "total": -1504,
            "avg:": 0,
            "avg": -94
        },
        "Wednesday": {
            "num_results": 16,
            "total": 1042,
            "avg:": 0,
            "avg": 66
        },
        "Thursday": {
            "num_results": 10,
            "total": -286,
            "avg:": 0,
            "avg": -28
        },
        "Friday": {
            "num_results": 12,
            "total": 986,
            "avg:": 0,
            "avg": 83
        },
        "Saturday": {
            "num_results": 18,
            "total": -982,
            "avg:": 0,
            "avg": -54
        }
    }
}