{
    "overall_punctuality": 2451,
    "overall_num": 140,
    "overall_avg": 18,
    "daily_punctuality": {
        "Sunday": {
            "num_results": 17,
            "total": -303,
            "avg:": 0,
            "avg": -17
        },
        "Monday": {
            "num_results": 16,
            "total": 1591,
            "avg:": 0,
            "avg": 100
        },
        "Tuesday": {
            "num_results": 23,
            "total": -1325,
            "avg:": 0,
            "avg": -57
        },
        "Wednesday": {
            "num_results": 24,
            "total": 1837,
            "avg:": 0,
            "avg": 77
        },
        "Thursday": {
            "num_results": 17,
            "total": 4,
            "avg:": 0,
            "avg": 1
        },
        "Friday": {
            "num_results": 15,
            "total": 1084,
            "avg:": 0,
            "avg": 73
        },
        "Saturday": {
            "num_results": 28,
            "total": -437,
            "avg:": 0,
            "avg": -15
        }
    }
}