{
    "overall_punctuality": -5754,
    "overall_num": 92,
    "overall_avg": -62,
    "daily_punctuality": {
        "Sunday": {
            "num_results": 8,
            "total": -524,
            "avg:": 0,
            "avg": -65
        },
        "Monday": {
            "num_results": 10,
            "total": -946,
            "avg:": 0,
            "avg": -94
        },
        "Tuesday": {
            "num_results": 16,
            "total": -4260,
            "avg:": 0,
            "avg": -266
        },
        "Wednesday": {
            "num_results": 16,
            "total": 1230,
            "avg:": 0,
            "avg": 77
        },
        "Thursday": {
            "num_results": 12,
            "total": -976,
            "avg:": 0,
            "avg": -81
        },
        "Friday": {
            "num_results": 12,
            "total": 794,
            "avg:": 0,
            "avg": 67
        },
        "Saturday": {
            "num_results": 18,
            "total": -1072,
            "avg:": 0,
            "avg": -59
        }
    }
}