{
    "overall_punctuality": 1985,
    "overall_num": 144,
    "overall_avg": 14,
    "daily_punctuality": {
        "Sunday": {
            "num_results": 18,
            "total": 550,
            "avg:": 0,
            "avg": 31
        },
        "Monday": {
            "num_results": 18,
            "total": -296,
            "avg:": 0,
            "avg": -16
        },
        "Tuesday": {
            "num_results": 22,
            "total": -452,
            "avg:": 0,
            "avg": -20
        },
        "Wednesday": {
            "num_results": 22,
            "total": 854,
            "avg:": 0,
            "avg": 39
        },
        "Thursday": {
            "num_results": 16,
            "total": 810,
            "avg:": 0,
            "avg": 51
        },
        "Friday": {
            "num_results": 14,
            "total": 965,
            "avg:": 0,
            "avg": 69
        },
        "Saturday": {
            "num_results": 34,
            "total": -446,
            "avg:": 0,
            "avg": -13
        }
    }
}