{
    "overall_punctuality": 296,
    "overall_num": 51,
    "overall_avg": 6,
    "daily_punctuality": {
        "Sunday": {
            "num_results": 6,
            "total": 84,
            "avg:": 0,
            "avg": 14
        },
        "Monday": {
            "num_results": 6,
            "total": 64,
            "avg:": 0,
            "avg": 11
        },
        "Tuesday": {
            "num_results": 8,
            "total": 92,
            "avg:": 0,
            "avg": 12
        },
        "Wednesday": {
            "num_results": 7,
            "total": 68,
            "avg:": 0,
            "avg": 10
        },
        "Thursday": {
            "num_results": 6,
            "total": 48,
            "avg:": 0,
            "avg": 8
        },
        "Friday": {
            "num_results": 6,
            "total": 84,
            "avg:": 0,
            "avg": 14
        },
        "Saturday": {
            "num_results": 12,
            "total": -144,
            "avg:": 0,
            "avg": -12
        }
    }
}