{
    "overall_punctuality": 45,
    "overall_num": 8,
    "overall_avg": 6,
    "daily_punctuality": {
        "Sunday": {
            "num_results": 0,
            "total": 0,
            "avg:": 0
        },
        "Monday": {
            "num_results": 2,
            "total": -6,
            "avg:": 0,
            "avg": -3
        },
        "Tuesday": {
            "num_results": 1,
            "total": -13,
            "avg:": 0,
            "avg": -13
        },
        "Wednesday": {
            "num_results": 1,
            "total": 23,
            "avg:": 0,
            "avg": 23
        },
        "Thursday": {
            "num_results": 2,
            "total": 20,
            "avg:": 0,
            "avg": 10
        },
        "Friday": {
            "num_results": 2,
            "total": 21,
            "avg:": 0,
            "avg": 11
        },
        "Saturday": {
            "num_results": 0,
            "total": 0,
            "avg:": 0
        }
    }
}