{
    "overall_punctuality": -8519,
    "overall_num": 50,
    "overall_avg": -170,
    "daily_punctuality": {
        "Sunday": {
            "num_results": 6,
            "total": -167,
            "avg:": 0,
            "avg": -27
        },
        "Monday": {
            "num_results": 6,
            "total": -3643,
            "avg:": 0,
            "avg": -607
        },
        "Tuesday": {
            "num_results": 8,
            "total": -3046,
            "avg:": 0,
            "avg": -380
        },
        "Wednesday": {
            "num_results": 8,
            "total": 1057,
            "avg:": 0,
            "avg": 133
        },
        "Thursday": {
            "num_results": 6,
            "total": 430,
            "avg:": 0,
            "avg": 72
        },
        "Friday": {
            "num_results": 6,
            "total": 746,
            "avg:": 0,
            "avg": 125
        },
        "Saturday": {
            "num_results": 10,
            "total": -3896,
            "avg:": 0,
            "avg": -389
        }
    }
}