{
    "overall_punctuality": -29522,
    "overall_num": 192,
    "overall_avg": -153,
    "daily_punctuality": {
        "Sunday": {
            "num_results": 24,
            "total": -3095,
            "avg:": 0,
            "avg": -128
        },
        "Monday": {
            "num_results": 24,
            "total": -12235,
            "avg:": 0,
            "avg": -509
        },
        "Tuesday": {
            "num_results": 31,
            "total": -10213,
            "avg:": 0,
            "avg": -329
        },
        "Wednesday": {
            "num_results": 32,
            "total": 1909,
            "avg:": 0,
            "avg": 60
        },
        "Thursday": {
            "num_results": 23,
            "total": 1092,
            "avg:": 0,
            "avg": 48
        },
        "Friday": {
            "num_results": 20,
            "total": 3683,
            "avg:": 0,
            "avg": 185
        },
        "Saturday": {
            "num_results": 38,
            "total": -10663,
            "avg:": 0,
            "avg": -280
        }
    }
}