{
    "overall_punctuality": 2982,
    "overall_num": 26,
    "overall_avg": 115,
    "daily_punctuality": {
        "Sunday": {
            "num_results": 4,
            "total": 3116,
            "avg:": 0,
            "avg": 779
        },
        "Monday": {
            "num_results": 4,
            "total": 83,
            "avg:": 0,
            "avg": 21
        },
        "Tuesday": {
            "num_results": 5,
            "total": -6,
            "avg:": 0,
            "avg": -1
        },
        "Wednesday": {
            "num_results": 4,
            "total": -23,
            "avg:": 0,
            "avg": -5
        },
        "Thursday": {
            "num_results": 3,
            "total": -25,
            "avg:": 0,
            "avg": -8
        },
        "Friday": {
            "num_results": 2,
            "total": -29,
            "avg:": 0,
            "avg": -14
        },
        "Saturday": {
            "num_results": 4,
            "total": -134,
            "avg:": 0,
            "avg": -33
        }
    }
}