{
    "overall_punctuality": 1446,
    "overall_num": 32,
    "overall_avg": 46,
    "daily_punctuality": {
        "Sunday": {
            "num_results": 3,
            "total": 968,
            "avg:": 0,
            "avg": 323
        },
        "Monday": {
            "num_results": 4,
            "total": -157,
            "avg:": 0,
            "avg": -39
        },
        "Tuesday": {
            "num_results": 6,
            "total": 4,
            "avg:": 0,
            "avg": 1
        },
        "Wednesday": {
            "num_results": 5,
            "total": 313,
            "avg:": 0,
            "avg": 63
        },
        "Thursday": {
            "num_results": 5,
            "total": -61,
            "avg:": 0,
            "avg": -12
        },
        "Friday": {
            "num_results": 4,
            "total": 360,
            "avg:": 0,
            "avg": 90
        },
        "Saturday": {
            "num_results": 5,
            "total": 19,
            "avg:": 0,
            "avg": 4
        }
    }
}