{
    "overall_punctuality": 1203,
    "overall_num": 25,
    "overall_avg": 49,
    "daily_punctuality": {
        "Sunday": {
            "num_results": 3,
            "total": 1084,
            "avg:": 0,
            "avg": 362
        },
        "Monday": {
            "num_results": 4,
            "total": 102,
            "avg:": 0,
            "avg": 26
        },
        "Tuesday": {
            "num_results": 3,
            "total": -5,
            "avg:": 0,
            "avg": -1
        },
        "Wednesday": {
            "num_results": 5,
            "total": -2,
            "avg:": 0,
            "avg": 0
        },
        "Thursday": {
            "num_results": 3,
            "total": -51,
            "avg:": 0,
            "avg": -17
        },
        "Friday": {
            "num_results": 2,
            "total": 12,
            "avg:": 0,
            "avg": 6
        },
        "Saturday": {
            "num_results": 5,
            "total": 63,
            "avg:": 0,
            "avg": 13
        }
    }
}