{
    "overall_punctuality": 459,
    "overall_num": 49,
    "overall_avg": 10,
    "daily_punctuality": {
        "Sunday": {
            "num_results": 6,
            "total": 97,
            "avg:": 0,
            "avg": 17
        },
        "Monday": {
            "num_results": 7,
            "total": -221,
            "avg:": 0,
            "avg": -31
        },
        "Tuesday": {
            "num_results": 8,
            "total": 142,
            "avg:": 0,
            "avg": 18
        },
        "Wednesday": {
            "num_results": 9,
            "total": 7,
            "avg:": 0,
            "avg": 1
        },
        "Thursday": {
            "num_results": 8,
            "total": 138,
            "avg:": 0,
            "avg": 18
        },
        "Friday": {
            "num_results": 5,
            "total": 340,
            "avg:": 0,
            "avg": 68
        },
        "Saturday": {
            "num_results": 6,
            "total": -44,
            "avg:": 0,
            "avg": -7
        }
    }
}