{
    "2927": {
        "22/03/2020 15:32:42": [],
        "22/03/2020 17:58:33": [],
        "22/03/2020 20:16:11": []
    },
    "2929": {
        "22/03/2020 15:32:43": [],
        "22/03/2020 17:58:33": [],
        "22/03/2020 20:16:12": []
    },
    "2930": {
        "22/03/2020 15:32:43": [],
        "22/03/2020 17:58:34": [],
        "22/03/2020 20:16:12": []
    },
    "7441": {
        "22/03/2020 15:32:44": [],
        "22/03/2020 17:58:34": [],
        "22/03/2020 20:16:12": []
    },
    "2933": {
        "22/03/2020 15:32:44": [],
        "22/03/2020 17:58:34": [],
        "22/03/2020 20:16:13": []
    },
    "302": {
        "22/03/2020 15:32:44": [],
        "22/03/2020 17:58:35": [],
        "22/03/2020 20:16:13": [
            0
        ]
    },
    "340": {
        "22/03/2020 15:32:45": [
            78
        ],
        "22/03/2020 17:58:35": [],
        "22/03/2020 20:16:13": [
            -25
        ]
    },
    "350": {
        "22/03/2020 15:32:46": [
            44
        ],
        "22/03/2020 17:58:36": [],
        "22/03/2020 20:16:14": [
            29
        ]
    },
    "2809": {
        "22/03/2020 15:32:46": [
            31
        ],
        "22/03/2020 17:58:36": [],
        "22/03/2020 20:16:14": [
            10
        ]
    },
    "2810": {
        "22/03/2020 15:32:47": [
            50
        ],
        "22/03/2020 17:58:37": [],
        "22/03/2020 20:16:15": [
            23
        ]
    },
    "2811": {
        "22/03/2020 15:32:47": [
            36
        ],
        "22/03/2020 17:58:37": [],
        "22/03/2020 20:16:15": [
            -4
        ]
    },
    "843": {
        "22/03/2020 15:32:47": [
            37
        ],
        "22/03/2020 17:58:37": [],
        "22/03/2020 20:16:16": [
            23
        ]
    },
    "1013": {
        "22/03/2020 15:32:48": [
            88
        ],
        "22/03/2020 17:58:38": [
            241
        ],
        "22/03/2020 20:16:16": [
            0
        ]
    },
    "1015": {
        "22/03/2020 15:32:48": [
            -24
        ],
        "22/03/2020 17:58:38": [
            230
        ],
        "22/03/2020 20:16:16": [
            -1
        ]
    },
    "2812": {
        "22/03/2020 15:32:49": [
            -30
        ],
        "22/03/2020 17:58:39": [
            228
        ],
        "22/03/2020 20:16:17": [
            -15
        ]
    },
    "2813": {
        "22/03/2020 15:32:49": [
            -8
        ],
        "22/03/2020 17:58:39": [
            221
        ],
        "22/03/2020 20:16:17": [
            -23
        ]
    },
    "2814": {
        "22/03/2020 15:32:50": [
            27
        ],
        "22/03/2020 17:58:39": [
            282
        ],
        "22/03/2020 20:16:18": [
            -21
        ]
    },
    "852": {
        "22/03/2020 15:32:50": [
            -28
        ],
        "22/03/2020 17:58:40": [
            245
        ],
        "22/03/2020 20:16:18": [
            21
        ]
    },
    "853": {
        "22/03/2020 15:32:51": [
            -8
        ],
        "22/03/2020 17:58:40": [
            372
        ],
        "22/03/2020 20:16:18": [
            20,
            3
        ]
    },
    "854": {
        "22/03/2020 15:32:51": [
            28
        ],
        "22/03/2020 17:58:41": [
            351
        ],
        "22/03/2020 20:16:19": [
            -12,
            22
        ]
    },
    "855": {
        "22/03/2020 15:32:52": [
            26
        ],
        "22/03/2020 17:58:41": [
            355
        ],
        "22/03/2020 20:16:19": [
            46
        ]
    },
    "2815": {
        "22/03/2020 15:32:52": [
            -16
        ],
        "22/03/2020 17:58:42": [
            321
        ],
        "22/03/2020 20:16:20": [
            2
        ]
    },
    "2816": {
        "22/03/2020 15:32:53": [
            10
        ],
        "22/03/2020 17:58:42": [
            361
        ],
        "22/03/2020 20:16:20": [
            28
        ]
    },
    "2817": {
        "22/03/2020 15:32:53": [
            1
        ],
        "22/03/2020 17:58:43": [
            322
        ],
        "22/03/2020 20:16:21": [
            21
        ]
    },
    "2818": {
        "22/03/2020 15:32:54": [
            -7
        ],
        "22/03/2020 17:58:43": [
            368
        ],
        "22/03/2020 20:16:21": [
            4
        ]
    },
    "2819": {
        "22/03/2020 15:32:54": [
            -30
        ],
        "22/03/2020 17:58:43": [
            340
        ],
        "22/03/2020 20:16:21": [
            34
        ]
    },
    "2820": {
        "22/03/2020 15:32:54": [
            1
        ],
        "22/03/2020 17:58:44": [
            373
        ],
        "22/03/2020 20:16:22": [
            1
        ]
    },
    "2822": {
        "22/03/2020 15:32:55": [
            -29
        ],
        "22/03/2020 17:58:44": [
            344
        ],
        "22/03/2020 20:16:22": [
            27
        ]
    },
    "2823": {
        "22/03/2020 15:32:55": [
            14
        ],
        "22/03/2020 17:58:45": [
            347
        ],
        "22/03/2020 20:16:23": [
            8
        ]
    },
    "5032": {
        "22/03/2020 15:32:56": [
            -23
        ],
        "22/03/2020 17:58:45": [
            320
        ],
        "22/03/2020 20:16:23": [
            27
        ]
    },
    "2867": {
        "22/03/2020 15:32:56": [
            22
        ],
        "22/03/2020 17:58:45": [
            373
        ],
        "22/03/2020 20:16:24": [
            85
        ]
    },
    "1035": {
        "22/03/2020 15:32:57": [
            -13
        ],
        "22/03/2020 17:58:46": [
            346
        ],
        "22/03/2020 20:16:24": [
            103
        ]
    },
    "1314": {
        "22/03/2020 15:32:57": [
            -23
        ],
        "22/03/2020 17:58:46": [
            340
        ],
        "22/03/2020 20:16:25": [
            88
        ]
    },
    "1316": {
        "22/03/2020 15:32:58": [
            26
        ],
        "22/03/2020 17:58:47": [
            325
        ],
        "22/03/2020 20:16:25": [
            126
        ]
    },
    "1315": {
        "22/03/2020 15:32:58": [
            1
        ],
        "22/03/2020 17:58:47": [
            356
        ],
        "22/03/2020 20:16:25": [
            93
        ]
    },
    "1317": {
        "22/03/2020 15:32:58": [
            14
        ],
        "22/03/2020 17:58:48": [
            363
        ],
        "22/03/2020 20:16:26": [
            90
        ]
    },
    "1318": {
        "22/03/2020 15:32:59": [
            -17
        ],
        "22/03/2020 17:58:48": [
            330
        ],
        "22/03/2020 20:16:26": [
            113
        ]
    },
    "1319": {
        "22/03/2020 15:32:59": [
            -30
        ],
        "22/03/2020 17:58:48": [
            372
        ],
        "22/03/2020 20:16:27": [
            89
        ]
    },
    "1281": {
        "22/03/2020 15:33:00": [
            5
        ],
        "22/03/2020 17:58:49": [
            344
        ],
        "22/03/2020 20:16:27": [
            116
        ]
    },
    "1329": {
        "22/03/2020 15:33:00": [
            -7
        ],
        "22/03/2020 17:58:49": [
            328
        ],
        "22/03/2020 20:16:27": [
            93
        ]
    },
    "1330": {
        "22/03/2020 15:33:01": [
            27
        ],
        "22/03/2020 17:58:50": [
            359
        ],
        "22/03/2020 20:16:28": [
            120
        ]
    },
    "2919": {
        "22/03/2020 15:33:01": [
            -11
        ],
        "22/03/2020 17:58:50": [
            329
        ],
        "22/03/2020 20:16:28": [
            -55
        ]
    },
    "2920": {
        "22/03/2020 15:33:01": [
            27
        ],
        "22/03/2020 17:58:51": [
            320
        ],
        "22/03/2020 20:16:29": [
            -17
        ]
    },
    "2921": {
        "22/03/2020 15:33:02": [
            9
        ],
        "22/03/2020 17:58:51": [
            316
        ],
        "22/03/2020 20:16:29": [
            -34
        ]
    },
    "2922": {
        "22/03/2020 15:33:02": [
            -19
        ],
        "22/03/2020 17:58:52": [
            359
        ],
        "22/03/2020 20:16:30": [
            -61
        ]
    },
    "2923": {
        "22/03/2020 15:33:03": [
            12
        ],
        "22/03/2020 17:58:52": [
            340
        ],
        "22/03/2020 20:16:30": [
            108
        ]
    },
    "2924": {
        "22/03/2020 15:33:03": [
            -20
        ],
        "22/03/2020 17:58:52": [
            318
        ],
        "22/03/2020 20:16:30": [
            77
        ]
    },
    "2925": {
        "22/03/2020 15:33:03": [
            22
        ],
        "22/03/2020 17:58:53": [
            355
        ],
        "22/03/2020 20:16:31": [
            -62
        ]
    },
    "2955": {
        "22/03/2020 15:33:04": [],
        "22/03/2020 17:58:53": [],
        "22/03/2020 20:16:31": []
    },
    "7440": {
        "22/03/2020 15:33:04": [],
        "22/03/2020 17:58:54": [],
        "22/03/2020 20:16:32": []
    },
    "2934": {
        "22/03/2020 15:33:05": [],
        "22/03/2020 17:58:54": [],
        "22/03/2020 20:16:32": []
    },
    "2935": {
        "22/03/2020 15:33:05": [],
        "22/03/2020 17:58:55": [],
        "22/03/2020 20:16:32": []
    },
    "2936": {
        "22/03/2020 15:33:06": [],
        "22/03/2020 17:58:55": [],
        "22/03/2020 20:16:33": []
    },
    "2937": {
        "22/03/2020 15:33:06": [],
        "22/03/2020 17:58:55": [],
        "22/03/2020 20:16:33": []
    },
    "2938": {
        "22/03/2020 15:33:07": [],
        "22/03/2020 17:58:56": [],
        "22/03/2020 20:16:34": []
    },
    "2940": {
        "22/03/2020 15:33:07": [],
        "22/03/2020 17:58:56": [],
        "22/03/2020 20:16:34": []
    },
    "2948": {
        "22/03/2020 15:33:08": [
            1
        ],
        "22/03/2020 17:58:57": [
            346
        ],
        "22/03/2020 20:16:34": [
            113
        ]
    },
    "2949": {
        "22/03/2020 15:33:08": [
            -27
        ],
        "22/03/2020 17:58:57": [
            321
        ],
        "22/03/2020 20:16:35": [
            85
        ]
    },
    "2950": {
        "22/03/2020 15:33:08": [
            25
        ],
        "22/03/2020 17:58:58": [
            318
        ],
        "22/03/2020 20:16:35": [
            77
        ]
    },
    "2954": {
        "22/03/2020 15:33:09": [
            -17
        ],
        "22/03/2020 17:58:58": [
            349
        ],
        "22/03/2020 20:16:36": [
            -7
        ]
    },
    "5034": {
        "22/03/2020 15:33:09": [],
        "22/03/2020 17:58:58": [],
        "22/03/2020 20:16:36": []
    },
    "7067": {
        "22/03/2020 15:33:10": [
            0
        ],
        "22/03/2020 17:58:59": [
            0
        ],
        "22/03/2020 20:16:37": [
            0
        ]
    },
    "2956": {
        "22/03/2020 15:33:10": [
            25
        ],
        "22/03/2020 17:58:59": [
            26
        ],
        "22/03/2020 20:16:37": [
            23
        ]
    },
    "2965": {
        "22/03/2020 15:33:11": [
            16
        ],
        "22/03/2020 17:59:00": [
            -19
        ],
        "22/03/2020 20:16:37": [
            12
        ]
    },
    "2983": {
        "22/03/2020 15:33:11": [
            3
        ],
        "22/03/2020 17:59:00": [
            -26
        ],
        "22/03/2020 20:16:38": [
            -9
        ]
    },
    "2984": {
        "22/03/2020 15:33:12": [
            42
        ],
        "22/03/2020 17:59:01": [
            -24
        ],
        "22/03/2020 20:16:38": [
            -24
        ]
    },
    "7449": {
        "22/03/2020 15:33:12": [
            65
        ],
        "22/03/2020 17:59:01": [
            3
        ],
        "22/03/2020 20:16:39": [
            -7
        ]
    },
    "2941": {
        "22/03/2020 15:33:13": [
            41
        ],
        "22/03/2020 17:59:02": [
            -15
        ],
        "22/03/2020 20:16:39": [
            20
        ]
    },
    "2942": {
        "22/03/2020 15:33:13": [
            66
        ],
        "22/03/2020 17:59:02": [
            25
        ],
        "22/03/2020 20:16:39": [
            -18
        ]
    },
    "2943": {
        "22/03/2020 15:33:13": [
            44
        ],
        "22/03/2020 17:59:03": [
            27
        ],
        "22/03/2020 20:16:40": [
            18
        ]
    },
    "2944": {
        "22/03/2020 15:33:14": [
            22
        ],
        "22/03/2020 17:59:03": [
            27
        ],
        "22/03/2020 20:16:40": [
            -8
        ]
    },
    "2945": {
        "22/03/2020 15:33:14": [
            43
        ],
        "22/03/2020 17:59:04": [
            2
        ],
        "22/03/2020 20:16:40": [
            11
        ]
    },
    "2946": {
        "22/03/2020 15:33:15": [
            23
        ],
        "22/03/2020 17:59:04": [
            6
        ],
        "22/03/2020 20:16:41": [
            -12
        ]
    },
    "2947": {
        "22/03/2020 15:33:15": [
            51
        ],
        "22/03/2020 17:59:04": [
            -10
        ],
        "22/03/2020 20:16:41": [
            13
        ]
    },
    "1305": {
        "22/03/2020 15:33:16": [
            17
        ],
        "22/03/2020 17:59:05": [
            15
        ],
        "22/03/2020 20:16:43": [
            27
        ]
    },
    "1306": {
        "22/03/2020 15:33:16": [
            39
        ],
        "22/03/2020 17:59:05": [
            14
        ],
        "22/03/2020 20:16:43": [
            2
        ]
    },
    "1307": {
        "22/03/2020 15:33:17": [
            68
        ],
        "22/03/2020 17:59:06": [
            -18
        ],
        "22/03/2020 20:16:44": [
            18
        ]
    },
    "1308": {
        "22/03/2020 15:33:17": [
            42
        ],
        "22/03/2020 17:59:06": [
            15
        ],
        "22/03/2020 20:16:44": [
            -23
        ]
    },
    "1309": {
        "22/03/2020 15:33:18": [
            32
        ],
        "22/03/2020 17:59:07": [
            2
        ],
        "22/03/2020 20:16:45": [
            5
        ]
    },
    "1310": {
        "22/03/2020 15:33:18": [
            -28
        ],
        "22/03/2020 17:59:07": [
            0
        ],
        "22/03/2020 20:16:45": [
            -22
        ]
    },
    "1311": {
        "22/03/2020 15:33:19": [
            9
        ],
        "22/03/2020 17:59:08": [
            -25
        ],
        "22/03/2020 20:16:45": [
            -2
        ]
    },
    "1312": {
        "22/03/2020 15:33:19": [
            -5
        ],
        "22/03/2020 17:59:08": [
            20
        ],
        "22/03/2020 20:16:46": [
            24
        ]
    },
    "1313": {
        "22/03/2020 15:33:19": [
            -28
        ],
        "22/03/2020 17:59:09": [
            -5
        ],
        "22/03/2020 20:16:46": [
            -15
        ]
    },
    "1055": {
        "22/03/2020 15:33:20": [
            13
        ],
        "22/03/2020 17:59:09": [
            -10
        ],
        "22/03/2020 20:16:47": [
            17
        ]
    },
    "2868": {
        "22/03/2020 15:33:21": [
            -26
        ],
        "22/03/2020 17:59:09": [
            -22
        ],
        "22/03/2020 20:16:47": [
            21
        ]
    },
    "2892": {
        "22/03/2020 15:33:21": [
            -25
        ],
        "22/03/2020 17:59:10": [
            -2
        ],
        "22/03/2020 20:16:47": [
            100,
            8
        ]
    },
    "2893": {
        "22/03/2020 15:33:21": [
            -5
        ],
        "22/03/2020 17:59:10": [
            24
        ],
        "22/03/2020 20:16:48": [
            123,
            28
        ]
    },
    "2894": {
        "22/03/2020 15:33:22": [
            24
        ],
        "22/03/2020 17:59:11": [
            -1
        ],
        "22/03/2020 20:16:48": [
            94,
            -4
        ]
    },
    "2895": {
        "22/03/2020 15:33:22": [
            -17
        ],
        "22/03/2020 17:59:11": [
            22
        ],
        "22/03/2020 20:16:49": [
            120,
            18
        ]
    },
    "2896": {
        "22/03/2020 15:33:23": [
            10
        ],
        "22/03/2020 17:59:12": [
            -6
        ],
        "22/03/2020 20:16:49": [
            95,
            -12
        ]
    },
    "2897": {
        "22/03/2020 15:33:23": [
            -22
        ],
        "22/03/2020 17:59:12": [
            26
        ],
        "22/03/2020 20:16:49": [
            121,
            12
        ]
    },
    "2898": {
        "22/03/2020 15:33:24": [
            23
        ],
        "22/03/2020 17:59:13": [
            17
        ],
        "22/03/2020 20:16:50": [
            102,
            -9
        ]
    },
    "3562": {
        "22/03/2020 15:33:24": [
            21
        ],
        "22/03/2020 17:59:13": [
            15
        ],
        "22/03/2020 20:16:50": [
            84
        ]
    },
    "2899": {
        "22/03/2020 15:33:25": [
            -8
        ],
        "22/03/2020 17:59:13": [
            -14
        ],
        "22/03/2020 20:16:51": [
            107
        ]
    },
    "884": {
        "22/03/2020 15:33:26": [
            -13
        ],
        "22/03/2020 17:59:14": [
            -4
        ],
        "22/03/2020 20:16:51": [
            66
        ]
    },
    "885": {
        "22/03/2020 15:33:26": [
            8
        ],
        "22/03/2020 17:59:14": [
            22
        ],
        "22/03/2020 20:16:51": [
            132
        ]
    },
    "886": {
        "22/03/2020 15:33:27": [
            -3
        ],
        "22/03/2020 17:59:15": [
            18
        ],
        "22/03/2020 20:16:52": [
            119
        ]
    },
    "887": {
        "22/03/2020 15:33:27": [
            8
        ],
        "22/03/2020 17:59:15": [
            -21
        ],
        "22/03/2020 20:16:52": [
            126
        ]
    },
    "2900": {
        "22/03/2020 15:33:28": [
            1
        ],
        "22/03/2020 17:59:16": [
            -19
        ],
        "22/03/2020 20:16:53": [
            132
        ]
    },
    "2901": {
        "22/03/2020 15:33:28": [
            -16
        ],
        "22/03/2020 17:59:16": [
            -28
        ],
        "22/03/2020 20:16:53": [
            125
        ]
    },
    "2902": {
        "22/03/2020 15:33:28": [
            16
        ],
        "22/03/2020 17:59:17": [
            5
        ],
        "22/03/2020 20:16:54": [
            86
        ]
    },
    "2903": {
        "22/03/2020 15:33:29": [
            -28
        ],
        "22/03/2020 17:59:17": [
            25
        ],
        "22/03/2020 20:16:54": [
            139
        ]
    },
    "1074": {
        "22/03/2020 15:33:29": [
            -10
        ],
        "22/03/2020 17:59:17": [
            4
        ],
        "22/03/2020 20:16:55": [
            116
        ]
    },
    "6074": {
        "22/03/2020 15:33:30": [
            -3
        ],
        "22/03/2020 17:59:18": [
            -14
        ],
        "22/03/2020 20:16:55": [
            114
        ]
    },
    "793": {
        "22/03/2020 15:33:30": [
            -14
        ],
        "22/03/2020 17:59:19": [
            -4
        ],
        "22/03/2020 20:16:55": [
            147
        ]
    },
    "495": {
        "22/03/2020 15:33:31": [
            -22
        ],
        "22/03/2020 17:59:19": [
            -16
        ],
        "22/03/2020 20:16:56": [
            125
        ]
    },
    "400": {
        "22/03/2020 15:33:31": [
            -23
        ],
        "22/03/2020 17:59:20": [
            -19
        ],
        "22/03/2020 20:16:56": [
            119
        ]
    },
    "303": {
        "22/03/2020 15:33:31": [],
        "22/03/2020 17:59:20": [],
        "22/03/2020 20:16:56": []
    }
}