{
    "3733": {
        "23/03/2020 13:11:34": [],
        "23/03/2020 15:17:50": [],
        "23/03/2020 18:25:37": []
    },
    "3734": {
        "23/03/2020 13:11:34": [],
        "23/03/2020 15:17:51": [],
        "23/03/2020 18:25:38": []
    },
    "3735": {
        "23/03/2020 13:11:35": [],
        "23/03/2020 15:17:51": [],
        "23/03/2020 18:25:39": []
    },
    "3736": {
        "23/03/2020 13:11:36": [],
        "23/03/2020 15:17:52": [],
        "23/03/2020 18:25:39": []
    },
    "3738": {
        "23/03/2020 13:11:36": [],
        "23/03/2020 15:17:52": [],
        "23/03/2020 18:25:40": []
    },
    "3739": {
        "23/03/2020 13:11:37": [],
        "23/03/2020 15:17:53": [],
        "23/03/2020 18:25:41": []
    },
    "3740": {
        "23/03/2020 13:11:37": [],
        "23/03/2020 15:17:54": [],
        "23/03/2020 18:25:41": []
    },
    "3741": {
        "23/03/2020 13:11:38": [],
        "23/03/2020 15:17:55": [],
        "23/03/2020 18:25:42": []
    },
    "7169": {
        "23/03/2020 13:11:38": [],
        "23/03/2020 15:17:55": [],
        "23/03/2020 18:25:42": []
    },
    "7170": {
        "23/03/2020 13:11:39": [],
        "23/03/2020 15:17:56": [],
        "23/03/2020 18:25:43": []
    },
    "3743": {
        "23/03/2020 13:11:40": [],
        "23/03/2020 15:17:56": [],
        "23/03/2020 18:25:43": []
    },
    "3744": {
        "23/03/2020 13:11:40": [],
        "23/03/2020 15:17:57": [],
        "23/03/2020 18:25:44": []
    },
    "3745": {
        "23/03/2020 13:11:41": [],
        "23/03/2020 15:17:58": [],
        "23/03/2020 18:25:45": []
    },
    "3746": {
        "23/03/2020 13:11:42": [],
        "23/03/2020 15:17:59": [],
        "23/03/2020 18:25:46": []
    },
    "3749": {
        "23/03/2020 13:11:42": [],
        "23/03/2020 15:18:00": [],
        "23/03/2020 18:25:46": []
    },
    "3750": {
        "23/03/2020 13:11:43": [],
        "23/03/2020 15:18:01": [],
        "23/03/2020 18:25:47": []
    },
    "3751": {
        "23/03/2020 13:11:43": [],
        "23/03/2020 15:18:01": [],
        "23/03/2020 18:25:47": []
    },
    "3752": {
        "23/03/2020 13:11:44": [],
        "23/03/2020 15:18:02": [],
        "23/03/2020 18:25:48": []
    },
    "3780": {
        "23/03/2020 13:11:44": [],
        "23/03/2020 15:18:03": [],
        "23/03/2020 18:25:49": []
    },
    "3689": {
        "23/03/2020 13:11:45": [],
        "23/03/2020 15:18:03": [],
        "23/03/2020 18:25:49": []
    },
    "3690": {
        "23/03/2020 13:11:46": [],
        "23/03/2020 15:18:04": [],
        "23/03/2020 18:25:50": []
    },
    "5165": {
        "23/03/2020 13:11:46": [],
        "23/03/2020 15:18:04": [],
        "23/03/2020 18:25:50": []
    },
    "7594": {
        "23/03/2020 13:11:47": [],
        "23/03/2020 15:18:05": [],
        "23/03/2020 18:25:51": []
    },
    "3711": {
        "23/03/2020 13:11:48": [],
        "23/03/2020 15:18:06": [],
        "23/03/2020 18:25:52": []
    },
    "3712": {
        "23/03/2020 13:11:48": [],
        "23/03/2020 15:18:07": [],
        "23/03/2020 18:25:52": []
    },
    "3713": {
        "23/03/2020 13:11:49": [],
        "23/03/2020 15:18:08": [],
        "23/03/2020 18:25:53": []
    },
    "3714": {
        "23/03/2020 13:11:50": [],
        "23/03/2020 15:18:08": [],
        "23/03/2020 18:25:53": []
    },
    "3718": {
        "23/03/2020 13:11:50": [],
        "23/03/2020 15:18:09": [],
        "23/03/2020 18:25:54": []
    },
    "3719": {
        "23/03/2020 13:11:51": [],
        "23/03/2020 15:18:09": [],
        "23/03/2020 18:25:55": []
    },
    "3720": {
        "23/03/2020 13:11:52": [],
        "23/03/2020 15:18:10": [],
        "23/03/2020 18:25:55": []
    },
    "3721": {
        "23/03/2020 13:11:52": [],
        "23/03/2020 15:18:11": [],
        "23/03/2020 18:25:56": []
    },
    "3722": {
        "23/03/2020 13:11:53": [],
        "23/03/2020 15:18:11": [],
        "23/03/2020 18:25:56": []
    },
    "3679": {
        "23/03/2020 13:11:53": [],
        "23/03/2020 15:18:12": [],
        "23/03/2020 18:25:57": []
    },
    "4330": {
        "23/03/2020 13:11:54": [],
        "23/03/2020 15:18:12": [],
        "23/03/2020 18:25:58": []
    },
    "7039": {
        "23/03/2020 13:11:54": [],
        "23/03/2020 15:18:13": [],
        "23/03/2020 18:25:58": []
    },
    "3723": {
        "23/03/2020 13:11:55": [],
        "23/03/2020 15:18:14": [],
        "23/03/2020 18:25:59": []
    },
    "3724": {
        "23/03/2020 13:11:56": [],
        "23/03/2020 15:18:14": [],
        "23/03/2020 18:26:00": []
    },
    "3725": {
        "23/03/2020 13:11:56": [],
        "23/03/2020 15:18:15": [],
        "23/03/2020 18:26:00": []
    },
    "3726": {
        "23/03/2020 13:11:57": [],
        "23/03/2020 15:18:15": [],
        "23/03/2020 18:26:01": []
    },
    "3728": {
        "23/03/2020 13:11:57": [],
        "23/03/2020 15:18:16": [],
        "23/03/2020 18:26:01": []
    },
    "3729": {
        "23/03/2020 13:11:58": [],
        "23/03/2020 15:18:17": [],
        "23/03/2020 18:26:02": []
    },
    "3730": {
        "23/03/2020 13:11:59": [],
        "23/03/2020 15:18:17": [],
        "23/03/2020 18:26:03": []
    },
    "3732": {
        "23/03/2020 13:11:59": [],
        "23/03/2020 15:18:18": [],
        "23/03/2020 18:26:03": []
    },
    "5069": {
        "23/03/2020 13:12:00": [],
        "23/03/2020 15:18:19": [],
        "23/03/2020 18:26:04": []
    },
    "7204": {
        "23/03/2020 13:12:01": [],
        "23/03/2020 15:18:19": [],
        "23/03/2020 18:26:05": []
    }
}