{
    "3733": {
        "25/03/2020 14:39:33": [],
        "25/03/2020 17:22:04": [],
        "25/03/2020 19:57:06": [],
        "25/03/2020 21:25:21": []
    },
    "3734": {
        "25/03/2020 14:39:34": [],
        "25/03/2020 17:22:04": [],
        "25/03/2020 19:57:06": [],
        "25/03/2020 21:25:21": []
    },
    "3735": {
        "25/03/2020 14:39:34": [],
        "25/03/2020 17:22:05": [],
        "25/03/2020 19:57:07": [],
        "25/03/2020 21:25:21": []
    },
    "3736": {
        "25/03/2020 14:39:35": [],
        "25/03/2020 17:22:06": [],
        "25/03/2020 19:57:07": [],
        "25/03/2020 21:25:22": []
    },
    "3738": {
        "25/03/2020 14:39:35": [],
        "25/03/2020 17:22:07": [],
        "25/03/2020 19:57:07": [],
        "25/03/2020 21:25:22": []
    },
    "3739": {
        "25/03/2020 14:39:36": [],
        "25/03/2020 17:22:08": [],
        "25/03/2020 19:57:08": [],
        "25/03/2020 21:25:22": []
    },
    "3740": {
        "25/03/2020 14:39:36": [],
        "25/03/2020 17:22:09": [],
        "25/03/2020 19:57:08": [],
        "25/03/2020 21:25:22": []
    },
    "3741": {
        "25/03/2020 14:39:37": [],
        "25/03/2020 17:22:09": [],
        "25/03/2020 19:57:08": [],
        "25/03/2020 21:25:23": []
    },
    "7169": {
        "25/03/2020 14:39:37": [],
        "25/03/2020 17:22:10": [],
        "25/03/2020 19:57:08": [],
        "25/03/2020 21:25:23": []
    },
    "7170": {
        "25/03/2020 14:39:38": [],
        "25/03/2020 17:22:11": [],
        "25/03/2020 19:57:09": [],
        "25/03/2020 21:25:23": []
    },
    "3743": {
        "25/03/2020 14:39:39": [],
        "25/03/2020 17:22:12": [],
        "25/03/2020 19:57:09": [],
        "25/03/2020 21:25:24": []
    },
    "3744": {
        "25/03/2020 14:39:39": [],
        "25/03/2020 17:22:12": [],
        "25/03/2020 19:57:09": [],
        "25/03/2020 21:25:24": []
    },
    "3745": {
        "25/03/2020 14:39:40": [],
        "25/03/2020 17:22:13": [],
        "25/03/2020 19:57:10": [],
        "25/03/2020 21:25:24": []
    },
    "3746": {
        "25/03/2020 14:39:40": [],
        "25/03/2020 17:22:14": [],
        "25/03/2020 19:57:10": [],
        "25/03/2020 21:25:24": []
    },
    "3749": {
        "25/03/2020 14:39:41": [],
        "25/03/2020 17:22:15": [],
        "25/03/2020 19:57:10": [],
        "25/03/2020 21:25:25": []
    },
    "3750": {
        "25/03/2020 14:39:41": [],
        "25/03/2020 17:22:15": [],
        "25/03/2020 19:57:11": [],
        "25/03/2020 21:25:25": []
    },
    "3751": {
        "25/03/2020 14:39:42": [],
        "25/03/2020 17:22:16": [],
        "25/03/2020 19:57:11": [],
        "25/03/2020 21:25:25": []
    },
    "3752": {
        "25/03/2020 14:39:42": [],
        "25/03/2020 17:22:16": [],
        "25/03/2020 19:57:11": [],
        "25/03/2020 21:25:26": []
    },
    "3780": {
        "25/03/2020 14:39:43": [],
        "25/03/2020 17:22:17": [],
        "25/03/2020 19:57:12": [],
        "25/03/2020 21:25:26": []
    },
    "3689": {
        "25/03/2020 14:39:44": [],
        "25/03/2020 17:22:18": [],
        "25/03/2020 19:57:12": [],
        "25/03/2020 21:25:26": []
    },
    "3690": {
        "25/03/2020 14:39:45": [],
        "25/03/2020 17:22:18": [],
        "25/03/2020 19:57:12": [],
        "25/03/2020 21:25:27": []
    },
    "5165": {
        "25/03/2020 14:39:45": [],
        "25/03/2020 17:22:19": [],
        "25/03/2020 19:57:13": [],
        "25/03/2020 21:25:27": []
    },
    "7594": {
        "25/03/2020 14:39:46": [],
        "25/03/2020 17:22:19": [],
        "25/03/2020 19:57:13": [],
        "25/03/2020 21:25:27": []
    },
    "3711": {
        "25/03/2020 14:39:46": [],
        "25/03/2020 17:22:20": [],
        "25/03/2020 19:57:13": [],
        "25/03/2020 21:25:27": []
    },
    "3712": {
        "25/03/2020 14:39:47": [],
        "25/03/2020 17:22:21": [],
        "25/03/2020 19:57:13": [],
        "25/03/2020 21:25:28": []
    },
    "3713": {
        "25/03/2020 14:39:48": [],
        "25/03/2020 17:22:22": [],
        "25/03/2020 19:57:14": [],
        "25/03/2020 21:25:28": []
    },
    "3714": {
        "25/03/2020 14:39:48": [],
        "25/03/2020 17:22:23": [],
        "25/03/2020 19:57:14": [],
        "25/03/2020 21:25:28": []
    },
    "3718": {
        "25/03/2020 14:39:48": [],
        "25/03/2020 17:22:23": [],
        "25/03/2020 19:57:14": [],
        "25/03/2020 21:25:28": []
    },
    "3719": {
        "25/03/2020 14:39:49": [],
        "25/03/2020 17:22:24": [],
        "25/03/2020 19:57:15": [],
        "25/03/2020 21:25:29": []
    },
    "3720": {
        "25/03/2020 14:39:50": [],
        "25/03/2020 17:22:24": [],
        "25/03/2020 19:57:15": [],
        "25/03/2020 21:25:29": []
    },
    "3721": {
        "25/03/2020 14:39:50": [],
        "25/03/2020 17:22:25": [],
        "25/03/2020 19:57:15": [],
        "25/03/2020 21:25:29": []
    },
    "3722": {
        "25/03/2020 14:39:51": [],
        "25/03/2020 17:22:25": [],
        "25/03/2020 19:57:16": [],
        "25/03/2020 21:25:29": []
    },
    "3679": {
        "25/03/2020 14:39:51": [],
        "25/03/2020 17:22:26": [],
        "25/03/2020 19:57:16": [],
        "25/03/2020 21:25:30": []
    },
    "4330": {
        "25/03/2020 14:39:52": [],
        "25/03/2020 17:22:27": [],
        "25/03/2020 19:57:16": [],
        "25/03/2020 21:25:30": []
    },
    "7039": {
        "25/03/2020 14:39:52": [],
        "25/03/2020 17:22:27": [],
        "25/03/2020 19:57:17": [],
        "25/03/2020 21:25:30": []
    },
    "3723": {
        "25/03/2020 14:39:53": [],
        "25/03/2020 17:22:28": [],
        "25/03/2020 19:57:17": [],
        "25/03/2020 21:25:31": []
    },
    "3724": {
        "25/03/2020 14:39:54": [],
        "25/03/2020 17:22:28": [],
        "25/03/2020 19:57:17": [],
        "25/03/2020 21:25:31": []
    },
    "3725": {
        "25/03/2020 14:39:54": [],
        "25/03/2020 17:22:28": [],
        "25/03/2020 19:57:18": [],
        "25/03/2020 21:25:31": []
    },
    "3726": {
        "25/03/2020 14:39:55": [],
        "25/03/2020 17:22:29": [],
        "25/03/2020 19:57:18": [],
        "25/03/2020 21:25:31": []
    },
    "3728": {
        "25/03/2020 14:39:55": [],
        "25/03/2020 17:22:30": [],
        "25/03/2020 19:57:18": [],
        "25/03/2020 21:25:32": []
    },
    "3729": {
        "25/03/2020 14:39:56": [],
        "25/03/2020 17:22:30": [],
        "25/03/2020 19:57:19": [],
        "25/03/2020 21:25:32": []
    },
    "3730": {
        "25/03/2020 14:39:57": [],
        "25/03/2020 17:22:31": [],
        "25/03/2020 19:57:19": [],
        "25/03/2020 21:25:32": []
    },
    "3732": {
        "25/03/2020 14:39:57": [],
        "25/03/2020 17:22:32": [],
        "25/03/2020 19:57:19": [],
        "25/03/2020 21:25:33": []
    },
    "5069": {
        "25/03/2020 14:39:58": [],
        "25/03/2020 17:22:32": [],
        "25/03/2020 19:57:20": [],
        "25/03/2020 21:25:33": []
    },
    "7204": {
        "25/03/2020 14:39:58": [],
        "25/03/2020 17:22:33": [],
        "25/03/2020 19:57:20": [],
        "25/03/2020 21:25:33": []
    }
}