{
    "4545": {
        "23/03/2020 12:26:19": [
            -640,
            -271,
            -145
        ],
        "23/03/2020 14:50:26": [
            -110,
            17
        ],
        "23/03/2020 17:56:40": [
            -509,
            -317
        ]
    },
    "4552": {
        "23/03/2020 12:26:19": [
            -642,
            -273,
            -147
        ],
        "23/03/2020 14:50:27": [
            -157,
            -30
        ],
        "23/03/2020 17:56:40": [
            -501,
            -309
        ]
    },
    "4494": {
        "23/03/2020 12:26:20": [],
        "23/03/2020 14:50:27": [],
        "23/03/2020 17:56:41": []
    },
    "301": {
        "23/03/2020 12:26:21": [],
        "23/03/2020 14:50:27": [],
        "23/03/2020 17:56:42": []
    },
    "7514": {
        "23/03/2020 12:26:21": [
            0,
            0,
            0
        ],
        "23/03/2020 14:50:28": [
            0,
            0,
            0
        ],
        "23/03/2020 17:56:43": [
            0,
            0,
            0
        ]
    },
    "2279": {
        "23/03/2020 12:26:22": [
            -27,
            -27,
            -27
        ],
        "23/03/2020 14:50:28": [
            -26,
            -26,
            -26
        ],
        "23/03/2020 17:56:44": [
            -18,
            -18,
            -6
        ]
    },
    "6251": {
        "23/03/2020 12:26:22": [
            21,
            21,
            21
        ],
        "23/03/2020 14:50:28": [
            26,
            26,
            26
        ],
        "23/03/2020 17:56:44": [
            -3,
            -3,
            -10
        ]
    },
    "5140": {
        "23/03/2020 12:26:23": [
            23,
            23
        ],
        "23/03/2020 14:50:29": [
            -28,
            -28,
            -28
        ],
        "23/03/2020 17:56:45": [
            -8,
            -8,
            5
        ]
    },
    "1500": {
        "23/03/2020 12:26:23": [],
        "23/03/2020 14:50:29": [
            -20,
            -20,
            -20
        ],
        "23/03/2020 17:56:45": [
            -26,
            -26,
            20
        ]
    },
    "302": {
        "23/03/2020 12:26:24": [
            -147,
            -22,
            -22
        ],
        "23/03/2020 14:50:29": [
            33,
            -7,
            -7
        ],
        "23/03/2020 17:56:46": [
            -22,
            -22,
            -17
        ]
    },
    "4495": {
        "23/03/2020 12:26:24": [
            -260,
            -22,
            -22
        ],
        "23/03/2020 14:50:30": [
            33,
            -7,
            -7
        ],
        "23/03/2020 17:56:47": [
            11,
            11,
            8
        ]
    },
    "4522": {
        "23/03/2020 12:26:25": [
            -215,
            -11,
            -11
        ],
        "23/03/2020 14:50:30": [
            7,
            7,
            7
        ],
        "23/03/2020 17:56:47": [
            -28,
            -28
        ]
    },
    "1934": {
        "23/03/2020 12:26:26": [
            -216,
            -12,
            -12
        ],
        "23/03/2020 14:50:30": [
            9,
            9,
            9
        ],
        "23/03/2020 17:56:48": [
            -25,
            -25
        ]
    },
    "2310": {
        "23/03/2020 12:26:26": [
            -213,
            25,
            25
        ],
        "23/03/2020 14:50:30": [
            -11,
            -11,
            -11
        ],
        "23/03/2020 17:56:49": [
            -415,
            -25,
            -25
        ]
    },
    "2311": {
        "23/03/2020 12:26:27": [
            -131,
            -6,
            -6
        ],
        "23/03/2020 14:50:31": [
            18,
            18,
            18
        ],
        "23/03/2020 17:56:49": [
            -417,
            -27,
            -27
        ]
    },
    "2312": {
        "23/03/2020 12:26:28": [
            -99,
            26,
            26
        ],
        "23/03/2020 14:50:31": [
            -7,
            -7,
            -7
        ],
        "23/03/2020 17:56:50": [
            -411,
            9,
            9
        ]
    },
    "2313": {
        "23/03/2020 12:26:28": [
            -108,
            17,
            17
        ],
        "23/03/2020 14:50:31": [
            -14,
            -14,
            -14
        ],
        "23/03/2020 17:56:50": [
            -304,
            3,
            3
        ]
    },
    "2314": {
        "23/03/2020 12:26:29": [
            -137,
            -12,
            -12
        ],
        "23/03/2020 14:50:32": [
            20,
            20,
            20
        ],
        "23/03/2020 17:56:51": [
            -329,
            -22,
            -22
        ]
    },
    "2315": {
        "23/03/2020 12:26:29": [
            -134,
            -9,
            -9
        ],
        "23/03/2020 14:50:32": [
            28,
            28,
            28
        ],
        "23/03/2020 17:56:52": [
            -318,
            -11,
            -11
        ]
    },
    "2094": {
        "23/03/2020 12:26:30": [
            -114,
            11
        ],
        "23/03/2020 14:50:32": [
            7,
            7,
            7
        ],
        "23/03/2020 17:56:52": [
            -481,
            -29,
            -29
        ]
    },
    "1406": {
        "23/03/2020 12:26:30": [
            -141,
            -16
        ],
        "23/03/2020 14:50:33": [
            -17,
            -17
        ],
        "23/03/2020 17:56:53": [
            -299,
            8
        ]
    },
    "1407": {
        "23/03/2020 12:26:31": [
            -139,
            -14
        ],
        "23/03/2020 14:50:33": [
            11,
            11
        ],
        "23/03/2020 17:56:53": [
            -287,
            20
        ]
    },
    "1409": {
        "23/03/2020 12:26:32": [
            -143,
            -18
        ],
        "23/03/2020 14:50:33": [
            -123,
            -29,
            -29
        ],
        "23/03/2020 17:56:54": [
            -281,
            26
        ]
    },
    "2095": {
        "23/03/2020 12:26:32": [
            -254,
            -128,
            -3
        ],
        "23/03/2020 14:50:34": [
            -124,
            -9,
            -9
        ],
        "23/03/2020 17:56:55": [
            -468,
            -16
        ]
    },
    "2096": {
        "23/03/2020 12:26:33": [
            -252,
            -126,
            -1
        ],
        "23/03/2020 14:50:34": [
            -117,
            -2,
            -2
        ],
        "23/03/2020 17:56:55": [
            -463,
            -11
        ]
    },
    "2097": {
        "23/03/2020 12:26:34": [
            -267,
            -141,
            -16
        ],
        "23/03/2020 14:50:34": [
            -107,
            8,
            8
        ],
        "23/03/2020 17:56:56": [
            -478,
            -26
        ]
    },
    "2099": {
        "23/03/2020 12:26:34": [],
        "23/03/2020 14:50:35": [
            -102,
            25,
            25
        ],
        "23/03/2020 17:56:56": [
            -473,
            -426,
            26
        ]
    },
    "2101": {
        "23/03/2020 12:26:35": [
            -257,
            -131,
            -6
        ],
        "23/03/2020 14:50:35": [
            -130,
            -3,
            -3
        ],
        "23/03/2020 17:56:57": [
            -507,
            -460,
            -8
        ]
    },
    "2102": {
        "23/03/2020 12:26:36": [
            -264,
            -269,
            -13
        ],
        "23/03/2020 14:50:35": [
            -103,
            24,
            24
        ],
        "23/03/2020 17:56:58": [
            -507,
            -460,
            -8
        ]
    },
    "2726": {
        "23/03/2020 12:26:36": [
            -272,
            -146,
            -21
        ],
        "23/03/2020 14:50:36": [
            -103,
            24,
            24
        ],
        "23/03/2020 17:56:59": [
            -515,
            -468,
            -16
        ]
    },
    "2727": {
        "23/03/2020 12:26:37": [
            -242,
            -116,
            9
        ],
        "23/03/2020 14:50:36": [
            -129,
            -2,
            -2
        ],
        "23/03/2020 17:56:59": [
            -485,
            -438,
            14
        ]
    },
    "2105": {
        "23/03/2020 12:26:37": [
            -257,
            -262,
            -6
        ],
        "23/03/2020 14:50:36": [
            -107,
            20,
            20
        ],
        "23/03/2020 17:57:00": [
            -503,
            -456,
            -4
        ]
    },
    "6140": {
        "23/03/2020 12:26:38": [
            -265,
            -139,
            -14
        ],
        "23/03/2020 14:50:37": [
            -135,
            -8,
            -8
        ],
        "23/03/2020 17:57:00": [
            -516,
            -469,
            -17
        ]
    },
    "6144": {
        "23/03/2020 12:26:39": [
            -265,
            -139,
            -14
        ],
        "23/03/2020 14:50:37": [
            -148,
            -21,
            -21
        ],
        "23/03/2020 17:57:01": [
            -521,
            -329,
            -22
        ]
    },
    "6145": {
        "23/03/2020 12:26:39": [
            -245,
            -119,
            6
        ],
        "23/03/2020 14:50:37": [
            -111,
            16,
            16
        ],
        "23/03/2020 17:57:02": [
            -493,
            -301,
            6
        ]
    },
    "6146": {
        "23/03/2020 12:26:40": [
            -252,
            -126,
            -1
        ],
        "23/03/2020 14:50:38": [
            -119,
            8,
            8
        ],
        "23/03/2020 17:57:02": [
            -506,
            -459,
            -7
        ]
    },
    "6147": {
        "23/03/2020 12:26:40": [
            -261,
            -135,
            -10
        ],
        "23/03/2020 14:50:38": [
            -129,
            -2
        ],
        "23/03/2020 17:57:03": [
            -520,
            -328,
            -21
        ]
    },
    "6149": {
        "23/03/2020 12:26:41": [
            -235,
            -109,
            16
        ],
        "23/03/2020 14:50:38": [
            -145,
            -18
        ],
        "23/03/2020 17:57:04": [
            -489,
            -297,
            10
        ]
    },
    "6150": {
        "23/03/2020 12:26:41": [
            -258,
            -132
        ],
        "23/03/2020 14:50:38": [
            -147,
            -20
        ],
        "23/03/2020 17:57:04": [
            -507,
            -315
        ]
    },
    "6143": {
        "23/03/2020 12:26:42": [
            -277,
            -151
        ],
        "23/03/2020 14:50:39": [
            -146,
            -19
        ],
        "23/03/2020 17:57:05": [
            -521,
            -329
        ]
    },
    "6011": {
        "23/03/2020 12:26:42": [
            -236,
            -110
        ],
        "23/03/2020 14:50:39": [
            -157,
            -30
        ],
        "23/03/2020 17:57:05": [
            -478,
            -431
        ]
    },
    "2133": {
        "23/03/2020 12:26:43": [
            -226,
            -231
        ],
        "23/03/2020 14:50:39": [
            -137,
            -10
        ],
        "23/03/2020 17:57:06": [
            -520,
            -473
        ]
    },
    "6244": {
        "23/03/2020 12:26:44": [
            -228,
            -233
        ],
        "23/03/2020 14:50:40": [
            -131,
            -4
        ],
        "23/03/2020 17:57:07": [
            -516,
            -469
        ]
    },
    "2134": {
        "23/03/2020 12:26:44": [
            -248,
            -253
        ],
        "23/03/2020 14:50:40": [
            -140,
            -13
        ],
        "23/03/2020 17:57:07": [
            -526,
            -479
        ]
    },
    "2135": {
        "23/03/2020 12:26:45": [
            -227,
            -232
        ],
        "23/03/2020 14:50:40": [
            -113,
            14
        ],
        "23/03/2020 17:57:08": [
            -500,
            -453
        ]
    },
    "2164": {
        "23/03/2020 12:26:45": [
            -239,
            -244
        ],
        "23/03/2020 14:50:41": [
            -111,
            16
        ],
        "23/03/2020 17:57:09": [
            -498,
            -451
        ]
    },
    "2165": {
        "23/03/2020 12:26:46": [
            -259,
            -264
        ],
        "23/03/2020 14:50:41": [
            -120,
            7
        ],
        "23/03/2020 17:57:10": [
            -507,
            -460
        ]
    },
    "2166": {
        "23/03/2020 12:26:46": [
            -237,
            -242
        ],
        "23/03/2020 14:50:41": [
            -153,
            -26
        ],
        "23/03/2020 17:57:10": [
            -482,
            -435
        ]
    },
    "4554": {
        "23/03/2020 12:26:47": [
            -625,
            -256,
            -130
        ],
        "23/03/2020 14:50:41": [
            -136,
            -9
        ],
        "23/03/2020 17:57:11": [
            -481,
            -289
        ]
    },
    "7016": {
        "23/03/2020 12:26:47": [
            -609,
            -240,
            -245
        ],
        "23/03/2020 14:50:42": [
            -497,
            -100,
            27
        ],
        "23/03/2020 17:57:12": [
            -512,
            -465
        ]
    },
    "4619": {
        "23/03/2020 12:26:48": [],
        "23/03/2020 14:50:42": [],
        "23/03/2020 17:57:12": []
    },
    "2507": {
        "23/03/2020 12:26:49": [],
        "23/03/2020 14:50:42": [],
        "23/03/2020 17:57:13": []
    },
    "2277": {
        "23/03/2020 12:26:49": [],
        "23/03/2020 14:50:43": [],
        "23/03/2020 17:57:13": []
    },
    "315": {
        "23/03/2020 12:26:50": [],
        "23/03/2020 14:50:43": [],
        "23/03/2020 17:57:14": []
    },
    "407": {
        "23/03/2020 12:26:50": [
            -663,
            -27
        ],
        "23/03/2020 14:50:43": [
            -166,
            -27,
            -27
        ],
        "23/03/2020 17:57:15": [
            -29,
            -18,
            -18
        ]
    },
    "2498": {
        "23/03/2020 12:26:51": [
            -613,
            23
        ],
        "23/03/2020 14:50:44": [
            -116,
            23,
            23
        ],
        "23/03/2020 17:57:15": [
            -46,
            -56,
            -15,
            -15
        ]
    },
    "2499": {
        "23/03/2020 12:26:52": [
            -648,
            -12
        ],
        "23/03/2020 14:50:44": [
            -151,
            -12,
            -12
        ],
        "23/03/2020 17:57:16": [
            -21,
            -31,
            11,
            11
        ]
    },
    "2500": {
        "23/03/2020 12:26:52": [
            -607,
            29
        ],
        "23/03/2020 14:50:44": [
            -110,
            29,
            29
        ],
        "23/03/2020 17:57:16": [
            -58,
            -49,
            -147,
            -7
        ]
    },
    "2501": {
        "23/03/2020 12:26:53": [
            -616,
            20
        ],
        "23/03/2020 14:50:45": [
            -119,
            20
        ],
        "23/03/2020 17:57:17": [
            -66,
            -57,
            -154,
            -14
        ]
    },
    "7623": {
        "23/03/2020 12:26:53": [
            -611,
            25
        ],
        "23/03/2020 14:50:45": [
            -70,
            -114,
            25
        ],
        "23/03/2020 17:57:18": [
            -60,
            -51,
            -7,
            -7
        ]
    },
    "2508": {
        "23/03/2020 12:26:54": [
            -628,
            8
        ],
        "23/03/2020 14:50:45": [
            -61,
            -131,
            8
        ],
        "23/03/2020 17:57:18": [
            -76,
            -67,
            -161,
            -21
        ]
    },
    "2278": {
        "23/03/2020 12:26:54": [],
        "23/03/2020 14:50:46": [],
        "23/03/2020 17:57:19": []
    },
    "4606": {
        "23/03/2020 12:26:55": [
            0,
            0,
            0
        ],
        "23/03/2020 14:50:46": [
            0,
            0,
            0
        ],
        "23/03/2020 17:57:20": [
            0,
            0,
            0
        ]
    },
    "7142": {
        "23/03/2020 12:26:56": [
            12,
            12,
            12
        ],
        "23/03/2020 14:50:46": [
            12,
            -3,
            -3
        ],
        "23/03/2020 17:57:20": [
            28,
            28,
            19
        ]
    },
    "7015": {
        "23/03/2020 12:26:56": [
            -23,
            -23,
            -23
        ],
        "23/03/2020 14:50:47": [
            -23,
            28,
            28
        ],
        "23/03/2020 17:57:21": [
            0,
            0,
            -17
        ]
    },
    "4617": {
        "23/03/2020 12:26:57": [
            -4,
            -4,
            -4
        ],
        "23/03/2020 14:50:47": [
            -4,
            -7,
            -7
        ],
        "23/03/2020 17:57:21": [
            25,
            25,
            1
        ]
    },
    "4555": {
        "23/03/2020 12:26:58": [
            13,
            13,
            13
        ],
        "23/03/2020 14:50:47": [
            13,
            14,
            14
        ],
        "23/03/2020 17:57:22": [
            -12,
            -12,
            22
        ]
    },
    "3418": {
        "23/03/2020 12:26:58": [
            13,
            13
        ],
        "23/03/2020 14:50:47": [
            13,
            -16,
            -16
        ],
        "23/03/2020 17:57:22": [
            -27,
            -27,
            -10
        ]
    },
    "3419": {
        "23/03/2020 12:26:59": [
            -18,
            -18
        ],
        "23/03/2020 14:50:48": [
            -18,
            22,
            22
        ],
        "23/03/2020 17:57:23": [
            5,
            5,
            21
        ]
    },
    "4762": {
        "23/03/2020 12:26:59": [
            25,
            25,
            25
        ],
        "23/03/2020 14:50:48": [
            25,
            20,
            20
        ],
        "23/03/2020 17:57:23": [
            -7,
            -7,
            7
        ]
    },
    "4763": {
        "23/03/2020 12:27:00": [
            -9,
            -9,
            -9
        ],
        "23/03/2020 14:50:48": [
            -9,
            -6,
            -6
        ],
        "23/03/2020 17:57:24": [
            21,
            21,
            -25
        ]
    },
    "6245": {
        "23/03/2020 12:27:01": [
            5,
            5,
            5
        ],
        "23/03/2020 14:50:49": [
            5,
            7
        ],
        "23/03/2020 17:57:25": [
            -29,
            -29,
            -13
        ]
    },
    "2156": {
        "23/03/2020 12:27:01": [
            14,
            14,
            14
        ],
        "23/03/2020 14:50:49": [
            81,
            14,
            14
        ],
        "23/03/2020 17:57:25": [
            -24,
            -24,
            -6
        ]
    },
    "6014": {
        "23/03/2020 12:27:02": [
            4,
            4,
            4
        ],
        "23/03/2020 14:50:49": [
            71,
            4,
            3
        ],
        "23/03/2020 17:57:26": [
            24,
            24,
            -17
        ]
    },
    "6242": {
        "23/03/2020 12:27:02": [
            -12,
            -12,
            -12
        ],
        "23/03/2020 14:50:50": [
            55,
            -12,
            -11
        ],
        "23/03/2020 17:57:26": [
            3,
            3,
            26
        ]
    },
    "6152": {
        "23/03/2020 12:27:03": [
            -22,
            -22,
            -22
        ],
        "23/03/2020 14:50:50": [
            45,
            -22,
            -17
        ],
        "23/03/2020 17:57:27": [
            -21,
            -21,
            14
        ]
    },
    "6153": {
        "23/03/2020 12:27:04": [
            0,
            0,
            0
        ],
        "23/03/2020 14:50:50": [
            85,
            0,
            -27
        ],
        "23/03/2020 17:57:27": [
            17,
            17,
            28
        ]
    },
    "6243": {
        "23/03/2020 12:27:04": [
            19,
            19,
            19
        ],
        "23/03/2020 14:50:51": [
            104,
            19,
            17
        ],
        "23/03/2020 17:57:28": [
            -10,
            -10
        ]
    },
    "6154": {
        "23/03/2020 12:27:05": [
            12,
            12,
            12
        ],
        "23/03/2020 14:50:51": [
            97,
            12,
            11
        ],
        "23/03/2020 17:57:29": [
            -1,
            -1
        ]
    },
    "6155": {
        "23/03/2020 12:27:05": [
            15,
            15,
            15
        ],
        "23/03/2020 14:50:51": [
            100,
            15,
            4
        ],
        "23/03/2020 17:57:29": [
            -82,
            -4,
            -4
        ]
    },
    "6141": {
        "23/03/2020 12:27:06": [
            -9,
            -9,
            -9
        ],
        "23/03/2020 14:50:52": [
            -9,
            -9,
            14
        ],
        "23/03/2020 17:57:30": [
            -63,
            15,
            15
        ]
    },
    "6142": {
        "23/03/2020 12:27:07": [
            -7,
            -7,
            -7
        ],
        "23/03/2020 14:50:52": [
            -7,
            -7,
            15
        ],
        "23/03/2020 17:57:30": [
            -59,
            19,
            19
        ]
    },
    "2181": {
        "23/03/2020 12:27:07": [
            -28,
            -28,
            -28
        ],
        "23/03/2020 14:50:52": [
            -28,
            -28,
            -6
        ],
        "23/03/2020 17:57:31": [
            -78,
            0,
            0
        ]
    },
    "2182": {
        "23/03/2020 12:27:08": [
            15,
            15,
            15
        ],
        "23/03/2020 14:50:53": [
            15,
            15,
            -16
        ],
        "23/03/2020 17:57:32": [
            -91,
            -13,
            -13
        ]
    },
    "2778": {
        "23/03/2020 12:27:09": [
            -11,
            -11,
            -11
        ],
        "23/03/2020 14:50:53": [
            -11,
            -11,
            25
        ],
        "23/03/2020 17:57:32": [
            -53,
            25,
            25
        ]
    },
    "2185": {
        "23/03/2020 12:27:10": [
            -23,
            -23,
            -23
        ],
        "23/03/2020 14:50:53": [
            -23,
            -23,
            21
        ],
        "23/03/2020 17:57:33": [
            -88,
            17,
            17
        ]
    },
    "7043": {
        "23/03/2020 12:27:11": [
            -25,
            -25,
            -25
        ],
        "23/03/2020 14:50:54": [
            -25,
            -25,
            24
        ],
        "23/03/2020 17:57:34": [
            -83,
            22,
            22
        ]
    },
    "1424": {
        "23/03/2020 12:27:12": [
            5,
            5,
            5
        ],
        "23/03/2020 14:50:54": [
            5,
            5,
            -4
        ],
        "23/03/2020 17:57:34": [
            -111,
            -6,
            -6
        ]
    },
    "2186": {
        "23/03/2020 12:27:12": [
            0,
            0
        ],
        "23/03/2020 14:50:54": [
            0,
            0,
            -5
        ],
        "23/03/2020 17:57:35": [
            -11,
            -11,
            -11
        ]
    },
    "2187": {
        "23/03/2020 12:27:13": [
            7,
            7
        ],
        "23/03/2020 14:50:55": [
            7,
            7
        ],
        "23/03/2020 17:57:36": [
            -5,
            -5,
            -5
        ]
    },
    "2188": {
        "23/03/2020 12:27:13": [
            7,
            7
        ],
        "23/03/2020 14:50:55": [
            7,
            7
        ],
        "23/03/2020 17:57:36": [
            -1,
            -1,
            -1
        ]
    },
    "2189": {
        "23/03/2020 12:27:14": [
            -12,
            -12
        ],
        "23/03/2020 14:50:55": [
            -12,
            -12
        ],
        "23/03/2020 17:57:37": [
            -18,
            -18,
            -18
        ]
    },
    "1436": {
        "23/03/2020 12:27:15": [
            -18,
            -18
        ],
        "23/03/2020 14:50:56": [
            -18,
            -18
        ],
        "23/03/2020 17:57:37": [
            -161,
            -21,
            -21
        ]
    },
    "3952": {
        "23/03/2020 12:27:15": [
            17,
            17
        ],
        "23/03/2020 14:50:56": [
            17,
            17
        ],
        "23/03/2020 17:57:38": [
            11,
            11,
            11
        ]
    },
    "2190": {
        "23/03/2020 12:27:16": [
            5,
            5
        ],
        "23/03/2020 14:50:56": [
            5,
            5
        ],
        "23/03/2020 17:57:38": [
            -58,
            -7,
            -7,
            -7
        ]
    },
    "4434": {
        "23/03/2020 12:27:16": [
            -15,
            -15
        ],
        "23/03/2020 14:50:57": [
            -122,
            -15,
            -15
        ],
        "23/03/2020 17:57:39": [
            -73,
            -29,
            -29,
            -29
        ]
    },
    "2379": {
        "23/03/2020 12:27:17": [
            11,
            11
        ],
        "23/03/2020 14:50:57": [
            -75,
            11,
            11
        ],
        "23/03/2020 17:57:40": [
            -48,
            -15,
            -15
        ]
    },
    "2380": {
        "23/03/2020 12:27:18": [
            0,
            0
        ],
        "23/03/2020 14:50:57": [
            -86,
            0,
            0
        ],
        "23/03/2020 17:57:40": [
            -63,
            -28,
            -28
        ]
    },
    "2382": {
        "23/03/2020 12:27:18": [
            -25,
            -25
        ],
        "23/03/2020 14:50:58": [
            -111,
            -25,
            -25
        ],
        "23/03/2020 17:57:41": [
            -17,
            13,
            13
        ]
    },
    "5099": {
        "23/03/2020 12:27:19": [
            26,
            26
        ],
        "23/03/2020 14:50:58": [
            -60,
            26,
            26
        ],
        "23/03/2020 17:57:42": [
            -72,
            -128,
            12
        ]
    },
    "2383": {
        "23/03/2020 12:27:19": [
            -620,
            -16,
            -16
        ],
        "23/03/2020 14:50:58": [
            -155,
            -16,
            -16
        ],
        "23/03/2020 17:57:42": [
            -33,
            -18,
            -18
        ]
    },
    "1479": {
        "23/03/2020 12:27:20": [
            -661,
            -30,
            -30
        ],
        "23/03/2020 14:50:58": [
            -169,
            -30,
            -30
        ],
        "23/03/2020 17:57:43": [
            -72,
            -163,
            -23
        ]
    },
    "7622": {
        "23/03/2020 12:27:20": [
            -614,
            22,
            22
        ],
        "23/03/2020 14:50:59": [
            -117,
            22,
            22
        ],
        "23/03/2020 17:57:44": [
            -59
        ]
    },
    "297": {
        "23/03/2020 12:27:21": [
            -655,
            -19
        ],
        "23/03/2020 14:50:59": [
            -158,
            -19,
            -19
        ],
        "23/03/2020 17:57:45": [
            -23,
            -12,
            -12
        ]
    }
}