{
    "overall_punctuality": -48457,
    "overall_num": 2187,
    "overall_avg": -22,
    "daily_punctuality": {
        "Sunday": {
            "num_results": 219,
            "total": -1035,
            "avg:": 0,
            "avg": -4
        },
        "Monday": {
            "num_results": 246,
            "total": -6956,
            "avg:": 0,
            "avg": -28
        },
        "Tuesday": {
            "num_results": 346,
            "total": -40576,
            "avg:": 0,
            "avg": -117
        },
        "Wednesday": {
            "num_results": 382,
            "total": 6066,
            "avg:": 0,
            "avg": 16
        },
        "Thursday": {
            "num_results": 292,
            "total": 13660,
            "avg:": 0,
            "avg": 47
        },
        "Friday": {
            "num_results": 191,
            "total": 4397,
            "avg:": 0,
            "avg": 24
        },
        "Saturday": {
            "num_results": 511,
            "total": -24013,
            "avg:": 0,
            "avg": -46
        }
    }
}