{
    "1478": {
        "22/03/2020 15:40:23": [
            61
        ],
        "22/03/2020 18:03:50": [
            6
        ],
        "22/03/2020 20:21:16": [
            -18
        ]
    },
    "1479": {
        "22/03/2020 15:40:23": [
            59
        ],
        "22/03/2020 18:03:50": [
            -3
        ],
        "22/03/2020 20:21:16": [
            -27
        ]
    },
    "2237": {
        "22/03/2020 15:40:24": [],
        "22/03/2020 18:03:51": [],
        "22/03/2020 20:21:16": []
    },
    "2238": {
        "22/03/2020 15:40:24": [
            15
        ],
        "22/03/2020 18:03:51": [
            -19
        ],
        "22/03/2020 20:21:17": [
            101
        ]
    },
    "2239": {
        "22/03/2020 15:40:24": [
            4
        ],
        "22/03/2020 18:03:52": [
            29
        ],
        "22/03/2020 20:21:17": [
            92
        ]
    },
    "2241": {
        "22/03/2020 15:40:25": [
            -7
        ],
        "22/03/2020 18:03:52": [
            -27
        ],
        "22/03/2020 20:21:18": [
            60
        ]
    },
    "2242": {
        "22/03/2020 15:40:25": [
            24
        ],
        "22/03/2020 18:03:52": [
            12
        ],
        "22/03/2020 20:21:18": [
            90
        ]
    },
    "2243": {
        "22/03/2020 15:40:26": [
            -16
        ],
        "22/03/2020 18:03:53": [
            -10
        ],
        "22/03/2020 20:21:19": [
            -15
        ]
    },
    "2244": {
        "22/03/2020 15:40:26": [
            18
        ],
        "22/03/2020 18:03:53": [
            -28
        ],
        "22/03/2020 20:21:19": [
            18
        ]
    },
    "1472": {
        "22/03/2020 15:40:27": [
            2
        ],
        "22/03/2020 18:03:54": [
            3
        ],
        "22/03/2020 20:21:20": [
            6
        ]
    },
    "1473": {
        "22/03/2020 15:40:27": [
            -16
        ],
        "22/03/2020 18:03:54": [
            -14
        ],
        "22/03/2020 20:21:20": [
            -12
        ]
    },
    "1474": {
        "22/03/2020 15:40:28": [
            33
        ],
        "22/03/2020 18:03:55": [
            17
        ],
        "22/03/2020 20:21:21": [
            8
        ]
    },
    "1476": {
        "22/03/2020 15:40:28": [
            56
        ],
        "22/03/2020 18:03:55": [
            23
        ],
        "22/03/2020 20:21:21": [
            2
        ]
    },
    "2232": {
        "22/03/2020 15:40:29": [
            -3
        ],
        "22/03/2020 18:03:55": [
            18
        ],
        "22/03/2020 20:21:21": [
            84
        ]
    },
    "2233": {
        "22/03/2020 15:40:29": [
            -26
        ],
        "22/03/2020 18:03:56": [
            -4
        ],
        "22/03/2020 20:21:22": [
            62
        ]
    },
    "2234": {
        "22/03/2020 15:40:30": [
            -26
        ],
        "22/03/2020 18:03:56": [
            -3
        ],
        "22/03/2020 20:21:22": [
            61
        ]
    },
    "2235": {
        "22/03/2020 15:40:30": [
            -5
        ],
        "22/03/2020 18:03:57": [
            19
        ],
        "22/03/2020 20:21:23": [
            83
        ]
    },
    "2236": {
        "22/03/2020 15:40:31": [
            -9
        ],
        "22/03/2020 18:03:57": [
            17
        ],
        "22/03/2020 20:21:23": [
            79
        ]
    },
    "347": {
        "22/03/2020 15:40:31": [],
        "22/03/2020 18:03:58": [],
        "22/03/2020 20:21:24": []
    },
    "4404": {
        "22/03/2020 15:40:31": [
            -9
        ],
        "22/03/2020 18:03:58": [
            -21
        ],
        "22/03/2020 20:21:24": []
    },
    "4405": {
        "22/03/2020 15:40:32": [
            -29
        ],
        "22/03/2020 18:03:58": [
            13
        ],
        "22/03/2020 20:21:25": []
    },
    "315": {
        "22/03/2020 15:40:32": [
            3
        ],
        "22/03/2020 18:03:59": [
            -3
        ],
        "22/03/2020 20:21:25": [
            8
        ]
    },
    "3372": {
        "22/03/2020 15:40:33": [
            -4
        ],
        "22/03/2020 18:03:59": [
            4
        ],
        "22/03/2020 20:21:26": [
            94
        ]
    },
    "3373": {
        "22/03/2020 15:40:33": [
            -24
        ],
        "22/03/2020 18:04:00": [
            -17
        ],
        "22/03/2020 20:21:26": [
            74
        ]
    },
    "3374": {
        "22/03/2020 15:40:34": [
            10
        ],
        "22/03/2020 18:04:00": [
            23
        ],
        "22/03/2020 20:21:26": [
            27
        ]
    },
    "3998": {
        "22/03/2020 15:40:34": [
            -30
        ],
        "22/03/2020 18:04:01": [
            11
        ],
        "22/03/2020 20:21:27": []
    },
    "3999": {
        "22/03/2020 15:40:35": [
            24
        ],
        "22/03/2020 18:04:01": [
            -1
        ],
        "22/03/2020 20:21:27": []
    },
    "4000": {
        "22/03/2020 15:40:35": [
            -7
        ],
        "22/03/2020 18:04:01": [
            28
        ],
        "22/03/2020 20:21:28": []
    },
    "4001": {
        "22/03/2020 15:40:36": [
            24
        ],
        "22/03/2020 18:04:02": [
            0
        ],
        "22/03/2020 20:21:28": []
    },
    "406": {
        "22/03/2020 15:40:36": [
            17
        ],
        "22/03/2020 18:04:02": [
            11
        ],
        "22/03/2020 20:21:29": [
            13
        ]
    },
    "5056": {
        "22/03/2020 15:40:36": [
            -27
        ],
        "22/03/2020 18:04:03": [
            8
        ],
        "22/03/2020 20:21:29": [
            57
        ]
    },
    "7387": {
        "22/03/2020 15:40:37": [],
        "22/03/2020 18:04:03": [],
        "22/03/2020 20:21:29": []
    },
    "3949": {
        "22/03/2020 15:40:37": [
            -5
        ],
        "22/03/2020 18:04:04": [
            24
        ],
        "22/03/2020 20:21:30": []
    },
    "3950": {
        "22/03/2020 15:40:38": [
            29
        ],
        "22/03/2020 18:04:04": [
            -3
        ],
        "22/03/2020 20:21:30": []
    },
    "3991": {
        "22/03/2020 15:40:38": [
            -2
        ],
        "22/03/2020 18:04:05": [
            27
        ],
        "22/03/2020 20:21:31": []
    },
    "2245": {
        "22/03/2020 15:40:39": [
            -14
        ],
        "22/03/2020 18:04:05": [
            6
        ],
        "22/03/2020 20:21:31": [
            -15
        ]
    },
    "2246": {
        "22/03/2020 15:40:39": [
            -10
        ],
        "22/03/2020 18:04:06": [
            20
        ],
        "22/03/2020 20:21:32": [
            -17
        ]
    },
    "2247": {
        "22/03/2020 15:40:40": [
            -6
        ],
        "22/03/2020 18:04:06": [
            17
        ],
        "22/03/2020 20:21:32": [
            28
        ]
    },
    "2248": {
        "22/03/2020 15:40:40": [
            -29
        ],
        "22/03/2020 18:04:07": [
            -8
        ],
        "22/03/2020 20:21:32": [
            0
        ]
    },
    "2249": {
        "22/03/2020 15:40:41": [
            -1
        ],
        "22/03/2020 18:04:07": [
            19
        ],
        "22/03/2020 20:21:33": [
            24
        ]
    },
    "2250": {
        "22/03/2020 15:40:41": [
            -24
        ],
        "22/03/2020 18:04:07": [
            -16
        ],
        "22/03/2020 20:21:33": [
            -13
        ]
    },
    "2251": {
        "22/03/2020 15:40:42": [
            16
        ],
        "22/03/2020 18:04:08": [
            21
        ],
        "22/03/2020 20:21:34": [
            24
        ]
    },
    "2810": {
        "22/03/2020 15:40:42": [
            3
        ],
        "22/03/2020 18:04:08": [
            -3
        ],
        "22/03/2020 20:21:34": [
            -6
        ]
    },
    "4408": {
        "22/03/2020 15:40:43": [
            28
        ],
        "22/03/2020 18:04:09": [
            -30
        ],
        "22/03/2020 20:21:35": [
            -28
        ]
    },
    "7453": {
        "22/03/2020 15:40:43": [
            36
        ],
        "22/03/2020 18:04:09": [
            -9
        ],
        "22/03/2020 20:21:35": [
            29
        ]
    },
    "1444": {
        "22/03/2020 15:40:44": [
            -21
        ],
        "22/03/2020 18:04:10": [
            -4
        ],
        "22/03/2020 20:21:36": []
    },
    "1445": {
        "22/03/2020 15:40:44": [
            23
        ],
        "22/03/2020 18:04:10": [
            -11
        ],
        "22/03/2020 20:21:36": []
    },
    "1449": {
        "22/03/2020 15:40:45": [
            -24
        ],
        "22/03/2020 18:04:11": [
            -1
        ],
        "22/03/2020 20:21:36": []
    },
    "1450": {
        "22/03/2020 15:40:45": [
            19
        ],
        "22/03/2020 18:04:11": [
            -27
        ],
        "22/03/2020 20:21:37": []
    },
    "1451": {
        "22/03/2020 15:40:46": [
            -3
        ],
        "22/03/2020 18:04:12": [
            3
        ],
        "22/03/2020 20:21:37": []
    },
    "2200": {
        "22/03/2020 15:40:46": [
            -10
        ],
        "22/03/2020 18:04:12": [
            -13
        ],
        "22/03/2020 20:21:38": []
    },
    "2201": {
        "22/03/2020 15:40:47": [
            -14
        ],
        "22/03/2020 18:04:13": [
            19
        ],
        "22/03/2020 20:21:38": []
    },
    "2213": {
        "22/03/2020 15:40:47": [],
        "22/03/2020 18:04:13": [
            26
        ],
        "22/03/2020 20:21:39": []
    },
    "2214": {
        "22/03/2020 15:40:48": [],
        "22/03/2020 18:04:14": [
            12
        ],
        "22/03/2020 20:21:39": []
    },
    "2215": {
        "22/03/2020 15:40:48": [
            -81
        ],
        "22/03/2020 18:04:14": [
            11
        ],
        "22/03/2020 20:21:39": []
    },
    "2191": {
        "22/03/2020 15:40:48": [
            -13
        ],
        "22/03/2020 18:04:14": [
            -10
        ],
        "22/03/2020 20:21:40": []
    },
    "2192": {
        "22/03/2020 15:40:49": [
            13
        ],
        "22/03/2020 18:04:15": [
            23
        ],
        "22/03/2020 20:21:40": []
    },
    "2193": {
        "22/03/2020 15:40:49": [
            -15
        ],
        "22/03/2020 18:04:15": [
            -4
        ],
        "22/03/2020 20:21:41": []
    },
    "2194": {
        "22/03/2020 15:40:50": [
            9
        ],
        "22/03/2020 18:04:16": [
            14
        ],
        "22/03/2020 20:21:41": []
    },
    "2195": {
        "22/03/2020 15:40:50": [
            -6
        ],
        "22/03/2020 18:04:16": [
            -13
        ],
        "22/03/2020 20:21:42": []
    },
    "2196": {
        "22/03/2020 15:40:51": [
            -12
        ],
        "22/03/2020 18:04:17": [
            28
        ],
        "22/03/2020 20:21:42": []
    },
    "2197": {
        "22/03/2020 15:40:51": [
            -3
        ],
        "22/03/2020 18:04:17": [
            21
        ],
        "22/03/2020 20:21:42": []
    },
    "2198": {
        "22/03/2020 15:40:52": [
            11
        ],
        "22/03/2020 18:04:18": [
            17
        ],
        "22/03/2020 20:21:43": []
    },
    "317": {
        "22/03/2020 15:40:52": [
            -24
        ],
        "22/03/2020 18:04:18": [
            -26
        ],
        "22/03/2020 20:21:43": []
    },
    "3367": {
        "22/03/2020 15:40:53": [
            -59
        ],
        "22/03/2020 18:04:19": [
            6
        ],
        "22/03/2020 20:21:44": []
    },
    "400": {
        "22/03/2020 15:40:53": [
            23
        ],
        "22/03/2020 18:04:19": [
            -4
        ],
        "22/03/2020 20:21:44": []
    },
    "4002": {
        "22/03/2020 15:40:54": [
            -101
        ],
        "22/03/2020 18:04:20": [
            -9
        ],
        "22/03/2020 20:21:45": []
    },
    "4003": {
        "22/03/2020 15:40:54": [
            0
        ],
        "22/03/2020 18:04:20": [
            0
        ],
        "22/03/2020 20:21:45": []
    },
    "4401": {
        "22/03/2020 15:40:55": [
            3
        ],
        "22/03/2020 18:04:21": [
            26
        ],
        "22/03/2020 20:21:46": []
    },
    "493": {
        "22/03/2020 15:40:55": [
            -27
        ],
        "22/03/2020 18:04:21": [
            25
        ],
        "22/03/2020 20:21:46": []
    },
    "494": {
        "22/03/2020 15:40:55": [
            -15
        ],
        "22/03/2020 18:04:22": [
            -29
        ],
        "22/03/2020 20:21:46": []
    },
    "495": {
        "22/03/2020 15:40:56": [
            12
        ],
        "22/03/2020 18:04:22": [
            -9
        ],
        "22/03/2020 20:21:47": []
    },
    "7186": {
        "22/03/2020 15:40:56": [
            -75
        ],
        "22/03/2020 18:04:23": [
            26
        ],
        "22/03/2020 20:21:47": []
    },
    "7187": {
        "22/03/2020 15:40:57": [
            -65
        ],
        "22/03/2020 18:04:23": [
            -10
        ],
        "22/03/2020 20:21:48": []
    },
    "7234": {
        "22/03/2020 15:40:57": [
            -142
        ],
        "22/03/2020 18:04:24": [
            14
        ],
        "22/03/2020 20:21:48": []
    },
    "312": {
        "22/03/2020 15:40:58": [
            -30
        ],
        "22/03/2020 18:04:24": [
            -28
        ],
        "22/03/2020 20:21:49": []
    },
    "3365": {
        "22/03/2020 15:40:58": [
            -36
        ],
        "22/03/2020 18:04:25": [
            -27
        ],
        "22/03/2020 20:21:49": []
    },
    "3366": {
        "22/03/2020 15:40:59": [
            -66
        ],
        "22/03/2020 18:04:25": [
            0
        ],
        "22/03/2020 20:21:49": []
    },
    "3954": {
        "22/03/2020 15:40:59": [
            -100
        ],
        "22/03/2020 18:04:26": [
            26
        ],
        "22/03/2020 20:21:50": []
    },
    "3955": {
        "22/03/2020 15:41:00": [
            -140
        ],
        "22/03/2020 18:04:26": [
            -14
        ],
        "22/03/2020 20:21:50": []
    },
    "3956": {
        "22/03/2020 15:41:00": [
            -119
        ],
        "22/03/2020 18:04:27": [
            4
        ],
        "22/03/2020 20:21:51": []
    },
    "3957": {
        "22/03/2020 15:41:01": [
            -125
        ],
        "22/03/2020 18:04:27": [
            -10
        ],
        "22/03/2020 20:21:51": []
    },
    "3958": {
        "22/03/2020 15:41:01": [
            -139
        ],
        "22/03/2020 18:04:28": [
            -30
        ],
        "22/03/2020 20:21:51": []
    },
    "3959": {
        "22/03/2020 15:41:02": [
            -142
        ],
        "22/03/2020 18:04:28": [
            19
        ],
        "22/03/2020 20:21:52": []
    },
    "5112": {
        "22/03/2020 15:41:02": [
            -115
        ],
        "22/03/2020 18:04:28": [
            -27
        ],
        "22/03/2020 20:21:52": []
    },
    "7078": {
        "22/03/2020 15:41:02": [
            -19
        ],
        "22/03/2020 18:04:29": [
            8
        ],
        "22/03/2020 20:21:53": []
    },
    "3886": {
        "22/03/2020 15:41:03": [
            -51
        ],
        "22/03/2020 18:04:29": [
            6
        ],
        "22/03/2020 20:21:53": []
    },
    "3887": {
        "22/03/2020 15:41:03": [
            -63
        ],
        "22/03/2020 18:04:30": [
            -12
        ],
        "22/03/2020 20:21:54": []
    },
    "3888": {
        "22/03/2020 15:41:04": [
            -82
        ],
        "22/03/2020 18:04:30": [
            24
        ],
        "22/03/2020 20:21:54": []
    },
    "7239": {
        "22/03/2020 15:41:04": [
            -29
        ],
        "22/03/2020 18:04:31": [
            -2
        ],
        "22/03/2020 20:21:54": []
    },
    "2216": {
        "22/03/2020 15:41:05": [
            -94
        ],
        "22/03/2020 18:04:31": [
            -11
        ],
        "22/03/2020 20:21:55": []
    },
    "2217": {
        "22/03/2020 15:41:05": [
            -128
        ],
        "22/03/2020 18:04:32": [
            -12
        ],
        "22/03/2020 20:21:55": []
    },
    "2218": {
        "22/03/2020 15:41:06": [
            -38
        ],
        "22/03/2020 18:04:32": [
            -24
        ],
        "22/03/2020 20:21:56": []
    },
    "2219": {
        "22/03/2020 15:41:06": [
            -60
        ],
        "22/03/2020 18:04:32": [
            11
        ],
        "22/03/2020 20:21:56": []
    },
    "346": {
        "22/03/2020 15:41:07": [
            14
        ],
        "22/03/2020 18:04:33": [
            -17
        ],
        "22/03/2020 20:21:57": []
    },
    "4599": {
        "22/03/2020 15:41:07": [
            -125
        ],
        "22/03/2020 18:04:33": [
            1
        ],
        "22/03/2020 20:21:57": []
    },
    "7391": {
        "22/03/2020 15:41:07": [
            0
        ],
        "22/03/2020 18:04:34": [
            0
        ],
        "22/03/2020 20:21:57": []
    }
}