{
    "1478": {
        "25/03/2020 15:23:39": [
            -10
        ],
        "25/03/2020 18:09:05": [
            -1
        ],
        "25/03/2020 20:24:15": [
            20
        ],
        "25/03/2020 21:50:52": [
            28
        ]
    },
    "1479": {
        "25/03/2020 15:23:39": [
            -30
        ],
        "25/03/2020 18:09:05": [
            -26
        ],
        "25/03/2020 20:24:17": [
            -4
        ],
        "25/03/2020 21:50:52": [
            4
        ]
    },
    "2237": {
        "25/03/2020 15:23:40": [],
        "25/03/2020 18:09:05": [],
        "25/03/2020 20:24:19": [],
        "25/03/2020 21:50:53": []
    },
    "2238": {
        "25/03/2020 15:23:40": [
            -12
        ],
        "25/03/2020 18:09:06": [
            26
        ],
        "25/03/2020 20:24:20": [
            19
        ],
        "25/03/2020 21:50:53": [
            19
        ]
    },
    "2239": {
        "25/03/2020 15:23:40": [
            -26
        ],
        "25/03/2020 18:09:06": [
            -14
        ],
        "25/03/2020 20:24:22": [],
        "25/03/2020 21:50:53": [
            -23
        ]
    },
    "2241": {
        "25/03/2020 15:23:41": [
            23
        ],
        "25/03/2020 18:09:06": [
            15
        ],
        "25/03/2020 20:24:24": [
            -6
        ],
        "25/03/2020 21:50:53": [
            8
        ]
    },
    "2242": {
        "25/03/2020 15:23:41": [
            -6
        ],
        "25/03/2020 18:09:06": [
            -19
        ],
        "25/03/2020 20:24:26": [
            21
        ],
        "25/03/2020 21:50:54": [
            -25
        ]
    },
    "2243": {
        "25/03/2020 15:23:41": [
            12
        ],
        "25/03/2020 18:09:07": [
            -13
        ],
        "25/03/2020 20:24:27": [
            28
        ],
        "25/03/2020 21:50:54": [
            -18
        ]
    },
    "2244": {
        "25/03/2020 15:23:42": [
            -14
        ],
        "25/03/2020 18:09:07": [
            15
        ],
        "25/03/2020 20:24:30": [
            -3
        ],
        "25/03/2020 21:50:54": [
            11
        ]
    },
    "1472": {
        "25/03/2020 15:23:42": [
            20
        ],
        "25/03/2020 18:09:07": [
            14
        ],
        "25/03/2020 20:24:32": [
            6
        ],
        "25/03/2020 21:50:54": [
            -30
        ]
    },
    "1473": {
        "25/03/2020 15:23:42": [
            8
        ],
        "25/03/2020 18:09:07": [
            -13
        ],
        "25/03/2020 20:24:34": [
            -15
        ],
        "25/03/2020 21:50:55": [
            10
        ]
    },
    "1474": {
        "25/03/2020 15:23:42": [
            -10
        ],
        "25/03/2020 18:09:08": [
            28
        ],
        "25/03/2020 20:24:36": [
            -26
        ],
        "25/03/2020 21:50:55": [
            -9
        ]
    },
    "1476": {
        "25/03/2020 15:23:43": [
            -18
        ],
        "25/03/2020 18:09:08": [
            10
        ],
        "25/03/2020 20:24:38": [
            27
        ],
        "25/03/2020 21:50:55": [
            -26
        ]
    },
    "2232": {
        "25/03/2020 15:23:43": [
            -17
        ],
        "25/03/2020 18:09:08": [
            -28
        ],
        "25/03/2020 20:24:40": [
            11
        ],
        "25/03/2020 21:50:56": [
            11
        ]
    },
    "2233": {
        "25/03/2020 15:23:43": [
            24
        ],
        "25/03/2020 18:09:09": [
            11
        ],
        "25/03/2020 20:24:43": [
            -8
        ],
        "25/03/2020 21:50:56": [
            -8
        ]
    },
    "2234": {
        "25/03/2020 15:23:44": [
            17
        ],
        "25/03/2020 18:09:09": [
            2
        ],
        "25/03/2020 20:24:45": [
            -15
        ],
        "25/03/2020 21:50:56": [
            -15
        ]
    },
    "2235": {
        "25/03/2020 15:23:44": [
            -23
        ],
        "25/03/2020 18:09:09": [
            20
        ],
        "25/03/2020 20:24:47": [
            4
        ],
        "25/03/2020 21:50:56": [
            4
        ]
    },
    "2236": {
        "25/03/2020 15:23:44": [
            28
        ],
        "25/03/2020 18:09:10": [
            6
        ],
        "25/03/2020 20:24:48": [
            -5
        ],
        "25/03/2020 21:50:57": [
            -5
        ]
    },
    "347": {
        "25/03/2020 15:23:45": [],
        "25/03/2020 18:09:10": [],
        "25/03/2020 20:24:49": [],
        "25/03/2020 21:50:57": []
    },
    "4404": {
        "25/03/2020 15:23:45": [
            23
        ],
        "25/03/2020 18:09:10": [
            26
        ],
        "25/03/2020 20:24:51": [
            -11
        ],
        "25/03/2020 21:50:57": [
            -11
        ]
    },
    "4405": {
        "25/03/2020 15:23:46": [
            3
        ],
        "25/03/2020 18:09:11": [
            1
        ],
        "25/03/2020 20:24:53": [
            21
        ],
        "25/03/2020 21:50:57": [
            21
        ]
    },
    "315": {
        "25/03/2020 15:23:46": [
            -26
        ],
        "25/03/2020 18:09:11": [
            3
        ],
        "25/03/2020 20:24:54": [
            19
        ],
        "25/03/2020 21:50:58": [
            16
        ]
    },
    "3372": {
        "25/03/2020 15:23:46": [
            -7
        ],
        "25/03/2020 18:09:11": [
            -27
        ],
        "25/03/2020 20:24:56": [
            -29
        ],
        "25/03/2020 21:50:58": [
            -29
        ]
    },
    "3373": {
        "25/03/2020 15:23:46": [
            29
        ],
        "25/03/2020 18:09:11": [
            8
        ],
        "25/03/2020 20:24:57": [
            7
        ],
        "25/03/2020 21:50:58": [
            7
        ]
    },
    "3374": {
        "25/03/2020 15:23:47": [
            -2
        ],
        "25/03/2020 18:09:12": [
            -20
        ],
        "25/03/2020 20:24:59": [
            -27
        ],
        "25/03/2020 21:50:58": [
            -27
        ]
    },
    "3998": {
        "25/03/2020 15:23:47": [
            -11
        ],
        "25/03/2020 18:09:12": [
            -24
        ],
        "25/03/2020 20:25:01": [
            -28
        ],
        "25/03/2020 21:50:59": [
            -28
        ]
    },
    "3999": {
        "25/03/2020 15:23:47": [
            -26
        ],
        "25/03/2020 18:09:12": [
            17
        ],
        "25/03/2020 20:25:03": [
            13
        ],
        "25/03/2020 21:50:59": [
            13
        ]
    },
    "4000": {
        "25/03/2020 15:23:48": [
            0
        ],
        "25/03/2020 18:09:13": [
            -17
        ],
        "25/03/2020 20:25:04": [
            -22
        ],
        "25/03/2020 21:50:59": [
            -22
        ]
    },
    "4001": {
        "25/03/2020 15:23:48": [
            28
        ],
        "25/03/2020 18:09:13": [
            12
        ],
        "25/03/2020 20:25:05": [
            5
        ],
        "25/03/2020 21:50:59": [
            5
        ]
    },
    "406": {
        "25/03/2020 15:23:49": [
            -9
        ],
        "25/03/2020 18:09:13": [
            20
        ],
        "25/03/2020 20:25:06": [
            -24
        ],
        "25/03/2020 21:51:00": [
            20
        ]
    },
    "5056": {
        "25/03/2020 15:23:49": [
            5
        ],
        "25/03/2020 18:09:14": [
            -21
        ],
        "25/03/2020 20:25:08": [
            -29
        ],
        "25/03/2020 21:51:00": [
            -29
        ]
    },
    "7387": {
        "25/03/2020 15:23:50": [],
        "25/03/2020 18:09:14": [],
        "25/03/2020 20:25:09": [],
        "25/03/2020 21:51:00": []
    },
    "3949": {
        "25/03/2020 15:23:50": [
            -23
        ],
        "25/03/2020 18:09:14": [
            17
        ],
        "25/03/2020 20:25:11": [
            9
        ],
        "25/03/2020 21:51:00": [
            9
        ]
    },
    "3950": {
        "25/03/2020 15:23:50": [
            5
        ],
        "25/03/2020 18:09:15": [
            -17
        ],
        "25/03/2020 20:25:12": [
            -26
        ],
        "25/03/2020 21:51:01": [
            -26
        ]
    },
    "3991": {
        "25/03/2020 15:23:51": [
            -30
        ],
        "25/03/2020 18:09:15": [
            17
        ],
        "25/03/2020 20:25:13": [
            -29
        ],
        "25/03/2020 21:51:01": [
            -29
        ]
    },
    "2245": {
        "25/03/2020 15:23:51": [
            13
        ],
        "25/03/2020 18:09:15": [
            -22
        ],
        "25/03/2020 20:25:15": [
            21
        ],
        "25/03/2020 21:51:01": [
            -25
        ]
    },
    "2246": {
        "25/03/2020 15:23:52": [
            27
        ],
        "25/03/2020 18:09:15": [
            29
        ],
        "25/03/2020 20:25:17": [
            9
        ],
        "25/03/2020 21:51:02": [
            20
        ]
    },
    "2247": {
        "25/03/2020 15:23:52": [
            25
        ],
        "25/03/2020 18:09:16": [
            28
        ],
        "25/03/2020 20:25:19": [
            -2
        ],
        "25/03/2020 21:51:02": [
            2
        ]
    },
    "2248": {
        "25/03/2020 15:23:53": [
            -1
        ],
        "25/03/2020 18:09:16": [
            1
        ],
        "25/03/2020 20:25:20": [
            29
        ],
        "25/03/2020 21:51:02": [
            -25
        ]
    },
    "2249": {
        "25/03/2020 15:23:53": [
            25
        ],
        "25/03/2020 18:09:16": [
            26
        ],
        "25/03/2020 20:25:22": [
            -8
        ],
        "25/03/2020 21:51:02": [
            1
        ]
    },
    "2250": {
        "25/03/2020 15:23:53": [
            -14
        ],
        "25/03/2020 18:09:17": [
            -11
        ],
        "25/03/2020 20:25:23": [
            14
        ],
        "25/03/2020 21:51:03": [
            26
        ]
    },
    "2251": {
        "25/03/2020 15:23:54": [
            -30
        ],
        "25/03/2020 18:09:17": [
            28
        ],
        "25/03/2020 20:25:25": [
            -22
        ],
        "25/03/2020 21:51:03": [
            -5
        ]
    },
    "2810": {
        "25/03/2020 15:23:54": [
            -23
        ],
        "25/03/2020 18:09:17": [
            6
        ],
        "25/03/2020 20:25:27": [
            22
        ],
        "25/03/2020 21:51:03": [
            -1
        ]
    },
    "4408": {
        "25/03/2020 15:23:54": [
            -10
        ],
        "25/03/2020 18:09:17": [
            -26
        ],
        "25/03/2020 20:25:29": [
            -30
        ],
        "25/03/2020 21:51:03": [
            -5
        ]
    },
    "7453": {
        "25/03/2020 15:23:55": [
            -9
        ],
        "25/03/2020 18:09:18": [
            9
        ],
        "25/03/2020 20:25:30": [
            28
        ],
        "25/03/2020 21:51:04": [
            -24
        ]
    },
    "1444": {
        "25/03/2020 15:23:55": [
            -24
        ],
        "25/03/2020 18:09:18": [
            60
        ],
        "25/03/2020 20:25:32": [
            19
        ],
        "25/03/2020 21:51:04": [
            19
        ]
    },
    "1445": {
        "25/03/2020 15:23:55": [
            21
        ],
        "25/03/2020 18:09:18": [
            50
        ],
        "25/03/2020 20:25:35": [
            -8
        ],
        "25/03/2020 21:51:04": [
            -8
        ]
    },
    "1449": {
        "25/03/2020 15:23:56": [
            24
        ],
        "25/03/2020 18:09:19": [
            79
        ],
        "25/03/2020 20:25:37": [
            28
        ],
        "25/03/2020 21:51:05": [
            28
        ]
    },
    "1450": {
        "25/03/2020 15:23:56": [
            -14
        ],
        "25/03/2020 18:09:19": [
            49
        ],
        "25/03/2020 20:25:38": [
            -9
        ],
        "25/03/2020 21:51:05": [
            -9
        ]
    },
    "1451": {
        "25/03/2020 15:23:56": [
            6
        ],
        "25/03/2020 18:09:19": [
            77
        ],
        "25/03/2020 20:25:39": [
            12
        ],
        "25/03/2020 21:51:05": [
            12
        ]
    },
    "2200": {
        "25/03/2020 15:23:57": [
            133,
            -4
        ],
        "25/03/2020 18:09:20": [
            -7
        ],
        "25/03/2020 20:25:42": [
            -1
        ],
        "25/03/2020 21:51:05": [
            -1
        ]
    },
    "2201": {
        "25/03/2020 15:23:57": [
            144
        ],
        "25/03/2020 18:09:20": [
            20
        ],
        "25/03/2020 20:25:44": [
            -8
        ],
        "25/03/2020 21:51:06": [
            -8
        ]
    },
    "2213": {
        "25/03/2020 15:23:57": [
            146
        ],
        "25/03/2020 18:09:20": [
            20
        ],
        "25/03/2020 20:25:45": [
            71,
            17
        ],
        "25/03/2020 21:51:06": [
            17
        ]
    },
    "2214": {
        "25/03/2020 15:23:58": [
            136
        ],
        "25/03/2020 18:09:21": [
            2
        ],
        "25/03/2020 20:25:48": [
            51,
            -10
        ],
        "25/03/2020 21:51:06": [
            -10
        ]
    },
    "2215": {
        "25/03/2020 15:23:58": [
            134
        ],
        "25/03/2020 18:09:21": [
            0
        ],
        "25/03/2020 20:25:50": [
            33,
            -29
        ],
        "25/03/2020 21:51:07": [
            -29
        ]
    },
    "2191": {
        "25/03/2020 15:23:59": [
            23
        ],
        "25/03/2020 18:09:21": [
            -27
        ],
        "25/03/2020 20:25:51": [
            -16
        ],
        "25/03/2020 21:51:07": [
            -16
        ]
    },
    "2192": {
        "25/03/2020 15:23:59": [
            -10
        ],
        "25/03/2020 18:09:22": [
            2
        ],
        "25/03/2020 20:25:52": [
            10
        ],
        "25/03/2020 21:51:07": [
            10
        ]
    },
    "2193": {
        "25/03/2020 15:23:59": [
            22
        ],
        "25/03/2020 18:09:22": [
            -25
        ],
        "25/03/2020 20:25:53": [
            -18
        ],
        "25/03/2020 21:51:07": [
            -18
        ]
    },
    "2194": {
        "25/03/2020 15:23:59": [
            -18
        ],
        "25/03/2020 18:09:22": [
            -6
        ],
        "25/03/2020 20:25:54": [
            2
        ],
        "25/03/2020 21:51:08": [
            2
        ]
    },
    "2195": {
        "25/03/2020 15:24:00": [
            19
        ],
        "25/03/2020 18:09:22": [
            -29
        ],
        "25/03/2020 20:25:55": [
            -20
        ],
        "25/03/2020 21:51:08": [
            -20
        ]
    },
    "2196": {
        "25/03/2020 15:24:00": [
            -5
        ],
        "25/03/2020 18:09:23": [
            17
        ],
        "25/03/2020 20:25:56": [
            12
        ],
        "25/03/2020 21:51:08": [
            12
        ]
    },
    "2197": {
        "25/03/2020 15:24:00": [
            -19
        ],
        "25/03/2020 18:09:23": [
            16
        ],
        "25/03/2020 20:25:57": [
            -8
        ],
        "25/03/2020 21:51:09": [
            -8
        ]
    },
    "2198": {
        "25/03/2020 15:24:01": [
            -30
        ],
        "25/03/2020 18:09:23": [
            19
        ],
        "25/03/2020 20:25:59": [
            -24
        ],
        "25/03/2020 21:51:09": [
            -24
        ]
    },
    "317": {
        "25/03/2020 15:24:01": [
            20
        ],
        "25/03/2020 18:09:23": [
            92,
            -28
        ],
        "25/03/2020 20:26:00": [
            23
        ],
        "25/03/2020 21:51:09": [
            23
        ]
    },
    "3367": {
        "25/03/2020 15:24:02": [
            102
        ],
        "25/03/2020 18:09:24": [
            5
        ],
        "25/03/2020 20:26:01": [
            100
        ],
        "25/03/2020 21:51:09": [
            -23
        ]
    },
    "400": {
        "25/03/2020 15:24:02": [
            5
        ],
        "25/03/2020 18:09:24": [
            27
        ],
        "25/03/2020 20:26:03": [
            -11
        ],
        "25/03/2020 21:51:10": [
            -11
        ]
    },
    "4002": {
        "25/03/2020 15:24:02": [
            100
        ],
        "25/03/2020 18:09:24": [
            7
        ],
        "25/03/2020 20:26:05": [
            91
        ],
        "25/03/2020 21:51:10": []
    },
    "4003": {
        "25/03/2020 15:24:03": [
            0
        ],
        "25/03/2020 18:09:25": [
            0
        ],
        "25/03/2020 20:26:06": [
            0
        ],
        "25/03/2020 21:51:10": [
            0
        ]
    },
    "4401": {
        "25/03/2020 15:24:03": [
            141
        ],
        "25/03/2020 18:09:25": [
            25
        ],
        "25/03/2020 20:26:09": [
            -19
        ],
        "25/03/2020 21:51:11": [
            -19
        ]
    },
    "493": {
        "25/03/2020 15:24:03": [
            28
        ],
        "25/03/2020 18:09:25": [
            -26
        ],
        "25/03/2020 20:26:10": [
            6
        ],
        "25/03/2020 21:51:11": [
            6
        ]
    },
    "494": {
        "25/03/2020 15:24:04": [
            -24
        ],
        "25/03/2020 18:09:26": [
            -13
        ],
        "25/03/2020 20:26:11": [
            -3
        ],
        "25/03/2020 21:51:11": [
            -3
        ]
    },
    "495": {
        "25/03/2020 15:24:04": [
            -1
        ],
        "25/03/2020 18:09:26": [
            15
        ],
        "25/03/2020 20:26:11": [
            -1
        ],
        "25/03/2020 21:51:11": [
            -1
        ]
    },
    "7186": {
        "25/03/2020 15:24:05": [
            145
        ],
        "25/03/2020 18:09:26": [
            -14
        ],
        "25/03/2020 20:26:11": [
            82
        ],
        "25/03/2020 21:51:12": [
            -19
        ]
    },
    "7187": {
        "25/03/2020 15:24:05": [
            92
        ],
        "25/03/2020 18:09:26": [
            8
        ],
        "25/03/2020 20:26:12": [
            92
        ],
        "25/03/2020 21:51:12": [
            -10
        ]
    },
    "7234": {
        "25/03/2020 15:24:05": [
            129
        ],
        "25/03/2020 18:09:27": [
            -26
        ],
        "25/03/2020 20:26:12": [
            119
        ],
        "25/03/2020 21:51:13": [
            2
        ]
    },
    "312": {
        "25/03/2020 15:24:06": [
            24
        ],
        "25/03/2020 18:09:27": [
            114
        ],
        "25/03/2020 20:26:12": [
            26
        ],
        "25/03/2020 21:51:13": [
            26
        ]
    },
    "3365": {
        "25/03/2020 15:24:06": [
            128
        ],
        "25/03/2020 18:09:27": [
            -23
        ],
        "25/03/2020 20:26:13": [
            91
        ],
        "25/03/2020 21:51:13": [
            -28
        ]
    },
    "3366": {
        "25/03/2020 15:24:06": [
            147
        ],
        "25/03/2020 18:09:27": [
            5
        ],
        "25/03/2020 20:26:13": [
            112
        ],
        "25/03/2020 21:51:14": [
            -11
        ]
    },
    "3954": {
        "25/03/2020 15:24:07": [
            109
        ],
        "25/03/2020 18:09:28": [
            -26
        ],
        "25/03/2020 20:26:13": [
            110
        ],
        "25/03/2020 21:51:14": [
            11
        ]
    },
    "3955": {
        "25/03/2020 15:24:07": [
            124
        ],
        "25/03/2020 18:09:28": [
            -1
        ],
        "25/03/2020 20:26:13": [
            67
        ],
        "25/03/2020 21:51:14": [
            28
        ]
    },
    "3956": {
        "25/03/2020 15:24:07": [
            140
        ],
        "25/03/2020 18:09:28": [
            18
        ],
        "25/03/2020 20:26:14": [
            82
        ],
        "25/03/2020 21:51:15": [
            -19
        ]
    },
    "3957": {
        "25/03/2020 15:24:08": [
            123
        ],
        "25/03/2020 18:09:28": [
            8
        ],
        "25/03/2020 20:26:14": [
            119
        ],
        "25/03/2020 21:51:15": [
            16
        ]
    },
    "3958": {
        "25/03/2020 15:24:08": [
            99
        ],
        "25/03/2020 18:09:29": [
            -9
        ],
        "25/03/2020 20:26:14": [
            91
        ],
        "25/03/2020 21:51:15": [
            -15
        ]
    },
    "3959": {
        "25/03/2020 15:24:08": [
            144
        ],
        "25/03/2020 18:09:29": [
            -16
        ],
        "25/03/2020 20:26:15": [
            71
        ],
        "25/03/2020 21:51:15": [
            22
        ]
    },
    "5112": {
        "25/03/2020 15:24:08": [
            135
        ],
        "25/03/2020 18:09:29": [
            -15
        ],
        "25/03/2020 20:26:15": [
            68
        ],
        "25/03/2020 21:51:16": [
            0
        ]
    },
    "7078": {
        "25/03/2020 15:24:09": [
            -28
        ],
        "25/03/2020 18:09:30": [
            92
        ],
        "25/03/2020 20:26:15": [
            -1
        ],
        "25/03/2020 21:51:16": [
            -1
        ]
    },
    "3886": {
        "25/03/2020 15:24:09": [
            100
        ],
        "25/03/2020 18:09:30": [
            -19
        ],
        "25/03/2020 20:26:16": [
            76
        ],
        "25/03/2020 21:51:16": [
            5
        ]
    },
    "3887": {
        "25/03/2020 15:24:10": [
            126
        ],
        "25/03/2020 18:09:30": [
            12
        ],
        "25/03/2020 20:26:16": [
            112
        ],
        "25/03/2020 21:51:16": [
            29
        ]
    },
    "3888": {
        "25/03/2020 15:24:10": [
            149
        ],
        "25/03/2020 18:09:31": [
            -21
        ],
        "25/03/2020 20:26:16": [
            82
        ],
        "25/03/2020 21:51:17": [
            -11
        ]
    },
    "7239": {
        "25/03/2020 15:24:10": [
            117
        ],
        "25/03/2020 18:09:31": [
            -2
        ],
        "25/03/2020 20:26:17": [
            20
        ],
        "25/03/2020 21:51:17": [
            20
        ]
    },
    "2216": {
        "25/03/2020 15:24:11": [
            107
        ],
        "25/03/2020 18:09:31": [
            -11
        ],
        "25/03/2020 20:26:17": [
            57,
            -2
        ],
        "25/03/2020 21:51:17": [
            -2
        ]
    },
    "2217": {
        "25/03/2020 15:24:11": [
            112
        ],
        "25/03/2020 18:09:31": [
            5
        ],
        "25/03/2020 20:26:17": [
            33,
            29
        ],
        "25/03/2020 21:51:18": [
            29
        ]
    },
    "2218": {
        "25/03/2020 15:24:11": [
            148
        ],
        "25/03/2020 18:09:32": [
            -22
        ],
        "25/03/2020 20:26:18": [
            108
        ],
        "25/03/2020 21:51:18": [
            -1
        ]
    },
    "2219": {
        "25/03/2020 15:24:12": [
            112
        ],
        "25/03/2020 18:09:32": [
            14
        ],
        "25/03/2020 20:26:18": [
            74
        ],
        "25/03/2020 21:51:18": [
            19
        ]
    },
    "346": {
        "25/03/2020 15:24:12": [
            -6
        ],
        "25/03/2020 18:09:32": [
            19
        ],
        "25/03/2020 20:26:18": [
            26
        ],
        "25/03/2020 21:51:18": [
            26
        ]
    },
    "4599": {
        "25/03/2020 15:24:12": [
            123
        ],
        "25/03/2020 18:09:33": [
            11
        ],
        "25/03/2020 20:26:19": [
            55,
            -7
        ],
        "25/03/2020 21:51:19": [
            -7
        ]
    },
    "7391": {
        "25/03/2020 15:24:12": [
            0
        ],
        "25/03/2020 18:09:33": [
            0
        ],
        "25/03/2020 20:26:19": [
            0
        ],
        "25/03/2020 21:51:19": [
            0
        ]
    }
}