{
    "208": {
        "25/03/2020 14:03:17": [],
        "25/03/2020 16:47:02": [],
        "25/03/2020 19:39:42": [],
        "25/03/2020 21:08:28": []
    },
    "209": {
        "25/03/2020 14:03:18": [],
        "25/03/2020 16:47:03": [],
        "25/03/2020 19:39:42": [],
        "25/03/2020 21:08:28": []
    },
    "210": {
        "25/03/2020 14:03:19": [],
        "25/03/2020 16:47:04": [],
        "25/03/2020 19:39:43": [],
        "25/03/2020 21:08:29": []
    },
    "211": {
        "25/03/2020 14:03:19": [],
        "25/03/2020 16:47:05": [],
        "25/03/2020 19:39:43": [],
        "25/03/2020 21:08:29": []
    },
    "212": {
        "25/03/2020 14:03:20": [],
        "25/03/2020 16:47:05": [],
        "25/03/2020 19:39:43": [],
        "25/03/2020 21:08:29": []
    },
    "215": {
        "25/03/2020 14:03:21": [],
        "25/03/2020 16:47:06": [],
        "25/03/2020 19:39:43": [],
        "25/03/2020 21:08:30": []
    },
    "216": {
        "25/03/2020 14:03:22": [],
        "25/03/2020 16:47:07": [],
        "25/03/2020 19:39:44": [],
        "25/03/2020 21:08:30": []
    },
    "217": {
        "25/03/2020 14:03:22": [],
        "25/03/2020 16:47:07": [],
        "25/03/2020 19:39:44": [],
        "25/03/2020 21:08:30": []
    },
    "218": {
        "25/03/2020 14:03:23": [],
        "25/03/2020 16:47:08": [],
        "25/03/2020 19:39:44": [],
        "25/03/2020 21:08:30": []
    },
    "219": {
        "25/03/2020 14:03:24": [],
        "25/03/2020 16:47:09": [],
        "25/03/2020 19:39:44": [],
        "25/03/2020 21:08:31": []
    },
    "1641": {
        "25/03/2020 14:03:25": [],
        "25/03/2020 16:47:09": [],
        "25/03/2020 19:39:45": [],
        "25/03/2020 21:08:31": []
    },
    "1642": {
        "25/03/2020 14:03:25": [],
        "25/03/2020 16:47:10": [],
        "25/03/2020 19:39:45": [],
        "25/03/2020 21:08:31": []
    },
    "119": {
        "25/03/2020 14:03:26": [],
        "25/03/2020 16:47:11": [],
        "25/03/2020 19:39:45": [],
        "25/03/2020 21:08:32": []
    },
    "233": {
        "25/03/2020 14:03:27": [],
        "25/03/2020 16:47:12": [],
        "25/03/2020 19:39:46": [],
        "25/03/2020 21:08:32": []
    },
    "234": {
        "25/03/2020 14:03:27": [],
        "25/03/2020 16:47:13": [],
        "25/03/2020 19:39:46": [],
        "25/03/2020 21:08:32": []
    },
    "237": {
        "25/03/2020 14:03:28": [],
        "25/03/2020 16:47:14": [],
        "25/03/2020 19:39:46": [],
        "25/03/2020 21:08:33": []
    },
    "44": {
        "25/03/2020 14:03:29": [],
        "25/03/2020 16:47:14": [],
        "25/03/2020 19:39:46": [],
        "25/03/2020 21:08:33": []
    },
    "4432": {
        "25/03/2020 14:03:29": [],
        "25/03/2020 16:47:15": [],
        "25/03/2020 19:39:47": [],
        "25/03/2020 21:08:33": []
    },
    "46": {
        "25/03/2020 14:03:30": [],
        "25/03/2020 16:47:16": [],
        "25/03/2020 19:39:47": [],
        "25/03/2020 21:08:33": []
    },
    "49": {
        "25/03/2020 14:03:31": [],
        "25/03/2020 16:47:17": [],
        "25/03/2020 19:39:47": [],
        "25/03/2020 21:08:34": []
    },
    "51": {
        "25/03/2020 14:03:31": [],
        "25/03/2020 16:47:17": [],
        "25/03/2020 19:39:48": [],
        "25/03/2020 21:08:34": []
    },
    "7347": {
        "25/03/2020 14:03:32": [],
        "25/03/2020 16:47:18": [],
        "25/03/2020 19:39:48": [],
        "25/03/2020 21:08:34": []
    },
    "7349": {
        "25/03/2020 14:03:33": [],
        "25/03/2020 16:47:19": [],
        "25/03/2020 19:39:48": [],
        "25/03/2020 21:08:34": []
    },
    "213": {
        "25/03/2020 14:03:33": [],
        "25/03/2020 16:47:21": [],
        "25/03/2020 19:39:49": [],
        "25/03/2020 21:08:35": []
    },
    "231": {
        "25/03/2020 14:03:34": [],
        "25/03/2020 16:47:22": [],
        "25/03/2020 19:39:49": [],
        "25/03/2020 21:08:35": []
    },
    "270": {
        "25/03/2020 14:03:34": [],
        "25/03/2020 16:47:22": [],
        "25/03/2020 19:39:49": [],
        "25/03/2020 21:08:35": []
    },
    "3669": {
        "25/03/2020 14:03:35": [],
        "25/03/2020 16:47:23": [],
        "25/03/2020 19:39:49": [],
        "25/03/2020 21:08:36": []
    },
    "45": {
        "25/03/2020 14:03:35": [],
        "25/03/2020 16:47:24": [],
        "25/03/2020 19:39:50": [],
        "25/03/2020 21:08:36": []
    },
    "47": {
        "25/03/2020 14:03:36": [],
        "25/03/2020 16:47:25": [],
        "25/03/2020 19:39:50": [],
        "25/03/2020 21:08:36": []
    },
    "52": {
        "25/03/2020 14:03:37": [],
        "25/03/2020 16:47:26": [],
        "25/03/2020 19:39:50": [],
        "25/03/2020 21:08:36": []
    },
    "1631": {
        "25/03/2020 14:03:37": [],
        "25/03/2020 16:47:26": [],
        "25/03/2020 19:39:51": [],
        "25/03/2020 21:08:37": []
    },
    "1632": {
        "25/03/2020 14:03:38": [],
        "25/03/2020 16:47:27": [],
        "25/03/2020 19:39:51": [],
        "25/03/2020 21:08:37": []
    },
    "1633": {
        "25/03/2020 14:03:39": [],
        "25/03/2020 16:47:27": [],
        "25/03/2020 19:39:51": [],
        "25/03/2020 21:08:37": []
    },
    "1634": {
        "25/03/2020 14:03:39": [],
        "25/03/2020 16:47:28": [],
        "25/03/2020 19:39:51": [],
        "25/03/2020 21:08:38": []
    },
    "1635": {
        "25/03/2020 14:03:40": [],
        "25/03/2020 16:47:29": [],
        "25/03/2020 19:39:52": [],
        "25/03/2020 21:08:38": []
    },
    "1636": {
        "25/03/2020 14:03:40": [],
        "25/03/2020 16:47:30": [],
        "25/03/2020 19:39:52": [],
        "25/03/2020 21:08:38": []
    },
    "1637": {
        "25/03/2020 14:03:41": [],
        "25/03/2020 16:47:30": [],
        "25/03/2020 19:39:52": [],
        "25/03/2020 21:08:38": []
    },
    "1638": {
        "25/03/2020 14:03:42": [],
        "25/03/2020 16:47:31": [],
        "25/03/2020 19:39:52": [],
        "25/03/2020 21:08:39": []
    },
    "1639": {
        "25/03/2020 14:03:42": [],
        "25/03/2020 16:47:32": [],
        "25/03/2020 19:39:53": [],
        "25/03/2020 21:08:39": []
    },
    "1640": {
        "25/03/2020 14:03:43": [],
        "25/03/2020 16:47:32": [],
        "25/03/2020 19:39:53": [],
        "25/03/2020 21:08:39": []
    },
    "235": {
        "25/03/2020 14:03:44": [],
        "25/03/2020 16:47:33": [],
        "25/03/2020 19:39:53": [],
        "25/03/2020 21:08:40": []
    },
    "236": {
        "25/03/2020 14:03:45": [],
        "25/03/2020 16:47:34": [],
        "25/03/2020 19:39:54": [],
        "25/03/2020 21:08:40": []
    },
    "262": {
        "25/03/2020 14:03:45": [],
        "25/03/2020 16:47:35": [],
        "25/03/2020 19:39:54": [],
        "25/03/2020 21:08:40": []
    },
    "48": {
        "25/03/2020 14:03:46": [],
        "25/03/2020 16:47:35": [],
        "25/03/2020 19:39:54": [],
        "25/03/2020 21:08:41": []
    },
    "214": {
        "25/03/2020 14:03:47": [],
        "25/03/2020 16:47:36": [],
        "25/03/2020 19:39:54": [],
        "25/03/2020 21:08:41": []
    },
    "232": {
        "25/03/2020 14:03:48": [],
        "25/03/2020 16:47:38": [],
        "25/03/2020 19:39:55": [],
        "25/03/2020 21:08:41": []
    },
    "5053": {
        "25/03/2020 14:03:48": [],
        "25/03/2020 16:47:38": [],
        "25/03/2020 19:39:55": [],
        "25/03/2020 21:08:41": []
    },
    "7603": {
        "25/03/2020 14:03:49": [],
        "25/03/2020 16:47:39": [],
        "25/03/2020 19:39:55": [],
        "25/03/2020 21:08:42": []
    },
    "1343": {
        "25/03/2020 14:03:50": [],
        "25/03/2020 16:47:40": [],
        "25/03/2020 19:39:56": [],
        "25/03/2020 21:08:42": []
    },
    "1344": {
        "25/03/2020 14:03:50": [],
        "25/03/2020 16:47:40": [],
        "25/03/2020 19:39:56": [],
        "25/03/2020 21:08:42": []
    },
    "1345": {
        "25/03/2020 14:03:51": [],
        "25/03/2020 16:47:41": [],
        "25/03/2020 19:39:56": [],
        "25/03/2020 21:08:43": []
    },
    "1347": {
        "25/03/2020 14:03:51": [],
        "25/03/2020 16:47:42": [],
        "25/03/2020 19:39:56": [],
        "25/03/2020 21:08:43": []
    },
    "7589": {
        "25/03/2020 14:03:52": [],
        "25/03/2020 16:47:43": [],
        "25/03/2020 19:39:57": [],
        "25/03/2020 21:08:43": []
    },
    "1336": {
        "25/03/2020 14:03:53": [],
        "25/03/2020 16:47:44": [],
        "25/03/2020 19:39:57": [],
        "25/03/2020 21:08:44": []
    },
    "1337": {
        "25/03/2020 14:03:53": [],
        "25/03/2020 16:47:44": [],
        "25/03/2020 19:39:57": [],
        "25/03/2020 21:08:44": []
    },
    "1338": {
        "25/03/2020 14:03:54": [],
        "25/03/2020 16:47:45": [],
        "25/03/2020 19:39:58": [],
        "25/03/2020 21:08:44": []
    },
    "1339": {
        "25/03/2020 14:03:54": [],
        "25/03/2020 16:47:46": [],
        "25/03/2020 19:39:58": [],
        "25/03/2020 21:08:44": []
    },
    "1340": {
        "25/03/2020 14:03:55": [],
        "25/03/2020 16:47:47": [],
        "25/03/2020 19:39:58": [],
        "25/03/2020 21:08:45": []
    },
    "1341": {
        "25/03/2020 14:03:55": [],
        "25/03/2020 16:47:48": [],
        "25/03/2020 19:39:58": [],
        "25/03/2020 21:08:45": []
    },
    "1342": {
        "25/03/2020 14:03:56": [],
        "25/03/2020 16:47:48": [],
        "25/03/2020 19:39:59": [],
        "25/03/2020 21:08:45": []
    },
    "1355": {
        "25/03/2020 14:03:56": [],
        "25/03/2020 16:47:49": [],
        "25/03/2020 19:39:59": [],
        "25/03/2020 21:08:46": []
    },
    "1357": {
        "25/03/2020 14:03:57": [],
        "25/03/2020 16:47:50": [],
        "25/03/2020 19:39:59": [],
        "25/03/2020 21:08:46": []
    },
    "1359": {
        "25/03/2020 14:03:57": [],
        "25/03/2020 16:47:51": [],
        "25/03/2020 19:40:00": [],
        "25/03/2020 21:08:46": []
    },
    "2976": {
        "25/03/2020 14:03:58": [],
        "25/03/2020 16:47:52": [],
        "25/03/2020 19:40:00": [],
        "25/03/2020 21:08:47": []
    },
    "2977": {
        "25/03/2020 14:03:58": [],
        "25/03/2020 16:47:52": [],
        "25/03/2020 19:40:00": [],
        "25/03/2020 21:08:47": []
    },
    "2978": {
        "25/03/2020 14:03:59": [],
        "25/03/2020 16:47:53": [],
        "25/03/2020 19:40:00": [],
        "25/03/2020 21:08:47": []
    },
    "2979": {
        "25/03/2020 14:03:59": [],
        "25/03/2020 16:47:54": [],
        "25/03/2020 19:40:01": [],
        "25/03/2020 21:08:47": []
    },
    "2980": {
        "25/03/2020 14:04:00": [],
        "25/03/2020 16:47:54": [],
        "25/03/2020 19:40:01": [],
        "25/03/2020 21:08:48": []
    },
    "2981": {
        "25/03/2020 14:04:00": [],
        "25/03/2020 16:47:55": [],
        "25/03/2020 19:40:01": [],
        "25/03/2020 21:08:48": []
    },
    "1325": {
        "25/03/2020 14:04:01": [],
        "25/03/2020 16:47:56": [],
        "25/03/2020 19:40:01": [],
        "25/03/2020 21:08:48": []
    },
    "1326": {
        "25/03/2020 14:04:01": [],
        "25/03/2020 16:47:56": [],
        "25/03/2020 19:40:02": [],
        "25/03/2020 21:08:48": []
    },
    "1327": {
        "25/03/2020 14:04:02": [],
        "25/03/2020 16:47:57": [],
        "25/03/2020 19:40:02": [],
        "25/03/2020 21:08:49": []
    },
    "1328": {
        "25/03/2020 14:04:02": [],
        "25/03/2020 16:47:57": [],
        "25/03/2020 19:40:02": [],
        "25/03/2020 21:08:49": []
    },
    "1329": {
        "25/03/2020 14:04:03": [],
        "25/03/2020 16:47:59": [],
        "25/03/2020 19:40:03": [],
        "25/03/2020 21:08:49": []
    },
    "1330": {
        "25/03/2020 14:04:03": [],
        "25/03/2020 16:47:59": [],
        "25/03/2020 19:40:03": [],
        "25/03/2020 21:08:50": []
    },
    "1331": {
        "25/03/2020 14:04:04": [],
        "25/03/2020 16:48:00": [],
        "25/03/2020 19:40:03": [],
        "25/03/2020 21:08:50": []
    },
    "1332": {
        "25/03/2020 14:04:05": [],
        "25/03/2020 16:48:00": [],
        "25/03/2020 19:40:04": [],
        "25/03/2020 21:08:50": []
    },
    "1333": {
        "25/03/2020 14:04:05": [],
        "25/03/2020 16:48:01": [],
        "25/03/2020 19:40:04": [],
        "25/03/2020 21:08:50": []
    },
    "1334": {
        "25/03/2020 14:04:06": [],
        "25/03/2020 16:48:02": [],
        "25/03/2020 19:40:04": [],
        "25/03/2020 21:08:51": []
    },
    "1335": {
        "25/03/2020 14:04:06": [],
        "25/03/2020 16:48:02": [],
        "25/03/2020 19:40:04": [],
        "25/03/2020 21:08:51": []
    },
    "1352": {
        "25/03/2020 14:04:07": [],
        "25/03/2020 16:48:03": [],
        "25/03/2020 19:40:05": [],
        "25/03/2020 21:08:51": []
    },
    "1353": {
        "25/03/2020 14:04:07": [],
        "25/03/2020 16:48:04": [],
        "25/03/2020 19:40:05": [],
        "25/03/2020 21:08:51": []
    },
    "278": {
        "25/03/2020 14:04:08": [],
        "25/03/2020 16:48:04": [],
        "25/03/2020 19:40:05": [],
        "25/03/2020 21:08:52": []
    },
    "2991": {
        "25/03/2020 14:04:08": [],
        "25/03/2020 16:48:05": [],
        "25/03/2020 19:40:06": [],
        "25/03/2020 21:08:52": []
    },
    "2992": {
        "25/03/2020 14:04:09": [],
        "25/03/2020 16:48:05": [],
        "25/03/2020 19:40:06": [],
        "25/03/2020 21:08:52": []
    },
    "10": {
        "25/03/2020 14:04:09": [],
        "25/03/2020 16:48:06": [],
        "25/03/2020 19:40:06": [],
        "25/03/2020 21:08:53": []
    },
    "1348": {
        "25/03/2020 14:04:10": [],
        "25/03/2020 16:48:07": [],
        "25/03/2020 19:40:07": [],
        "25/03/2020 21:08:53": []
    },
    "1349": {
        "25/03/2020 14:04:10": [],
        "25/03/2020 16:48:07": [],
        "25/03/2020 19:40:07": [],
        "25/03/2020 21:08:53": []
    },
    "1350": {
        "25/03/2020 14:04:11": [],
        "25/03/2020 16:48:08": [],
        "25/03/2020 19:40:07": [],
        "25/03/2020 21:08:53": []
    },
    "320": {
        "25/03/2020 14:04:11": [],
        "25/03/2020 16:48:08": [],
        "25/03/2020 19:40:07": [],
        "25/03/2020 21:08:54": []
    },
    "5171": {
        "25/03/2020 14:04:12": [],
        "25/03/2020 16:48:09": [],
        "25/03/2020 19:40:08": [],
        "25/03/2020 21:08:54": []
    }
}