{
    "7576": {
        "27/03/2020 14:05:20": [],
        "27/03/2020 17:52:28": []
    },
    "7333": {
        "27/03/2020 14:05:21": [
            0,
            0
        ],
        "27/03/2020 17:52:28": [
            0,
            0
        ]
    },
    "313": {
        "27/03/2020 14:05:21": [],
        "27/03/2020 17:52:29": []
    },
    "349": {
        "27/03/2020 14:05:22": [],
        "27/03/2020 17:52:29": []
    },
    "7370": {
        "27/03/2020 14:05:23": [],
        "27/03/2020 17:52:30": []
    },
    "7158": {
        "27/03/2020 14:05:23": [
            0,
            0
        ],
        "27/03/2020 17:52:30": [
            0,
            0
        ]
    },
    "7048": {
        "27/03/2020 14:05:24": [
            27,
            29
        ],
        "27/03/2020 17:52:31": [
            -28
        ]
    },
    "7699": {
        "27/03/2020 14:05:25": [
            -4,
            0
        ],
        "27/03/2020 17:52:31": [
            5
        ]
    },
    "7159": {
        "27/03/2020 14:05:25": [
            14,
            18
        ],
        "27/03/2020 17:52:32": [
            25
        ]
    },
    "7388": {
        "27/03/2020 14:05:26": [
            27,
            -28
        ],
        "27/03/2020 17:52:32": [
            -20
        ]
    },
    "7017": {
        "27/03/2020 14:05:27": [
            -25,
            -20
        ],
        "27/03/2020 17:52:33": [
            8
        ]
    },
    "7018": {
        "27/03/2020 14:05:27": [
            10,
            15
        ],
        "27/03/2020 17:52:33": [
            -8
        ]
    },
    "7030": {
        "27/03/2020 14:05:28": [
            -15,
            -10
        ],
        "27/03/2020 17:52:34": [
            -23
        ]
    },
    "7021": {
        "27/03/2020 14:05:29": [
            6,
            11
        ],
        "27/03/2020 17:52:34": [
            4
        ]
    },
    "7163": {
        "27/03/2020 14:05:29": [
            4,
            9
        ],
        "27/03/2020 17:52:35": [
            18
        ]
    },
    "1893": {
        "27/03/2020 14:05:30": [
            -18,
            -12
        ],
        "27/03/2020 17:52:35": [
            -7
        ]
    },
    "1894": {
        "27/03/2020 14:05:30": [
            5,
            16
        ],
        "27/03/2020 17:52:36": [
            13
        ]
    },
    "1912": {
        "27/03/2020 14:05:31": [
            -27,
            -15
        ],
        "27/03/2020 17:52:36": [
            -21
        ]
    },
    "1895": {
        "27/03/2020 14:05:31": [
            0,
            16
        ],
        "27/03/2020 17:52:37": [
            14
        ]
    },
    "1896": {
        "27/03/2020 14:05:32": [
            27,
            -14
        ],
        "27/03/2020 17:52:37": [
            -12
        ]
    },
    "1897": {
        "27/03/2020 14:05:33": [
            -5,
            18
        ],
        "27/03/2020 17:52:38": [
            24
        ]
    },
    "6088": {
        "27/03/2020 14:05:33": [
            11,
            -24
        ],
        "27/03/2020 17:52:38": [
            -15
        ]
    },
    "1898": {
        "27/03/2020 14:05:34": [
            6,
            -22
        ],
        "27/03/2020 17:52:39": [
            -6
        ]
    },
    "1858": {
        "27/03/2020 14:05:34": [
            13,
            -6
        ],
        "27/03/2020 17:52:39": [
            20
        ]
    },
    "1859": {
        "27/03/2020 14:05:35": [
            114,
            -20
        ],
        "27/03/2020 17:52:40": [
            -3
        ]
    },
    "1860": {
        "27/03/2020 14:05:36": [
            146,
            12
        ],
        "27/03/2020 17:52:40": [
            -21
        ]
    },
    "4492": {
        "27/03/2020 14:05:36": [
            163,
            29
        ],
        "27/03/2020 17:52:40": [
            2
        ]
    },
    "1861": {
        "27/03/2020 14:05:37": [
            126,
            -8
        ],
        "27/03/2020 17:52:41": []
    },
    "1862": {
        "27/03/2020 14:05:37": [
            154,
            20
        ],
        "27/03/2020 17:52:41": [
            3
        ]
    },
    "1863": {
        "27/03/2020 14:05:38": [
            122,
            -12
        ],
        "27/03/2020 17:52:42": [
            -24
        ]
    },
    "1864": {
        "27/03/2020 14:05:38": [
            148,
            14
        ],
        "27/03/2020 17:52:43": [
            7
        ]
    },
    "1865": {
        "27/03/2020 14:05:39": [
            120,
            -14
        ],
        "27/03/2020 17:52:43": [
            -15
        ]
    },
    "1866": {
        "27/03/2020 14:05:40": [
            153,
            19
        ],
        "27/03/2020 17:52:43": [
            24
        ]
    },
    "1850": {
        "27/03/2020 14:05:40": [
            131,
            -3
        ],
        "27/03/2020 17:52:44": [
            9
        ]
    },
    "1867": {
        "27/03/2020 14:05:41": [
            157,
            23
        ],
        "27/03/2020 17:52:44": [
            -20
        ]
    },
    "4489": {
        "27/03/2020 14:05:42": [
            124,
            -10
        ],
        "27/03/2020 17:52:45": [
            11
        ]
    },
    "4747": {
        "27/03/2020 14:05:42": [
            131,
            -3
        ],
        "27/03/2020 17:52:45": [
            -22
        ]
    },
    "1882": {
        "27/03/2020 14:05:43": [
            126,
            -8
        ],
        "27/03/2020 17:52:46": [
            -13
        ]
    },
    "7379": {
        "27/03/2020 14:05:43": [
            109,
            -25
        ],
        "27/03/2020 17:52:46": [
            -24
        ]
    },
    "4903": {
        "27/03/2020 14:05:44": [
            151,
            17
        ],
        "27/03/2020 17:52:47": [
            24
        ]
    },
    "1883": {
        "27/03/2020 14:05:44": [
            132,
            -2
        ],
        "27/03/2020 17:52:47": [
            10
        ]
    },
    "1884": {
        "27/03/2020 14:05:45": [
            158,
            24
        ],
        "27/03/2020 17:52:48": [
            -21
        ]
    },
    "1902": {
        "27/03/2020 14:05:45": [
            154,
            20
        ],
        "27/03/2020 17:52:48": [
            -18
        ]
    },
    "1903": {
        "27/03/2020 14:05:46": [
            139,
            5
        ],
        "27/03/2020 17:52:48": [
            -29
        ]
    },
    "1904": {
        "27/03/2020 14:05:47": [
            130,
            -4
        ],
        "27/03/2020 17:52:49": []
    },
    "1840": {
        "27/03/2020 14:05:47": [
            115,
            -19
        ],
        "27/03/2020 17:52:49": [
            -1788
        ]
    },
    "1841": {
        "27/03/2020 14:05:48": [
            154,
            20
        ],
        "27/03/2020 17:52:50": [
            -1801
        ]
    },
    "1842": {
        "27/03/2020 14:05:48": [
            127,
            -7
        ],
        "27/03/2020 17:52:50": [
            -1821
        ]
    },
    "7374": {
        "27/03/2020 14:05:49": [
            132,
            -2
        ],
        "27/03/2020 17:52:51": [
            -1802
        ]
    },
    "1845": {
        "27/03/2020 14:05:50": [
            138,
            4
        ],
        "27/03/2020 17:52:51": [
            -1830
        ]
    },
    "7166": {
        "27/03/2020 14:05:50": [
            111,
            -23
        ],
        "27/03/2020 17:52:52": [
            -1787
        ]
    },
    "1847": {
        "27/03/2020 14:05:51": [
            110,
            -24
        ],
        "27/03/2020 17:52:52": [
            -1778
        ]
    },
    "1696": {
        "27/03/2020 14:05:52": [
            143,
            9
        ],
        "27/03/2020 17:52:53": [
            -1799
        ]
    },
    "1697": {
        "27/03/2020 14:05:52": [
            161,
            27
        ],
        "27/03/2020 17:52:53": [
            -1776
        ]
    },
    "1698": {
        "27/03/2020 14:05:53": [
            134,
            0
        ],
        "27/03/2020 17:52:54": [
            -1792
        ]
    },
    "1699": {
        "27/03/2020 14:05:54": [
            151,
            17
        ],
        "27/03/2020 17:52:54": [
            -1829
        ]
    },
    "1700": {
        "27/03/2020 14:05:54": [
            117,
            -17
        ],
        "27/03/2020 17:52:54": [
            -1792
        ]
    },
    "1701": {
        "27/03/2020 14:05:55": [
            142,
            8
        ],
        "27/03/2020 17:52:55": [
            -1819
        ]
    },
    "1702": {
        "27/03/2020 14:05:56": [
            160,
            26
        ],
        "27/03/2020 17:52:55": [
            -1796
        ]
    },
    "1703": {
        "27/03/2020 14:05:56": [
            129,
            -5
        ],
        "27/03/2020 17:52:56": [
            -1775
        ]
    },
    "1905": {
        "27/03/2020 14:05:57": [
            114,
            -20
        ],
        "27/03/2020 17:52:56": [
            -1801
        ]
    },
    "1906": {
        "27/03/2020 14:05:58": [
            131,
            -3
        ],
        "27/03/2020 17:52:57": [
            -1819
        ]
    },
    "1907": {
        "27/03/2020 14:05:58": [
            375,
            156,
            22
        ],
        "27/03/2020 17:52:57": [
            -1793
        ]
    },
    "1908": {
        "27/03/2020 14:05:59": [
            355,
            136,
            2
        ],
        "27/03/2020 17:52:58": [
            -1820
        ]
    },
    "1909": {
        "27/03/2020 14:05:59": [
            347,
            128,
            -6
        ],
        "27/03/2020 17:52:58": [
            -1777
        ]
    },
    "1713": {
        "27/03/2020 14:06:00": [
            317,
            150,
            16
        ],
        "27/03/2020 17:52:58": [
            -1817
        ]
    },
    "1714": {
        "27/03/2020 14:06:00": [
            287,
            120,
            -14
        ],
        "27/03/2020 17:52:59": [
            -1777
        ]
    },
    "1715": {
        "27/03/2020 14:06:01": [
            286,
            119,
            -15
        ],
        "27/03/2020 17:52:59": [
            -1819
        ]
    },
    "7453": {
        "27/03/2020 14:06:02": [
            347,
            128
        ],
        "27/03/2020 17:53:00": [
            -1789
        ]
    },
    "1478": {
        "27/03/2020 14:06:02": [
            301,
            134
        ],
        "27/03/2020 17:53:00": [
            -1831
        ]
    },
    "1479": {
        "27/03/2020 14:06:03": [
            381,
            142
        ],
        "27/03/2020 17:53:01": [
            -1777
        ]
    },
    "315": {
        "27/03/2020 14:06:03": [],
        "27/03/2020 17:53:01": [
            -1787
        ]
    },
    "335": {
        "27/03/2020 14:06:04": [
            359,
            120
        ],
        "27/03/2020 17:53:02": [
            632,
            -1788
        ]
    },
    "404": {
        "27/03/2020 14:06:05": [
            384,
            145
        ],
        "27/03/2020 17:53:02": [
            658,
            -1806
        ]
    },
    "747": {
        "27/03/2020 14:06:05": [
            389,
            150
        ],
        "27/03/2020 17:53:03": [
            677,
            -1806
        ]
    },
    "748": {
        "27/03/2020 14:06:06": [
            381,
            142
        ],
        "27/03/2020 17:53:03": [
            650,
            -1833
        ]
    },
    "749": {
        "27/03/2020 14:06:06": [
            385,
            146
        ],
        "27/03/2020 17:53:04": [
            630,
            -1792
        ]
    },
    "750": {
        "27/03/2020 14:06:07": [
            372,
            133
        ],
        "27/03/2020 17:53:04": [
            668,
            -1816
        ]
    },
    "751": {
        "27/03/2020 14:06:08": [
            359,
            120
        ],
        "27/03/2020 17:53:04": [
            646,
            -1781
        ]
    },
    "752": {
        "27/03/2020 14:06:08": [
            358,
            119
        ],
        "27/03/2020 17:53:05": [
            634,
            -1796
        ]
    },
    "753": {
        "27/03/2020 14:06:09": [
            391,
            152
        ],
        "27/03/2020 17:53:05": [
            677,
            -1828
        ]
    },
    "7339": {
        "27/03/2020 14:06:09": [],
        "27/03/2020 17:53:06": []
    },
    "767": {
        "27/03/2020 14:06:10": [],
        "27/03/2020 17:53:06": []
    },
    "768": {
        "27/03/2020 14:06:11": [],
        "27/03/2020 17:53:07": []
    },
    "769": {
        "27/03/2020 14:06:11": [],
        "27/03/2020 17:53:07": []
    },
    "770": {
        "27/03/2020 14:06:12": [],
        "27/03/2020 17:53:08": []
    },
    "771": {
        "27/03/2020 14:06:13": [],
        "27/03/2020 17:53:08": []
    },
    "772": {
        "27/03/2020 14:06:13": [],
        "27/03/2020 17:53:09": []
    },
    "773": {
        "27/03/2020 14:06:14": [],
        "27/03/2020 17:53:09": []
    },
    "774": {
        "27/03/2020 14:06:14": [],
        "27/03/2020 17:53:09": []
    },
    "775": {
        "27/03/2020 14:06:15": [],
        "27/03/2020 17:53:10": []
    },
    "776": {
        "27/03/2020 14:06:16": [],
        "27/03/2020 17:53:10": []
    },
    "777": {
        "27/03/2020 14:06:16": [],
        "27/03/2020 17:53:11": []
    },
    "779": {
        "27/03/2020 14:06:17": [],
        "27/03/2020 17:53:11": []
    },
    "780": {
        "27/03/2020 14:06:18": [],
        "27/03/2020 17:53:12": []
    },
    "781": {
        "27/03/2020 14:06:18": [],
        "27/03/2020 17:53:12": []
    },
    "782": {
        "27/03/2020 14:06:19": [],
        "27/03/2020 17:53:12": []
    },
    "783": {
        "27/03/2020 14:06:19": [
            17,
            17
        ],
        "27/03/2020 17:53:13": [
            5,
            -23
        ]
    },
    "784": {
        "27/03/2020 14:06:20": [
            -19,
            -19
        ],
        "27/03/2020 17:53:13": [
            -29,
            1
        ]
    },
    "785": {
        "27/03/2020 14:06:20": [
            23,
            23
        ],
        "27/03/2020 17:53:14": [
            16,
            -17
        ]
    },
    "786": {
        "27/03/2020 14:06:21": [
            88,
            -8,
            -8
        ],
        "27/03/2020 17:53:14": [
            8,
            -8
        ]
    },
    "793": {
        "27/03/2020 14:06:22": [
            28,
            4
        ],
        "27/03/2020 17:53:15": [
            -5,
            -26
        ]
    },
    "7586": {
        "27/03/2020 14:06:22": [
            66,
            -9
        ],
        "27/03/2020 17:53:15": [
            -6,
            6
        ]
    },
    "7587": {
        "27/03/2020 14:06:23": [
            98,
            -17
        ],
        "27/03/2020 17:53:16": [
            -3,
            -16
        ]
    },
    "7588": {
        "27/03/2020 14:06:24": [
            76,
            -30
        ],
        "27/03/2020 17:53:16": [
            -13,
            28
        ]
    },
    "328": {
        "27/03/2020 14:06:24": [
            -17,
            -8
        ],
        "27/03/2020 17:53:17": [
            21,
            -26
        ]
    },
    "1443": {
        "27/03/2020 14:06:25": [
            13,
            -24
        ],
        "27/03/2020 17:53:17": [
            1,
            17
        ]
    },
    "1444": {
        "27/03/2020 14:06:25": [
            7,
            -26
        ],
        "27/03/2020 17:53:18": [
            -5
        ]
    },
    "1445": {
        "27/03/2020 14:06:26": [
            7,
            -22
        ],
        "27/03/2020 17:53:18": [
            -4
        ]
    },
    "1647": {
        "27/03/2020 14:06:26": [
            -13,
            26
        ],
        "27/03/2020 17:53:18": [
            -23,
            15
        ]
    },
    "1648": {
        "27/03/2020 14:06:27": [
            -8,
            -24
        ],
        "27/03/2020 17:53:19": [
            -217,
            -17
        ]
    },
    "1649": {
        "27/03/2020 14:06:28": [
            24,
            21
        ],
        "27/03/2020 17:53:19": [
            -182,
            18
        ]
    },
    "1911": {
        "27/03/2020 14:06:28": [
            -9,
            22
        ],
        "27/03/2020 17:53:20": [
            -158,
            -8
        ]
    },
    "1913": {
        "27/03/2020 14:06:29": [
            -13,
            8
        ],
        "27/03/2020 17:53:20": [
            -211,
            -11
        ]
    },
    "1914": {
        "27/03/2020 14:06:30": [
            29,
            -17
        ],
        "27/03/2020 17:53:21": [
            -228,
            -28
        ]
    },
    "1805": {
        "27/03/2020 14:06:30": [
            4,
            15
        ],
        "27/03/2020 17:53:21": [
            -154,
            -4
        ]
    },
    "1806": {
        "27/03/2020 14:06:31": [
            0,
            17
        ],
        "27/03/2020 17:53:22": [
            -177,
            0
        ]
    },
    "1660": {
        "27/03/2020 14:06:31": [
            -16,
            25
        ],
        "27/03/2020 17:53:22": [
            -186,
            14
        ]
    },
    "1661": {
        "27/03/2020 14:06:32": [
            -26,
            9
        ],
        "27/03/2020 17:53:23": [
            -210,
            -10
        ]
    },
    "1662": {
        "27/03/2020 14:06:33": [
            -29,
            -2
        ],
        "27/03/2020 17:53:23": [
            -229,
            -29
        ]
    },
    "1664": {
        "27/03/2020 14:06:33": [
            19,
            -12
        ],
        "27/03/2020 17:53:24": [
            -185,
            15
        ]
    },
    "1665": {
        "27/03/2020 14:06:34": [
            -10,
            21
        ],
        "27/03/2020 17:53:24": [
            -217,
            -17
        ]
    },
    "1666": {
        "27/03/2020 14:06:34": [
            14,
            -7
        ],
        "27/03/2020 17:53:25": [
            -181,
            -196,
            4
        ]
    },
    "1807": {
        "27/03/2020 14:06:35": [
            22
        ],
        "27/03/2020 17:53:25": [
            -176,
            -110,
            11
        ]
    },
    "7167": {
        "27/03/2020 14:06:35": [
            -5
        ],
        "27/03/2020 17:53:25": [
            -143,
            -217,
            -17
        ]
    },
    "1808": {
        "27/03/2020 14:06:36": [
            -16
        ],
        "27/03/2020 17:53:26": [
            -143,
            -148,
            -27
        ]
    },
    "1813": {
        "27/03/2020 14:06:37": [
            -12,
            -12
        ],
        "27/03/2020 17:53:26": [
            -178,
            -154,
            23
        ]
    },
    "1814": {
        "27/03/2020 14:06:37": [
            -27,
            -27
        ],
        "27/03/2020 17:53:27": [
            -174,
            -160,
            17
        ]
    },
    "1852": {
        "27/03/2020 14:06:38": [
            -30,
            -30
        ],
        "27/03/2020 17:53:27": [
            -153,
            -151,
            26
        ]
    },
    "1853": {
        "27/03/2020 14:06:39": [
            26,
            26
        ],
        "27/03/2020 17:53:28": [
            -134,
            -204,
            -27
        ]
    },
    "1854": {
        "27/03/2020 14:06:39": [
            -5,
            -5
        ],
        "27/03/2020 17:53:28": [
            -153,
            -169,
            8
        ]
    },
    "1844": {
        "27/03/2020 14:06:40": [
            17,
            17
        ],
        "27/03/2020 17:53:29": [
            -129,
            -151,
            26
        ]
    },
    "6172": {
        "27/03/2020 14:06:41": [
            4,
            4
        ],
        "27/03/2020 17:53:29": [
            -140,
            -169,
            8
        ]
    },
    "4493": {
        "27/03/2020 14:06:41": [
            20,
            20
        ],
        "27/03/2020 17:53:30": [
            -183,
            -157,
            20
        ]
    },
    "4362": {
        "27/03/2020 14:06:42": [
            9,
            9
        ],
        "27/03/2020 17:53:30": [
            -133,
            -170,
            7
        ]
    },
    "7025": {
        "27/03/2020 14:06:43": [
            -12,
            -12
        ],
        "27/03/2020 17:53:31": [
            -151,
            -199
        ]
    },
    "4464": {
        "27/03/2020 14:06:43": [
            18,
            18
        ],
        "27/03/2020 17:53:31": [
            -175,
            -176
        ]
    },
    "1869": {
        "27/03/2020 14:06:44": [
            -1,
            -1
        ],
        "27/03/2020 17:53:32": [
            -132,
            -198
        ]
    },
    "1870": {
        "27/03/2020 14:06:44": [
            27,
            27
        ],
        "27/03/2020 17:53:32": [
            -163,
            -170
        ]
    },
    "1871": {
        "27/03/2020 14:06:45": [
            2,
            2
        ],
        "27/03/2020 17:53:32": [
            -186,
            -196
        ]
    },
    "1872": {
        "27/03/2020 14:06:45": [
            -22,
            -22
        ],
        "27/03/2020 17:53:33": [
            -147,
            -159
        ]
    },
    "1873": {
        "27/03/2020 14:06:46": [
            20,
            20
        ],
        "27/03/2020 17:53:33": [
            -378,
            -163,
            -178
        ]
    },
    "1874": {
        "27/03/2020 14:06:47": [
            -3,
            -3
        ],
        "27/03/2020 17:53:34": [
            -395,
            -184,
            -201
        ]
    },
    "1875": {
        "27/03/2020 14:06:47": [
            29,
            29
        ],
        "27/03/2020 17:53:34": [
            -419,
            -151,
            -170
        ]
    },
    "1876": {
        "27/03/2020 14:06:48": [
            1,
            1
        ],
        "27/03/2020 17:53:35": [
            -380,
            -177,
            -198
        ]
    },
    "1877": {
        "27/03/2020 14:06:49": [
            -26,
            -26
        ],
        "27/03/2020 17:53:35": [
            -395,
            -142,
            -154
        ]
    },
    "1878": {
        "27/03/2020 14:06:49": [
            25,
            25
        ],
        "27/03/2020 17:53:36": [
            -431,
            -140,
            -160
        ]
    },
    "1879": {
        "27/03/2020 14:06:50": [
            22,
            22
        ],
        "27/03/2020 17:53:36": [
            -406,
            -132,
            -160
        ]
    },
    "1899": {
        "27/03/2020 14:06:50": [
            21,
            21
        ],
        "27/03/2020 17:53:37": [
            -404,
            -180,
            -157
        ]
    },
    "1887": {
        "27/03/2020 14:06:51": [
            -14,
            -14
        ],
        "27/03/2020 17:53:37": [
            -377,
            -138,
            -188
        ]
    },
    "1888": {
        "27/03/2020 14:06:51": [
            2,
            2
        ],
        "27/03/2020 17:53:38": [
            -420,
            -178,
            -170
        ]
    },
    "1889": {
        "27/03/2020 14:06:52": [
            -13,
            -13
        ],
        "27/03/2020 17:53:38": [
            -374,
            -184,
            -183
        ]
    },
    "1890": {
        "27/03/2020 14:06:53": [
            29,
            29
        ],
        "27/03/2020 17:53:39": [
            -417,
            -169,
            -189
        ]
    },
    "7240": {
        "27/03/2020 14:06:53": [
            -19,
            -19
        ],
        "27/03/2020 17:53:39": [
            -395,
            -148,
            -173
        ]
    },
    "1891": {
        "27/03/2020 14:06:54": [
            -4,
            -4
        ],
        "27/03/2020 17:53:40": [
            -374,
            -184,
            -207
        ]
    },
    "7156": {
        "27/03/2020 14:06:54": [
            16,
            16
        ],
        "27/03/2020 17:53:40": [
            -411,
            -161,
            -184
        ]
    },
    "7020": {
        "27/03/2020 14:06:55": [
            28,
            28
        ],
        "27/03/2020 17:53:41": [
            -393,
            -139,
            -160
        ]
    },
    "7029": {
        "27/03/2020 14:06:55": [
            -10,
            -10
        ],
        "27/03/2020 17:53:41": [
            -369,
            -175,
            -196
        ]
    },
    "7038": {
        "27/03/2020 14:06:56": [
            29,
            29
        ],
        "27/03/2020 17:53:42": [
            -387,
            -131,
            -151
        ]
    },
    "7011": {
        "27/03/2020 14:06:57": [
            23
        ],
        "27/03/2020 17:53:42": [
            -387
        ]
    },
    "2171": {
        "27/03/2020 14:06:57": [
            -16
        ],
        "27/03/2020 17:53:43": [
            199,
            -419,
            -158,
            -175
        ]
    },
    "7160": {
        "27/03/2020 14:06:58": [
            -3
        ],
        "27/03/2020 17:53:43": [
            172,
            -403,
            -145,
            -155
        ]
    },
    "7700": {
        "27/03/2020 14:06:59": [
            17
        ],
        "27/03/2020 17:53:44": [
            172,
            -379,
            -185,
            -183
        ]
    },
    "7047": {
        "27/03/2020 14:06:59": [
            -17
        ],
        "27/03/2020 17:53:44": [
            199,
            -408,
            -158,
            -202
        ]
    },
    "7161": {
        "27/03/2020 14:07:00": [
            12
        ],
        "27/03/2020 17:53:45": [
            -372,
            -156
        ]
    },
    "7162": {
        "27/03/2020 14:07:00": [],
        "27/03/2020 17:53:45": []
    }
}