{
    "7576": {
        "23/03/2020 13:22:25": [],
        "23/03/2020 15:29:11": [],
        "23/03/2020 18:37:23": []
    },
    "7333": {
        "23/03/2020 13:22:26": [
            0,
            0
        ],
        "23/03/2020 15:29:11": [
            0,
            0
        ],
        "23/03/2020 18:37:24": [
            0,
            0
        ]
    },
    "313": {
        "23/03/2020 13:22:26": [],
        "23/03/2020 15:29:12": [],
        "23/03/2020 18:37:24": []
    },
    "349": {
        "23/03/2020 13:22:27": [],
        "23/03/2020 15:29:12": [],
        "23/03/2020 18:37:25": []
    },
    "7370": {
        "23/03/2020 13:22:27": [],
        "23/03/2020 15:29:12": [],
        "23/03/2020 18:37:26": []
    },
    "7158": {
        "23/03/2020 13:22:28": [
            0
        ],
        "23/03/2020 15:29:13": [
            0,
            0
        ],
        "23/03/2020 18:37:26": [
            0
        ]
    },
    "7048": {
        "23/03/2020 13:22:29": [
            -28,
            -28
        ],
        "23/03/2020 15:29:13": [
            -22,
            -22
        ],
        "23/03/2020 18:37:27": [
            27
        ]
    },
    "7699": {
        "23/03/2020 13:22:30": [
            6,
            6
        ],
        "23/03/2020 15:29:13": [
            18,
            18
        ],
        "23/03/2020 18:37:28": [
            -5
        ]
    },
    "7159": {
        "23/03/2020 13:22:31": [
            27,
            27
        ],
        "23/03/2020 15:29:14": [
            -18,
            -18
        ],
        "23/03/2020 18:37:28": [
            12
        ]
    },
    "7388": {
        "23/03/2020 13:22:32": [
            -18,
            -18
        ],
        "23/03/2020 15:29:14": [
            0,
            0
        ],
        "23/03/2020 18:37:29": [
            25
        ]
    },
    "7017": {
        "23/03/2020 13:22:32": [
            12,
            12
        ],
        "23/03/2020 15:29:14": [
            26,
            26
        ],
        "23/03/2020 18:37:30": [
            -9
        ]
    },
    "7018": {
        "23/03/2020 13:22:33": [
            -3,
            -3
        ],
        "23/03/2020 15:29:15": [
            10,
            10
        ],
        "23/03/2020 18:37:31": [
            -25
        ]
    },
    "7030": {
        "23/03/2020 13:22:34": [
            -16,
            -16
        ],
        "23/03/2020 15:29:15": [
            -6,
            -6
        ],
        "23/03/2020 18:37:32": [
            20
        ]
    },
    "7021": {
        "23/03/2020 13:22:35": [
            11,
            11
        ],
        "23/03/2020 15:29:15": [
            20,
            20
        ],
        "23/03/2020 18:37:33": [
            -14
        ]
    },
    "7163": {
        "23/03/2020 13:22:35": [
            27,
            27
        ],
        "23/03/2020 15:29:16": [
            23,
            -27
        ],
        "23/03/2020 18:37:33": [
            -1
        ]
    },
    "1893": {
        "23/03/2020 13:22:36": [
            2,
            2
        ],
        "23/03/2020 15:29:16": [
            2,
            19
        ],
        "23/03/2020 18:37:34": [
            -23
        ]
    },
    "1894": {
        "23/03/2020 13:22:37": [
            19,
            19
        ],
        "23/03/2020 15:29:16": [
            27,
            1
        ],
        "23/03/2020 18:37:35": [
            2
        ]
    },
    "1912": {
        "23/03/2020 13:22:38": [
            -15,
            -15
        ],
        "23/03/2020 15:29:17": [
            -4,
            -25
        ],
        "23/03/2020 18:37:36": [
            -30
        ]
    },
    "1895": {
        "23/03/2020 13:22:38": [
            20,
            20
        ],
        "23/03/2020 15:29:17": [
            -27,
            18
        ],
        "23/03/2020 18:37:36": [
            6
        ]
    },
    "1896": {
        "23/03/2020 13:22:39": [
            -4,
            -4
        ],
        "23/03/2020 15:29:17": [
            10,
            1
        ],
        "23/03/2020 18:37:37": [
            -19
        ]
    },
    "1897": {
        "23/03/2020 13:22:40": [
            -28,
            -28
        ],
        "23/03/2020 15:29:18": [
            -12,
            -15
        ],
        "23/03/2020 18:37:38": [
            18
        ]
    },
    "6088": {
        "23/03/2020 13:22:40": [
            -7,
            -7
        ],
        "23/03/2020 15:29:18": [
            11,
            10
        ],
        "23/03/2020 18:37:39": [
            -21
        ]
    },
    "1898": {
        "23/03/2020 13:22:41": [
            4,
            4
        ],
        "23/03/2020 15:29:19": [
            25,
            -24
        ],
        "23/03/2020 18:37:39": [
            -9
        ]
    },
    "1858": {
        "23/03/2020 13:22:41": [
            -29,
            -29
        ],
        "23/03/2020 15:29:19": [
            -3,
            22
        ],
        "23/03/2020 18:37:40": [
            19
        ]
    },
    "1859": {
        "23/03/2020 13:22:42": [
            14,
            14
        ],
        "23/03/2020 15:29:19": [
            -13,
            8
        ],
        "23/03/2020 18:37:41": [
            0
        ]
    },
    "1860": {
        "23/03/2020 13:22:43": [
            4,
            4
        ],
        "23/03/2020 15:29:19": [
            -14,
            1
        ],
        "23/03/2020 18:37:42": [
            -13
        ]
    },
    "4492": {
        "23/03/2020 13:22:43": [
            -30,
            -30
        ],
        "23/03/2020 15:29:20": [
            17,
            29
        ],
        "23/03/2020 18:37:42": [
            12
        ]
    },
    "1861": {
        "23/03/2020 13:22:44": [
            6,
            6
        ],
        "23/03/2020 15:29:20": [
            -6,
            7
        ],
        "23/03/2020 18:37:43": []
    },
    "1862": {
        "23/03/2020 13:22:44": [
            -9,
            -9
        ],
        "23/03/2020 15:29:21": [
            -20,
            -6
        ],
        "23/03/2020 18:37:44": [
            -206
        ]
    },
    "1863": {
        "23/03/2020 13:22:45": [
            -25,
            -25
        ],
        "23/03/2020 15:29:21": [
            25,
            -19
        ],
        "23/03/2020 18:37:44": [
            -248
        ]
    },
    "1864": {
        "23/03/2020 13:22:46": [
            15,
            15
        ],
        "23/03/2020 15:29:21": [
            6,
            23
        ],
        "23/03/2020 18:37:45": [
            -240
        ]
    },
    "1865": {
        "23/03/2020 13:22:46": [
            6,
            6
        ],
        "23/03/2020 15:29:22": [
            -2,
            17
        ],
        "23/03/2020 18:37:46": [
            -251
        ]
    },
    "1866": {
        "23/03/2020 13:22:47": [
            -3,
            -3
        ],
        "23/03/2020 15:29:22": [
            -10,
            10
        ],
        "23/03/2020 18:37:47": [
            -202
        ]
    },
    "1850": {
        "23/03/2020 13:22:47": [
            -2,
            -2
        ],
        "23/03/2020 15:29:22": [
            -8,
            14
        ],
        "23/03/2020 18:37:47": [
            -231
        ]
    },
    "1867": {
        "23/03/2020 13:22:48": [
            -22,
            -22
        ],
        "23/03/2020 15:29:23": [
            -27,
            -3
        ],
        "23/03/2020 18:37:48": [
            -227
        ]
    },
    "4489": {
        "23/03/2020 13:22:48": [
            11,
            11
        ],
        "23/03/2020 15:29:23": [
            8,
            -29
        ],
        "23/03/2020 18:37:48": [
            -254
        ]
    },
    "4747": {
        "23/03/2020 13:22:49": [
            -14,
            -14
        ],
        "23/03/2020 15:29:23": [
            -8,
            13
        ],
        "23/03/2020 18:37:49": [
            -125
        ]
    },
    "1882": {
        "23/03/2020 13:22:50": [
            21,
            21
        ],
        "23/03/2020 15:29:24": [
            -5,
            17
        ],
        "23/03/2020 18:37:50": [
            -137
        ]
    },
    "7379": {
        "23/03/2020 13:22:50": [
            19,
            19
        ],
        "23/03/2020 15:29:24": [
            4,
            26
        ],
        "23/03/2020 18:37:50": [
            -134
        ]
    },
    "4903": {
        "23/03/2020 13:22:51": [
            16,
            16
        ],
        "23/03/2020 15:29:24": [
            12,
            -25
        ],
        "23/03/2020 18:37:51": [
            -132
        ]
    },
    "1883": {
        "23/03/2020 13:22:51": [
            11,
            11
        ],
        "23/03/2020 15:29:25": [
            17,
            -19
        ],
        "23/03/2020 18:37:52": [
            -132
        ]
    },
    "1884": {
        "23/03/2020 13:22:52": [
            -14
        ],
        "23/03/2020 15:29:25": [
            -2,
            22
        ],
        "23/03/2020 18:37:53": [
            -155
        ]
    },
    "1902": {
        "23/03/2020 13:22:53": [
            1
        ],
        "23/03/2020 15:29:25": [
            27,
            -9
        ],
        "23/03/2020 18:37:53": [
            -133
        ]
    },
    "1903": {
        "23/03/2020 13:22:53": [
            19
        ],
        "23/03/2020 15:29:26": [
            24
        ],
        "23/03/2020 18:37:54": [
            -118
        ]
    },
    "1904": {
        "23/03/2020 13:22:54": [
            -13
        ],
        "23/03/2020 15:29:26": [
            28
        ],
        "23/03/2020 18:37:55": [
            -154
        ]
    },
    "1840": {
        "23/03/2020 13:22:55": [
            -241,
            5
        ],
        "23/03/2020 15:29:26": [
            -26,
            26
        ],
        "23/03/2020 18:37:55": [
            -139
        ]
    },
    "1841": {
        "23/03/2020 13:22:55": [
            -246,
            0
        ],
        "23/03/2020 15:29:27": [
            -27,
            25
        ],
        "23/03/2020 18:37:56": [
            -145
        ]
    },
    "1842": {
        "23/03/2020 13:22:56": [
            -259,
            -13
        ],
        "23/03/2020 15:29:27": [
            -37,
            15
        ],
        "23/03/2020 18:37:57": [
            -160
        ]
    },
    "7374": {
        "23/03/2020 13:22:56": [
            -194,
            19
        ],
        "23/03/2020 15:29:27": [
            -59,
            -7
        ],
        "23/03/2020 18:37:57": [
            -130
        ]
    },
    "1845": {
        "23/03/2020 13:22:57": [
            -230,
            16
        ],
        "23/03/2020 15:29:27": [
            -49,
            3
        ],
        "23/03/2020 18:37:58": [
            -137
        ]
    },
    "7166": {
        "23/03/2020 13:22:58": [
            -252,
            -6
        ],
        "23/03/2020 15:29:28": [
            -72,
            -20
        ],
        "23/03/2020 18:37:59": [
            -29,
            -162
        ]
    },
    "1847": {
        "23/03/2020 13:22:58": [
            -155,
            0
        ],
        "23/03/2020 15:29:28": [
            -58,
            -6
        ],
        "23/03/2020 18:37:59": [
            -15,
            -148
        ]
    },
    "1696": {
        "23/03/2020 13:22:59": [
            -166,
            -11
        ],
        "23/03/2020 15:29:28": [
            -73,
            -21
        ],
        "23/03/2020 18:38:00": [
            -9,
            -142
        ]
    },
    "1697": {
        "23/03/2020 13:23:00": [
            -145,
            10
        ],
        "23/03/2020 15:29:29": [
            -55,
            -3
        ],
        "23/03/2020 18:38:01": [
            15,
            -118
        ]
    },
    "1698": {
        "23/03/2020 13:23:00": [
            -165,
            -10
        ],
        "23/03/2020 15:29:29": [
            -80,
            -28
        ],
        "23/03/2020 18:38:02": [
            0,
            -133
        ]
    },
    "1699": {
        "23/03/2020 13:23:01": [
            -142,
            13
        ],
        "23/03/2020 15:29:29": [
            -52,
            0
        ],
        "23/03/2020 18:38:02": [
            28,
            -105
        ]
    },
    "1700": {
        "23/03/2020 13:23:01": [
            -165,
            -10
        ],
        "23/03/2020 15:29:30": [
            -69,
            -17
        ],
        "23/03/2020 18:38:03": [
            13,
            -120
        ]
    },
    "1701": {
        "23/03/2020 13:23:02": [
            -183,
            -28
        ],
        "23/03/2020 15:29:30": [
            -29,
            23
        ],
        "23/03/2020 18:38:04": [
            -8,
            -141
        ]
    },
    "1702": {
        "23/03/2020 13:23:02": [
            -153,
            2
        ],
        "23/03/2020 15:29:30": [
            -61,
            -9
        ],
        "23/03/2020 18:38:05": [
            19,
            -114
        ]
    },
    "1703": {
        "23/03/2020 13:23:03": [
            -170,
            -15
        ],
        "23/03/2020 15:29:31": [
            -75,
            -23
        ],
        "23/03/2020 18:38:06": [
            8,
            -125
        ]
    },
    "1905": {
        "23/03/2020 13:23:04": [
            -163,
            -8
        ],
        "23/03/2020 15:29:31": [
            -64,
            -12
        ],
        "23/03/2020 18:38:07": [
            24,
            -109
        ]
    },
    "1906": {
        "23/03/2020 13:23:04": [
            -128,
            27
        ],
        "23/03/2020 15:29:31": [
            -68,
            -16
        ],
        "23/03/2020 18:38:08": [
            13,
            -120
        ]
    },
    "1907": {
        "23/03/2020 13:23:05": [
            -156,
            -1
        ],
        "23/03/2020 15:29:32": [
            -35,
            17
        ],
        "23/03/2020 18:38:08": [
            -12,
            -145
        ]
    },
    "1908": {
        "23/03/2020 13:23:05": [
            -151,
            4
        ],
        "23/03/2020 15:29:32": [
            -49,
            3
        ],
        "23/03/2020 18:38:09": [
            -15,
            -148
        ]
    },
    "1909": {
        "23/03/2020 13:23:06": [
            -130,
            25
        ],
        "23/03/2020 15:29:32": [
            -51,
            1
        ],
        "23/03/2020 18:38:10": [
            -4,
            -137
        ]
    },
    "1713": {
        "23/03/2020 13:23:07": [
            -141,
            14
        ],
        "23/03/2020 15:29:33": [
            -61,
            -9
        ],
        "23/03/2020 18:38:11": [
            -20,
            -153
        ]
    },
    "1714": {
        "23/03/2020 13:23:07": [
            -155,
            0
        ],
        "23/03/2020 15:29:33": [
            -78,
            -26
        ],
        "23/03/2020 18:38:11": [
            22,
            -111
        ]
    },
    "1715": {
        "23/03/2020 13:23:08": [
            -184,
            -29
        ],
        "23/03/2020 15:29:33": [
            -53,
            -1
        ],
        "23/03/2020 18:38:12": [
            -16,
            -149
        ]
    },
    "7453": {
        "23/03/2020 13:23:08": [
            -140,
            15
        ],
        "23/03/2020 15:29:34": [
            -75,
            -23
        ],
        "23/03/2020 18:38:12": [
            19,
            -114
        ]
    },
    "1478": {
        "23/03/2020 13:23:09": [
            -141
        ],
        "23/03/2020 15:29:34": [
            -76,
            -24
        ],
        "23/03/2020 18:38:13": [
            13,
            -120
        ]
    },
    "1479": {
        "23/03/2020 13:23:09": [
            -179
        ],
        "23/03/2020 15:29:34": [
            -54,
            -2
        ],
        "23/03/2020 18:38:14": [
            -29,
            -162
        ]
    },
    "315": {
        "23/03/2020 13:23:10": [
            -131
        ],
        "23/03/2020 15:29:35": [
            -67
        ],
        "23/03/2020 18:38:14": [
            11,
            -122
        ]
    },
    "335": {
        "23/03/2020 13:23:11": [
            -169
        ],
        "23/03/2020 15:29:35": [
            -14,
            -73
        ],
        "23/03/2020 18:38:15": [
            -15,
            -148
        ]
    },
    "404": {
        "23/03/2020 13:23:11": [
            -138
        ],
        "23/03/2020 15:29:35": [
            -23,
            -54
        ],
        "23/03/2020 18:38:16": [
            10,
            -123
        ]
    },
    "747": {
        "23/03/2020 13:23:12": [
            -155
        ],
        "23/03/2020 15:29:36": [
            -20,
            -58
        ],
        "23/03/2020 18:38:16": [
            28,
            -105
        ]
    },
    "748": {
        "23/03/2020 13:23:12": [
            -812,
            -149
        ],
        "23/03/2020 15:29:36": [
            -14,
            -59
        ],
        "23/03/2020 18:38:17": [
            18
        ]
    },
    "749": {
        "23/03/2020 13:23:13": [
            -772,
            -129
        ],
        "23/03/2020 15:29:36": [
            42,
            -47
        ],
        "23/03/2020 18:38:18": [
            20
        ]
    },
    "750": {
        "23/03/2020 13:23:13": [],
        "23/03/2020 15:29:37": [
            -48
        ],
        "23/03/2020 18:38:18": [
            10
        ]
    },
    "751": {
        "23/03/2020 13:23:14": [
            -826,
            -183
        ],
        "23/03/2020 15:29:37": [
            -12,
            -49
        ],
        "23/03/2020 18:38:19": [
            -1
        ]
    },
    "752": {
        "23/03/2020 13:23:15": [
            -808,
            -165
        ],
        "23/03/2020 15:29:37": [
            6,
            -36
        ],
        "23/03/2020 18:38:20": [
            1
        ]
    },
    "753": {
        "23/03/2020 13:23:15": [
            -769,
            -126
        ],
        "23/03/2020 15:29:38": [
            45,
            -49
        ],
        "23/03/2020 18:38:20": [
            -26
        ]
    },
    "7339": {
        "23/03/2020 13:23:16": [],
        "23/03/2020 15:29:38": [],
        "23/03/2020 18:38:21": []
    },
    "767": {
        "23/03/2020 13:23:16": [],
        "23/03/2020 15:29:38": [],
        "23/03/2020 18:38:22": []
    },
    "768": {
        "23/03/2020 13:23:17": [],
        "23/03/2020 15:29:39": [],
        "23/03/2020 18:38:22": []
    },
    "769": {
        "23/03/2020 13:23:18": [],
        "23/03/2020 15:29:39": [],
        "23/03/2020 18:38:23": []
    },
    "770": {
        "23/03/2020 13:23:18": [],
        "23/03/2020 15:29:39": [],
        "23/03/2020 18:38:24": []
    },
    "771": {
        "23/03/2020 13:23:19": [],
        "23/03/2020 15:29:40": [],
        "23/03/2020 18:38:25": []
    },
    "772": {
        "23/03/2020 13:23:19": [],
        "23/03/2020 15:29:40": [],
        "23/03/2020 18:38:25": []
    },
    "773": {
        "23/03/2020 13:23:20": [],
        "23/03/2020 15:29:40": [],
        "23/03/2020 18:38:26": []
    },
    "774": {
        "23/03/2020 13:23:20": [],
        "23/03/2020 15:29:41": [],
        "23/03/2020 18:38:26": []
    },
    "775": {
        "23/03/2020 13:23:21": [],
        "23/03/2020 15:29:41": [],
        "23/03/2020 18:38:27": []
    },
    "776": {
        "23/03/2020 13:23:22": [],
        "23/03/2020 15:29:41": [],
        "23/03/2020 18:38:28": []
    },
    "777": {
        "23/03/2020 13:23:22": [],
        "23/03/2020 15:29:41": [],
        "23/03/2020 18:38:28": []
    },
    "779": {
        "23/03/2020 13:23:23": [],
        "23/03/2020 15:29:42": [],
        "23/03/2020 18:38:29": []
    },
    "780": {
        "23/03/2020 13:23:24": [],
        "23/03/2020 15:29:42": [],
        "23/03/2020 18:38:30": []
    },
    "781": {
        "23/03/2020 13:23:25": [],
        "23/03/2020 15:29:43": [],
        "23/03/2020 18:38:31": []
    },
    "782": {
        "23/03/2020 13:23:25": [],
        "23/03/2020 15:29:43": [],
        "23/03/2020 18:38:31": []
    },
    "783": {
        "23/03/2020 13:23:26": [
            0,
            0
        ],
        "23/03/2020 15:29:44": [
            -12,
            -12
        ],
        "23/03/2020 18:38:32": [
            -4,
            -4
        ]
    },
    "784": {
        "23/03/2020 13:23:27": [
            -22,
            -22
        ],
        "23/03/2020 15:29:44": [
            24,
            24
        ],
        "23/03/2020 18:38:33": [
            -27,
            -27
        ]
    },
    "785": {
        "23/03/2020 13:23:27": [
            -16,
            -16
        ],
        "23/03/2020 15:29:44": [
            25,
            25
        ],
        "23/03/2020 18:38:34": [
            -23,
            -23
        ]
    },
    "786": {
        "23/03/2020 13:23:28": [
            4,
            4
        ],
        "23/03/2020 15:29:44": [
            -14,
            -14
        ],
        "23/03/2020 18:38:34": [
            -13
        ]
    },
    "793": {
        "23/03/2020 13:23:28": [
            -28,
            -28
        ],
        "23/03/2020 15:29:45": [
            16,
            16
        ],
        "23/03/2020 18:38:36": [
            2
        ]
    },
    "7586": {
        "23/03/2020 13:23:29": [
            26,
            26
        ],
        "23/03/2020 15:29:45": [
            -21,
            -21
        ],
        "23/03/2020 18:38:36": [
            8
        ]
    },
    "7587": {
        "23/03/2020 13:23:29": [
            20,
            20
        ],
        "23/03/2020 15:29:45": [
            10,
            10
        ],
        "23/03/2020 18:38:37": [
            16
        ]
    },
    "7588": {
        "23/03/2020 13:23:30": [
            7,
            7
        ],
        "23/03/2020 15:29:46": [
            25,
            25
        ],
        "23/03/2020 18:38:38": [
            8
        ]
    },
    "328": {
        "23/03/2020 13:23:31": [
            -28,
            -28
        ],
        "23/03/2020 15:29:46": [
            -17,
            -17
        ],
        "23/03/2020 18:38:39": [
            -11
        ]
    },
    "1443": {
        "23/03/2020 13:23:31": [
            -25
        ],
        "23/03/2020 15:29:46": [
            9
        ],
        "23/03/2020 18:38:39": [
            2
        ]
    },
    "1444": {
        "23/03/2020 13:23:32": [
            -10
        ],
        "23/03/2020 15:29:47": [
            -29
        ],
        "23/03/2020 18:38:40": [
            10
        ]
    },
    "1445": {
        "23/03/2020 13:23:33": [
            13
        ],
        "23/03/2020 15:29:47": [
            2
        ],
        "23/03/2020 18:38:41": [
            26
        ]
    },
    "1647": {
        "23/03/2020 13:23:33": [
            -27
        ],
        "23/03/2020 15:29:47": [
            182,
            1995,
            -26
        ],
        "23/03/2020 18:38:41": [
            -26
        ]
    },
    "1648": {
        "23/03/2020 13:23:34": [
            3
        ],
        "23/03/2020 15:29:48": [
            206,
            2019,
            13
        ],
        "23/03/2020 18:38:42": [
            -4
        ]
    },
    "1649": {
        "23/03/2020 13:23:34": [
            -19
        ],
        "23/03/2020 15:29:48": [
            195,
            2008,
            11
        ],
        "23/03/2020 18:38:42": [
            -30
        ]
    },
    "1911": {
        "23/03/2020 13:23:35": [
            -494,
            23
        ],
        "23/03/2020 15:29:48": [
            206,
            2019,
            -13
        ],
        "23/03/2020 18:38:43": [
            25,
            3
        ]
    },
    "1913": {
        "23/03/2020 13:23:36": [
            -496,
            21
        ],
        "23/03/2020 15:29:49": [
            203,
            2016,
            -11
        ],
        "23/03/2020 18:38:44": [
            25,
            7
        ]
    },
    "1914": {
        "23/03/2020 13:23:36": [
            -512,
            5
        ],
        "23/03/2020 15:29:49": [
            186,
            1999,
            -24
        ],
        "23/03/2020 18:38:44": [
            10,
            -5
        ]
    },
    "1805": {
        "23/03/2020 13:23:37": [
            -533,
            -16
        ],
        "23/03/2020 15:29:49": [
            230,
            2043,
            17
        ],
        "23/03/2020 18:38:45": [
            -10,
            -30
        ]
    },
    "1806": {
        "23/03/2020 13:23:37": [
            -514,
            15
        ],
        "23/03/2020 15:29:49": [
            196,
            2030,
            -30
        ],
        "23/03/2020 18:38:46": [
            9,
            -13
        ]
    },
    "1660": {
        "23/03/2020 13:23:38": [
            -504,
            -9
        ],
        "23/03/2020 15:29:50": [
            187,
            2021,
            0
        ],
        "23/03/2020 18:38:46": [
            -1,
            7
        ]
    },
    "1661": {
        "23/03/2020 13:23:39": [
            -490,
            5
        ],
        "23/03/2020 15:29:50": [
            157,
            1991,
            -27
        ],
        "23/03/2020 18:38:47": [
            23
        ]
    },
    "1662": {
        "23/03/2020 13:23:39": [
            -393,
            28
        ],
        "23/03/2020 15:29:50": [
            198,
            2032,
            18
        ],
        "23/03/2020 18:38:47": [
            -3
        ]
    },
    "1664": {
        "23/03/2020 13:23:40": [
            -445,
            -24
        ],
        "23/03/2020 15:29:51": [
            159,
            1993,
            -10
        ],
        "23/03/2020 18:38:48": [
            19
        ]
    },
    "1665": {
        "23/03/2020 13:23:41": [
            -402,
            19
        ],
        "23/03/2020 15:29:51": [
            210,
            2044,
            -11
        ],
        "23/03/2020 18:38:49": [
            11
        ]
    },
    "1666": {
        "23/03/2020 13:23:41": [
            -424,
            -3
        ],
        "23/03/2020 15:29:51": [
            196,
            2030,
            -30
        ],
        "23/03/2020 18:38:49": [
            -7
        ]
    },
    "1807": {
        "23/03/2020 13:23:42": [
            -411,
            10
        ],
        "23/03/2020 15:29:52": [
            210,
            2044,
            -4
        ],
        "23/03/2020 18:38:50": [
            9
        ]
    },
    "7167": {
        "23/03/2020 13:23:43": [
            -439,
            -18
        ],
        "23/03/2020 15:29:52": [
            197,
            2031,
            -29
        ],
        "23/03/2020 18:38:51": [
            -19
        ]
    },
    "1808": {
        "23/03/2020 13:23:44": [
            -440,
            -19
        ],
        "23/03/2020 15:29:52": [
            199,
            2033,
            -17
        ],
        "23/03/2020 18:38:51": [
            -8
        ]
    },
    "1813": {
        "23/03/2020 13:23:44": [
            -420,
            1
        ],
        "23/03/2020 15:29:52": [
            190,
            2024
        ],
        "23/03/2020 18:38:52": [
            -24
        ]
    },
    "1814": {
        "23/03/2020 13:23:45": [
            -411,
            10
        ],
        "23/03/2020 15:29:53": [
            202,
            2036
        ],
        "23/03/2020 18:38:52": [
            -12
        ]
    },
    "1852": {
        "23/03/2020 13:23:45": [
            -444
        ],
        "23/03/2020 15:29:53": [
            173,
            2007
        ],
        "23/03/2020 18:38:53": [
            19
        ]
    },
    "1853": {
        "23/03/2020 13:23:46": [
            -419
        ],
        "23/03/2020 15:29:54": [
            202,
            2036
        ],
        "23/03/2020 18:38:54": [
            -12
        ]
    },
    "1854": {
        "23/03/2020 13:23:47": [
            -435
        ],
        "23/03/2020 15:29:54": [
            188,
            2022
        ],
        "23/03/2020 18:38:54": [
            -26
        ]
    },
    "1844": {
        "23/03/2020 13:23:47": [
            -398
        ],
        "23/03/2020 15:29:55": [
            174,
            2008
        ],
        "23/03/2020 18:38:55": [
            22
        ]
    },
    "6172": {
        "23/03/2020 13:23:48": [
            -451
        ],
        "23/03/2020 15:29:55": [
            193,
            2027
        ],
        "23/03/2020 18:38:55": [
            -16
        ]
    },
    "4493": {
        "23/03/2020 13:23:48": [
            -421
        ],
        "23/03/2020 15:29:55": [
            170,
            2004
        ],
        "23/03/2020 18:38:56": [
            23
        ]
    },
    "4362": {
        "23/03/2020 13:23:49": [
            -423
        ],
        "23/03/2020 15:29:56": [
            174,
            2008
        ],
        "23/03/2020 18:38:57": [
            28
        ]
    },
    "7025": {
        "23/03/2020 13:23:50": [
            -415
        ],
        "23/03/2020 15:29:56": [
            199,
            2033
        ],
        "23/03/2020 18:38:57": [
            -3
        ]
    },
    "4464": {
        "23/03/2020 13:23:50": [
            -419
        ],
        "23/03/2020 15:29:57": [
            191,
            2025
        ],
        "23/03/2020 18:38:58": [
            19
        ]
    },
    "1869": {
        "23/03/2020 13:23:51": [
            -426
        ],
        "23/03/2020 15:29:57": [
            208,
            2042
        ],
        "23/03/2020 18:38:58": [
            23
        ]
    },
    "1870": {
        "23/03/2020 13:23:51": [
            -449
        ],
        "23/03/2020 15:29:57": [
            189,
            2023
        ],
        "23/03/2020 18:38:59": [
            0
        ]
    },
    "1871": {
        "23/03/2020 13:23:52": [
            -402
        ],
        "23/03/2020 15:29:58": [
            179,
            2013
        ],
        "23/03/2020 18:39:00": [
            -15
        ]
    },
    "1872": {
        "23/03/2020 13:23:53": [
            -413
        ],
        "23/03/2020 15:29:58": [
            172,
            2006
        ],
        "23/03/2020 18:39:01": [
            -26
        ]
    },
    "1873": {
        "23/03/2020 13:23:53": [
            -418
        ],
        "23/03/2020 15:29:58": [
            173,
            2007
        ],
        "23/03/2020 18:39:01": [
            28
        ]
    },
    "1874": {
        "23/03/2020 13:23:54": [
            -428
        ],
        "23/03/2020 15:29:59": [
            167,
            2001
        ],
        "23/03/2020 18:39:02": [
            18
        ]
    },
    "1875": {
        "23/03/2020 13:23:54": [
            -446
        ],
        "23/03/2020 15:29:59": [
            212,
            2046
        ],
        "23/03/2020 18:39:03": [
            -1
        ]
    },
    "1876": {
        "23/03/2020 13:23:55": [
            -403
        ],
        "23/03/2020 15:29:59": [
            199,
            2033
        ],
        "23/03/2020 18:39:04": [
            -19
        ]
    },
    "1877": {
        "23/03/2020 13:23:56": [
            -410
        ],
        "23/03/2020 15:30:00": [
            196,
            2030
        ],
        "23/03/2020 18:39:04": [
            28
        ]
    },
    "1878": {
        "23/03/2020 13:23:56": [
            -406
        ],
        "23/03/2020 15:30:00": [
            202,
            2036
        ],
        "23/03/2020 18:39:05": [
            -26
        ]
    },
    "1879": {
        "23/03/2020 13:23:57": [
            -394
        ],
        "23/03/2020 15:30:00": [
            215,
            2049
        ],
        "23/03/2020 18:39:06": [
            -13
        ]
    },
    "1899": {
        "23/03/2020 13:23:58": [
            -439
        ],
        "23/03/2020 15:30:01": [
            172,
            2006
        ],
        "23/03/2020 18:39:07": [
            4
        ]
    },
    "1887": {
        "23/03/2020 13:23:58": [
            -1392,
            -393
        ],
        "23/03/2020 15:30:02": [
            161,
            1995
        ],
        "23/03/2020 18:39:08": [
            -7
        ]
    },
    "1888": {
        "23/03/2020 13:23:59": [
            -1431,
            -432
        ],
        "23/03/2020 15:30:02": [
            183,
            2017
        ],
        "23/03/2020 18:39:08": [
            15
        ]
    },
    "1889": {
        "23/03/2020 13:23:59": [
            -1435,
            -436
        ],
        "23/03/2020 15:30:03": [
            180,
            2014
        ],
        "23/03/2020 18:39:09": [
            12
        ]
    },
    "1890": {
        "23/03/2020 13:24:00": [
            -1421,
            -422
        ],
        "23/03/2020 15:30:03": [],
        "23/03/2020 18:39:09": [
            -1373,
            -8
        ]
    },
    "7240": {
        "23/03/2020 13:24:01": [
            -1400,
            -401
        ],
        "23/03/2020 15:30:03": [],
        "23/03/2020 18:39:10": [
            -1345,
            20
        ]
    },
    "1891": {
        "23/03/2020 13:24:01": [
            -1435,
            -572
        ],
        "23/03/2020 15:30:03": [],
        "23/03/2020 18:39:11": [
            -1378,
            -11
        ]
    },
    "7156": {
        "23/03/2020 13:24:02": [
            -1412,
            -413
        ],
        "23/03/2020 15:30:04": [],
        "23/03/2020 18:39:11": [
            -1354,
            13
        ]
    },
    "7020": {
        "23/03/2020 13:24:03": [
            -1450,
            -451
        ],
        "23/03/2020 15:30:04": [],
        "23/03/2020 18:39:12": [
            -1386,
            -21
        ]
    },
    "7029": {
        "23/03/2020 13:24:03": [
            -1425,
            -426
        ],
        "23/03/2020 15:30:05": [],
        "23/03/2020 18:39:13": [
            -1361
        ]
    },
    "7038": {
        "23/03/2020 13:24:04": [
            -1441,
            -442
        ],
        "23/03/2020 15:30:05": [],
        "23/03/2020 18:39:13": [
            -1374
        ]
    },
    "7011": {
        "23/03/2020 13:24:05": [
            -1369,
            -440
        ],
        "23/03/2020 15:30:05": [],
        "23/03/2020 18:39:14": [
            -1407
        ]
    },
    "2171": {
        "23/03/2020 13:24:05": [
            -1337,
            -408
        ],
        "23/03/2020 15:30:06": [],
        "23/03/2020 18:39:15": [
            -1344
        ]
    },
    "7160": {
        "23/03/2020 13:24:06": [
            -1380,
            -451
        ],
        "23/03/2020 15:30:06": [],
        "23/03/2020 18:39:15": [
            -1327
        ]
    },
    "7700": {
        "23/03/2020 13:24:06": [
            -1354,
            -425
        ],
        "23/03/2020 15:30:06": [],
        "23/03/2020 18:39:16": [
            -1301
        ]
    },
    "7047": {
        "23/03/2020 13:24:07": [
            -1379,
            -450
        ],
        "23/03/2020 15:30:07": [],
        "23/03/2020 18:39:17": [
            -1327
        ]
    },
    "7161": {
        "23/03/2020 13:24:08": [
            -1340
        ],
        "23/03/2020 15:30:07": [],
        "23/03/2020 18:39:17": [
            -1288
        ]
    },
    "7162": {
        "23/03/2020 13:24:08": [],
        "23/03/2020 15:30:07": [],
        "23/03/2020 18:39:18": []
    }
}