{
    "7333": {
        "21/03/2020 14:25:38": [
            0,
            0
        ],
        "21/03/2020 14:26:03": [
            0,
            0
        ],
        "21/03/2020 17:03:25": [
            0,
            0
        ],
        "21/03/2020 19:39:12": [
            0,
            0
        ],
        "21/03/2020 21:41:04": [
            0,
            0
        ]
    },
    "1852": {
        "21/03/2020 14:25:38": [
            122,
            22
        ],
        "21/03/2020 14:26:12": [
            122,
            22
        ],
        "21/03/2020 14:29:38": [
            -5,
            22
        ],
        "21/03/2020 17:04:02": [
            -6
        ],
        "21/03/2020 19:40:06": [
            -5,
            -137
        ],
        "21/03/2020 21:41:58": [
            -281
        ]
    },
    "1853": {
        "21/03/2020 14:25:39": [
            151,
            -24
        ],
        "21/03/2020 14:26:13": [
            151,
            -24
        ],
        "21/03/2020 14:29:38": [
            24,
            -24
        ],
        "21/03/2020 17:04:02": [
            16
        ],
        "21/03/2020 19:40:06": [
            10,
            -122
        ],
        "21/03/2020 21:41:58": [
            -270
        ]
    },
    "1854": {
        "21/03/2020 14:25:39": [
            137,
            14
        ],
        "21/03/2020 14:26:13": [
            137,
            14
        ],
        "21/03/2020 14:29:38": [
            10,
            14
        ],
        "21/03/2020 17:04:03": [
            -3
        ],
        "21/03/2020 19:40:06": [
            -11,
            -143
        ],
        "21/03/2020 21:41:58": [
            -293
        ]
    },
    "1869": {
        "21/03/2020 14:25:39": [
            108
        ],
        "21/03/2020 14:26:15": [
            108
        ],
        "21/03/2020 14:29:42": [
            -19
        ],
        "21/03/2020 17:04:05": [
            -30
        ],
        "21/03/2020 19:40:09": [
            -4,
            -136
        ],
        "21/03/2020 21:42:01": [
            -632,
            -266
        ]
    },
    "1870": {
        "21/03/2020 14:25:40": [
            145
        ],
        "21/03/2020 14:26:15": [
            145
        ],
        "21/03/2020 14:29:43": [
            18
        ],
        "21/03/2020 17:04:05": [
            11
        ],
        "21/03/2020 19:40:10": [
            27,
            -105
        ],
        "21/03/2020 21:42:02": [
            -663,
            -297
        ]
    },
    "1871": {
        "21/03/2020 14:25:40": [
            131
        ],
        "21/03/2020 14:26:15": [
            131
        ],
        "21/03/2020 14:29:43": [
            4
        ],
        "21/03/2020 17:04:05": [
            0
        ],
        "21/03/2020 19:40:10": [
            6,
            -126
        ],
        "21/03/2020 21:42:02": [
            -628,
            -262
        ]
    },
    "1872": {
        "21/03/2020 14:25:40": [
            120
        ],
        "21/03/2020 14:26:16": [
            120
        ],
        "21/03/2020 14:29:43": [
            -7
        ],
        "21/03/2020 17:04:05": [
            -7
        ],
        "21/03/2020 19:40:11": [
            -12,
            -144
        ],
        "21/03/2020 21:42:03": [
            -650,
            -284
        ]
    },
    "1873": {
        "21/03/2020 14:25:40": [
            116
        ],
        "21/03/2020 14:26:16": [
            116
        ],
        "21/03/2020 14:29:44": [
            -11
        ],
        "21/03/2020 17:04:06": [
            -6
        ],
        "21/03/2020 19:40:11": [
            -25,
            -157
        ],
        "21/03/2020 21:42:03": [
            -647,
            -301
        ]
    },
    "1874": {
        "21/03/2020 14:25:41": [
            106
        ],
        "21/03/2020 14:26:16": [
            106
        ],
        "21/03/2020 14:29:44": [
            -21
        ],
        "21/03/2020 17:04:06": [
            -12
        ],
        "21/03/2020 19:40:11": [
            17,
            -115
        ],
        "21/03/2020 21:42:03": [
            -608,
            -262
        ]
    },
    "1875": {
        "21/03/2020 14:25:41": [
            147
        ],
        "21/03/2020 14:26:17": [
            147
        ],
        "21/03/2020 14:29:44": [
            20
        ],
        "21/03/2020 17:04:06": [
            -27
        ],
        "21/03/2020 19:40:12": [
            -8,
            -140
        ],
        "21/03/2020 21:42:04": [
            -636,
            -290
        ]
    },
    "1876": {
        "21/03/2020 14:25:41": [
            130
        ],
        "21/03/2020 14:26:17": [
            130
        ],
        "21/03/2020 14:29:44": [
            3
        ],
        "21/03/2020 17:04:07": [
            19
        ],
        "21/03/2020 19:40:12": [
            28,
            -104
        ],
        "21/03/2020 21:42:04": [
            -603,
            -257
        ]
    },
    "1877": {
        "21/03/2020 14:25:42": [
            124
        ],
        "21/03/2020 14:26:17": [
            124
        ],
        "21/03/2020 14:29:45": [
            -3
        ],
        "21/03/2020 17:04:07": [
            12
        ],
        "21/03/2020 19:40:13": [
            14,
            -118
        ],
        "21/03/2020 21:42:04": [
            -617,
            -271
        ]
    },
    "1878": {
        "21/03/2020 14:25:42": [
            123
        ],
        "21/03/2020 14:26:17": [
            123
        ],
        "21/03/2020 14:29:45": [
            -4
        ],
        "21/03/2020 17:04:08": [
            25
        ],
        "21/03/2020 19:40:13": [
            10,
            -122
        ],
        "21/03/2020 21:42:05": [
            -628,
            -282
        ]
    },
    "1879": {
        "21/03/2020 14:25:42": [
            129
        ],
        "21/03/2020 14:26:18": [
            129
        ],
        "21/03/2020 14:29:45": [
            2
        ],
        "21/03/2020 17:04:08": [
            -14
        ],
        "21/03/2020 19:40:14": [
            12,
            -120
        ],
        "21/03/2020 21:42:05": [
            -654,
            -288
        ]
    },
    "6172": {
        "21/03/2020 14:25:43": [
            103
        ],
        "21/03/2020 14:26:13": [
            103
        ],
        "21/03/2020 14:29:40": [
            -24,
            -25
        ],
        "21/03/2020 17:04:03": [
            11
        ],
        "21/03/2020 19:40:07": [
            -3,
            -135
        ],
        "21/03/2020 21:41:59": [
            -254
        ]
    },
    "7011": {
        "21/03/2020 14:25:43": [
            -97
        ],
        "21/03/2020 14:26:21": [
            -97
        ],
        "21/03/2020 14:29:49": [
            -6
        ],
        "21/03/2020 17:04:13": [
            -931,
            -12
        ],
        "21/03/2020 19:40:19": [
            -122,
            18
        ],
        "21/03/2020 21:42:10": [
            -632,
            -266
        ]
    },
    "7020": {
        "21/03/2020 14:25:43": [],
        "21/03/2020 14:26:20": [],
        "21/03/2020 14:29:48": [
            -12
        ],
        "21/03/2020 17:04:12": [
            -948,
            23
        ],
        "21/03/2020 19:40:18": [
            -80,
            10
        ],
        "21/03/2020 21:42:09": [
            -636,
            -270
        ]
    },
    "7025": {
        "21/03/2020 14:25:43": [
            140
        ],
        "21/03/2020 14:26:14": [
            140
        ],
        "21/03/2020 14:29:41": [
            13
        ],
        "21/03/2020 17:04:04": [
            -28
        ],
        "21/03/2020 19:40:09": [
            -22,
            -154
        ],
        "21/03/2020 21:42:01": [
            -255
        ]
    },
    "7029": {
        "21/03/2020 14:25:44": [],
        "21/03/2020 14:26:21": [],
        "21/03/2020 14:29:48": [
            12
        ],
        "21/03/2020 17:04:12": [
            -923,
            -11
        ],
        "21/03/2020 19:40:18": [
            -116,
            -26
        ],
        "21/03/2020 21:42:10": [
            -613,
            -247
        ]
    },
    "7038": {
        "21/03/2020 14:25:44": [
            -97
        ],
        "21/03/2020 14:26:21": [
            -97
        ],
        "21/03/2020 14:29:48": [
            -6
        ],
        "21/03/2020 17:04:13": [
            -936,
            -21
        ],
        "21/03/2020 19:40:18": [
            -73,
            17
        ],
        "21/03/2020 21:42:10": [
            -631,
            -265
        ]
    },
    "7586": {
        "21/03/2020 14:25:44": [
            -14,
            -14
        ],
        "21/03/2020 14:26:05": [
            -14,
            -14
        ],
        "21/03/2020 14:29:30": [
            -14,
            -14
        ],
        "21/03/2020 17:03:54": [
            -28
        ],
        "21/03/2020 19:39:55": [
            -19
        ],
        "21/03/2020 21:41:47": [
            -10,
            -10
        ]
    },
    "7587": {
        "21/03/2020 14:25:45": [
            26,
            26
        ],
        "21/03/2020 14:26:05": [
            26,
            26
        ],
        "21/03/2020 14:29:31": [
            26,
            26
        ],
        "21/03/2020 17:03:55": [
            -2
        ],
        "21/03/2020 19:39:56": [
            -141,
            -9
        ],
        "21/03/2020 21:41:48": [
            -21
        ]
    },
    "7588": {
        "21/03/2020 14:25:45": [
            26,
            26
        ],
        "21/03/2020 14:26:05": [
            26,
            26
        ],
        "21/03/2020 14:29:31": [
            26,
            26
        ],
        "21/03/2020 17:03:55": [
            -5
        ],
        "21/03/2020 19:39:56": [
            -148,
            -16
        ],
        "21/03/2020 21:41:48": [
            26
        ]
    },
    "1805": {
        "21/03/2020 14:25:45": [
            129,
            29
        ],
        "21/03/2020 14:26:09": [
            129,
            29
        ],
        "21/03/2020 14:29:34": [
            33,
            29
        ],
        "21/03/2020 17:03:58": [
            -97
        ],
        "21/03/2020 19:40:00": [
            -141,
            -9
        ],
        "21/03/2020 21:41:52": [
            -278,
            -3
        ]
    },
    "1806": {
        "21/03/2020 14:25:46": [
            107,
            1
        ],
        "21/03/2020 14:26:09": [
            107,
            1
        ],
        "21/03/2020 14:29:34": [
            -20,
            1
        ],
        "21/03/2020 17:03:58": [
            9
        ],
        "21/03/2020 19:40:01": [
            -127,
            5
        ],
        "21/03/2020 21:41:53": [
            -278,
            -3
        ]
    },
    "1807": {
        "21/03/2020 14:25:46": [
            100,
            24
        ],
        "21/03/2020 14:26:11": [
            100,
            24
        ],
        "21/03/2020 14:29:36": [
            -27,
            24
        ],
        "21/03/2020 17:04:01": [
            -21
        ],
        "21/03/2020 19:40:04": [
            -115
        ],
        "21/03/2020 21:41:56": [
            -292,
            -17
        ]
    },
    "1808": {
        "21/03/2020 14:25:46": [
            132,
            3
        ],
        "21/03/2020 14:26:11": [
            132,
            3
        ],
        "21/03/2020 14:29:37": [
            5,
            3
        ],
        "21/03/2020 17:04:01": [
            26
        ],
        "21/03/2020 19:40:04": [
            -7,
            -139
        ],
        "21/03/2020 21:41:56": [
            -258,
            17
        ]
    },
    "1813": {
        "21/03/2020 14:25:46": [
            139,
            8
        ],
        "21/03/2020 14:26:12": [
            139,
            8
        ],
        "21/03/2020 14:29:37": [
            12,
            8
        ],
        "21/03/2020 17:04:01": [
            27
        ],
        "21/03/2020 19:40:05": [
            -23,
            -155
        ],
        "21/03/2020 21:41:57": [
            -291,
            -16
        ]
    },
    "1814": {
        "21/03/2020 14:25:47": [
            151,
            8
        ],
        "21/03/2020 14:26:12": [
            151,
            8
        ],
        "21/03/2020 14:29:37": [
            24,
            8
        ],
        "21/03/2020 17:04:02": [
            -28
        ],
        "21/03/2020 19:40:05": [
            -22,
            -154
        ],
        "21/03/2020 21:41:57": [
            -293
        ]
    },
    "1844": {
        "21/03/2020 14:25:47": [
            132,
            7
        ],
        "21/03/2020 14:26:13": [
            132,
            7
        ],
        "21/03/2020 14:29:39": [
            5,
            7
        ],
        "21/03/2020 17:04:03": [
            -12
        ],
        "21/03/2020 19:40:07": [
            11,
            -121
        ],
        "21/03/2020 21:41:59": [
            -284
        ]
    },
    "2171": {
        "21/03/2020 14:25:47": [
            -69
        ],
        "21/03/2020 14:26:22": [
            -69
        ],
        "21/03/2020 14:29:49": [],
        "21/03/2020 17:04:13": [
            -895,
            29
        ],
        "21/03/2020 19:40:19": [
            -82,
            -12
        ],
        "21/03/2020 21:42:11": [
            -665,
            -299
        ]
    },
    "7156": {
        "21/03/2020 14:25:48": [],
        "21/03/2020 14:26:20": [],
        "21/03/2020 14:29:48": [
            -30
        ],
        "21/03/2020 17:04:12": [
            -8
        ],
        "21/03/2020 19:40:17": [
            -100,
            -10
        ],
        "21/03/2020 21:42:09": [
            -654,
            -288
        ]
    },
    "7160": {
        "21/03/2020 14:25:48": [
            -113
        ],
        "21/03/2020 14:26:22": [
            -113
        ],
        "21/03/2020 14:29:49": [],
        "21/03/2020 17:04:13": [
            -939
        ],
        "21/03/2020 19:40:20": [
            -137,
            3
        ],
        "21/03/2020 21:42:11": [
            -647,
            -281
        ]
    },
    "7161": {
        "21/03/2020 14:25:48": [
            -78
        ],
        "21/03/2020 14:26:23": [
            -78
        ],
        "21/03/2020 14:29:50": [
            -78
        ],
        "21/03/2020 17:04:14": [
            -907
        ],
        "21/03/2020 19:40:21": [
            -166,
            -26
        ],
        "21/03/2020 21:42:13": [
            -661,
            -295
        ]
    },
    "7162": {
        "21/03/2020 14:25:48": [],
        "21/03/2020 14:26:23": [],
        "21/03/2020 14:29:51": [],
        "21/03/2020 17:04:15": [],
        "21/03/2020 19:40:21": [],
        "21/03/2020 21:42:13": []
    },
    "7167": {
        "21/03/2020 14:25:49": [
            133,
            -4
        ],
        "21/03/2020 14:26:11": [
            133,
            -4
        ],
        "21/03/2020 14:29:36": [
            6,
            -4
        ],
        "21/03/2020 17:04:01": [
            14
        ],
        "21/03/2020 19:40:04": [
            -139
        ],
        "21/03/2020 21:41:56": [
            -259,
            16
        ]
    },
    "7576": {
        "21/03/2020 14:25:49": [],
        "21/03/2020 17:03:25": [],
        "21/03/2020 19:39:12": [],
        "21/03/2020 21:41:03": []
    },
    "1660": {
        "21/03/2020 14:25:49": [
            105,
            -23
        ],
        "21/03/2020 14:26:09": [
            105,
            -23
        ],
        "21/03/2020 14:29:34": [
            -22,
            -23
        ],
        "21/03/2020 17:03:59": [
            27
        ],
        "21/03/2020 19:40:01": [
            -117,
            15
        ],
        "21/03/2020 21:41:53": [
            -273,
            2
        ]
    },
    "1661": {
        "21/03/2020 14:25:50": [
            129,
            -15
        ],
        "21/03/2020 14:26:09": [
            129,
            -15
        ],
        "21/03/2020 14:29:35": [
            2,
            -15
        ],
        "21/03/2020 17:03:59": [
            -24
        ],
        "21/03/2020 19:40:02": [
            -130,
            2
        ],
        "21/03/2020 21:41:54": [
            -293,
            -18
        ]
    },
    "1662": {
        "21/03/2020 14:25:50": [
            104,
            1
        ],
        "21/03/2020 14:26:10": [
            104,
            1
        ],
        "21/03/2020 14:29:35": [
            -23,
            1
        ],
        "21/03/2020 17:03:59": [
            -7
        ],
        "21/03/2020 19:40:02": [
            -136,
            -4
        ],
        "21/03/2020 21:41:54": [
            -247,
            28
        ]
    },
    "1664": {
        "21/03/2020 14:25:50": [
            121,
            -1
        ],
        "21/03/2020 14:26:10": [
            121,
            -1
        ],
        "21/03/2020 14:29:35": [
            -6,
            -1
        ],
        "21/03/2020 17:04:00": [
            -4
        ],
        "21/03/2020 19:40:02": [
            -142,
            -10
        ],
        "21/03/2020 21:41:54": [
            -250,
            25
        ]
    },
    "1665": {
        "21/03/2020 14:25:50": [
            110,
            -23
        ],
        "21/03/2020 14:26:10": [
            110,
            -23
        ],
        "21/03/2020 14:29:36": [
            -17,
            -23
        ],
        "21/03/2020 17:04:00": [
            -23
        ],
        "21/03/2020 19:40:03": [
            -107,
            25
        ],
        "21/03/2020 21:41:55": [
            -274,
            1
        ]
    },
    "1666": {
        "21/03/2020 14:25:51": [
            146,
            7
        ],
        "21/03/2020 14:26:11": [
            146,
            7
        ],
        "21/03/2020 14:29:36": [
            19,
            7
        ],
        "21/03/2020 17:04:00": [
            22
        ],
        "21/03/2020 19:40:03": [
            -128,
            4
        ],
        "21/03/2020 21:41:55": [
            -299,
            -24
        ]
    },
    "1887": {
        "21/03/2020 14:25:51": [
            117
        ],
        "21/03/2020 14:26:18": [
            117
        ],
        "21/03/2020 14:29:46": [
            -10
        ],
        "21/03/2020 17:04:10": [
            11
        ],
        "21/03/2020 19:40:14": [
            -10,
            -142
        ],
        "21/03/2020 21:42:06": [
            -637,
            -271
        ]
    },
    "1888": {
        "21/03/2020 14:25:51": [
            136
        ],
        "21/03/2020 14:26:19": [
            136
        ],
        "21/03/2020 14:29:46": [
            9
        ],
        "21/03/2020 17:04:10": [
            -25
        ],
        "21/03/2020 19:40:15": [
            8,
            -124
        ],
        "21/03/2020 21:42:06": [
            -621,
            -255
        ]
    },
    "1889": {
        "21/03/2020 14:25:52": [
            128
        ],
        "21/03/2020 14:26:19": [
            128
        ],
        "21/03/2020 14:29:46": [
            1
        ],
        "21/03/2020 17:04:11": [
            -22
        ],
        "21/03/2020 19:40:15": [
            -3,
            -135
        ],
        "21/03/2020 21:42:07": [
            -638,
            -272
        ]
    },
    "1890": {
        "21/03/2020 14:25:52": [
            150
        ],
        "21/03/2020 14:26:19": [
            150
        ],
        "21/03/2020 14:29:47": [
            23
        ],
        "21/03/2020 17:04:11": [
            -25
        ],
        "21/03/2020 19:40:16": [
            -11,
            -143
        ],
        "21/03/2020 21:42:08": [
            -651,
            -285
        ]
    },
    "1891": {
        "21/03/2020 14:25:52": [],
        "21/03/2020 14:26:20": [],
        "21/03/2020 14:29:47": [
            7
        ],
        "21/03/2020 17:04:11": [
            26
        ],
        "21/03/2020 19:40:17": [
            -63,
            27
        ],
        "21/03/2020 21:42:09": [
            -616,
            -250
        ]
    },
    "1899": {
        "21/03/2020 14:25:52": [
            139
        ],
        "21/03/2020 14:26:18": [
            139
        ],
        "21/03/2020 14:29:46": [
            12
        ],
        "21/03/2020 17:04:09": [
            10
        ],
        "21/03/2020 19:40:14": [
            17,
            -115
        ],
        "21/03/2020 21:42:06": [
            -657,
            -291
        ]
    },
    "1911": {
        "21/03/2020 14:25:53": [
            21,
            8
        ],
        "21/03/2020 14:26:08": [
            21,
            8
        ],
        "21/03/2020 14:29:33": [
            -30,
            8
        ],
        "21/03/2020 17:03:57": [
            4,
            21
        ],
        "21/03/2020 19:39:59": [
            -150,
            -18
        ],
        "21/03/2020 21:41:51": [
            -282,
            -7
        ]
    },
    "1913": {
        "21/03/2020 14:25:53": [
            26,
            11
        ],
        "21/03/2020 14:26:08": [
            26,
            11
        ],
        "21/03/2020 14:29:33": [
            26,
            11
        ],
        "21/03/2020 17:03:58": [
            4,
            9
        ],
        "21/03/2020 19:40:00": [
            -153,
            -21
        ],
        "21/03/2020 21:41:52": [
            -288,
            -13
        ]
    },
    "1914": {
        "21/03/2020 14:25:53": [
            76,
            -2
        ],
        "21/03/2020 14:26:08": [
            76,
            -2
        ],
        "21/03/2020 14:29:34": [
            76,
            -2
        ],
        "21/03/2020 17:03:58": [
            -10,
            -14
        ],
        "21/03/2020 19:40:00": [
            -110,
            22
        ],
        "21/03/2020 21:41:52": [
            -247,
            28
        ]
    },
    "328": {
        "21/03/2020 14:25:54": [
            -16,
            -16
        ],
        "21/03/2020 14:26:06": [
            -16,
            -16
        ],
        "21/03/2020 14:29:31": [
            -16,
            -16
        ],
        "21/03/2020 17:03:55": [
            -3
        ],
        "21/03/2020 19:39:56": [
            -105,
            27
        ],
        "21/03/2020 21:41:48": [
            -358,
            -15
        ]
    },
    "4362": {
        "21/03/2020 14:25:54": [
            98
        ],
        "21/03/2020 14:26:14": [
            98
        ],
        "21/03/2020 14:29:41": [
            -29
        ],
        "21/03/2020 17:04:04": [
            -1
        ],
        "21/03/2020 19:40:08": [
            1,
            -131
        ],
        "21/03/2020 21:42:00": [
            -268
        ]
    },
    "7240": {
        "21/03/2020 14:25:54": [],
        "21/03/2020 14:26:20": [
            113
        ],
        "21/03/2020 14:29:47": [
            -14
        ],
        "21/03/2020 17:04:11": [
            -8
        ],
        "21/03/2020 19:40:16": [
            4,
            -128
        ],
        "21/03/2020 21:42:08": [
            -637,
            -271
        ]
    },
    "780": {
        "21/03/2020 14:25:54": [],
        "21/03/2020 14:29:28": [],
        "21/03/2020 17:03:52": [],
        "21/03/2020 19:39:52": [],
        "21/03/2020 21:41:44": []
    },
    "781": {
        "21/03/2020 14:25:55": [],
        "21/03/2020 14:29:28": [],
        "21/03/2020 17:03:52": [],
        "21/03/2020 19:39:52": [],
        "21/03/2020 21:41:45": []
    },
    "782": {
        "21/03/2020 14:25:55": [],
        "21/03/2020 14:29:28": [],
        "21/03/2020 17:03:53": [],
        "21/03/2020 19:39:53": [],
        "21/03/2020 21:41:45": []
    },
    "783": {
        "21/03/2020 14:25:55": [
            -15,
            -15
        ],
        "21/03/2020 14:26:03": [
            -15,
            -15
        ],
        "21/03/2020 14:29:29": [
            -15,
            -15
        ],
        "21/03/2020 17:03:53": [
            -5,
            -5
        ],
        "21/03/2020 19:39:53": [
            3,
            -19
        ],
        "21/03/2020 21:41:45": [
            -19,
            -19
        ]
    },
    "784": {
        "21/03/2020 14:25:56": [
            22,
            22
        ],
        "21/03/2020 14:26:04": [
            22,
            22
        ],
        "21/03/2020 14:29:29": [
            22,
            22
        ],
        "21/03/2020 17:03:53": [
            21,
            21
        ],
        "21/03/2020 19:39:54": [
            -27,
            7
        ],
        "21/03/2020 21:41:46": [
            7,
            7
        ]
    },
    "785": {
        "21/03/2020 14:25:56": [
            26,
            26
        ],
        "21/03/2020 14:26:04": [
            26,
            26
        ],
        "21/03/2020 14:29:29": [
            26,
            26
        ],
        "21/03/2020 17:03:54": [
            7
        ],
        "21/03/2020 19:39:54": [
            26,
            -8
        ],
        "21/03/2020 21:41:46": [
            -8,
            -8
        ]
    },
    "786": {
        "21/03/2020 14:25:56": [
            21,
            21
        ],
        "21/03/2020 14:26:04": [
            21,
            21
        ],
        "21/03/2020 14:29:30": [
            21,
            21
        ],
        "21/03/2020 17:03:54": [
            9
        ],
        "21/03/2020 19:39:54": [
            -30,
            -3
        ],
        "21/03/2020 21:41:47": [
            -3,
            -3
        ]
    },
    "793": {
        "21/03/2020 14:25:57": [
            13,
            13
        ],
        "21/03/2020 14:26:04": [
            13,
            13
        ],
        "21/03/2020 14:29:30": [
            13,
            13
        ],
        "21/03/2020 17:03:54": [
            10
        ],
        "21/03/2020 19:39:55": [
            -26,
            2
        ],
        "21/03/2020 21:41:47": [
            2,
            2
        ]
    },
    "1443": {
        "21/03/2020 14:25:57": [
            -7,
            -7
        ],
        "21/03/2020 14:26:06": [
            -7,
            -7
        ],
        "21/03/2020 14:29:31": [
            -7,
            -7
        ],
        "21/03/2020 17:03:56": [
            28
        ],
        "21/03/2020 19:39:57": [
            -135,
            -3
        ],
        "21/03/2020 21:41:49": [
            -264,
            11
        ]
    },
    "1444": {
        "21/03/2020 14:25:57": [
            5,
            5
        ],
        "21/03/2020 14:26:06": [
            5,
            5
        ],
        "21/03/2020 14:29:32": [
            5,
            5
        ],
        "21/03/2020 17:03:56": [
            -14
        ],
        "21/03/2020 19:39:57": [
            -129,
            3
        ],
        "21/03/2020 21:41:49": [
            -265,
            10
        ]
    },
    "1445": {
        "21/03/2020 14:25:57": [
            26
        ],
        "21/03/2020 14:26:07": [
            26
        ],
        "21/03/2020 14:29:32": [
            26,
            26
        ],
        "21/03/2020 17:03:56": [
            13
        ],
        "21/03/2020 19:39:58": [
            -115,
            17
        ],
        "21/03/2020 21:41:50": [
            -211,
            16
        ]
    },
    "1647": {
        "21/03/2020 14:25:58": [
            60,
            -19
        ],
        "21/03/2020 14:26:07": [
            60,
            -19
        ],
        "21/03/2020 14:29:32": [
            -19,
            -19
        ],
        "21/03/2020 17:03:56": [
            -22
        ],
        "21/03/2020 19:39:58": [
            -111,
            21
        ],
        "21/03/2020 21:41:50": [
            -337,
            6
        ]
    },
    "1648": {
        "21/03/2020 14:25:58": [
            94,
            9
        ],
        "21/03/2020 14:26:07": [
            94,
            9
        ],
        "21/03/2020 14:29:32": [
            37,
            9,
            9
        ],
        "21/03/2020 17:03:57": [
            12
        ],
        "21/03/2020 19:39:58": [
            -151,
            -19
        ],
        "21/03/2020 21:41:50": [
            -325,
            18
        ]
    },
    "1649": {
        "21/03/2020 14:25:58": [
            73,
            -19
        ],
        "21/03/2020 14:26:07": [
            73,
            -19
        ],
        "21/03/2020 14:29:33": [
            14,
            -19
        ],
        "21/03/2020 17:03:57": [
            -13
        ],
        "21/03/2020 19:39:59": [
            -119,
            13
        ],
        "21/03/2020 21:41:51": [
            -360,
            -17
        ]
    },
    "4464": {
        "21/03/2020 14:25:59": [
            103
        ],
        "21/03/2020 14:26:15": [
            103
        ],
        "21/03/2020 14:29:42": [
            -24
        ],
        "21/03/2020 17:04:04": [
            -25
        ],
        "21/03/2020 19:40:09": [
            13,
            -119
        ],
        "21/03/2020 21:42:01": [
            -300
        ]
    },
    "4493": {
        "21/03/2020 14:25:59": [
            148
        ],
        "21/03/2020 14:26:14": [
            148
        ],
        "21/03/2020 14:29:40": [
            21,
            18
        ],
        "21/03/2020 17:04:03": [
            -7
        ],
        "21/03/2020 19:40:08": [
            12,
            -120
        ],
        "21/03/2020 21:42:00": [
            -250
        ]
    },
    "7047": {
        "21/03/2020 14:25:59": [
            -115
        ],
        "21/03/2020 14:26:22": [
            -115
        ],
        "21/03/2020 14:29:50": [
            -115
        ],
        "21/03/2020 17:04:14": [
            -943
        ],
        "21/03/2020 19:40:21": [
            -141,
            -1
        ],
        "21/03/2020 21:42:12": [
            -642,
            -276
        ]
    },
    "767": {
        "21/03/2020 14:25:59": [],
        "21/03/2020 14:29:24": [],
        "21/03/2020 17:03:49": [],
        "21/03/2020 19:39:47": [],
        "21/03/2020 21:41:39": []
    },
    "768": {
        "21/03/2020 14:26:00": [],
        "21/03/2020 14:29:25": [],
        "21/03/2020 17:03:49": [],
        "21/03/2020 19:39:47": [],
        "21/03/2020 21:41:40": []
    },
    "769": {
        "21/03/2020 14:26:00": [],
        "21/03/2020 14:29:25": [],
        "21/03/2020 17:03:49": [],
        "21/03/2020 19:39:47": [],
        "21/03/2020 21:41:40": []
    },
    "770": {
        "21/03/2020 14:26:00": [],
        "21/03/2020 14:29:25": [],
        "21/03/2020 17:03:50": [],
        "21/03/2020 19:39:48": [],
        "21/03/2020 21:41:40": []
    },
    "771": {
        "21/03/2020 14:26:01": [],
        "21/03/2020 14:29:26": [],
        "21/03/2020 17:03:50": [],
        "21/03/2020 19:39:48": [],
        "21/03/2020 21:41:41": []
    },
    "772": {
        "21/03/2020 14:26:01": [],
        "21/03/2020 14:29:26": [],
        "21/03/2020 17:03:50": [],
        "21/03/2020 19:39:49": [],
        "21/03/2020 21:41:41": []
    },
    "773": {
        "21/03/2020 14:26:01": [],
        "21/03/2020 14:29:26": [],
        "21/03/2020 17:03:50": [],
        "21/03/2020 19:39:49": [],
        "21/03/2020 21:41:42": []
    },
    "774": {
        "21/03/2020 14:26:02": [],
        "21/03/2020 14:29:26": [],
        "21/03/2020 17:03:51": [],
        "21/03/2020 19:39:50": [],
        "21/03/2020 21:41:42": []
    },
    "775": {
        "21/03/2020 14:26:02": [],
        "21/03/2020 14:29:27": [],
        "21/03/2020 17:03:51": [],
        "21/03/2020 19:39:50": [],
        "21/03/2020 21:41:42": []
    },
    "776": {
        "21/03/2020 14:26:02": [],
        "21/03/2020 14:29:27": [],
        "21/03/2020 17:03:51": [],
        "21/03/2020 19:39:50": [],
        "21/03/2020 21:41:43": []
    },
    "777": {
        "21/03/2020 14:26:02": [],
        "21/03/2020 14:29:27": [],
        "21/03/2020 17:03:52": [],
        "21/03/2020 19:39:51": [],
        "21/03/2020 21:41:43": []
    },
    "779": {
        "21/03/2020 14:26:03": [],
        "21/03/2020 14:29:28": [],
        "21/03/2020 17:03:52": [],
        "21/03/2020 19:39:51": [],
        "21/03/2020 21:41:44": []
    },
    "7700": {
        "21/03/2020 14:26:22": [
            -88
        ],
        "21/03/2020 14:29:50": [],
        "21/03/2020 17:04:14": [
            -915
        ],
        "21/03/2020 19:40:20": [
            -113,
            27
        ],
        "21/03/2020 21:42:12": [
            -619,
            -253
        ]
    },
    "7158": {
        "21/03/2020 14:26:24": [
            0,
            0
        ],
        "21/03/2020 14:28:56": [
            0,
            0
        ],
        "21/03/2020 14:29:02": [
            0,
            0
        ],
        "21/03/2020 17:03:26": [
            0,
            0
        ],
        "21/03/2020 19:39:14": [
            0,
            0
        ],
        "21/03/2020 21:41:06": [
            0,
            0
        ]
    },
    "7048": {
        "21/03/2020 14:26:24": [
            -22,
            -22
        ],
        "21/03/2020 14:28:59": [
            -22,
            -22
        ],
        "21/03/2020 14:29:02": [
            -22,
            -22
        ],
        "21/03/2020 17:03:27": [
            -23,
            -28
        ],
        "21/03/2020 19:39:15": [
            -16,
            -16
        ],
        "21/03/2020 21:41:06": [
            -28,
            -28
        ]
    },
    "7699": {
        "21/03/2020 14:26:24": [
            18,
            18
        ],
        "21/03/2020 14:29:02": [
            18,
            18
        ],
        "21/03/2020 17:03:27": [
            16,
            5
        ],
        "21/03/2020 19:39:15": [
            -30,
            -30
        ],
        "21/03/2020 21:41:06": [
            5,
            5
        ]
    },
    "7159": {
        "21/03/2020 14:26:25": [
            -18,
            -18
        ],
        "21/03/2020 14:28:57": [
            -18,
            -18
        ],
        "21/03/2020 14:29:03": [
            -18,
            -18
        ],
        "21/03/2020 17:03:27": [
            -21,
            25
        ],
        "21/03/2020 19:39:15": [
            -2,
            -2
        ],
        "21/03/2020 21:41:07": [
            26,
            26
        ]
    },
    "7388": {
        "21/03/2020 14:26:25": [
            0,
            0
        ],
        "21/03/2020 14:29:01": [
            0,
            0
        ],
        "21/03/2020 14:29:03": [
            0,
            0
        ],
        "21/03/2020 17:03:28": [
            -3,
            -20
        ],
        "21/03/2020 19:39:16": [
            19,
            19
        ],
        "21/03/2020 21:41:07": [
            -19,
            -19
        ]
    },
    "7017": {
        "21/03/2020 14:26:25": [
            -25,
            -25
        ],
        "21/03/2020 14:28:54": [
            -25,
            -25
        ],
        "21/03/2020 14:29:03": [
            -25,
            -25
        ],
        "21/03/2020 17:03:28": [
            25,
            11
        ],
        "21/03/2020 19:39:16": [
            -16,
            -16
        ],
        "21/03/2020 21:41:08": [
            -1,
            -1
        ]
    },
    "7018": {
        "21/03/2020 14:26:25": [
            23,
            23
        ],
        "21/03/2020 14:28:54": [
            23,
            23
        ],
        "21/03/2020 14:29:03": [
            23,
            23
        ],
        "21/03/2020 17:03:28": [
            10,
            -2
        ],
        "21/03/2020 19:39:17": [
            26,
            26
        ],
        "21/03/2020 21:41:08": [
            -22,
            -22
        ]
    },
    "7030": {
        "21/03/2020 14:26:26": [
            11,
            11
        ],
        "21/03/2020 14:28:58": [
            11,
            11
        ],
        "21/03/2020 14:29:04": [
            11,
            11
        ],
        "21/03/2020 17:03:28": [
            -5,
            -15
        ],
        "21/03/2020 19:39:17": [
            10,
            10
        ],
        "21/03/2020 21:41:09": [
            18,
            18
        ]
    },
    "7021": {
        "21/03/2020 14:26:26": [
            -20,
            -20
        ],
        "21/03/2020 14:28:58": [
            -20,
            -20
        ],
        "21/03/2020 14:29:04": [
            -20,
            -20
        ],
        "21/03/2020 17:03:29": [
            21,
            12
        ],
        "21/03/2020 19:39:17": [
            -25,
            -25
        ],
        "21/03/2020 21:41:09": [
            -18,
            -18
        ]
    },
    "7163": {
        "21/03/2020 14:26:26": [
            0,
            0
        ],
        "21/03/2020 14:28:57": [
            0,
            0
        ],
        "21/03/2020 14:29:04": [
            0,
            0
        ],
        "21/03/2020 17:03:29": [
            -24,
            -30
        ],
        "21/03/2020 19:39:18": [
            -13,
            -13
        ],
        "21/03/2020 21:41:10": [
            -12,
            -12
        ]
    },
    "1893": {
        "21/03/2020 14:26:27": [
            -30,
            -30
        ],
        "21/03/2020 14:27:56": [
            -30,
            -30
        ],
        "21/03/2020 14:29:05": [
            -30,
            -30
        ],
        "21/03/2020 17:03:29": [
            11,
            7
        ],
        "21/03/2020 19:39:18": [
            23,
            23
        ],
        "21/03/2020 21:41:10": [
            21,
            21
        ]
    },
    "1894": {
        "21/03/2020 14:26:27": [
            -23,
            -23
        ],
        "21/03/2020 14:27:58": [
            -23,
            -23
        ],
        "21/03/2020 14:29:05": [
            -23,
            -23
        ],
        "21/03/2020 17:03:30": [
            28,
            28
        ],
        "21/03/2020 19:39:19": [
            -16,
            -16
        ],
        "21/03/2020 21:41:10": [
            -24,
            -24
        ]
    },
    "1912": {
        "21/03/2020 14:26:27": [
            0,
            0
        ],
        "21/03/2020 14:28:49": [
            0,
            0
        ],
        "21/03/2020 14:29:05": [
            0,
            0
        ],
        "21/03/2020 17:03:30": [
            -6,
            -5
        ],
        "21/03/2020 19:39:19": [
            11,
            11
        ],
        "21/03/2020 21:41:11": [
            1,
            1
        ]
    },
    "1895": {
        "21/03/2020 14:26:27": [
            22,
            22
        ],
        "21/03/2020 14:28:01": [
            22,
            22
        ],
        "21/03/2020 14:29:06": [
            22,
            22
        ],
        "21/03/2020 17:03:30": [
            -29
        ],
        "21/03/2020 19:39:19": [
            -16,
            -16
        ],
        "21/03/2020 21:41:11": [
            28,
            28
        ]
    },
    "1896": {
        "21/03/2020 14:26:28": [
            -16,
            -16
        ],
        "21/03/2020 14:28:03": [
            -16,
            -16
        ],
        "21/03/2020 14:29:06": [
            -16,
            -16
        ],
        "21/03/2020 17:03:30": [
            5,
            7
        ],
        "21/03/2020 19:39:20": [
            18,
            18
        ],
        "21/03/2020 21:41:12": [
            -4,
            -4
        ]
    },
    "1897": {
        "21/03/2020 14:26:28": [
            7,
            7
        ],
        "21/03/2020 14:28:05": [
            7,
            7
        ],
        "21/03/2020 14:29:06": [
            7,
            7
        ],
        "21/03/2020 17:03:31": [
            -18,
            -16
        ],
        "21/03/2020 19:39:20": [
            -8,
            -8
        ],
        "21/03/2020 21:41:12": [
            24,
            24
        ]
    },
    "6088": {
        "21/03/2020 14:26:28": [
            20,
            20
        ],
        "21/03/2020 14:28:52": [
            20,
            20
        ],
        "21/03/2020 14:29:06": [
            20,
            20
        ],
        "21/03/2020 17:03:31": [
            3
        ],
        "21/03/2020 19:39:21": [
            12,
            12
        ],
        "21/03/2020 21:41:13": [
            -20,
            -20
        ]
    },
    "1898": {
        "21/03/2020 14:26:29": [
            5
        ],
        "21/03/2020 14:28:08": [
            5,
            5
        ],
        "21/03/2020 14:29:07": [
            5,
            5
        ],
        "21/03/2020 17:03:31": [
            14,
            18
        ],
        "21/03/2020 19:39:21": [
            19,
            19
        ],
        "21/03/2020 21:41:13": [
            -25,
            -25
        ]
    },
    "1858": {
        "21/03/2020 14:26:29": [
            0
        ],
        "21/03/2020 14:27:51": [
            0,
            0
        ],
        "21/03/2020 14:29:07": [
            0,
            0
        ],
        "21/03/2020 17:03:32": [
            -18,
            -13
        ],
        "21/03/2020 19:39:21": [
            -18,
            -18
        ],
        "21/03/2020 21:41:14": [
            -17,
            -17
        ]
    },
    "1859": {
        "21/03/2020 14:26:29": [
            -17
        ],
        "21/03/2020 14:27:54": [
            -17
        ],
        "21/03/2020 14:29:07": [
            -17,
            -17
        ],
        "21/03/2020 17:03:32": [
            26,
            22
        ],
        "21/03/2020 19:39:22": [
            20,
            20
        ],
        "21/03/2020 21:41:14": [
            15
        ]
    },
    "1860": {
        "21/03/2020 14:26:30": [
            -189,
            -27
        ],
        "21/03/2020 14:28:11": [
            -27
        ],
        "21/03/2020 14:29:08": [
            -27,
            -27
        ],
        "21/03/2020 17:03:32": [
            16,
            3
        ],
        "21/03/2020 19:39:22": [
            4,
            4
        ],
        "21/03/2020 21:41:14": [
            -8
        ]
    },
    "4492": {
        "21/03/2020 14:26:30": [
            -203,
            0
        ],
        "21/03/2020 14:28:56": [
            0
        ],
        "21/03/2020 14:29:08": [
            0,
            0
        ],
        "21/03/2020 17:03:32": [
            -17,
            25
        ],
        "21/03/2020 19:39:23": [
            27,
            27
        ],
        "21/03/2020 21:41:15": [
            12
        ]
    },
    "1861": {
        "21/03/2020 14:26:30": [
            -226
        ],
        "21/03/2020 14:28:13": [],
        "21/03/2020 14:29:08": [],
        "21/03/2020 17:03:33": [
            12,
            -2
        ],
        "21/03/2020 19:39:23": [
            -2,
            -2
        ],
        "21/03/2020 21:41:15": [
            -25,
            -25
        ]
    },
    "1862": {
        "21/03/2020 14:26:30": [
            -180,
            6
        ],
        "21/03/2020 14:28:16": [
            6
        ],
        "21/03/2020 14:29:08": [
            6
        ],
        "21/03/2020 17:03:33": [
            -13,
            -22
        ],
        "21/03/2020 19:39:23": [
            -24,
            -24
        ],
        "21/03/2020 21:41:16": [
            4,
            4
        ]
    },
    "1863": {
        "21/03/2020 14:26:31": [
            -195,
            -18
        ],
        "21/03/2020 14:28:18": [
            -18
        ],
        "21/03/2020 14:29:09": [
            -18
        ],
        "21/03/2020 17:03:33": [
            117,
            22,
            18
        ],
        "21/03/2020 19:39:24": [
            13,
            13
        ],
        "21/03/2020 21:41:16": [
            -27,
            -27
        ]
    },
    "1864": {
        "21/03/2020 14:26:31": [
            -213,
            15
        ],
        "21/03/2020 14:28:21": [
            -310,
            15
        ],
        "21/03/2020 14:29:09": [
            15
        ],
        "21/03/2020 17:03:34": [
            89,
            -6
        ],
        "21/03/2020 19:39:24": [
            -12,
            -12
        ],
        "21/03/2020 21:41:17": [
            -1,
            -1
        ]
    },
    "1865": {
        "21/03/2020 14:26:31": [
            -222,
            -4
        ],
        "21/03/2020 14:28:25": [
            -319,
            -4
        ],
        "21/03/2020 14:29:09": [
            -4
        ],
        "21/03/2020 17:03:34": [
            69,
            -26
        ],
        "21/03/2020 19:39:25": [
            -29,
            -29
        ],
        "21/03/2020 21:41:17": [
            -28,
            -28
        ]
    },
    "1866": {
        "21/03/2020 14:26:32": [
            -170,
            -22
        ],
        "21/03/2020 14:28:51": [
            -233,
            -22
        ],
        "21/03/2020 14:29:10": [
            -22
        ],
        "21/03/2020 17:03:34": [
            110,
            15
        ],
        "21/03/2020 19:39:25": [
            14,
            14
        ],
        "21/03/2020 21:41:17": [
            4,
            4
        ]
    },
    "1850": {
        "21/03/2020 14:26:32": [
            -159,
            27
        ],
        "21/03/2020 14:27:49": [
            -230,
            27
        ],
        "21/03/2020 14:29:10": [
            -327,
            27
        ],
        "21/03/2020 17:03:35": [
            98,
            3
        ],
        "21/03/2020 19:39:26": [
            6,
            6
        ],
        "21/03/2020 21:41:18": [
            -16,
            -16
        ]
    },
    "1867": {
        "21/03/2020 14:26:32": [
            -178,
            0
        ],
        "21/03/2020 14:28:51": [
            -249,
            0
        ],
        "21/03/2020 14:29:10": [
            -346,
            0
        ],
        "21/03/2020 17:03:35": [
            70,
            -25
        ],
        "21/03/2020 19:39:26": [
            -20,
            -20
        ],
        "21/03/2020 21:41:18": [
            10,
            10
        ]
    },
    "4489": {
        "21/03/2020 14:26:32": [
            -221,
            21
        ],
        "21/03/2020 14:28:50": [
            -301,
            21
        ],
        "21/03/2020 14:29:11": [
            -388,
            21
        ],
        "21/03/2020 17:03:35": [
            105,
            10
        ],
        "21/03/2020 19:39:27": [
            8,
            8
        ],
        "21/03/2020 21:41:19": [
            -30,
            -30
        ]
    },
    "4747": {
        "21/03/2020 14:26:33": [
            -118,
            0
        ],
        "21/03/2020 14:28:52": [
            -251,
            0
        ],
        "21/03/2020 14:29:11": [
            -329,
            0
        ],
        "21/03/2020 17:03:35": [
            70,
            -4
        ],
        "21/03/2020 19:39:27": [
            20,
            20
        ],
        "21/03/2020 21:41:19": [
            7,
            7
        ]
    },
    "1882": {
        "21/03/2020 14:26:33": [
            -132,
            -9
        ],
        "21/03/2020 14:28:51": [
            -265,
            -9
        ],
        "21/03/2020 14:29:11": [
            -386,
            -9
        ],
        "21/03/2020 17:03:36": [
            71,
            -3
        ],
        "21/03/2020 19:39:28": [
            -24,
            -24
        ],
        "21/03/2020 21:41:20": [
            -2,
            -2
        ]
    },
    "7379": {
        "21/03/2020 14:26:33": [
            -130,
            -5
        ],
        "21/03/2020 14:29:01": [
            -263,
            -5
        ],
        "21/03/2020 14:29:11": [
            -384,
            -5
        ],
        "21/03/2020 17:03:36": [
            79,
            5
        ],
        "21/03/2020 19:39:28": [
            27
        ],
        "21/03/2020 21:41:20": [
            -21,
            -21
        ]
    },
    "4903": {
        "21/03/2020 14:26:34": [
            -261,
            -2
        ],
        "21/03/2020 14:28:56": [
            -382,
            -2
        ],
        "21/03/2020 14:29:12": [
            -382,
            -2
        ],
        "21/03/2020 17:03:36": [
            13,
            13
        ],
        "21/03/2020 19:39:28": [
            14,
            18
        ],
        "21/03/2020 21:41:20": [
            21,
            21
        ]
    },
    "1883": {
        "21/03/2020 14:26:34": [
            -129,
            -1
        ],
        "21/03/2020 14:27:31": [
            -129,
            -1
        ],
        "21/03/2020 14:29:12": [
            -383,
            -1
        ],
        "21/03/2020 17:03:37": [
            92,
            18
        ],
        "21/03/2020 19:39:29": [
            2,
            6
        ],
        "21/03/2020 21:41:21": [
            0,
            0
        ]
    },
    "1884": {
        "21/03/2020 14:26:34": [
            -152,
            -23
        ],
        "21/03/2020 14:27:36": [
            -152,
            -23
        ],
        "21/03/2020 14:29:12": [
            -406,
            -23
        ],
        "21/03/2020 17:03:37": [
            72,
            -2
        ],
        "21/03/2020 19:39:29": [
            -27,
            -23
        ],
        "21/03/2020 21:41:21": [
            25,
            25
        ]
    },
    "1902": {
        "21/03/2020 14:26:34": [
            -131,
            0
        ],
        "21/03/2020 14:28:28": [
            -264,
            0
        ],
        "21/03/2020 14:29:13": [
            -385,
            0
        ],
        "21/03/2020 17:03:37": [
            26,
            26
        ],
        "21/03/2020 19:39:30": [
            -17,
            -17
        ],
        "21/03/2020 21:41:22": [
            19,
            19
        ]
    },
    "1903": {
        "21/03/2020 14:26:35": [
            -243,
            -2
        ],
        "21/03/2020 14:28:33": [
            -243,
            -2
        ],
        "21/03/2020 14:29:13": [
            -243,
            -2
        ],
        "21/03/2020 17:03:38": [
            102,
            28
        ],
        "21/03/2020 19:39:30": [
            -13,
            -13
        ],
        "21/03/2020 21:41:22": [
            11,
            11
        ]
    },
    "1904": {
        "21/03/2020 14:26:35": [
            -271,
            2
        ],
        "21/03/2020 14:28:36": [
            -271,
            2
        ],
        "21/03/2020 14:29:13": [
            -271,
            2
        ],
        "21/03/2020 17:03:38": [
            52,
            -22
        ],
        "21/03/2020 19:39:30": [
            -1,
            -1
        ],
        "21/03/2020 21:41:23": [
            9,
            9
        ]
    },
    "1840": {
        "21/03/2020 14:26:35": [
            -117,
            0
        ],
        "21/03/2020 14:28:54": [
            -250,
            0
        ],
        "21/03/2020 14:29:13": [
            -371,
            0
        ],
        "21/03/2020 17:03:38": [
            55,
            -19
        ],
        "21/03/2020 19:39:31": [
            3,
            3
        ],
        "21/03/2020 21:41:23": [
            1,
            1
        ]
    },
    "1841": {
        "21/03/2020 14:26:36": [
            -118,
            -7
        ],
        "21/03/2020 14:28:54": [
            -251,
            -7
        ],
        "21/03/2020 14:29:14": [
            -372,
            -7
        ],
        "21/03/2020 17:03:38": [
            53,
            -21
        ],
        "21/03/2020 19:39:31": [
            -6,
            -6
        ],
        "21/03/2020 21:41:23": [
            -14,
            -14
        ]
    },
    "1842": {
        "21/03/2020 14:26:36": [
            -128,
            -21
        ],
        "21/03/2020 14:28:55": [
            -261,
            -21
        ],
        "21/03/2020 14:29:14": [
            -382,
            -21
        ],
        "21/03/2020 17:03:39": [
            103,
            29
        ],
        "21/03/2020 19:39:32": [
            -23,
            -23
        ],
        "21/03/2020 21:41:24": [
            25,
            25
        ]
    },
    "7374": {
        "21/03/2020 14:26:36": [
            -150,
            8
        ],
        "21/03/2020 14:29:01": [
            -283,
            8
        ],
        "21/03/2020 14:29:14": [
            -404,
            8
        ],
        "21/03/2020 17:03:39": [
            80,
            6
        ],
        "21/03/2020 19:39:32": [
            1,
            1
        ],
        "21/03/2020 21:41:24": [
            -92,
            -19,
            -19
        ]
    },
    "1845": {
        "21/03/2020 14:26:36": [
            -160,
            -140,
            0
        ],
        "21/03/2020 14:28:55": [
            -273,
            0
        ],
        "21/03/2020 14:29:15": [
            -394,
            0
        ],
        "21/03/2020 17:03:39": [
            88,
            14
        ],
        "21/03/2020 19:39:33": [
            -15,
            -15
        ],
        "21/03/2020 21:41:25": [
            -65,
            8,
            8
        ]
    },
    "7166": {
        "21/03/2020 14:26:37": [
            -131,
            -97,
            0
        ],
        "21/03/2020 14:28:57": [
            -230,
            0
        ],
        "21/03/2020 14:29:15": [
            -230,
            0
        ],
        "21/03/2020 17:03:40": [
            65,
            -9
        ],
        "21/03/2020 19:39:33": [
            23,
            23
        ],
        "21/03/2020 21:41:25": [
            -198,
            -17,
            -17
        ]
    },
    "1847": {
        "21/03/2020 14:26:37": [
            -162,
            -142,
            0
        ],
        "21/03/2020 14:28:55": [
            -162,
            -275,
            0
        ],
        "21/03/2020 14:29:15": [
            -396,
            0
        ],
        "21/03/2020 17:03:40": [
            72,
            -2
        ],
        "21/03/2020 19:39:33": [
            -29,
            -29
        ],
        "21/03/2020 21:41:26": [
            -85,
            -12,
            -12
        ]
    },
    "1696": {
        "21/03/2020 14:26:37": [
            -163,
            -143
        ],
        "21/03/2020 14:27:40": [
            -163,
            -143
        ],
        "21/03/2020 14:29:16": [
            -163,
            -276,
            0
        ],
        "21/03/2020 17:03:40": [
            82,
            8
        ],
        "21/03/2020 19:39:34": [
            20,
            20
        ],
        "21/03/2020 21:41:26": [
            -154,
            -27,
            -27
        ]
    },
    "1697": {
        "21/03/2020 14:26:37": [
            -139,
            -119
        ],
        "21/03/2020 14:27:43": [
            -139,
            -119
        ],
        "21/03/2020 14:29:16": [
            -139,
            -373,
            21
        ],
        "21/03/2020 17:03:40": [
            46,
            -28
        ],
        "21/03/2020 19:39:34": [
            -23,
            -23
        ],
        "21/03/2020 21:41:27": [
            -140,
            -13,
            -13
        ]
    },
    "1698": {
        "21/03/2020 14:26:38": [
            -155,
            -135
        ],
        "21/03/2020 14:27:46": [
            -155,
            -135
        ],
        "21/03/2020 14:29:16": [
            -155,
            -389,
            0
        ],
        "21/03/2020 17:03:41": [
            92,
            18
        ],
        "21/03/2020 19:39:35": [
            8,
            8
        ],
        "21/03/2020 21:41:27": [
            -112,
            15,
            15
        ]
    },
    "1699": {
        "21/03/2020 14:26:38": [
            -124,
            -104
        ],
        "21/03/2020 14:27:06": [
            -124,
            -104
        ],
        "21/03/2020 14:29:16": [
            -124,
            -358,
            23
        ],
        "21/03/2020 17:03:41": [
            68,
            -6
        ],
        "21/03/2020 19:39:35": [
            -26,
            -26
        ],
        "21/03/2020 21:41:28": [
            -152,
            -25,
            -25
        ]
    },
    "1700": {
        "21/03/2020 14:26:38": [
            -135,
            -115
        ],
        "21/03/2020 14:27:10": [
            -135,
            -115
        ],
        "21/03/2020 14:29:17": [
            -135,
            -369,
            0
        ],
        "21/03/2020 17:03:41": [
            65
        ],
        "21/03/2020 19:39:36": [
            14,
            14
        ],
        "21/03/2020 21:41:28": [
            -67,
            6,
            6
        ]
    },
    "1701": {
        "21/03/2020 14:26:39": [
            -156,
            -136
        ],
        "21/03/2020 14:27:13": [
            -156,
            -136
        ],
        "21/03/2020 14:29:17": [
            -156,
            -390,
            -25
        ],
        "21/03/2020 17:03:41": [
            44
        ],
        "21/03/2020 19:39:36": [
            -15,
            -15
        ],
        "21/03/2020 21:41:28": [
            -101,
            -28,
            -28
        ]
    },
    "1702": {
        "21/03/2020 14:26:39": [
            -128,
            -108
        ],
        "21/03/2020 14:27:16": [
            -128,
            -108
        ],
        "21/03/2020 14:29:17": [
            -128,
            -362,
            0
        ],
        "21/03/2020 17:03:42": [
            71
        ],
        "21/03/2020 19:39:36": [
            8,
            8
        ],
        "21/03/2020 21:41:29": [
            -83,
            -10,
            -10
        ]
    },
    "1703": {
        "21/03/2020 14:26:39": [
            -149,
            -129
        ],
        "21/03/2020 14:27:19": [
            -149,
            -129
        ],
        "21/03/2020 14:29:17": [
            -149,
            -383
        ],
        "21/03/2020 17:03:42": [
            45
        ],
        "21/03/2020 19:39:37": [
            -23,
            -23
        ],
        "21/03/2020 21:41:29": [
            -58,
            15,
            15
        ]
    },
    "1905": {
        "21/03/2020 14:26:39": [
            -150,
            -263
        ],
        "21/03/2020 14:28:40": [
            -150,
            -263
        ],
        "21/03/2020 14:29:18": [
            -150,
            -263
        ],
        "21/03/2020 17:03:42": [
            97
        ],
        "21/03/2020 19:39:37": [
            23,
            23
        ],
        "21/03/2020 21:41:30": [
            -134,
            -7,
            -7
        ]
    },
    "1906": {
        "21/03/2020 14:26:40": [
            -170,
            -283
        ],
        "21/03/2020 14:28:45": [
            -170,
            -283
        ],
        "21/03/2020 14:29:18": [
            -170,
            -283
        ],
        "21/03/2020 17:03:43": [
            -11,
            79
        ],
        "21/03/2020 19:39:38": [
            -7,
            -7
        ],
        "21/03/2020 21:41:30": [
            -128,
            -1,
            -1
        ]
    },
    "1907": {
        "21/03/2020 14:26:40": [
            -138,
            -251
        ],
        "21/03/2020 14:28:48": [
            -138,
            -251
        ],
        "21/03/2020 14:29:18": [
            -138,
            -251
        ],
        "21/03/2020 17:03:43": [
            18,
            49
        ],
        "21/03/2020 19:39:38": [
            23,
            23
        ],
        "21/03/2020 21:41:31": [
            -106,
            21,
            21
        ]
    },
    "1908": {
        "21/03/2020 14:26:40": [
            -131,
            -230
        ],
        "21/03/2020 14:28:48": [
            -131,
            -230
        ],
        "21/03/2020 14:29:19": [
            -131,
            -230
        ],
        "21/03/2020 17:03:43": [
            27,
            99
        ],
        "21/03/2020 19:39:39": [
            6,
            6
        ],
        "21/03/2020 21:41:31": [
            -129,
            -2,
            -2
        ]
    },
    "1909": {
        "21/03/2020 14:26:41": [
            -136,
            -249
        ],
        "21/03/2020 14:28:49": [
            -136,
            -249
        ],
        "21/03/2020 14:29:19": [
            -136,
            -370
        ],
        "21/03/2020 17:03:44": [
            -5,
            29
        ],
        "21/03/2020 19:39:39": [
            0,
            0
        ],
        "21/03/2020 21:41:32": [
            -141,
            -14,
            -14
        ]
    },
    "1713": {
        "21/03/2020 14:26:41": [
            -157,
            -137
        ],
        "21/03/2020 14:27:22": [
            -157,
            -137
        ],
        "21/03/2020 14:29:19": [
            -157,
            -391
        ],
        "21/03/2020 17:03:44": [
            -30,
            56
        ],
        "21/03/2020 19:39:39": [
            16,
            16
        ],
        "21/03/2020 21:41:32": [
            -134,
            -7,
            -7
        ]
    },
    "1714": {
        "21/03/2020 14:26:41": [
            -168,
            -148
        ],
        "21/03/2020 14:27:25": [
            -168,
            -148
        ],
        "21/03/2020 14:29:20": [
            -168,
            -402
        ],
        "21/03/2020 17:03:44": [
            13,
            100
        ],
        "21/03/2020 19:39:40": [
            -10,
            -10
        ],
        "21/03/2020 21:41:32": [
            -99,
            28,
            28
        ]
    },
    "1715": {
        "21/03/2020 14:26:46": [
            -133,
            -113
        ],
        "21/03/2020 14:27:28": [
            -133,
            -113
        ],
        "21/03/2020 14:29:20": [
            -133,
            -367
        ],
        "21/03/2020 17:03:44": [
            -24,
            66
        ],
        "21/03/2020 19:39:40": [
            -4,
            -4
        ],
        "21/03/2020 21:41:33": [
            -149,
            -22
        ]
    },
    "7453": {
        "21/03/2020 14:26:50": [
            -143,
            -123
        ],
        "21/03/2020 14:28:58": [
            -143,
            -256
        ],
        "21/03/2020 14:29:20": [
            -143,
            -377
        ],
        "21/03/2020 17:03:45": [
            12,
            45
        ],
        "21/03/2020 19:39:40": [
            12,
            12
        ],
        "21/03/2020 21:41:33": [
            -129,
            -2
        ]
    },
    "1478": {
        "21/03/2020 14:26:54": [
            -137,
            -250
        ],
        "21/03/2020 14:28:53": [
            -137,
            -371
        ],
        "21/03/2020 14:29:20": [
            -137,
            -371
        ],
        "21/03/2020 17:03:45": [
            27,
            24
        ],
        "21/03/2020 19:39:41": [
            6,
            6
        ],
        "21/03/2020 21:41:34": [
            -103,
            24
        ]
    },
    "1479": {
        "21/03/2020 14:26:57": [
            -170,
            -283
        ],
        "21/03/2020 14:28:53": [
            -170,
            -404
        ],
        "21/03/2020 14:29:21": [
            -170,
            -404
        ],
        "21/03/2020 17:03:45": [
            -1,
            -19
        ],
        "21/03/2020 19:39:41": [
            24
        ],
        "21/03/2020 21:41:34": [
            -104,
            23
        ]
    },
    "315": {
        "21/03/2020 14:27:01": [
            -172,
            -152
        ],
        "21/03/2020 14:28:51": [
            -172,
            -285
        ],
        "21/03/2020 14:29:21": [
            -172,
            -406
        ],
        "21/03/2020 17:03:46": [
            8,
            94
        ],
        "21/03/2020 19:39:42": [
            4
        ],
        "21/03/2020 21:41:35": [
            -102,
            25
        ]
    },
    "313": {
        "21/03/2020 14:28:50": [],
        "21/03/2020 17:03:26": [],
        "21/03/2020 19:39:13": [],
        "21/03/2020 21:41:04": []
    },
    "404": {
        "21/03/2020 14:28:50": [
            -144
        ],
        "21/03/2020 14:29:22": [
            -144
        ],
        "21/03/2020 17:03:46": [
            10,
            62
        ],
        "21/03/2020 19:39:43": [
            -482,
            -9
        ],
        "21/03/2020 21:41:35": [
            265,
            -110,
            17
        ]
    },
    "349": {
        "21/03/2020 14:28:52": [],
        "21/03/2020 17:03:26": [],
        "21/03/2020 19:39:13": [],
        "21/03/2020 21:41:05": []
    },
    "335": {
        "21/03/2020 14:28:53": [
            -161,
            -274
        ],
        "21/03/2020 14:29:21": [
            -161,
            -395
        ],
        "21/03/2020 17:03:46": [
            4,
            76
        ],
        "21/03/2020 19:39:42": [
            -359,
            1
        ],
        "21/03/2020 21:41:35": [
            -137,
            -10
        ]
    },
    "7370": {
        "21/03/2020 14:28:56": [],
        "21/03/2020 17:03:26": [],
        "21/03/2020 19:39:14": [],
        "21/03/2020 21:41:05": []
    },
    "747": {
        "21/03/2020 14:28:58": [
            -170
        ],
        "21/03/2020 14:29:22": [
            -170,
            -404
        ],
        "21/03/2020 17:03:46": [
            -6,
            94
        ],
        "21/03/2020 19:39:43": [
            -369,
            8
        ],
        "21/03/2020 21:41:36": [
            225,
            -150,
            -23
        ]
    },
    "748": {
        "21/03/2020 14:28:59": [
            -169
        ],
        "21/03/2020 14:29:22": [
            -169
        ],
        "21/03/2020 17:03:47": [
            -18,
            85
        ],
        "21/03/2020 19:39:44": [
            -362,
            15
        ],
        "21/03/2020 21:41:36": [
            272,
            -103,
            24
        ]
    },
    "749": {
        "21/03/2020 14:28:59": [
            -154
        ],
        "21/03/2020 14:29:23": [
            -154
        ],
        "21/03/2020 17:03:47": [
            -18,
            87
        ],
        "21/03/2020 19:39:44": [
            -406,
            -23
        ],
        "21/03/2020 21:41:37": [
            270,
            -105,
            22
        ]
    },
    "7339": {
        "21/03/2020 14:29:00": [],
        "21/03/2020 14:29:24": [],
        "21/03/2020 17:03:48": [],
        "21/03/2020 19:39:46": [],
        "21/03/2020 21:41:39": []
    },
    "751": {
        "21/03/2020 14:29:00": [
            -164
        ],
        "21/03/2020 14:29:23": [
            -164
        ],
        "21/03/2020 17:03:48": [
            -26
        ],
        "21/03/2020 19:39:45": [
            -378,
            5
        ],
        "21/03/2020 21:41:38": [
            271,
            -104,
            23
        ]
    },
    "752": {
        "21/03/2020 14:29:00": [
            -156
        ],
        "21/03/2020 14:29:23": [
            -156
        ],
        "21/03/2020 17:03:48": [
            -16
        ],
        "21/03/2020 19:39:45": [
            -383,
            0
        ],
        "21/03/2020 21:41:38": [
            250,
            -125,
            2
        ]
    },
    "753": {
        "21/03/2020 14:29:00": [
            -149
        ],
        "21/03/2020 14:29:24": [
            -149
        ],
        "21/03/2020 17:03:48": [
            -69,
            0
        ],
        "21/03/2020 19:39:46": [
            -401,
            -18
        ],
        "21/03/2020 21:41:38": [
            221,
            -154,
            -27
        ]
    },
    "750": {
        "21/03/2020 14:29:01": [
            -159
        ],
        "21/03/2020 14:29:23": [
            -159
        ],
        "21/03/2020 17:03:47": [
            -22,
            67
        ],
        "21/03/2020 19:39:44": [
            -362,
            21
        ],
        "21/03/2020 21:41:37": [
            241,
            -134,
            -7
        ]
    }
}