{
    "7576": {
        "26/03/2020 13:32:17": [],
        "26/03/2020 15:55:19": [],
        "26/03/2020 18:34:30": []
    },
    "7333": {
        "26/03/2020 13:32:17": [
            36,
            0
        ],
        "26/03/2020 15:55:19": [
            0,
            0,
            0
        ],
        "26/03/2020 18:34:31": [
            0,
            0
        ]
    },
    "313": {
        "26/03/2020 13:32:17": [],
        "26/03/2020 15:55:20": [],
        "26/03/2020 18:34:32": []
    },
    "349": {
        "26/03/2020 13:32:18": [],
        "26/03/2020 15:55:20": [],
        "26/03/2020 18:34:32": []
    },
    "7370": {
        "26/03/2020 13:32:18": [],
        "26/03/2020 15:55:21": [],
        "26/03/2020 18:34:33": []
    },
    "7158": {
        "26/03/2020 13:32:19": [
            0,
            0
        ],
        "26/03/2020 15:55:21": [
            0,
            0
        ],
        "26/03/2020 18:34:33": [
            0
        ]
    },
    "7048": {
        "26/03/2020 13:32:19": [
            27,
            27
        ],
        "26/03/2020 15:55:22": [
            -26,
            -26
        ],
        "26/03/2020 18:34:34": [
            -28
        ]
    },
    "7699": {
        "26/03/2020 13:32:20": [
            -4,
            -4
        ],
        "26/03/2020 15:55:22": [
            11,
            10
        ],
        "26/03/2020 18:34:34": [
            5
        ]
    },
    "7159": {
        "26/03/2020 13:32:20": [
            14,
            14
        ],
        "26/03/2020 15:55:23": [
            121,
            -27,
            -28
        ],
        "26/03/2020 18:34:35": [
            26
        ]
    },
    "7388": {
        "26/03/2020 13:32:21": [
            27,
            27
        ],
        "26/03/2020 15:55:23": [
            177,
            -11,
            -12
        ],
        "26/03/2020 18:34:35": [
            -19
        ]
    },
    "7017": {
        "26/03/2020 13:32:21": [
            -25,
            -25
        ],
        "26/03/2020 15:55:23": [
            136,
            8
        ],
        "26/03/2020 18:34:36": [
            3
        ]
    },
    "7018": {
        "26/03/2020 13:32:22": [
            10,
            10
        ],
        "26/03/2020 15:55:24": [
            117,
            -11
        ],
        "26/03/2020 18:34:36": [
            -16
        ]
    },
    "7030": {
        "26/03/2020 13:32:22": [
            -15,
            -15
        ],
        "26/03/2020 15:55:25": [
            98,
            -30
        ],
        "26/03/2020 18:34:37": [
            26
        ]
    },
    "7021": {
        "26/03/2020 13:32:23": [
            6,
            6
        ],
        "26/03/2020 15:55:25": [
            122,
            -6
        ],
        "26/03/2020 18:34:37": [
            -9
        ]
    },
    "7163": {
        "26/03/2020 13:32:23": [
            4,
            4
        ],
        "26/03/2020 15:55:26": [
            129,
            1
        ],
        "26/03/2020 18:34:38": [
            0
        ]
    },
    "1893": {
        "26/03/2020 13:32:23": [
            -18,
            -18
        ],
        "26/03/2020 15:55:26": [
            62,
            -26
        ],
        "26/03/2020 18:34:38": [
            -29
        ]
    },
    "1894": {
        "26/03/2020 13:32:24": [
            5,
            5
        ],
        "26/03/2020 15:55:27": [
            56,
            -12
        ],
        "26/03/2020 18:34:39": [
            -18
        ]
    },
    "1912": {
        "26/03/2020 13:32:25": [
            -27,
            -27
        ],
        "26/03/2020 15:55:27": [
            141,
            13
        ],
        "26/03/2020 18:34:40": [
            5
        ]
    },
    "1895": {
        "26/03/2020 13:32:25": [
            146,
            0,
            0
        ],
        "26/03/2020 15:55:28": [
            48,
            -20
        ],
        "26/03/2020 18:34:41": [
            -29
        ]
    },
    "1896": {
        "26/03/2020 13:32:26": [
            173,
            27,
            27
        ],
        "26/03/2020 15:55:28": [
            75,
            7
        ],
        "26/03/2020 18:34:41": [
            -2
        ]
    },
    "1897": {
        "26/03/2020 13:32:26": [
            141,
            -5,
            -5
        ],
        "26/03/2020 15:55:29": [
            43,
            -25
        ],
        "26/03/2020 18:34:42": [
            25
        ]
    },
    "6088": {
        "26/03/2020 13:32:27": [
            157,
            11
        ],
        "26/03/2020 15:55:29": [
            119,
            -9
        ],
        "26/03/2020 18:34:42": [
            -19
        ]
    },
    "1898": {
        "26/03/2020 13:32:27": [
            173,
            6,
            6
        ],
        "26/03/2020 15:55:30": [
            54,
            -14
        ],
        "26/03/2020 18:34:43": [
            70,
            -26
        ]
    },
    "1858": {
        "26/03/2020 13:32:28": [
            180,
            13
        ],
        "26/03/2020 15:55:30": [
            61,
            -7
        ],
        "26/03/2020 18:34:43": [
            96,
            -20
        ]
    },
    "1859": {
        "26/03/2020 13:32:28": [
            147,
            -20
        ],
        "26/03/2020 15:55:31": [
            89,
            21
        ],
        "26/03/2020 18:34:44": [
            73,
            8
        ]
    },
    "1860": {
        "26/03/2020 13:32:29": [
            179,
            12
        ],
        "26/03/2020 15:55:31": [
            61,
            -7
        ],
        "26/03/2020 18:34:44": [
            55
        ]
    },
    "4492": {
        "26/03/2020 13:32:29": [
            196,
            29
        ],
        "26/03/2020 15:55:32": [
            78,
            10
        ],
        "26/03/2020 18:34:45": [
            78
        ]
    },
    "1861": {
        "26/03/2020 13:32:30": [
            159,
            -8
        ],
        "26/03/2020 15:55:32": [
            39,
            -29
        ],
        "26/03/2020 18:34:45": []
    },
    "1862": {
        "26/03/2020 13:32:30": [
            187,
            20
        ],
        "26/03/2020 15:55:33": [
            65,
            -3
        ],
        "26/03/2020 18:34:46": [
            79
        ]
    },
    "1863": {
        "26/03/2020 13:32:31": [
            155,
            -12
        ],
        "26/03/2020 15:55:33": [
            91,
            23
        ],
        "26/03/2020 18:34:46": [
            52
        ]
    },
    "1864": {
        "26/03/2020 13:32:31": [
            181,
            14
        ],
        "26/03/2020 15:55:34": [
            55,
            -13
        ],
        "26/03/2020 18:34:46": [
            83
        ]
    },
    "1865": {
        "26/03/2020 13:32:32": [
            153,
            -14
        ],
        "26/03/2020 15:55:34": [
            85,
            17
        ],
        "26/03/2020 18:34:47": [
            61
        ]
    },
    "1866": {
        "26/03/2020 13:32:32": [
            186,
            19
        ],
        "26/03/2020 15:55:35": [
            54,
            -14
        ],
        "26/03/2020 18:34:48": [
            100
        ]
    },
    "1850": {
        "26/03/2020 13:32:33": [
            164,
            -3
        ],
        "26/03/2020 15:55:35": [
            90,
            22
        ],
        "26/03/2020 18:34:48": [
            85
        ]
    },
    "1867": {
        "26/03/2020 13:32:34": [
            190,
            23
        ],
        "26/03/2020 15:55:36": [
            54,
            -14
        ],
        "26/03/2020 18:34:49": [
            56
        ]
    },
    "4489": {
        "26/03/2020 13:32:34": [
            157,
            -10
        ],
        "26/03/2020 15:55:36": [
            75,
            7
        ],
        "26/03/2020 18:34:49": [
            87
        ]
    },
    "4747": {
        "26/03/2020 13:32:35": [
            124,
            -3
        ],
        "26/03/2020 15:55:37": [
            115,
            -13
        ],
        "26/03/2020 18:34:50": [
            -22
        ]
    },
    "1882": {
        "26/03/2020 13:32:35": [
            119,
            -8
        ],
        "26/03/2020 15:55:37": [
            -7,
            -7
        ],
        "26/03/2020 18:34:50": [
            -13
        ]
    },
    "7379": {
        "26/03/2020 13:32:36": [
            102,
            -25
        ],
        "26/03/2020 15:55:38": [
            109,
            -19
        ],
        "26/03/2020 18:34:51": [
            -24
        ]
    },
    "4903": {
        "26/03/2020 13:32:36": [
            144,
            17
        ],
        "26/03/2020 15:55:38": [
            156,
            28
        ],
        "26/03/2020 18:34:51": [
            24
        ]
    },
    "1883": {
        "26/03/2020 13:32:37": [
            125,
            -2
        ],
        "26/03/2020 15:55:39": [
            13,
            13
        ],
        "26/03/2020 18:34:52": [
            10
        ]
    },
    "1884": {
        "26/03/2020 13:32:37": [
            151,
            24
        ],
        "26/03/2020 15:55:40": [
            -19,
            -19
        ],
        "26/03/2020 18:34:52": [
            -21
        ]
    },
    "1902": {
        "26/03/2020 13:32:38": [
            147,
            20
        ],
        "26/03/2020 15:55:45": [
            111,
            -17
        ],
        "26/03/2020 18:34:53": [
            -18
        ]
    },
    "1903": {
        "26/03/2020 13:32:38": [
            132,
            5
        ],
        "26/03/2020 15:55:51": [
            125,
            -3
        ],
        "26/03/2020 18:34:53": [
            -29
        ]
    },
    "1904": {
        "26/03/2020 13:32:39": [
            123,
            -4
        ],
        "26/03/2020 15:55:57": [
            149,
            21
        ],
        "26/03/2020 18:34:54": [
            26
        ]
    },
    "1840": {
        "26/03/2020 13:32:39": [
            108,
            -19
        ],
        "26/03/2020 15:56:02": [
            103,
            -25
        ],
        "26/03/2020 18:34:54": [
            15
        ]
    },
    "1841": {
        "26/03/2020 13:32:40": [
            147,
            20
        ],
        "26/03/2020 15:56:08": [
            144,
            16
        ],
        "26/03/2020 18:34:55": [
            2
        ]
    },
    "1842": {
        "26/03/2020 13:32:40": [
            120,
            -7
        ],
        "26/03/2020 15:56:13": [
            120,
            -8
        ],
        "26/03/2020 18:34:55": [
            -18
        ]
    },
    "7374": {
        "26/03/2020 13:32:41": [
            125,
            -2
        ],
        "26/03/2020 15:56:19": [
            129,
            1
        ],
        "26/03/2020 18:34:56": [
            1
        ]
    },
    "1845": {
        "26/03/2020 13:32:41": [
            131,
            4
        ],
        "26/03/2020 15:56:24": [
            143,
            15
        ],
        "26/03/2020 18:34:56": [
            -27
        ]
    },
    "7166": {
        "26/03/2020 13:32:42": [
            104,
            -23
        ],
        "26/03/2020 15:56:30": [
            126
        ],
        "26/03/2020 18:34:57": [
            16
        ]
    },
    "1847": {
        "26/03/2020 13:32:42": [
            103,
            -24
        ],
        "26/03/2020 15:56:35": [
            246,
            146
        ],
        "26/03/2020 18:34:58": [
            25
        ]
    },
    "1696": {
        "26/03/2020 13:32:43": [
            136,
            9
        ],
        "26/03/2020 15:56:41": [
            321,
            122
        ],
        "26/03/2020 18:34:58": [
            4
        ]
    },
    "1697": {
        "26/03/2020 13:32:43": [
            154,
            27
        ],
        "26/03/2020 15:56:46": [
            330,
            139
        ],
        "26/03/2020 18:34:58": [
            27
        ]
    },
    "1698": {
        "26/03/2020 13:32:44": [
            127,
            0
        ],
        "26/03/2020 15:56:53": [
            289,
            110
        ],
        "26/03/2020 18:34:59": [
            11
        ]
    },
    "1699": {
        "26/03/2020 13:32:45": [
            144,
            17
        ],
        "26/03/2020 15:56:58": [
            313,
            123
        ],
        "26/03/2020 18:35:00": [
            -26
        ]
    },
    "1700": {
        "26/03/2020 13:32:45": [
            110,
            -17
        ],
        "26/03/2020 15:57:03": [
            270,
            143
        ],
        "26/03/2020 18:35:00": [
            11
        ]
    },
    "1701": {
        "26/03/2020 13:32:46": [
            135,
            8
        ],
        "26/03/2020 15:57:08": [
            290,
            106
        ],
        "26/03/2020 18:35:01": [
            -16
        ]
    },
    "1702": {
        "26/03/2020 13:32:46": [
            153,
            26
        ],
        "26/03/2020 15:57:13": [
            304,
            123
        ],
        "26/03/2020 18:35:01": [
            7
        ]
    },
    "1703": {
        "26/03/2020 13:32:47": [
            122,
            -5
        ],
        "26/03/2020 15:57:19": [
            283,
            157
        ],
        "26/03/2020 18:35:02": [
            28
        ]
    },
    "1905": {
        "26/03/2020 13:32:47": [
            107,
            -20
        ],
        "26/03/2020 15:57:25": [
            302,
            149
        ],
        "26/03/2020 18:35:02": [
            2
        ]
    },
    "1906": {
        "26/03/2020 13:32:48": [
            124,
            -3
        ],
        "26/03/2020 15:57:31": [
            306,
            105
        ],
        "26/03/2020 18:35:02": [
            -16
        ]
    },
    "1907": {
        "26/03/2020 13:32:48": [
            189,
            149,
            22
        ],
        "26/03/2020 15:57:36": [
            327,
            136
        ],
        "26/03/2020 18:35:03": [
            10
        ]
    },
    "1908": {
        "26/03/2020 13:32:49": [
            169,
            129,
            2
        ],
        "26/03/2020 15:57:40": [
            315,
            105
        ],
        "26/03/2020 18:35:04": [
            -17
        ]
    },
    "1909": {
        "26/03/2020 13:32:49": [
            142,
            121,
            -6
        ],
        "26/03/2020 15:57:53": [
            316,
            142
        ],
        "26/03/2020 18:35:04": [
            26
        ]
    },
    "1713": {
        "26/03/2020 13:32:50": [
            145,
            143
        ],
        "26/03/2020 15:57:53": [
            313,
            156
        ],
        "26/03/2020 18:35:05": [
            -14
        ]
    },
    "1714": {
        "26/03/2020 13:32:50": [
            115,
            113
        ],
        "26/03/2020 15:57:54": [
            293,
            145
        ],
        "26/03/2020 18:35:05": [
            26
        ]
    },
    "1715": {
        "26/03/2020 13:32:51": [
            114,
            112
        ],
        "26/03/2020 15:57:54": [
            249,
            121
        ],
        "26/03/2020 18:35:06": [
            -16
        ]
    },
    "7453": {
        "26/03/2020 13:32:51": [
            123,
            121
        ],
        "26/03/2020 15:57:55": [
            279,
            112
        ],
        "26/03/2020 18:35:06": [
            14
        ]
    },
    "1478": {
        "26/03/2020 13:32:52": [
            129,
            127
        ],
        "26/03/2020 15:57:56": [
            237,
            142
        ],
        "26/03/2020 18:35:07": [
            -543,
            -28
        ]
    },
    "1479": {
        "26/03/2020 13:32:53": [
            137,
            135
        ],
        "26/03/2020 15:57:56": [
            230,
            124
        ],
        "26/03/2020 18:35:07": [
            -450,
            26
        ]
    },
    "315": {
        "26/03/2020 13:32:53": [],
        "26/03/2020 15:57:57": [
            279,
            154
        ],
        "26/03/2020 18:35:08": [
            -460,
            16
        ]
    },
    "335": {
        "26/03/2020 13:32:54": [
            115,
            113
        ],
        "26/03/2020 15:57:57": [
            259,
            101
        ],
        "26/03/2020 18:35:08": [
            -461,
            15
        ]
    },
    "404": {
        "26/03/2020 13:32:54": [
            140,
            138
        ],
        "26/03/2020 15:57:58": [
            256,
            124
        ],
        "26/03/2020 18:35:09": [
            -403,
            -3
        ]
    },
    "747": {
        "26/03/2020 13:32:55": [
            145,
            143
        ],
        "26/03/2020 15:57:58": [
            227
        ],
        "26/03/2020 18:35:09": [
            -403,
            -3
        ]
    },
    "748": {
        "26/03/2020 13:32:55": [
            137,
            135
        ],
        "26/03/2020 15:57:59": [
            268
        ],
        "26/03/2020 18:35:10": [
            -430,
            -30
        ]
    },
    "749": {
        "26/03/2020 13:32:56": [
            637,
            141,
            139
        ],
        "26/03/2020 15:57:59": [
            258
        ],
        "26/03/2020 18:35:11": [
            -389,
            11
        ]
    },
    "750": {
        "26/03/2020 13:32:56": [
            624,
            128,
            126
        ],
        "26/03/2020 15:58:00": [
            248
        ],
        "26/03/2020 18:35:11": [
            -413,
            -13
        ]
    },
    "751": {
        "26/03/2020 13:32:57": [
            611,
            115,
            113
        ],
        "26/03/2020 15:58:01": [
            237
        ],
        "26/03/2020 18:35:12": [
            -378,
            22
        ]
    },
    "752": {
        "26/03/2020 13:32:57": [
            610,
            114,
            112
        ],
        "26/03/2020 15:58:01": [
            239
        ],
        "26/03/2020 18:35:12": [
            -393,
            7
        ]
    },
    "753": {
        "26/03/2020 13:32:57": [
            643,
            147,
            145
        ],
        "26/03/2020 15:58:02": [
            266
        ],
        "26/03/2020 18:35:13": [
            -425,
            -25
        ]
    },
    "7339": {
        "26/03/2020 13:32:58": [],
        "26/03/2020 15:58:02": [],
        "26/03/2020 18:35:13": []
    },
    "767": {
        "26/03/2020 13:32:58": [],
        "26/03/2020 15:58:03": [],
        "26/03/2020 18:35:14": []
    },
    "768": {
        "26/03/2020 13:32:59": [],
        "26/03/2020 15:58:03": [],
        "26/03/2020 18:35:14": []
    },
    "769": {
        "26/03/2020 13:32:59": [],
        "26/03/2020 15:58:04": [],
        "26/03/2020 18:35:15": []
    },
    "770": {
        "26/03/2020 13:33:00": [],
        "26/03/2020 15:58:04": [],
        "26/03/2020 18:35:16": []
    },
    "771": {
        "26/03/2020 13:33:00": [],
        "26/03/2020 15:58:04": [],
        "26/03/2020 18:35:16": []
    },
    "772": {
        "26/03/2020 13:33:01": [],
        "26/03/2020 15:58:05": [],
        "26/03/2020 18:35:17": []
    },
    "773": {
        "26/03/2020 13:33:01": [],
        "26/03/2020 15:58:05": [],
        "26/03/2020 18:35:17": []
    },
    "774": {
        "26/03/2020 13:33:02": [],
        "26/03/2020 15:58:06": [],
        "26/03/2020 18:35:18": []
    },
    "775": {
        "26/03/2020 13:33:02": [],
        "26/03/2020 15:58:06": [],
        "26/03/2020 18:35:18": []
    },
    "776": {
        "26/03/2020 13:33:03": [],
        "26/03/2020 15:58:07": [],
        "26/03/2020 18:35:18": []
    },
    "777": {
        "26/03/2020 13:33:04": [],
        "26/03/2020 15:58:07": [],
        "26/03/2020 18:35:19": []
    },
    "779": {
        "26/03/2020 13:33:04": [],
        "26/03/2020 15:58:08": [],
        "26/03/2020 18:35:19": []
    },
    "780": {
        "26/03/2020 13:33:05": [],
        "26/03/2020 15:58:08": [],
        "26/03/2020 18:35:20": []
    },
    "781": {
        "26/03/2020 13:33:05": [],
        "26/03/2020 15:58:09": [],
        "26/03/2020 18:35:20": []
    },
    "782": {
        "26/03/2020 13:33:06": [],
        "26/03/2020 15:58:09": [],
        "26/03/2020 18:35:21": []
    },
    "783": {
        "26/03/2020 13:33:06": [
            28,
            28
        ],
        "26/03/2020 15:58:10": [
            27,
            29,
            17
        ],
        "26/03/2020 18:35:21": [
            -23,
            -23
        ]
    },
    "784": {
        "26/03/2020 13:33:07": [
            -10,
            -10
        ],
        "26/03/2020 15:58:10": [
            -15,
            -5,
            -19
        ],
        "26/03/2020 18:35:22": [
            1,
            1
        ]
    },
    "785": {
        "26/03/2020 13:33:07": [
            29,
            29
        ],
        "26/03/2020 15:58:11": [
            16,
            -20,
            23
        ],
        "26/03/2020 18:35:22": [
            -17
        ]
    },
    "786": {
        "26/03/2020 13:33:08": [
            10,
            10
        ],
        "26/03/2020 15:58:11": [
            12,
            26,
            -8
        ],
        "26/03/2020 18:35:23": [
            -8,
            -8
        ]
    },
    "793": {
        "26/03/2020 13:33:08": [
            -19,
            -19
        ],
        "26/03/2020 15:58:12": [
            5,
            3,
            4
        ],
        "26/03/2020 18:35:24": [
            -26,
            -26
        ]
    },
    "7586": {
        "26/03/2020 13:33:09": [
            0,
            0
        ],
        "26/03/2020 15:58:12": [
            -17,
            13,
            -9
        ],
        "26/03/2020 18:35:24": [
            6,
            6
        ]
    },
    "7587": {
        "26/03/2020 13:33:09": [
            20,
            20
        ],
        "26/03/2020 15:58:13": [
            28,
            -26
        ],
        "26/03/2020 18:35:25": [
            -16,
            -16
        ]
    },
    "7588": {
        "26/03/2020 13:33:10": [
            -2,
            -2
        ],
        "26/03/2020 15:58:13": [
            -30,
            -14
        ],
        "26/03/2020 18:35:25": [
            28,
            28
        ]
    },
    "328": {
        "26/03/2020 13:33:10": [
            -17,
            -17
        ],
        "26/03/2020 15:58:14": [
            -6,
            -7
        ],
        "26/03/2020 18:35:26": [
            -26,
            -26
        ]
    },
    "1443": {
        "26/03/2020 13:33:11": [
            13,
            13
        ],
        "26/03/2020 15:58:14": [
            -5,
            -9
        ],
        "26/03/2020 18:35:26": [
            17,
            17
        ]
    },
    "1444": {
        "26/03/2020 13:33:11": [
            7,
            7
        ],
        "26/03/2020 15:58:15": [
            -15
        ],
        "26/03/2020 18:35:27": [
            1,
            1
        ]
    },
    "1445": {
        "26/03/2020 13:33:12": [
            7,
            7
        ],
        "26/03/2020 15:58:15": [
            -19
        ],
        "26/03/2020 18:35:27": [
            -9,
            -9
        ]
    },
    "1647": {
        "26/03/2020 13:33:12": [
            -13,
            -13
        ],
        "26/03/2020 15:58:16": [
            14
        ],
        "26/03/2020 18:35:28": [
            15,
            15
        ]
    },
    "1648": {
        "26/03/2020 13:33:13": [
            -8,
            -8
        ],
        "26/03/2020 15:58:16": [
            66,
            15
        ],
        "26/03/2020 18:35:28": [
            9,
            9
        ]
    },
    "1649": {
        "26/03/2020 13:33:13": [
            24,
            24
        ],
        "26/03/2020 15:58:17": [
            48,
            -3
        ],
        "26/03/2020 18:35:29": [
            -26,
            -26
        ]
    },
    "1911": {
        "26/03/2020 13:33:14": [
            -9,
            -9
        ],
        "26/03/2020 15:58:18": [
            43,
            -8
        ],
        "26/03/2020 18:35:29": [
            -18,
            -18
        ]
    },
    "1913": {
        "26/03/2020 13:33:14": [
            -13,
            -13
        ],
        "26/03/2020 15:58:18": [
            77,
            26
        ],
        "26/03/2020 18:35:30": [
            -29,
            -29
        ]
    },
    "1914": {
        "26/03/2020 13:33:15": [
            29,
            29
        ],
        "26/03/2020 15:58:19": [
            43,
            -8
        ],
        "26/03/2020 18:35:30": [
            8,
            8
        ]
    },
    "1805": {
        "26/03/2020 13:33:15": [
            4,
            4
        ],
        "26/03/2020 15:58:19": [
            135,
            27
        ],
        "26/03/2020 18:35:31": [
            -21,
            -21
        ]
    },
    "1806": {
        "26/03/2020 13:33:16": [
            0,
            0
        ],
        "26/03/2020 15:58:19": [
            127,
            19
        ],
        "26/03/2020 18:35:31": [
            -27,
            -27
        ]
    },
    "1660": {
        "26/03/2020 13:33:16": [
            -16,
            -16
        ],
        "26/03/2020 15:58:20": [
            78,
            -30
        ],
        "26/03/2020 18:35:32": [
            -21,
            -21
        ]
    },
    "1661": {
        "26/03/2020 13:33:17": [
            -26,
            -26
        ],
        "26/03/2020 15:58:20": [
            135,
            27
        ],
        "26/03/2020 18:35:32": [
            10,
            10
        ]
    },
    "1662": {
        "26/03/2020 13:33:17": [
            -29,
            -29
        ],
        "26/03/2020 15:58:21": [
            80,
            -28
        ],
        "26/03/2020 18:35:32": [
            -15,
            -15
        ]
    },
    "1664": {
        "26/03/2020 13:33:18": [
            19,
            19
        ],
        "26/03/2020 15:58:21": [
            82,
            -26
        ],
        "26/03/2020 18:35:33": [
            -27,
            -27
        ]
    },
    "1665": {
        "26/03/2020 13:33:18": [
            -10,
            -10
        ],
        "26/03/2020 15:58:22": [
            121,
            13
        ],
        "26/03/2020 18:35:33": [
            4,
            4
        ]
    },
    "1666": {
        "26/03/2020 13:33:19": [
            14,
            14
        ],
        "26/03/2020 15:58:22": [
            82,
            -26
        ],
        "26/03/2020 18:35:34": [
            -25,
            -25
        ]
    },
    "1807": {
        "26/03/2020 13:33:19": [
            22,
            22
        ],
        "26/03/2020 15:58:23": [
            76,
            -9
        ],
        "26/03/2020 18:35:34": [
            -25,
            -25
        ]
    },
    "7167": {
        "26/03/2020 13:33:20": [
            -5,
            -5
        ],
        "26/03/2020 15:58:23": [
            104,
            19
        ],
        "26/03/2020 18:35:35": [
            3,
            3
        ]
    },
    "1808": {
        "26/03/2020 13:33:20": [
            -16,
            -16
        ],
        "26/03/2020 15:58:24": [
            100,
            15
        ],
        "26/03/2020 18:35:35": [
            -1,
            -1
        ]
    },
    "1813": {
        "26/03/2020 13:33:21": [
            -12,
            -12
        ],
        "26/03/2020 15:58:24": [
            71,
            -14
        ],
        "26/03/2020 18:35:36": [
            -245,
            26
        ]
    },
    "1814": {
        "26/03/2020 13:33:21": [
            -27,
            -27
        ],
        "26/03/2020 15:58:25": [
            69,
            -16
        ],
        "26/03/2020 18:35:36": [
            -251,
            14
        ]
    },
    "1852": {
        "26/03/2020 13:33:22": [
            -30,
            -30
        ],
        "26/03/2020 15:58:25": [
            82,
            -3
        ],
        "26/03/2020 18:35:37": [
            -242,
            15
        ]
    },
    "1853": {
        "26/03/2020 13:33:22": [
            26,
            26
        ],
        "26/03/2020 15:58:26": [
            93,
            8
        ],
        "26/03/2020 18:35:37": [
            -295,
            15
        ]
    },
    "1854": {
        "26/03/2020 13:33:23": [
            -5,
            -5
        ],
        "26/03/2020 15:58:26": [
            70,
            -15
        ],
        "26/03/2020 18:35:38": [
            -260,
            -14
        ]
    },
    "1844": {
        "26/03/2020 13:33:23": [
            17,
            17
        ],
        "26/03/2020 15:58:27": [
            92,
            7
        ],
        "26/03/2020 18:35:38": [
            -242,
            -5
        ]
    },
    "6172": {
        "26/03/2020 13:33:24": [
            4,
            4
        ],
        "26/03/2020 15:58:28": [
            79,
            -6
        ],
        "26/03/2020 18:35:39": [
            -260,
            25
        ]
    },
    "4493": {
        "26/03/2020 13:33:24": [
            20,
            20
        ],
        "26/03/2020 15:58:28": [
            94,
            9
        ],
        "26/03/2020 18:35:39": [
            -248,
            28
        ]
    },
    "4362": {
        "26/03/2020 13:33:25": [
            9,
            9
        ],
        "26/03/2020 15:58:28": [
            84,
            -1
        ],
        "26/03/2020 18:35:40": [
            -261,
            10
        ]
    },
    "7025": {
        "26/03/2020 13:33:25": [
            -12,
            -12
        ],
        "26/03/2020 15:58:29": [
            62,
            -23
        ],
        "26/03/2020 18:35:40": [
            -290,
            23
        ]
    },
    "4464": {
        "26/03/2020 13:33:25": [
            18,
            18
        ],
        "26/03/2020 15:58:29": [
            390,
            86
        ],
        "26/03/2020 18:35:40": [
            -267,
            -26
        ]
    },
    "1869": {
        "26/03/2020 13:33:26": [
            -1,
            -1
        ],
        "26/03/2020 15:58:30": [
            375,
            64
        ],
        "26/03/2020 18:35:41": [
            -289,
            7
        ]
    },
    "1870": {
        "26/03/2020 13:33:26": [
            27,
            27
        ],
        "26/03/2020 15:58:30": [
            345,
            96
        ],
        "26/03/2020 18:35:42": [
            -261,
            -30
        ]
    },
    "1871": {
        "26/03/2020 13:33:27": [
            2,
            2
        ],
        "26/03/2020 15:58:31": [
            382,
            76
        ],
        "26/03/2020 18:35:42": [
            -287,
            -2
        ]
    },
    "1872": {
        "26/03/2020 13:33:28": [
            -22,
            -22
        ],
        "26/03/2020 15:58:32": [
            361,
            58
        ],
        "26/03/2020 18:35:43": [
            -250,
            28
        ]
    },
    "1873": {
        "26/03/2020 13:33:28": [
            20,
            20
        ],
        "26/03/2020 15:58:32": [
            345,
            105
        ],
        "26/03/2020 18:35:43": [
            -269,
            2
        ]
    },
    "1874": {
        "26/03/2020 13:33:28": [
            -3,
            -3
        ],
        "26/03/2020 15:58:33": [
            385,
            88
        ],
        "26/03/2020 18:35:44": [
            -292,
            -27
        ]
    },
    "1875": {
        "26/03/2020 13:33:29": [
            29,
            29
        ],
        "26/03/2020 15:58:33": [
            359,
            64
        ],
        "26/03/2020 18:35:44": [
            -261,
            -2
        ]
    },
    "1876": {
        "26/03/2020 13:33:29": [
            1,
            1
        ],
        "26/03/2020 15:58:34": [
            333,
            101
        ],
        "26/03/2020 18:35:45": [
            -289,
            25
        ]
    },
    "1877": {
        "26/03/2020 13:33:30": [
            -26,
            -26
        ],
        "26/03/2020 15:58:34": [
            369,
            86
        ],
        "26/03/2020 18:35:45": [
            -245,
            -2
        ]
    },
    "1878": {
        "26/03/2020 13:33:30": [
            25,
            25
        ],
        "26/03/2020 15:58:35": [
            366,
            79
        ],
        "26/03/2020 18:35:46": [
            -251,
            -15
        ]
    },
    "1879": {
        "26/03/2020 13:33:31": [
            22,
            22
        ],
        "26/03/2020 15:58:35": [
            368,
            77
        ],
        "26/03/2020 18:35:46": [
            -251,
            -23
        ]
    },
    "1899": {
        "26/03/2020 13:33:31": [
            21,
            21
        ],
        "26/03/2020 15:58:36": [
            374,
            79
        ],
        "26/03/2020 18:35:47": [
            -248,
            -28
        ]
    },
    "1887": {
        "26/03/2020 13:33:32": [
            -14,
            -14
        ],
        "26/03/2020 15:58:36": [
            276,
            106
        ],
        "26/03/2020 18:35:47": [
            -279,
            -10
        ]
    },
    "1888": {
        "26/03/2020 13:33:32": [
            2,
            2
        ],
        "26/03/2020 15:58:37": [
            295,
            63
        ],
        "26/03/2020 18:35:48": [
            -261,
            5
        ]
    },
    "1889": {
        "26/03/2020 13:33:33": [
            -13,
            -13
        ],
        "26/03/2020 15:58:37": [
            284,
            109
        ],
        "26/03/2020 18:35:48": [
            -1,
            -274,
            -14
        ]
    },
    "1890": {
        "26/03/2020 13:33:33": [
            29,
            29
        ],
        "26/03/2020 15:58:37": [
            271,
            66
        ],
        "26/03/2020 18:35:48": [
            13,
            -280,
            18
        ]
    },
    "7240": {
        "26/03/2020 13:33:34": [
            -19,
            -19
        ],
        "26/03/2020 15:58:38": [
            285,
            88
        ],
        "26/03/2020 18:35:49": [
            29,
            -264,
            28
        ]
    },
    "1891": {
        "26/03/2020 13:33:34": [
            -4
        ],
        "26/03/2020 15:58:38": [
            295,
            109
        ],
        "26/03/2020 18:35:49": [
            -5,
            -298,
            -13
        ]
    },
    "7156": {
        "26/03/2020 13:33:35": [
            16
        ],
        "26/03/2020 15:58:39": [
            314,
            72
        ],
        "26/03/2020 18:35:50": [
            18,
            -275,
            9
        ]
    },
    "7020": {
        "26/03/2020 13:33:35": [
            -3,
            28
        ],
        "26/03/2020 15:58:39": [
            262,
            90
        ],
        "26/03/2020 18:35:50": [
            62,
            -251,
            26
        ]
    },
    "7029": {
        "26/03/2020 13:33:36": [
            -41,
            -10
        ],
        "26/03/2020 15:58:40": [
            282,
            114
        ],
        "26/03/2020 18:35:51": [
            26,
            -287,
            -11
        ]
    },
    "7038": {
        "26/03/2020 13:33:36": [
            -2,
            29
        ],
        "26/03/2020 15:58:40": [
            96
        ],
        "26/03/2020 18:35:52": [
            71,
            -242,
            -30
        ]
    },
    "7011": {
        "26/03/2020 13:33:37": [
            -8,
            23
        ],
        "26/03/2020 15:58:40": [
            310,
            96
        ],
        "26/03/2020 18:35:52": []
    },
    "2171": {
        "26/03/2020 13:33:37": [
            -89,
            -16
        ],
        "26/03/2020 15:58:41": [
            265,
            64
        ],
        "26/03/2020 18:35:53": [
            -25,
            -266,
            -6
        ]
    },
    "7160": {
        "26/03/2020 13:33:38": [
            -34,
            -3
        ],
        "26/03/2020 15:58:42": [
            278,
            80
        ],
        "26/03/2020 18:35:53": [
            -5,
            -246,
            7
        ]
    },
    "7700": {
        "26/03/2020 13:33:38": [
            -14,
            17
        ],
        "26/03/2020 15:58:42": [
            298,
            104
        ],
        "26/03/2020 18:35:54": [
            -33,
            -274,
            28
        ]
    },
    "7047": {
        "26/03/2020 13:33:39": [
            -48,
            -17
        ],
        "26/03/2020 15:58:43": [
            264,
            75
        ],
        "26/03/2020 18:35:54": [
            -52,
            -293
        ]
    },
    "7161": {
        "26/03/2020 13:33:39": [
            -19,
            12
        ],
        "26/03/2020 15:58:43": [
            293,
            111
        ],
        "26/03/2020 18:35:55": [
            -6,
            -247
        ]
    },
    "7162": {
        "26/03/2020 13:33:40": [],
        "26/03/2020 15:58:44": [],
        "26/03/2020 18:35:55": []
    }
}