{
    "1491": {
        "21/03/2020 13:17:37": [
            0,
            0,
            0,
            0
        ],
        "21/03/2020 13:17:49": [
            0,
            0,
            0,
            0
        ],
        "21/03/2020 13:18:22": [
            0,
            0,
            0,
            0
        ],
        "21/03/2020 16:28:20": [
            0,
            0,
            0,
            0
        ],
        "21/03/2020 18:48:39": [
            0,
            0,
            0
        ],
        "21/03/2020 20:51:08": [
            0,
            0,
            0
        ]
    },
    "1492": {
        "21/03/2020 13:17:37": [
            20,
            20,
            20,
            20
        ],
        "21/03/2020 13:17:50": [
            20,
            20,
            20,
            20
        ],
        "21/03/2020 13:18:22": [
            20,
            20,
            20,
            20
        ],
        "21/03/2020 16:28:20": [
            9,
            9,
            9,
            8
        ],
        "21/03/2020 18:48:39": [
            13,
            13,
            13
        ],
        "21/03/2020 20:51:08": [
            -12,
            -12,
            -12
        ]
    },
    "1493": {
        "21/03/2020 13:17:37": [
            -4,
            -4,
            -4,
            -4
        ],
        "21/03/2020 13:17:50": [
            -4,
            -4,
            -4,
            -4
        ],
        "21/03/2020 13:18:22": [
            -4,
            -4,
            -4,
            -4
        ],
        "21/03/2020 16:28:21": [
            -20,
            -20,
            -20
        ],
        "21/03/2020 18:48:39": [
            -14,
            -14,
            -14
        ],
        "21/03/2020 20:51:09": [
            10,
            10,
            10
        ]
    },
    "1482": {
        "21/03/2020 13:17:38": [
            18,
            18,
            18,
            18
        ],
        "21/03/2020 13:17:50": [
            18,
            18,
            18,
            18
        ],
        "21/03/2020 13:18:21": [
            18,
            18,
            18,
            18
        ],
        "21/03/2020 16:28:19": [
            -1,
            -1,
            -1,
            -3
        ],
        "21/03/2020 18:48:38": [
            6,
            6,
            6
        ],
        "21/03/2020 20:51:07": [
            24,
            24,
            24
        ]
    },
    "1494": {
        "21/03/2020 13:17:38": [
            -26,
            -26,
            -26,
            -26
        ],
        "21/03/2020 13:17:51": [
            -26,
            -26,
            -26,
            -26
        ],
        "21/03/2020 13:18:23": [
            -26,
            -26,
            -26,
            -26
        ],
        "21/03/2020 16:28:21": [
            5,
            5,
            5,
            2
        ],
        "21/03/2020 18:48:40": [
            16,
            16,
            16
        ],
        "21/03/2020 20:51:09": [
            10,
            10,
            10
        ]
    },
    "1495": {
        "21/03/2020 13:17:38": [
            23,
            23,
            23,
            23
        ],
        "21/03/2020 13:17:51": [
            23,
            23,
            23,
            23
        ],
        "21/03/2020 13:18:23": [
            23,
            23,
            23,
            23
        ],
        "21/03/2020 16:28:21": [
            -10,
            -10,
            -10,
            -13
        ],
        "21/03/2020 18:48:40": [
            6,
            6,
            6
        ],
        "21/03/2020 20:51:10": [
            -13,
            -13,
            -13
        ]
    },
    "1496": {
        "21/03/2020 13:17:38": [
            -90,
            -26,
            -26,
            -26
        ],
        "21/03/2020 13:17:51": [
            -90,
            -26,
            -26,
            -26
        ],
        "21/03/2020 13:18:23": [
            -90,
            -26,
            -26,
            -26
        ],
        "21/03/2020 16:28:21": [
            -5,
            -5,
            -5,
            -8
        ],
        "21/03/2020 18:48:41": [
            17,
            17,
            17
        ],
        "21/03/2020 20:51:10": [
            -19,
            -19,
            -19
        ]
    },
    "1515": {
        "21/03/2020 13:17:39": [
            -64,
            0,
            0,
            0
        ],
        "21/03/2020 13:17:51": [
            -64,
            0,
            0,
            0
        ],
        "21/03/2020 13:18:28": [
            -64,
            0,
            0,
            0
        ],
        "21/03/2020 16:28:26": [
            18,
            18,
            18,
            16
        ],
        "21/03/2020 18:48:48": [
            -17,
            -17,
            -17
        ],
        "21/03/2020 20:51:17": [
            -33,
            1,
            1
        ]
    },
    "1499": {
        "21/03/2020 13:17:39": [
            20,
            20,
            20,
            20
        ],
        "21/03/2020 13:17:52": [
            20,
            20,
            20,
            20
        ],
        "21/03/2020 13:18:25": [
            20,
            20,
            20,
            20
        ],
        "21/03/2020 16:28:23": [
            -29,
            -29,
            -29
        ],
        "21/03/2020 18:48:44": [
            3,
            3,
            3
        ],
        "21/03/2020 20:51:13": [
            1,
            1,
            1
        ]
    },
    "1485": {
        "21/03/2020 13:17:39": [
            -6,
            -6,
            -6,
            -6
        ],
        "21/03/2020 13:17:52": [
            -6,
            -6,
            -6,
            -6
        ],
        "21/03/2020 13:18:22": [
            -6,
            -6,
            -6,
            -6
        ],
        "21/03/2020 16:28:20": [
            -4,
            -4,
            -4
        ],
        "21/03/2020 18:48:38": [
            -23,
            -23,
            -23
        ],
        "21/03/2020 20:51:07": [
            12,
            12,
            12
        ]
    },
    "4518": {
        "21/03/2020 13:17:39": [
            -8,
            -8,
            -8,
            -8
        ],
        "21/03/2020 13:17:52": [
            -8,
            -8,
            -8,
            -8
        ],
        "21/03/2020 13:18:28": [
            -8,
            -8,
            -8,
            -8
        ],
        "21/03/2020 16:28:26": [
            -10,
            -10,
            -10
        ],
        "21/03/2020 18:48:48": [
            -24,
            -24,
            -24
        ],
        "21/03/2020 20:51:17": [
            -4,
            -4,
            -4
        ]
    },
    "509": {
        "21/03/2020 13:17:40": [
            5,
            5,
            5,
            5
        ],
        "21/03/2020 13:17:53": [
            5,
            5,
            5,
            5
        ],
        "21/03/2020 13:18:27": [
            5,
            5,
            5,
            5
        ],
        "21/03/2020 16:28:25": [
            -89,
            -4,
            -4,
            -4
        ],
        "21/03/2020 18:48:46": [
            -11,
            -11,
            -11
        ],
        "21/03/2020 20:51:15": [
            -9,
            -9,
            -9
        ]
    },
    "510": {
        "21/03/2020 13:17:40": [
            -13,
            -13,
            -13
        ],
        "21/03/2020 13:17:53": [
            -13,
            -13,
            -13
        ],
        "21/03/2020 13:18:27": [
            -13,
            -13,
            -13,
            -13
        ],
        "21/03/2020 16:28:25": [
            -82,
            -29,
            -29,
            -29
        ],
        "21/03/2020 18:48:46": [
            -24,
            -24,
            -24
        ],
        "21/03/2020 20:51:15": [
            25,
            25,
            25
        ]
    },
    "511": {
        "21/03/2020 13:17:40": [
            -4,
            -4,
            -4,
            -4
        ],
        "21/03/2020 13:17:53": [
            -4,
            -4,
            -4,
            -4
        ],
        "21/03/2020 13:18:30": [
            -4,
            -4,
            -4,
            -4
        ],
        "21/03/2020 16:28:28": [
            -24,
            29,
            29,
            29
        ],
        "21/03/2020 18:48:50": [
            -7,
            -7,
            -7
        ],
        "21/03/2020 20:51:19": [
            21,
            21,
            21
        ]
    },
    "513": {
        "21/03/2020 13:17:40": [],
        "21/03/2020 13:17:53": [],
        "21/03/2020 13:18:30": [],
        "21/03/2020 16:28:28": [
            -107,
            -22,
            -22,
            -22
        ],
        "21/03/2020 18:48:50": [
            -20,
            -20,
            -20
        ],
        "21/03/2020 20:51:19": [
            -10,
            -10,
            -10
        ]
    },
    "4513": {
        "21/03/2020 13:17:41": [
            6,
            6,
            6,
            6
        ],
        "21/03/2020 13:17:54": [
            6,
            6,
            6,
            6
        ],
        "21/03/2020 13:18:27": [
            6,
            6,
            6,
            6
        ],
        "21/03/2020 16:28:26": [
            -86,
            -1,
            -1,
            -1
        ],
        "21/03/2020 18:48:47": [
            -12,
            -12,
            -12
        ],
        "21/03/2020 20:51:16": [
            -13,
            -13,
            -13
        ]
    },
    "272": {
        "21/03/2020 13:17:41": [
            7,
            7,
            7,
            7
        ],
        "21/03/2020 13:17:54": [
            7,
            7,
            7,
            7
        ],
        "21/03/2020 13:18:32": [
            7,
            7,
            7,
            7
        ],
        "21/03/2020 16:28:30": [
            28,
            28,
            28,
            28
        ],
        "21/03/2020 18:48:53": [
            -141,
            -15,
            -15
        ],
        "21/03/2020 20:51:22": [
            -26,
            -26,
            -26
        ]
    },
    "335": {
        "21/03/2020 13:17:41": [
            26,
            26,
            26,
            26
        ],
        "21/03/2020 13:18:26": [
            26,
            26,
            26,
            26
        ],
        "21/03/2020 16:28:24": [
            -29,
            -29,
            -29
        ],
        "21/03/2020 18:48:45": [
            -142,
            -16,
            -16
        ],
        "21/03/2020 20:51:14": [
            4,
            4,
            4
        ]
    },
    "1278": {
        "21/03/2020 13:17:41": [
            -110,
            20,
            20
        ],
        "21/03/2020 13:18:31": [
            -110,
            20,
            20
        ],
        "21/03/2020 16:28:29": [
            -25,
            -25,
            -25
        ],
        "21/03/2020 18:48:52": [
            -120,
            6,
            6
        ],
        "21/03/2020 20:51:21": [
            932,
            6,
            6
        ]
    },
    "1934": {
        "21/03/2020 13:17:42": [
            -109,
            21,
            21
        ],
        "21/03/2020 13:18:28": [
            -109,
            21,
            21
        ],
        "21/03/2020 16:28:27": [
            -289,
            25,
            25,
            25
        ],
        "21/03/2020 18:48:48": [
            -100,
            26,
            26
        ],
        "21/03/2020 20:51:17": [
            952,
            12,
            12
        ]
    },
    "1935": {
        "21/03/2020 13:17:42": [
            -146,
            -16,
            -16
        ],
        "21/03/2020 13:18:29": [
            -16,
            -16,
            -16
        ],
        "21/03/2020 16:28:27": [
            -346,
            22,
            22,
            22
        ],
        "21/03/2020 18:48:49": [
            -124,
            2,
            2
        ],
        "21/03/2020 20:51:18": [
            928,
            -21,
            -21
        ]
    },
    "1937": {
        "21/03/2020 13:17:42": [
            -129,
            1,
            1
        ],
        "21/03/2020 13:18:24": [
            1,
            1,
            1
        ],
        "21/03/2020 16:28:22": [
            -297,
            24,
            24,
            24
        ],
        "21/03/2020 18:48:42": [
            -107,
            19,
            19
        ],
        "21/03/2020 20:51:11": [
            945,
            21,
            21
        ]
    },
    "1938": {
        "21/03/2020 13:17:43": [
            -145,
            -15,
            -15
        ],
        "21/03/2020 13:18:24": [
            -145,
            -15,
            -15
        ],
        "21/03/2020 16:28:23": [
            -270,
            -19,
            -19
        ],
        "21/03/2020 18:48:42": [
            -124,
            2,
            2
        ],
        "21/03/2020 20:51:12": [
            -425,
            928,
            -22,
            -22
        ]
    },
    "1939": {
        "21/03/2020 13:17:43": [
            -102,
            28,
            28
        ],
        "21/03/2020 13:18:25": [
            -102,
            28,
            28
        ],
        "21/03/2020 16:28:23": [
            -293,
            3,
            3
        ],
        "21/03/2020 18:48:43": [
            -104,
            22,
            22
        ],
        "21/03/2020 20:51:12": [
            -427,
            948,
            -24,
            -24
        ]
    },
    "1940": {
        "21/03/2020 13:17:43": [
            -152,
            -22,
            -22
        ],
        "21/03/2020 13:18:25": [
            -22,
            -22,
            -22
        ],
        "21/03/2020 16:28:23": [
            -286,
            15,
            15
        ],
        "21/03/2020 18:48:43": [
            -99,
            27,
            27
        ],
        "21/03/2020 20:51:13": [
            -376,
            953,
            27,
            27
        ]
    },
    "1941": {
        "21/03/2020 13:17:43": [
            -105,
            25,
            25
        ],
        "21/03/2020 13:18:26": [
            25,
            25,
            25
        ],
        "21/03/2020 16:28:25": [
            -300,
            3,
            3
        ],
        "21/03/2020 18:48:45": [
            -116,
            10
        ],
        "21/03/2020 20:51:15": [
            -401,
            936,
            2,
            2
        ]
    },
    "4516": {
        "21/03/2020 13:17:44": [
            -125,
            5,
            5
        ],
        "21/03/2020 13:18:28": [
            5,
            5,
            5
        ],
        "21/03/2020 16:28:26": [
            -326,
            -13,
            -13
        ],
        "21/03/2020 18:48:47": [
            -147,
            -21
        ],
        "21/03/2020 20:51:16": [
            -403,
            905,
            0,
            0
        ]
    },
    "1369": {
        "21/03/2020 13:17:44": [
            -112,
            18
        ],
        "21/03/2020 13:18:18": [
            -112,
            18
        ],
        "21/03/2020 16:28:16": [
            -314,
            0,
            0
        ],
        "21/03/2020 18:48:33": [
            -773,
            -130,
            -4
        ],
        "21/03/2020 20:51:03": [
            -424,
            922,
            0,
            0
        ]
    },
    "1370": {
        "21/03/2020 13:17:44": [
            -116,
            14
        ],
        "21/03/2020 13:18:18": [
            -116,
            14
        ],
        "21/03/2020 16:28:17": [
            -325,
            -6,
            -6
        ],
        "21/03/2020 18:48:34": [
            -765,
            -143,
            -17
        ],
        "21/03/2020 20:51:03": [
            -421,
            909,
            -21,
            -21
        ]
    },
    "1371": {
        "21/03/2020 13:17:45": [
            -112,
            18
        ],
        "21/03/2020 13:18:21": [
            -112,
            18
        ],
        "21/03/2020 16:28:19": [
            -268,
            -3,
            -3
        ],
        "21/03/2020 18:48:37": [
            -770,
            -148,
            -22
        ],
        "21/03/2020 20:51:07": [
            -379,
            904,
            24,
            24
        ]
    },
    "1454": {
        "21/03/2020 13:17:45": [
            -144,
            -14
        ],
        "21/03/2020 13:18:19": [
            -144,
            -14
        ],
        "21/03/2020 16:28:17": [
            -307,
            20,
            20
        ],
        "21/03/2020 18:48:35": [
            -745,
            -123,
            3
        ],
        "21/03/2020 20:51:04": [
            -256,
            929,
            -15,
            -15
        ]
    },
    "1455": {
        "21/03/2020 13:17:45": [
            -132,
            -2
        ],
        "21/03/2020 13:18:19": [
            -132,
            -2
        ],
        "21/03/2020 16:28:18": [
            -315,
            19,
            19
        ],
        "21/03/2020 18:48:35": [
            -145,
            -740,
            -118,
            8
        ],
        "21/03/2020 20:51:04": [
            -264,
            934,
            -23,
            -23
        ]
    },
    "1453": {
        "21/03/2020 13:17:45": [
            -152,
            -22
        ],
        "21/03/2020 13:18:18": [
            -152,
            -22
        ],
        "21/03/2020 16:28:17": [
            -286,
            -8,
            -8
        ],
        "21/03/2020 18:48:34": [
            -171,
            -764,
            -143,
            -17
        ],
        "21/03/2020 20:51:04": [
            -235,
            909,
            6,
            6
        ]
    },
    "1456": {
        "21/03/2020 13:17:46": [
            -127,
            3
        ],
        "21/03/2020 13:18:20": [
            -127,
            3
        ],
        "21/03/2020 16:28:18": [
            -323,
            22,
            22
        ],
        "21/03/2020 18:48:36": [
            -143,
            -736,
            -115,
            11
        ],
        "21/03/2020 20:51:05": [
            -269,
            937,
            -28,
            -28
        ]
    },
    "1457": {
        "21/03/2020 13:17:46": [
            -148,
            -18
        ],
        "21/03/2020 13:18:20": [
            -148,
            -18
        ],
        "21/03/2020 16:28:18": [
            -285,
            11
        ],
        "21/03/2020 18:48:36": [
            -159,
            -752,
            -131,
            -5
        ],
        "21/03/2020 20:51:05": [
            -228,
            921,
            13,
            13
        ]
    },
    "1458": {
        "21/03/2020 13:17:46": [
            -154,
            -24
        ],
        "21/03/2020 13:18:20": [
            -154,
            -24
        ],
        "21/03/2020 16:28:18": [
            -289,
            10
        ],
        "21/03/2020 18:48:36": [
            -162,
            -687,
            -132,
            -6
        ],
        "21/03/2020 20:51:06": [
            920,
            4
        ]
    },
    "1459": {
        "21/03/2020 13:17:46": [
            -117,
            13
        ],
        "21/03/2020 13:18:20": [
            -117,
            13
        ],
        "21/03/2020 16:28:19": [
            -311,
            -10
        ],
        "21/03/2020 18:48:37": [
            -183,
            -707,
            -152,
            -26
        ],
        "21/03/2020 20:51:06": [
            -424,
            900,
            -21,
            -21
        ]
    },
    "1460": {
        "21/03/2020 13:17:47": [
            -456,
            -139,
            -9
        ],
        "21/03/2020 13:18:24": [
            -139,
            -9
        ],
        "21/03/2020 16:28:22": [
            -272,
            -28
        ],
        "21/03/2020 18:48:41": [
            -143,
            -666,
            -111,
            15
        ],
        "21/03/2020 20:51:10": [
            -389,
            941,
            14
        ]
    },
    "1462": {
        "21/03/2020 13:17:47": [
            -465,
            -148,
            -18
        ],
        "21/03/2020 13:18:24": [
            -465,
            -148,
            -18
        ],
        "21/03/2020 16:28:22": [
            -717,
            -279,
            27
        ],
        "21/03/2020 18:48:41": [
            -150,
            -671,
            -116,
            10
        ],
        "21/03/2020 20:51:11": [
            -401,
            936,
            2
        ]
    },
    "5149": {
        "21/03/2020 13:17:47": [
            -442,
            -103,
            27
        ],
        "21/03/2020 13:18:30": [
            -442,
            -103,
            27
        ],
        "21/03/2020 16:28:28": [
            -731,
            -293,
            15
        ],
        "21/03/2020 18:48:51": [
            -163,
            -682,
            -127,
            -1
        ],
        "21/03/2020 20:51:20": [
            -376,
            925,
            -16
        ]
    },
    "1419": {
        "21/03/2020 13:17:47": [
            -472,
            -133,
            -3
        ],
        "21/03/2020 13:18:31": [
            -472,
            -133,
            -3
        ],
        "21/03/2020 16:28:30": [
            -760,
            -322,
            -12
        ],
        "21/03/2020 18:48:53": [
            -191,
            -710,
            -155,
            -29
        ],
        "21/03/2020 20:51:21": [
            -391,
            897,
            12
        ]
    },
    "6094": {
        "21/03/2020 13:17:48": [
            -454,
            -137,
            -7
        ],
        "21/03/2020 13:18:30": [
            -487,
            -7,
            -7
        ],
        "21/03/2020 16:28:29": [
            -708,
            -270,
            -15
        ],
        "21/03/2020 18:48:51": [
            -138,
            -661,
            -106,
            20
        ],
        "21/03/2020 20:51:20": [
            -366,
            946,
            -6
        ]
    },
    "2102": {
        "21/03/2020 13:17:48": [
            -480,
            -141,
            -11
        ],
        "21/03/2020 13:18:26": [
            -480,
            -141,
            -11
        ],
        "21/03/2020 16:28:24": [
            -694,
            -281,
            -17
        ],
        "21/03/2020 18:48:44": [
            -148,
            -680,
            -125,
            1
        ],
        "21/03/2020 20:51:13": [
            -339,
            927,
            21
        ]
    },
    "2103": {
        "21/03/2020 13:17:48": [
            -457,
            -118
        ],
        "21/03/2020 13:18:26": [
            -457,
            -118
        ],
        "21/03/2020 16:28:24": [
            -821,
            -318,
            -8
        ],
        "21/03/2020 18:48:44": [
            -192,
            -678,
            -123,
            3
        ],
        "21/03/2020 20:51:14": [
            -350,
            929,
            10
        ]
    },
    "7154": {
        "21/03/2020 13:17:49": [
            -483,
            -144
        ],
        "21/03/2020 13:18:29": [
            -483,
            -14
        ],
        "21/03/2020 16:28:28": [
            -266,
            -738,
            -284,
            10
        ],
        "21/03/2020 18:48:50": [
            -165,
            -668,
            -113,
            13
        ],
        "21/03/2020 20:51:18": [
            -354,
            939,
            6
        ]
    },
    "7153": {
        "21/03/2020 13:17:49": [
            -426,
            -156
        ],
        "21/03/2020 13:18:29": [
            -506,
            -26
        ],
        "21/03/2020 16:28:27": [
            -261,
            -765,
            -296,
            -9
        ],
        "21/03/2020 18:48:49": [
            -181,
            -692,
            -137,
            -11
        ],
        "21/03/2020 20:51:18": [
            -385,
            915,
            -25
        ]
    },
    "6056": {
        "21/03/2020 13:17:49": [],
        "21/03/2020 13:18:31": [],
        "21/03/2020 16:28:29": [],
        "21/03/2020 18:48:52": [],
        "21/03/2020 20:51:20": []
    },
    "6057": {
        "21/03/2020 13:17:54": [
            0,
            0,
            0,
            0
        ],
        "21/03/2020 13:18:09": [
            0,
            0,
            0,
            0
        ],
        "21/03/2020 13:18:40": [
            0,
            0,
            0,
            0
        ],
        "21/03/2020 16:28:38": [
            0,
            0,
            0
        ],
        "21/03/2020 18:49:06": [
            0,
            0,
            0
        ],
        "21/03/2020 20:51:35": [
            0,
            0,
            0
        ]
    },
    "2183": {
        "21/03/2020 13:17:55": [
            -23,
            -23,
            -23,
            -23
        ],
        "21/03/2020 13:18:10": [
            -23,
            -23,
            -23,
            -23
        ],
        "21/03/2020 13:18:39": [
            -23,
            -23,
            -23,
            -23
        ],
        "21/03/2020 16:28:38": [
            -30,
            -30,
            -30
        ],
        "21/03/2020 18:49:04": [
            28,
            28,
            28
        ],
        "21/03/2020 20:51:34": [
            24,
            24,
            24
        ]
    },
    "2184": {
        "21/03/2020 13:17:55": [
            8,
            8,
            8,
            8
        ],
        "21/03/2020 13:18:10": [
            8,
            8,
            8,
            8
        ],
        "21/03/2020 13:18:40": [
            8,
            8,
            8,
            8
        ],
        "21/03/2020 16:28:38": [
            -16,
            -16,
            -16
        ],
        "21/03/2020 18:49:05": [
            -24,
            -24,
            -24
        ],
        "21/03/2020 20:51:34": [
            23,
            23,
            23
        ]
    },
    "2185": {
        "21/03/2020 13:17:55": [
            -15,
            -15,
            -15
        ],
        "21/03/2020 13:18:10": [
            -15,
            -15,
            -15
        ],
        "21/03/2020 13:18:40": [
            -15,
            -15,
            -15
        ],
        "21/03/2020 16:28:38": [
            3,
            3,
            3
        ],
        "21/03/2020 18:49:05": [
            -11,
            -11,
            -11
        ],
        "21/03/2020 20:51:35": [
            26,
            26,
            26
        ]
    },
    "1423": {
        "21/03/2020 13:17:55": [
            -150,
            -26,
            -26,
            -26
        ],
        "21/03/2020 13:18:10": [
            -150,
            -26,
            -26,
            -26
        ],
        "21/03/2020 13:18:42": [
            -26,
            -26,
            -26
        ],
        "21/03/2020 16:28:40": [
            -10,
            -10,
            -10
        ],
        "21/03/2020 18:49:08": [
            -29,
            -29,
            -29
        ],
        "21/03/2020 20:51:37": [
            -13,
            -13,
            -13
        ]
    },
    "1424": {
        "21/03/2020 13:17:56": [
            -89,
            15,
            15,
            15
        ],
        "21/03/2020 13:18:11": [
            -89,
            15,
            15,
            15
        ],
        "21/03/2020 13:18:42": [
            -89,
            15,
            15,
            15
        ],
        "21/03/2020 16:28:40": [
            -29,
            -29,
            -29
        ],
        "21/03/2020 18:49:08": [
            9,
            9,
            9
        ],
        "21/03/2020 20:51:38": [
            18,
            18,
            18
        ]
    },
    "1425": {
        "21/03/2020 13:17:56": [
            -98,
            6,
            6,
            6
        ],
        "21/03/2020 13:18:11": [
            -98,
            6,
            6,
            6
        ],
        "21/03/2020 13:18:42": [
            -98,
            6,
            6,
            6
        ],
        "21/03/2020 16:28:40": [
            21,
            21,
            21
        ],
        "21/03/2020 18:49:09": [
            -103,
            -3,
            -3,
            -3
        ],
        "21/03/2020 20:51:38": [
            -4,
            -4,
            -4
        ]
    },
    "1426": {
        "21/03/2020 13:17:57": [
            -91,
            13,
            13,
            13
        ],
        "21/03/2020 13:18:11": [
            -91,
            13,
            13,
            13
        ],
        "21/03/2020 13:18:42": [
            -91,
            13,
            13,
            13
        ],
        "21/03/2020 16:28:41": [
            23,
            23,
            23
        ],
        "21/03/2020 18:49:09": [
            -82,
            -5,
            -5,
            -5
        ],
        "21/03/2020 20:51:39": [
            -8,
            -8,
            -8
        ]
    },
    "1463": {
        "21/03/2020 13:17:57": [
            -92,
            12,
            12,
            12
        ],
        "21/03/2020 13:18:12": [
            -92,
            12,
            12,
            12
        ],
        "21/03/2020 13:18:36": [
            -92,
            12,
            12,
            12
        ],
        "21/03/2020 16:28:35": [
            23,
            23,
            23
        ],
        "21/03/2020 18:49:00": [
            -117,
            -17,
            -17,
            -17
        ],
        "21/03/2020 20:51:29": [
            -19,
            -19,
            -19
        ]
    },
    "4399": {
        "21/03/2020 13:17:57": [
            2,
            2,
            2,
            2
        ],
        "21/03/2020 13:18:12": [
            2,
            2,
            2,
            2
        ],
        "21/03/2020 13:18:39": [
            -146,
            2,
            2,
            2
        ],
        "21/03/2020 16:28:37": [
            9,
            9,
            9
        ],
        "21/03/2020 18:49:03": [
            -73,
            27,
            27
        ],
        "21/03/2020 20:51:33": [
            22,
            22,
            22
        ]
    },
    "4400": {
        "21/03/2020 13:17:58": [
            -16,
            -16,
            -16,
            -16
        ],
        "21/03/2020 13:18:12": [
            -16,
            -16,
            -16,
            -16
        ],
        "21/03/2020 13:18:44": [
            -164,
            -16,
            -16,
            -16
        ],
        "21/03/2020 16:28:42": [
            -12,
            -12,
            -12
        ],
        "21/03/2020 18:49:12": [
            -95,
            5,
            5
        ],
        "21/03/2020 20:51:41": [
            -3,
            -3,
            -3
        ]
    },
    "1464": {
        "21/03/2020 13:17:58": [
            -85,
            19,
            19,
            19
        ],
        "21/03/2020 13:18:12": [
            -85,
            19,
            19,
            19
        ],
        "21/03/2020 13:18:37": [
            -85,
            19,
            19,
            19
        ],
        "21/03/2020 16:28:35": [
            22,
            22,
            22
        ],
        "21/03/2020 18:49:01": [
            -100,
            -23,
            -23
        ],
        "21/03/2020 20:51:29": [
            26,
            26,
            26
        ]
    },
    "1469": {
        "21/03/2020 13:17:58": [
            -105,
            -1,
            -1,
            -1
        ],
        "21/03/2020 13:18:13": [
            -105,
            -1,
            -1,
            -1
        ],
        "21/03/2020 13:18:38": [
            -105,
            -1,
            -1,
            -1
        ],
        "21/03/2020 16:28:36": [
            -1,
            -1,
            -1
        ],
        "21/03/2020 18:49:03": [
            -64,
            13,
            13
        ],
        "21/03/2020 20:51:32": [
            -1,
            -1,
            -1
        ]
    },
    "1465": {
        "21/03/2020 13:17:59": [
            -104,
            0,
            0,
            0
        ],
        "21/03/2020 13:18:13": [
            -104,
            0,
            0,
            0
        ],
        "21/03/2020 13:18:37": [
            -104,
            0,
            0,
            0
        ],
        "21/03/2020 16:28:35": [
            -5,
            -5,
            -5
        ],
        "21/03/2020 18:49:01": [
            -70,
            7,
            7
        ],
        "21/03/2020 20:51:30": [
            -11,
            -11,
            -11
        ]
    },
    "1466": {
        "21/03/2020 13:17:59": [
            -154,
            -30,
            -30,
            -30
        ],
        "21/03/2020 13:18:13": [
            -154,
            -30,
            -30,
            -30
        ],
        "21/03/2020 13:18:37": [
            -154,
            -30,
            -30,
            -30
        ],
        "21/03/2020 16:28:36": [
            23,
            23
        ],
        "21/03/2020 18:49:01": [
            -103,
            -26,
            -26
        ],
        "21/03/2020 20:51:30": [
            14,
            14,
            14
        ]
    },
    "1467": {
        "21/03/2020 13:17:59": [
            -123,
            1,
            1,
            1
        ],
        "21/03/2020 13:18:14": [
            -123,
            1,
            1,
            1
        ],
        "21/03/2020 13:18:38": [
            -123,
            1,
            1,
            1
        ],
        "21/03/2020 16:28:36": [
            -8,
            -8
        ],
        "21/03/2020 18:49:02": [
            -76,
            1,
            1
        ],
        "21/03/2020 20:51:31": [
            -21,
            -21,
            -21
        ]
    },
    "1468": {
        "21/03/2020 13:17:59": [
            -15,
            -15,
            -15,
            -15
        ],
        "21/03/2020 13:18:14": [
            -15,
            -15,
            -15,
            -15
        ],
        "21/03/2020 13:18:38": [
            -15,
            -15,
            -15,
            -15
        ],
        "21/03/2020 16:28:36": [
            -27,
            -27
        ],
        "21/03/2020 18:49:02": [
            -96,
            -19,
            -19
        ],
        "21/03/2020 20:51:32": [
            16,
            16
        ]
    },
    "1377": {
        "21/03/2020 13:18:00": [
            117,
            25,
            25,
            25
        ],
        "21/03/2020 13:18:14": [
            117,
            25,
            25,
            25
        ],
        "21/03/2020 13:18:41": [
            117,
            25,
            25,
            25
        ],
        "21/03/2020 16:28:39": [
            -23,
            -23
        ],
        "21/03/2020 18:49:07": [
            -80,
            20,
            20
        ],
        "21/03/2020 20:51:37": [
            28,
            28
        ]
    },
    "1378": {
        "21/03/2020 13:18:00": [
            92,
            0,
            0,
            0
        ],
        "21/03/2020 13:18:14": [
            92,
            0,
            0,
            0
        ],
        "21/03/2020 13:18:41": [
            92,
            0,
            0,
            0
        ],
        "21/03/2020 16:28:39": [
            -116,
            13,
            13
        ],
        "21/03/2020 18:49:07": [
            -5,
            -5,
            -5
        ],
        "21/03/2020 20:51:37": [
            -2,
            -2
        ]
    },
    "4514": {
        "21/03/2020 13:18:00": [
            95,
            -145,
            3,
            3
        ],
        "21/03/2020 13:18:15": [
            95,
            -145,
            3,
            3
        ],
        "21/03/2020 13:18:40": [
            95,
            -145,
            3,
            3
        ],
        "21/03/2020 16:28:39": [
            -108,
            17,
            17
        ],
        "21/03/2020 18:49:06": [
            -5,
            -5,
            -5
        ],
        "21/03/2020 20:51:36": [
            -128,
            -17,
            -17
        ]
    },
    "4515": {
        "21/03/2020 13:18:01": [
            120,
            -140,
            8,
            8
        ],
        "21/03/2020 13:18:15": [
            120,
            -140,
            8,
            8
        ],
        "21/03/2020 13:18:41": [
            120,
            -140,
            8,
            8
        ],
        "21/03/2020 16:28:39": [
            -97,
            18,
            18
        ],
        "21/03/2020 18:49:06": [
            -11,
            -11,
            -11
        ],
        "21/03/2020 20:51:36": [
            -85,
            26
        ]
    },
    "1995": {
        "21/03/2020 13:18:01": [
            95,
            24,
            24,
            24
        ],
        "21/03/2020 13:18:15": [
            95,
            -124,
            24,
            24
        ],
        "21/03/2020 13:18:39": [
            95,
            -124,
            24,
            24
        ],
        "21/03/2020 16:28:37": [
            -79,
            29,
            29
        ],
        "21/03/2020 18:49:04": [
            -8,
            -8,
            -8
        ],
        "21/03/2020 20:51:33": [
            -114,
            16,
            16
        ]
    },
    "1996": {
        "21/03/2020 13:18:01": [
            64,
            -7,
            -7,
            -7
        ],
        "21/03/2020 13:18:16": [
            64,
            -155,
            -7,
            -7
        ],
        "21/03/2020 13:18:43": [
            64,
            -155,
            -7,
            -7
        ],
        "21/03/2020 16:28:41": [
            -27,
            -8,
            -8
        ],
        "21/03/2020 18:49:09": [
            6,
            6,
            6
        ],
        "21/03/2020 20:51:39": [
            -115,
            15,
            15
        ]
    },
    "1997": {
        "21/03/2020 13:18:02": [
            58,
            -13,
            -13,
            -13
        ],
        "21/03/2020 13:18:16": [
            58,
            -161,
            -13,
            -13
        ],
        "21/03/2020 13:18:43": [
            58,
            -161,
            -13,
            -13
        ],
        "21/03/2020 16:28:41": [
            28,
            -17,
            -17
        ],
        "21/03/2020 18:49:10": [
            -109,
            -9,
            -9,
            -9
        ],
        "21/03/2020 20:51:40": [
            -120,
            -9,
            -9
        ]
    },
    "1998": {
        "21/03/2020 13:18:03": [
            -20,
            -20,
            -20,
            -20
        ],
        "21/03/2020 13:18:16": [
            -20,
            -168,
            -20,
            -20
        ],
        "21/03/2020 13:18:43": [
            -20,
            -168,
            -20,
            -20
        ],
        "21/03/2020 16:28:41": [
            6,
            8,
            8
        ],
        "21/03/2020 18:49:10": [
            -74,
            26,
            26,
            26
        ],
        "21/03/2020 20:51:40": [
            -119,
            11,
            11
        ]
    },
    "1999": {
        "21/03/2020 13:18:03": [
            16,
            16,
            16,
            16
        ],
        "21/03/2020 13:18:34": [
            16,
            -132,
            16,
            16
        ],
        "21/03/2020 16:28:32": [
            20,
            20
        ],
        "21/03/2020 18:48:56": [
            -114,
            -14,
            -14,
            -14
        ],
        "21/03/2020 20:51:25": [
            -111,
            19,
            19
        ]
    },
    "2001": {
        "21/03/2020 13:18:04": [
            26,
            26,
            26,
            26
        ],
        "21/03/2020 13:18:16": [
            26,
            26,
            26,
            26
        ],
        "21/03/2020 13:18:44": [
            26,
            -122,
            26,
            26
        ],
        "21/03/2020 16:28:42": [
            -30,
            12,
            12
        ],
        "21/03/2020 18:49:11": [
            -116,
            -16,
            -16,
            -16
        ],
        "21/03/2020 20:51:40": [
            -102,
            9,
            9
        ]
    },
    "2002": {
        "21/03/2020 13:18:04": [
            -24,
            -24,
            -24,
            -24
        ],
        "21/03/2020 13:18:17": [
            -24,
            -24,
            -24,
            -24
        ],
        "21/03/2020 13:18:44": [
            -24,
            -172,
            -24,
            -24
        ],
        "21/03/2020 16:28:42": [
            -11,
            -29
        ],
        "21/03/2020 18:49:11": [
            -108,
            -8,
            -8,
            -8
        ],
        "21/03/2020 20:51:41": [
            -141,
            -11,
            -11
        ]
    },
    "1359": {
        "21/03/2020 13:18:04": [
            -19,
            -19,
            -19
        ],
        "21/03/2020 13:18:17": [
            -19,
            -19,
            -19
        ],
        "21/03/2020 13:18:36": [
            -19,
            -19,
            -19
        ],
        "21/03/2020 16:28:34": [
            -150,
            -10,
            -24
        ],
        "21/03/2020 18:49:00": [
            -119,
            -19,
            -19
        ],
        "21/03/2020 20:51:28": [
            -113,
            -2,
            -2
        ]
    },
    "274": {
        "21/03/2020 13:18:05": [
            -515,
            -23,
            -23,
            -23
        ],
        "21/03/2020 13:18:18": [
            -515,
            -23,
            -23,
            -23
        ],
        "21/03/2020 13:18:38": [
            -23,
            -171,
            -23
        ],
        "21/03/2020 16:28:37": [
            -149,
            -20,
            1
        ],
        "21/03/2020 18:49:03": [
            -25,
            -532,
            -18,
            -18
        ],
        "21/03/2020 20:51:33": [
            -110,
            1
        ]
    },
    "1505": {
        "21/03/2020 13:18:05": [
            -537,
            -22,
            -22
        ],
        "21/03/2020 13:18:36": [
            -537,
            -22,
            -22
        ],
        "21/03/2020 16:28:34": [
            -133,
            -4
        ],
        "21/03/2020 18:48:59": [
            -6,
            -528,
            -14,
            -14
        ],
        "21/03/2020 20:51:28": [
            -119,
            11
        ]
    },
    "4509": {
        "21/03/2020 13:18:06": [
            -478,
            14,
            -134
        ],
        "21/03/2020 13:18:34": [
            -478,
            14,
            -134
        ],
        "21/03/2020 16:28:33": [
            -166,
            -26
        ],
        "21/03/2020 18:48:57": [
            -12,
            -498,
            16
        ],
        "21/03/2020 20:51:26": [
            -428,
            -150,
            -20
        ]
    },
    "499": {
        "21/03/2020 13:18:06": [
            -498,
            17,
            -131
        ],
        "21/03/2020 13:18:35": [
            -498,
            17,
            -131
        ],
        "21/03/2020 16:28:33": [
            -150,
            -21
        ],
        "21/03/2020 18:48:58": [
            3,
            -499,
            15
        ],
        "21/03/2020 20:51:26": [
            -430,
            -152,
            -22
        ]
    },
    "500": {
        "21/03/2020 13:18:06": [
            -388,
            3,
            3
        ],
        "21/03/2020 13:18:35": [
            -512,
            3,
            -145
        ],
        "21/03/2020 16:28:33": [
            -332,
            -166,
            -26
        ],
        "21/03/2020 18:48:58": [
            1,
            -505,
            9
        ],
        "21/03/2020 20:51:27": [
            -419,
            -105,
            25
        ]
    },
    "501": {
        "21/03/2020 13:18:07": [
            -401,
            -10,
            -10
        ],
        "21/03/2020 13:18:35": [
            -525,
            -10,
            -158
        ],
        "21/03/2020 16:28:34": [
            -277,
            -111,
            29
        ],
        "21/03/2020 18:48:58": [
            -128,
            0,
            -511,
            3
        ],
        "21/03/2020 20:51:27": [
            -432,
            -118,
            12
        ]
    },
    "1484": {
        "21/03/2020 13:18:07": [
            -530,
            -15,
            -15
        ],
        "21/03/2020 13:18:32": [
            -530,
            -15,
            -15
        ],
        "21/03/2020 16:28:30": [
            -281,
            -104,
            25
        ],
        "21/03/2020 18:48:54": [
            -126,
            2,
            -527,
            -13
        ],
        "21/03/2020 20:51:23": [
            -91,
            -477,
            -145,
            -15
        ]
    },
    "1481": {
        "21/03/2020 13:18:07": [
            -492,
            23,
            23
        ],
        "21/03/2020 13:18:32": [
            -492,
            23,
            23
        ],
        "21/03/2020 16:28:30": [
            -303,
            -126,
            3
        ],
        "21/03/2020 18:48:53": [
            -147,
            -19,
            -493,
            21
        ],
        "21/03/2020 20:51:22": [
            -57,
            -447,
            -115,
            15
        ]
    },
    "7320": {
        "21/03/2020 13:18:08": [
            -391,
            0,
            -13
        ],
        "21/03/2020 13:18:36": [
            -515,
            0,
            -148
        ],
        "21/03/2020 16:28:34": [
            -325,
            -148,
            -19
        ],
        "21/03/2020 18:48:59": [
            -104,
            24,
            -525,
            -11
        ],
        "21/03/2020 20:51:28": [
            -123,
            -435,
            -157,
            -27
        ]
    },
    "1486": {
        "21/03/2020 13:18:08": [
            -504,
            11,
            11
        ],
        "21/03/2020 13:18:32": [
            -504,
            11,
            11
        ],
        "21/03/2020 16:28:31": [
            -313,
            -136,
            -7
        ],
        "21/03/2020 18:48:54": [
            -149,
            -21,
            -520,
            -6
        ],
        "21/03/2020 20:51:23": [
            -118,
            -437,
            -159,
            -29
        ]
    },
    "1487": {
        "21/03/2020 13:18:08": [
            -496,
            19,
            19
        ],
        "21/03/2020 13:18:33": [
            -496,
            19,
            19
        ],
        "21/03/2020 16:28:31": [
            -301,
            -124,
            5
        ],
        "21/03/2020 18:48:55": [
            -149,
            -21,
            -529,
            -15
        ],
        "21/03/2020 20:51:24": [
            -127,
            -393,
            -115,
            15
        ]
    },
    "1488": {
        "21/03/2020 13:18:08": [
            -629,
            -513,
            2,
            2
        ],
        "21/03/2020 13:18:33": [
            -513,
            2,
            2
        ],
        "21/03/2020 16:28:31": [
            -316,
            -139,
            -10
        ],
        "21/03/2020 18:48:55": [
            -111,
            17,
            -496,
            18
        ],
        "21/03/2020 20:51:24": [
            -94,
            -425,
            -147,
            -17
        ]
    },
    "1489": {
        "21/03/2020 13:18:09": [
            -631,
            -515,
            0,
            0
        ],
        "21/03/2020 13:18:33": [
            -631,
            -515,
            0,
            0
        ],
        "21/03/2020 16:28:32": [
            -316,
            -139,
            -10
        ],
        "21/03/2020 18:48:55": [
            -121,
            7,
            -513,
            1
        ],
        "21/03/2020 20:51:24": [
            -111,
            -387,
            -109,
            21
        ]
    },
    "1490": {
        "21/03/2020 13:18:09": [],
        "21/03/2020 13:18:34": [],
        "21/03/2020 16:28:32": [],
        "21/03/2020 18:48:56": [],
        "21/03/2020 20:51:25": []
    },
    "4508": {
        "21/03/2020 13:18:34": [],
        "21/03/2020 16:28:32": [],
        "21/03/2020 18:48:57": [],
        "21/03/2020 20:51:26": []
    }
}