{
    "7559": {
        "27/03/2020 14:12:48": [],
        "27/03/2020 17:58:16": []
    },
    "6004": {
        "27/03/2020 14:12:49": [
            0,
            0
        ],
        "27/03/2020 17:58:16": [
            0,
            0,
            0,
            0
        ]
    },
    "7": {
        "27/03/2020 14:12:49": [
            25,
            -21
        ],
        "27/03/2020 17:58:17": [
            -11,
            4,
            -11,
            24
        ]
    },
    "11": {
        "27/03/2020 14:12:50": [
            -3,
            -24
        ],
        "27/03/2020 17:58:17": [
            4,
            -1,
            4,
            -5
        ]
    },
    "14": {
        "27/03/2020 14:12:51": [
            -8,
            -25
        ],
        "27/03/2020 17:58:18": [
            -12,
            -16,
            -12,
            -22
        ]
    },
    "15": {
        "27/03/2020 14:12:51": [
            -3,
            -15
        ],
        "27/03/2020 17:58:18": [
            -20,
            -23,
            -20,
            28
        ]
    },
    "834": {
        "27/03/2020 14:12:52": [
            -19,
            26
        ],
        "27/03/2020 17:58:19": [
            18,
            25,
            18,
            1
        ]
    },
    "835": {
        "27/03/2020 14:12:53": [
            16,
            -2
        ],
        "27/03/2020 17:58:19": [
            -12,
            3,
            -12,
            28
        ]
    },
    "836": {
        "27/03/2020 14:12:53": [
            -4,
            -25
        ],
        "27/03/2020 17:58:20": [
            22,
            -14,
            22,
            -2
        ]
    },
    "837": {
        "27/03/2020 14:12:54": [
            19,
            3
        ],
        "27/03/2020 17:58:20": [
            -12,
            2,
            -12,
            17
        ]
    },
    "1506": {
        "27/03/2020 14:12:54": [
            -17,
            -13
        ],
        "27/03/2020 17:58:21": [
            22,
            2,
            22,
            27
        ]
    },
    "1507": {
        "27/03/2020 14:12:55": [
            8,
            16
        ],
        "27/03/2020 17:58:21": [
            -13,
            24,
            -13,
            -11
        ]
    },
    "1508": {
        "27/03/2020 14:12:56": [
            -18
        ],
        "27/03/2020 17:58:22": [
            21,
            -6,
            21,
            18
        ]
    },
    "1509": {
        "27/03/2020 14:12:56": [
            -20
        ],
        "27/03/2020 17:58:22": [
            13,
            -18,
            13,
            7
        ]
    },
    "1510": {
        "27/03/2020 14:12:57": [
            -27
        ],
        "27/03/2020 17:58:23": [
            8,
            -22,
            8,
            -5
        ]
    },
    "1511": {
        "27/03/2020 14:12:57": [
            -13
        ],
        "27/03/2020 17:58:23": [
            20,
            -6,
            20,
            11
        ]
    },
    "1512": {
        "27/03/2020 14:12:58": [
            -20
        ],
        "27/03/2020 17:58:23": [
            -34,
            6,
            -5,
            6,
            9
        ]
    },
    "1538": {
        "27/03/2020 14:12:58": [
            -82,
            -13
        ],
        "27/03/2020 17:58:24": [
            -41,
            -1,
            -15,
            -1
        ]
    },
    "4548": {
        "27/03/2020 14:12:59": [
            -86,
            -23
        ],
        "27/03/2020 17:58:24": [
            -61,
            -21,
            22,
            -21
        ]
    },
    "1514": {
        "27/03/2020 14:12:59": [
            -100,
            10
        ],
        "27/03/2020 17:58:25": [
            -64,
            -7,
            -28,
            -7
        ]
    },
    "980": {
        "27/03/2020 14:13:00": [
            -102,
            7
        ],
        "27/03/2020 17:58:25": [
            -79,
            -22,
            14,
            -22
        ]
    },
    "981": {
        "27/03/2020 14:13:01": [
            -100,
            -17
        ],
        "27/03/2020 17:58:26": [
            17,
            17,
            -11,
            17
        ]
    },
    "1576": {
        "27/03/2020 14:13:01": [
            -101,
            2
        ],
        "27/03/2020 17:58:26": [
            -15,
            -15,
            7,
            -15
        ]
    },
    "1577": {
        "27/03/2020 14:13:02": [
            -114,
            -28
        ],
        "27/03/2020 17:58:27": [
            18,
            18,
            -24,
            18
        ]
    },
    "1578": {
        "27/03/2020 14:13:03": [
            -112,
            -2
        ],
        "27/03/2020 17:58:27": [
            -14,
            -14,
            1,
            -14
        ]
    },
    "4364": {
        "27/03/2020 14:13:03": [
            -86,
            2
        ],
        "27/03/2020 17:58:28": [
            -4,
            -4,
            3,
            -4
        ]
    },
    "1579": {
        "27/03/2020 14:13:04": [
            -63,
            25
        ],
        "27/03/2020 17:58:28": [
            22,
            22,
            26,
            22
        ]
    },
    "1580": {
        "27/03/2020 14:13:05": [
            -28,
            -28
        ],
        "27/03/2020 17:58:29": [
            29,
            29,
            -28,
            29
        ]
    },
    "7237": {
        "27/03/2020 14:13:05": [
            13,
            13
        ],
        "27/03/2020 17:58:29": [
            5,
            5,
            3,
            5
        ]
    },
    "7241": {
        "27/03/2020 14:13:06": [
            -18,
            -18
        ],
        "27/03/2020 17:58:30": [
            -28,
            -28,
            26,
            -28
        ]
    },
    "7247": {
        "27/03/2020 14:13:07": [
            10,
            10
        ],
        "27/03/2020 17:58:30": [
            -3,
            -3,
            -12,
            -3
        ]
    },
    "7243": {
        "27/03/2020 14:13:07": [
            3,
            3
        ],
        "27/03/2020 17:58:30": [
            -16,
            -16,
            29,
            -16
        ]
    },
    "7126": {
        "27/03/2020 14:13:08": [
            4,
            4
        ],
        "27/03/2020 17:58:31": [
            -21,
            -21,
            22,
            -21
        ]
    },
    "7124": {
        "27/03/2020 14:13:09": [
            -19,
            -19
        ],
        "27/03/2020 17:58:31": [
            25,
            25,
            0
        ]
    },
    "7343": {
        "27/03/2020 14:13:09": [
            -9,
            -9
        ],
        "27/03/2020 17:58:32": [
            100,
            -30,
            -30,
            -3
        ]
    },
    "7318": {
        "27/03/2020 14:13:10": [],
        "27/03/2020 17:58:32": []
    },
    "4978": {
        "27/03/2020 14:13:11": [
            27,
            27
        ],
        "27/03/2020 17:58:33": [
            69,
            -5,
            -5,
            4
        ]
    },
    "4979": {
        "27/03/2020 14:13:11": [
            12,
            12
        ],
        "27/03/2020 17:58:33": [
            54,
            -20,
            -20,
            -20
        ]
    },
    "4986": {
        "27/03/2020 14:13:12": [
            -19,
            -19
        ],
        "27/03/2020 17:58:34": [
            83,
            9,
            9,
            -9
        ]
    },
    "7107": {
        "27/03/2020 14:13:12": [
            4,
            4
        ],
        "27/03/2020 17:58:34": [
            106,
            -28,
            -28,
            9
        ]
    },
    "7102": {
        "27/03/2020 14:13:13": [
            18,
            18
        ],
        "27/03/2020 17:58:35": [
            60,
            -14,
            -14,
            21
        ]
    },
    "7103": {
        "27/03/2020 14:13:13": [
            3,
            3
        ],
        "27/03/2020 17:58:35": [
            105,
            -29,
            -29,
            -3
        ]
    },
    "7104": {
        "27/03/2020 14:13:14": [
            -28,
            -28
        ],
        "27/03/2020 17:58:36": [
            74,
            0,
            0,
            20
        ]
    },
    "7105": {
        "27/03/2020 14:13:14": [
            -5,
            -5
        ],
        "27/03/2020 17:58:36": [
            97,
            23,
            23,
            -22
        ]
    },
    "7106": {
        "27/03/2020 14:13:15": [
            10,
            10
        ],
        "27/03/2020 17:58:37": [
            52,
            -22,
            -22,
            -10
        ]
    },
    "6005": {
        "27/03/2020 14:13:16": [
            -26,
            -26
        ],
        "27/03/2020 17:58:37": [
            76,
            2,
            2,
            9
        ]
    },
    "1546": {
        "27/03/2020 14:13:16": [
            -16,
            -16
        ],
        "27/03/2020 17:58:38": [
            86,
            12,
            12,
            17
        ]
    },
    "7072": {
        "27/03/2020 14:13:17": [],
        "27/03/2020 17:58:38": []
    },
    "7560": {
        "27/03/2020 14:13:17": [],
        "27/03/2020 17:58:38": []
    },
    "7073": {
        "27/03/2020 14:13:18": [
            0,
            0
        ],
        "27/03/2020 17:58:39": [
            0,
            0,
            0,
            0
        ]
    },
    "7097": {
        "27/03/2020 14:13:19": [
            -1,
            2
        ],
        "27/03/2020 17:58:40": [
            -3,
            -3,
            -3,
            -3
        ]
    },
    "7098": {
        "27/03/2020 14:13:19": [
            -29,
            -24
        ],
        "27/03/2020 17:58:40": [
            28,
            28,
            28,
            28
        ]
    },
    "7099": {
        "27/03/2020 14:13:20": [
            0,
            7
        ],
        "27/03/2020 17:58:41": [
            -3,
            -3,
            -3,
            -4
        ]
    },
    "7100": {
        "27/03/2020 14:13:20": [
            -25,
            -15
        ],
        "27/03/2020 17:58:41": [
            -28,
            -28,
            -28,
            -29
        ]
    },
    "7101": {
        "27/03/2020 14:13:21": [
            20,
            -28
        ],
        "27/03/2020 17:58:42": [
            16,
            16,
            16,
            15
        ]
    },
    "7505": {
        "27/03/2020 14:13:21": [
            -29,
            -16
        ],
        "27/03/2020 17:58:42": [
            26,
            26,
            26,
            25
        ]
    },
    "5071": {
        "27/03/2020 14:13:22": [
            -16,
            5
        ],
        "27/03/2020 17:58:43": [
            -24,
            -24,
            -24,
            -26
        ]
    },
    "5072": {
        "27/03/2020 14:13:22": [
            -13,
            11
        ],
        "27/03/2020 17:58:43": [
            -23,
            -23,
            -23,
            -25
        ]
    },
    "4321": {
        "27/03/2020 14:13:23": [],
        "27/03/2020 17:58:44": []
    },
    "7342": {
        "27/03/2020 14:13:24": [
            17,
            3
        ],
        "27/03/2020 17:58:44": [
            -2,
            -2,
            -2,
            -13
        ]
    },
    "7125": {
        "27/03/2020 14:13:24": [
            25,
            21
        ],
        "27/03/2020 17:58:45": [
            2,
            2,
            2,
            14
        ]
    },
    "7344": {
        "27/03/2020 14:13:25": [
            26
        ],
        "27/03/2020 17:58:45": [
            174,
            8,
            8,
            8,
            29
        ]
    },
    "2510": {
        "27/03/2020 14:13:26": [
            15
        ],
        "27/03/2020 17:58:45": [
            187,
            0,
            0,
            0
        ]
    },
    "7242": {
        "27/03/2020 14:13:26": [
            42,
            -11
        ],
        "27/03/2020 17:58:46": [
            111,
            -21,
            -21,
            -21
        ]
    },
    "7238": {
        "27/03/2020 14:13:27": [
            67,
            11
        ],
        "27/03/2020 17:58:46": [
            136,
            4,
            4,
            4
        ]
    },
    "7224": {
        "27/03/2020 14:13:27": [
            43,
            -13
        ],
        "27/03/2020 17:58:47": [
            109,
            -23,
            -23,
            -23
        ]
    },
    "1581": {
        "27/03/2020 14:13:28": [
            67,
            11
        ],
        "27/03/2020 17:58:47": [
            187,
            0,
            0,
            0
        ]
    },
    "1582": {
        "27/03/2020 14:13:29": [
            71,
            -1
        ],
        "27/03/2020 17:58:48": [
            108,
            -24,
            -24,
            -24
        ]
    },
    "4793": {
        "27/03/2020 14:13:29": [
            79,
            7
        ],
        "27/03/2020 17:58:48": [
            116,
            -16,
            -16,
            -16
        ]
    },
    "6068": {
        "27/03/2020 14:13:30": [
            92,
            20
        ],
        "27/03/2020 17:58:49": [
            122,
            -10,
            -10,
            -10
        ]
    },
    "1584": {
        "27/03/2020 14:13:30": [
            58,
            -14
        ],
        "27/03/2020 17:58:49": [
            146,
            14,
            14,
            14
        ]
    },
    "983": {
        "27/03/2020 14:13:31": [
            66,
            -6
        ],
        "27/03/2020 17:58:50": [
            148,
            16,
            16,
            16
        ]
    },
    "984": {
        "27/03/2020 14:13:31": [
            61,
            -11
        ],
        "27/03/2020 17:58:50": [
            129,
            -3,
            -3,
            -3
        ]
    },
    "985": {
        "27/03/2020 14:13:32": [
            97,
            25
        ],
        "27/03/2020 17:58:51": [
            156,
            24,
            24,
            24
        ]
    },
    "1529": {
        "27/03/2020 14:13:33": [
            -2,
            -2
        ],
        "27/03/2020 17:58:51": [
            106,
            -26,
            -26,
            -26
        ]
    },
    "4542": {
        "27/03/2020 14:13:33": [
            -17,
            -17
        ],
        "27/03/2020 17:58:52": [
            140,
            8,
            8,
            8
        ]
    },
    "1531": {
        "27/03/2020 14:13:34": [
            0,
            0
        ],
        "27/03/2020 17:58:52": [
            138,
            6,
            6,
            6
        ]
    },
    "1532": {
        "27/03/2020 14:13:34": [
            -3,
            -3
        ],
        "27/03/2020 17:58:53": [
            121,
            -11,
            -11,
            -11
        ]
    },
    "1533": {
        "27/03/2020 14:13:35": [
            -24,
            -24
        ],
        "27/03/2020 17:58:53": [
            113,
            -19,
            -19,
            -19
        ]
    },
    "1534": {
        "27/03/2020 14:13:36": [
            23,
            23
        ],
        "27/03/2020 17:58:54": [
            115,
            -17,
            -17,
            -17
        ]
    },
    "1535": {
        "27/03/2020 14:13:36": [
            -4,
            -4
        ],
        "27/03/2020 17:58:54": [
            156,
            24,
            24,
            24
        ]
    },
    "1536": {
        "27/03/2020 14:13:37": [
            -27,
            -27
        ],
        "27/03/2020 17:58:55": [
            131,
            -1,
            -1,
            -1
        ]
    },
    "1537": {
        "27/03/2020 14:13:37": [
            28,
            28
        ],
        "27/03/2020 17:58:55": [
            120,
            -12,
            -12,
            -12
        ]
    },
    "186": {
        "27/03/2020 14:13:38": [
            -22,
            -22
        ],
        "27/03/2020 17:58:55": [
            123,
            -9,
            -9,
            -9
        ]
    },
    "838": {
        "27/03/2020 14:13:39": [
            1,
            1
        ],
        "27/03/2020 17:58:56": [
            159,
            27,
            27
        ]
    },
    "839": {
        "27/03/2020 14:13:39": [
            22,
            22
        ],
        "27/03/2020 17:58:56": [
            133,
            1,
            1
        ]
    },
    "840": {
        "27/03/2020 14:13:40": [
            -6,
            -6
        ],
        "27/03/2020 17:58:57": [
            108,
            -24,
            -24
        ]
    },
    "841": {
        "27/03/2020 14:13:40": [
            0,
            0
        ],
        "27/03/2020 17:58:57": [
            -229,
            120,
            -12,
            -12
        ]
    },
    "49": {
        "27/03/2020 14:13:41": [
            1,
            1
        ],
        "27/03/2020 17:58:58": [
            -214,
            126,
            -6,
            -6
        ]
    },
    "51": {
        "27/03/2020 14:13:42": [
            5,
            5
        ],
        "27/03/2020 17:58:58": [
            -198,
            122,
            -10,
            -10
        ]
    },
    "52": {
        "27/03/2020 14:13:42": [
            -19,
            -19
        ],
        "27/03/2020 17:58:59": [
            -216,
            153,
            21,
            21
        ]
    },
    "4725": {
        "27/03/2020 14:13:43": [
            -6,
            -6
        ],
        "27/03/2020 17:58:59": [
            -220,
            148,
            16,
            16
        ]
    },
    "6071": {
        "27/03/2020 14:13:43": [],
        "27/03/2020 17:59:00": []
    }
}