{
    "7559": {
        "24/03/2020 14:55:55": [],
        "24/03/2020 17:10:46": [],
        "24/03/2020 19:49:40": [],
        "24/03/2020 22:06:12": []
    },
    "6004": {
        "24/03/2020 14:55:56": [
            0,
            0
        ],
        "24/03/2020 17:10:47": [
            0,
            0,
            0
        ],
        "24/03/2020 19:49:41": [
            0,
            0
        ],
        "24/03/2020 22:06:12": [
            0,
            0
        ]
    },
    "7": {
        "24/03/2020 14:55:56": [
            -12,
            -12
        ],
        "24/03/2020 17:10:47": [
            3,
            3,
            22
        ],
        "24/03/2020 19:49:41": [
            29,
            29
        ],
        "24/03/2020 22:06:12": [
            15,
            15
        ]
    },
    "11": {
        "24/03/2020 14:55:57": [
            0,
            0
        ],
        "24/03/2020 17:10:47": [
            -17,
            -17,
            -26
        ],
        "24/03/2020 19:49:41": [
            7
        ],
        "24/03/2020 22:06:13": [
            -30,
            -30
        ]
    },
    "14": {
        "24/03/2020 14:55:57": [
            14,
            14
        ],
        "24/03/2020 17:10:48": [
            -4,
            -4,
            -17
        ],
        "24/03/2020 19:49:42": [
            11,
            11
        ],
        "24/03/2020 22:06:14": [
            14,
            14
        ]
    },
    "15": {
        "24/03/2020 14:55:58": [
            -18,
            -18
        ],
        "24/03/2020 17:10:48": [
            21,
            21,
            5
        ],
        "24/03/2020 19:49:42": [
            27,
            27
        ],
        "24/03/2020 22:06:14": [
            7,
            7
        ]
    },
    "834": {
        "24/03/2020 14:55:58": [
            -5,
            -5
        ],
        "24/03/2020 17:10:49": [
            -12,
            -12
        ],
        "24/03/2020 19:49:43": [
            8,
            8
        ],
        "24/03/2020 22:06:14": [
            -18,
            -18
        ]
    },
    "835": {
        "24/03/2020 14:55:59": [
            -7,
            -7
        ],
        "24/03/2020 17:10:49": [
            -5,
            -5
        ],
        "24/03/2020 19:49:43": [
            -20,
            -20
        ],
        "24/03/2020 22:06:15": [
            9
        ]
    },
    "836": {
        "24/03/2020 14:55:59": [
            -2,
            -2
        ],
        "24/03/2020 17:10:50": [
            12,
            12
        ],
        "24/03/2020 19:49:44": [
            17,
            17
        ],
        "24/03/2020 22:06:15": [
            -19,
            -19
        ]
    },
    "837": {
        "24/03/2020 14:56:00": [
            -10,
            -10
        ],
        "24/03/2020 17:10:50": [
            9,
            9
        ],
        "24/03/2020 19:49:44": [
            -22,
            -22
        ],
        "24/03/2020 22:06:16": [
            0,
            0
        ]
    },
    "1506": {
        "24/03/2020 14:56:00": [
            2,
            2
        ],
        "24/03/2020 17:10:50": [
            -340,
            -21,
            -21
        ],
        "24/03/2020 19:49:45": [
            -4,
            -4
        ],
        "24/03/2020 22:06:16": [
            52,
            12
        ]
    },
    "1507": {
        "24/03/2020 14:56:00": [
            -14,
            -14
        ],
        "24/03/2020 17:10:51": [
            -304,
            15,
            15
        ],
        "24/03/2020 19:49:45": [
            21,
            21
        ],
        "24/03/2020 22:06:17": [
            17,
            -23
        ]
    },
    "1508": {
        "24/03/2020 14:56:01": [
            -17,
            -17
        ],
        "24/03/2020 17:10:51": [
            -316,
            3,
            3
        ],
        "24/03/2020 19:49:46": [
            -7,
            -7
        ],
        "24/03/2020 22:06:17": [
            50,
            10
        ]
    },
    "1509": {
        "24/03/2020 14:56:01": [
            -8,
            -8
        ],
        "24/03/2020 17:10:52": [
            -312,
            7,
            7
        ],
        "24/03/2020 19:49:46": [
            -14,
            -14
        ],
        "24/03/2020 22:06:18": [
            33,
            -7
        ]
    },
    "1510": {
        "24/03/2020 14:56:02": [
            -4,
            -4
        ],
        "24/03/2020 17:10:52": [
            -268,
            8,
            8
        ],
        "24/03/2020 19:49:48": [
            -14,
            -14
        ],
        "24/03/2020 22:06:18": [
            19,
            -21
        ]
    },
    "1511": {
        "24/03/2020 14:56:02": [
            19,
            19
        ],
        "24/03/2020 17:10:53": [
            -303,
            -27,
            -27
        ],
        "24/03/2020 19:49:48": [
            3,
            3
        ],
        "24/03/2020 22:06:19": [
            36,
            -4
        ]
    },
    "1512": {
        "24/03/2020 14:56:03": [
            -15,
            -15
        ],
        "24/03/2020 17:10:53": [
            -270,
            6,
            6
        ],
        "24/03/2020 19:49:49": [
            8,
            8
        ],
        "24/03/2020 22:06:19": [
            0,
            0
        ]
    },
    "1538": {
        "24/03/2020 14:56:03": [
            5,
            5
        ],
        "24/03/2020 17:10:53": [
            -252,
            24,
            24
        ],
        "24/03/2020 19:49:49": [
            5,
            5
        ],
        "24/03/2020 22:06:20": [
            -14,
            -14
        ]
    },
    "4548": {
        "24/03/2020 14:56:04": [
            5,
            5
        ],
        "24/03/2020 17:10:54": [
            -254,
            22,
            22
        ],
        "24/03/2020 19:49:50": [
            -12,
            -12
        ],
        "24/03/2020 22:06:20": [
            21,
            21
        ]
    },
    "1514": {
        "24/03/2020 14:56:04": [
            -3,
            -3
        ],
        "24/03/2020 17:10:55": [
            -265,
            11,
            11
        ],
        "24/03/2020 19:49:50": [
            8,
            8
        ],
        "24/03/2020 22:06:21": [
            26,
            26
        ]
    },
    "980": {
        "24/03/2020 14:56:04": [
            5
        ],
        "24/03/2020 17:10:55": [
            -259,
            17,
            17
        ],
        "24/03/2020 19:49:51": [
            -3,
            -3
        ],
        "24/03/2020 22:06:21": [
            6,
            6
        ]
    },
    "981": {
        "24/03/2020 14:56:05": [
            -1
        ],
        "24/03/2020 17:10:55": [
            -269,
            7,
            7
        ],
        "24/03/2020 19:49:51": [
            -24,
            -24
        ],
        "24/03/2020 22:06:21": [
            -21,
            -21
        ]
    },
    "1576": {
        "24/03/2020 14:56:05": [
            -2
        ],
        "24/03/2020 17:10:56": [
            -237,
            -279,
            -3,
            -3
        ],
        "24/03/2020 19:49:52": [
            2
        ],
        "24/03/2020 22:06:22": [
            -6,
            -6
        ]
    },
    "1577": {
        "24/03/2020 14:56:06": [
            -18
        ],
        "24/03/2020 17:10:56": [
            -280,
            -298,
            -22,
            -22
        ],
        "24/03/2020 19:49:52": [
            -26
        ],
        "24/03/2020 22:06:23": [
            21,
            21
        ]
    },
    "1578": {
        "24/03/2020 14:56:06": [
            20
        ],
        "24/03/2020 17:10:57": [
            -225,
            -262,
            14,
            14
        ],
        "24/03/2020 19:49:53": [
            3
        ],
        "24/03/2020 22:06:23": [
            -14,
            -14
        ]
    },
    "4364": {
        "24/03/2020 14:56:07": [
            -5
        ],
        "24/03/2020 17:10:57": [
            -263,
            -294,
            -18,
            -18
        ],
        "24/03/2020 19:49:53": [
            12
        ],
        "24/03/2020 22:06:24": [
            -15,
            -15
        ]
    },
    "1579": {
        "24/03/2020 14:56:08": [
            -30
        ],
        "24/03/2020 17:10:58": [
            -231,
            -262,
            14,
            14
        ],
        "24/03/2020 19:49:53": [
            -283,
            -23
        ],
        "24/03/2020 22:06:24": [
            7,
            7
        ]
    },
    "1580": {
        "24/03/2020 14:56:08": [
            -10
        ],
        "24/03/2020 17:10:58": [
            -265,
            -296,
            -20,
            -20
        ],
        "24/03/2020 19:49:54": [
            -266,
            -2
        ],
        "24/03/2020 22:06:25": [
            20,
            20
        ]
    },
    "7237": {
        "24/03/2020 14:56:09": [
            -26
        ],
        "24/03/2020 17:10:58": [
            -220,
            -251,
            25,
            25
        ],
        "24/03/2020 19:49:54": [
            -230,
            -24
        ],
        "24/03/2020 22:06:25": [
            -5,
            -5
        ]
    },
    "7241": {
        "24/03/2020 14:56:09": [
            7
        ],
        "24/03/2020 17:10:59": [
            -247,
            -278,
            -2,
            -2
        ],
        "24/03/2020 19:49:55": [
            -263,
            3
        ],
        "24/03/2020 22:06:26": [
            21,
            21
        ]
    },
    "7247": {
        "24/03/2020 14:56:10": [
            -23
        ],
        "24/03/2020 17:10:59": [
            -217,
            -248,
            28,
            28
        ],
        "24/03/2020 19:49:55": [
            -237,
            29
        ],
        "24/03/2020 22:06:26": [
            -14,
            -14
        ]
    },
    "7243": {
        "24/03/2020 14:56:10": [
            -329,
            -25
        ],
        "24/03/2020 17:11:00": [
            -218,
            -249,
            27,
            27
        ],
        "24/03/2020 19:49:56": [
            -265,
            18
        ],
        "24/03/2020 22:06:27": [
            -28,
            -28
        ]
    },
    "7126": {
        "24/03/2020 14:56:11": [
            -332,
            -16
        ],
        "24/03/2020 17:11:00": [
            -271,
            -302,
            -26,
            -26
        ],
        "24/03/2020 19:49:56": [
            -331,
            19
        ],
        "24/03/2020 22:06:27": [
            29,
            29
        ]
    },
    "7124": {
        "24/03/2020 14:56:11": [
            -345,
            -16
        ],
        "24/03/2020 17:11:01": [
            -218,
            -249,
            27,
            27
        ],
        "24/03/2020 19:49:57": [
            -287,
            7
        ],
        "24/03/2020 22:06:28": [
            10,
            10
        ]
    },
    "7343": {
        "24/03/2020 14:56:12": [
            -325,
            10
        ],
        "24/03/2020 17:11:01": [
            -254,
            -285,
            -9
        ],
        "24/03/2020 19:49:57": [
            -330,
            2
        ],
        "24/03/2020 22:06:28": [
            1,
            1
        ]
    },
    "7318": {
        "24/03/2020 14:56:12": [],
        "24/03/2020 17:11:01": [],
        "24/03/2020 19:49:58": [
            27
        ],
        "24/03/2020 22:06:28": [
            20,
            20
        ]
    },
    "4978": {
        "24/03/2020 14:56:13": [
            -330,
            20
        ],
        "24/03/2020 17:11:02": [
            -250,
            -281,
            -5
        ],
        "24/03/2020 19:49:58": [
            -279,
            6
        ],
        "24/03/2020 22:06:29": [
            -3,
            -3
        ]
    },
    "4979": {
        "24/03/2020 14:56:14": [
            -345,
            4
        ],
        "24/03/2020 17:11:02": [
            -265,
            -296,
            -20
        ],
        "24/03/2020 19:49:59": [
            -233,
            -8
        ],
        "24/03/2020 22:06:30": [
            -19,
            -19
        ]
    },
    "4986": {
        "24/03/2020 14:56:14": [
            -318,
            29
        ],
        "24/03/2020 17:11:03": [
            -239,
            -270,
            6
        ],
        "24/03/2020 19:49:59": [
            -265,
            20
        ],
        "24/03/2020 22:06:30": [
            8,
            8
        ]
    },
    "7107": {
        "24/03/2020 14:56:15": [
            -296,
            -8
        ],
        "24/03/2020 17:11:03": [],
        "24/03/2020 19:50:00": [
            -241,
            -16
        ],
        "24/03/2020 22:06:31": [
            -30,
            -30
        ]
    },
    "7102": {
        "24/03/2020 14:56:15": [
            -342,
            5
        ],
        "24/03/2020 17:11:04": [
            -262,
            -293,
            -17
        ],
        "24/03/2020 19:50:00": [
            -227,
            -2
        ],
        "24/03/2020 22:06:31": [
            -16,
            -16
        ]
    },
    "7103": {
        "24/03/2020 14:56:16": [
            -297,
            -11
        ],
        "24/03/2020 17:11:04": [
            -218,
            -249,
            27
        ],
        "24/03/2020 19:50:01": [
            -242,
            -17
        ],
        "24/03/2020 22:06:31": [
            28,
            28
        ]
    },
    "7104": {
        "24/03/2020 14:56:16": [
            -329,
            16
        ],
        "24/03/2020 17:11:05": [
            -250,
            -281,
            -5
        ],
        "24/03/2020 19:50:01": [
            -273,
            12
        ],
        "24/03/2020 22:06:32": [
            -4,
            -4
        ]
    },
    "7105": {
        "24/03/2020 14:56:17": [
            -306,
            -21
        ],
        "24/03/2020 17:11:05": [
            -227,
            -258,
            18
        ],
        "24/03/2020 19:50:02": [
            -250,
            -25
        ],
        "24/03/2020 22:06:32": [
            19,
            19
        ]
    },
    "7106": {
        "24/03/2020 14:56:17": [
            -292,
            -7
        ],
        "24/03/2020 17:11:05": [
            -273,
            -304,
            -28
        ],
        "24/03/2020 19:50:02": [
            -235,
            -10
        ],
        "24/03/2020 22:06:33": [
            -27,
            -27
        ]
    },
    "6005": {
        "24/03/2020 14:56:18": [
            -329,
            16
        ],
        "24/03/2020 17:11:06": [
            -250,
            -281,
            -5
        ],
        "24/03/2020 19:50:03": [
            -272,
            13
        ],
        "24/03/2020 22:06:33": [
            -4,
            -4
        ]
    },
    "1546": {
        "24/03/2020 14:56:18": [
            -319,
            26
        ],
        "24/03/2020 17:11:06": [
            -240,
            -271,
            5
        ],
        "24/03/2020 19:50:03": [
            -262,
            23
        ],
        "24/03/2020 22:06:34": [
            6,
            6
        ]
    },
    "7072": {
        "24/03/2020 14:56:19": [],
        "24/03/2020 17:11:07": [],
        "24/03/2020 19:50:04": [],
        "24/03/2020 22:06:34": []
    },
    "7560": {
        "24/03/2020 14:56:19": [],
        "24/03/2020 17:11:07": [],
        "24/03/2020 19:50:09": [],
        "24/03/2020 22:06:35": []
    },
    "7073": {
        "24/03/2020 14:56:20": [
            0,
            0
        ],
        "24/03/2020 17:11:07": [
            0,
            0,
            0,
            0
        ],
        "24/03/2020 19:50:14": [
            0,
            0
        ],
        "24/03/2020 22:06:35": [
            0,
            0
        ]
    },
    "7097": {
        "24/03/2020 14:56:20": [
            11,
            11
        ],
        "24/03/2020 17:11:08": [
            10,
            10,
            22,
            22
        ],
        "24/03/2020 19:50:19": [
            -1,
            -1
        ],
        "24/03/2020 22:06:36": [
            -4,
            -4
        ]
    },
    "7098": {
        "24/03/2020 14:56:21": [
            -10,
            -10
        ],
        "24/03/2020 17:11:08": [
            -12,
            -12,
            7,
            7
        ],
        "24/03/2020 19:50:25": [
            -29,
            -29
        ],
        "24/03/2020 22:06:36": [
            26,
            26
        ]
    },
    "7099": {
        "24/03/2020 14:56:21": [
            25,
            25
        ],
        "24/03/2020 17:11:09": [
            23,
            23,
            -13,
            -13
        ],
        "24/03/2020 19:50:30": [
            1,
            1
        ],
        "24/03/2020 22:06:36": [
            -7,
            -7
        ]
    },
    "7100": {
        "24/03/2020 14:56:22": [
            8,
            8
        ],
        "24/03/2020 17:11:09": [
            6,
            6,
            -23,
            -23
        ],
        "24/03/2020 19:50:35": [
            -23,
            -23
        ],
        "24/03/2020 22:06:37": [
            27,
            27
        ]
    },
    "7101": {
        "24/03/2020 14:56:22": [
            2,
            2
        ],
        "24/03/2020 17:11:10": [
            0,
            0,
            -20,
            -20
        ],
        "24/03/2020 19:50:41": [
            22,
            22
        ],
        "24/03/2020 22:06:37": [
            10,
            10
        ]
    },
    "7505": {
        "24/03/2020 14:56:23": [
            16,
            16
        ],
        "24/03/2020 17:11:10": [
            13,
            13,
            -5,
            -5
        ],
        "24/03/2020 19:50:46": [
            -27,
            -27
        ],
        "24/03/2020 22:06:38": [
            20,
            20
        ]
    },
    "5071": {
        "24/03/2020 14:56:23": [
            -4,
            -4
        ],
        "24/03/2020 17:11:11": [
            -8,
            -8,
            1,
            1
        ],
        "24/03/2020 19:50:52": [
            -13,
            -13
        ],
        "24/03/2020 22:06:38": [
            26
        ]
    },
    "5072": {
        "24/03/2020 14:56:24": [
            12,
            12
        ],
        "24/03/2020 17:11:11": [
            7,
            7,
            28,
            28
        ],
        "24/03/2020 19:50:58": [
            -10,
            -10
        ],
        "24/03/2020 22:06:39": [
            67,
            25
        ]
    },
    "4321": {
        "24/03/2020 14:56:24": [],
        "24/03/2020 17:11:12": [],
        "24/03/2020 19:51:02": [
            -30,
            -30
        ],
        "24/03/2020 22:06:39": [
            45,
            3
        ]
    },
    "7342": {
        "24/03/2020 14:56:25": [
            -6,
            -6
        ],
        "24/03/2020 17:11:12": [
            154,
            -28,
            -28,
            28
        ],
        "24/03/2020 19:51:08": [
            -8,
            -8
        ],
        "24/03/2020 22:06:40": [
            64,
            22
        ]
    },
    "7125": {
        "24/03/2020 14:56:25": [
            -26,
            -26
        ],
        "24/03/2020 17:11:13": [
            187,
            5,
            5,
            -10
        ],
        "24/03/2020 19:51:13": [
            -17,
            -17
        ],
        "24/03/2020 22:06:40": [
            10,
            10
        ]
    },
    "7344": {
        "24/03/2020 14:56:26": [
            4,
            4
        ],
        "24/03/2020 17:11:13": [
            180,
            -19,
            -19,
            13
        ],
        "24/03/2020 19:51:18": [
            -9,
            -9
        ],
        "24/03/2020 22:06:41": [
            11,
            11
        ]
    },
    "2510": {
        "24/03/2020 14:56:26": [
            16,
            16
        ],
        "24/03/2020 17:11:14": [
            196,
            -3,
            -3,
            20
        ],
        "24/03/2020 19:51:23": [
            -15,
            -15
        ],
        "24/03/2020 22:06:41": [
            0,
            0
        ]
    },
    "7242": {
        "24/03/2020 14:56:27": [
            -6,
            -6
        ],
        "24/03/2020 17:11:14": [
            180,
            -19,
            -19,
            -3
        ],
        "24/03/2020 19:51:29": [
            21,
            21
        ],
        "24/03/2020 22:06:42": [
            -25,
            -25
        ]
    },
    "7238": {
        "24/03/2020 14:56:27": [
            19,
            19
        ],
        "24/03/2020 17:11:15": [
            208,
            9,
            9,
            21
        ],
        "24/03/2020 19:51:34": [
            -15,
            -15
        ],
        "24/03/2020 22:06:42": [
            -2,
            -2
        ]
    },
    "7224": {
        "24/03/2020 14:56:28": [
            7,
            7
        ],
        "24/03/2020 17:11:15": [
            204,
            5,
            5,
            6
        ],
        "24/03/2020 19:51:39": [
            13,
            13
        ],
        "24/03/2020 22:06:42": [
            26,
            26
        ]
    },
    "1581": {
        "24/03/2020 14:56:28": [
            -21,
            -21
        ],
        "24/03/2020 17:11:15": [
            182,
            -17,
            -17,
            -23
        ],
        "24/03/2020 19:51:45": [
            -27,
            -27
        ],
        "24/03/2020 22:06:43": [
            -14,
            -14
        ]
    },
    "1582": {
        "24/03/2020 14:56:29": [
            2,
            2
        ],
        "24/03/2020 17:11:16": [
            145,
            -4,
            -4,
            -15
        ],
        "24/03/2020 19:51:50": [
            -29,
            -29
        ],
        "24/03/2020 22:06:43": [
            15,
            15
        ]
    },
    "4793": {
        "24/03/2020 14:56:29": [
            13,
            13
        ],
        "24/03/2020 17:11:16": [
            160,
            11,
            11,
            -5
        ],
        "24/03/2020 19:51:55": [
            -20,
            -20
        ],
        "24/03/2020 22:06:44": [
            22,
            22
        ]
    },
    "6068": {
        "24/03/2020 14:56:30": [
            -15,
            -15
        ],
        "24/03/2020 17:11:17": [
            128,
            -21,
            -21,
            16
        ],
        "24/03/2020 19:52:00": [
            -13,
            -13
        ],
        "24/03/2020 22:06:44": [
            19,
            19
        ]
    },
    "1584": {
        "24/03/2020 14:56:31": [
            18,
            18
        ],
        "24/03/2020 17:11:17": [
            160,
            11,
            11,
            -15
        ],
        "24/03/2020 19:52:08": [
            11,
            11
        ],
        "24/03/2020 22:06:45": [
            -21,
            -21
        ]
    },
    "983": {
        "24/03/2020 14:56:31": [
            -18,
            -18
        ],
        "24/03/2020 17:11:18": [
            121,
            -28,
            -28,
            -1
        ],
        "24/03/2020 19:52:14": [
            13,
            13
        ],
        "24/03/2020 22:06:45": [
            -28,
            -28
        ]
    },
    "984": {
        "24/03/2020 14:56:31": [
            -12
        ],
        "24/03/2020 17:11:18": [
            125,
            -24,
            -24,
            -7
        ],
        "24/03/2020 19:52:15": [
            46,
            -1,
            -1
        ],
        "24/03/2020 22:06:45": [
            13,
            13
        ]
    },
    "985": {
        "24/03/2020 14:56:32": [
            -30
        ],
        "24/03/2020 17:11:19": [
            167,
            18,
            18,
            28
        ],
        "24/03/2020 19:52:15": [
            81,
            -30,
            -30
        ],
        "24/03/2020 22:06:46": [
            -20,
            -20
        ]
    },
    "1529": {
        "24/03/2020 14:56:32": [
            21
        ],
        "24/03/2020 17:11:19": [
            156,
            7,
            7
        ],
        "24/03/2020 19:52:16": [
            54,
            -11
        ],
        "24/03/2020 22:06:46": [
            -11,
            -11
        ]
    },
    "4542": {
        "24/03/2020 14:56:33": [
            15
        ],
        "24/03/2020 17:11:19": [
            148,
            -1,
            -1
        ],
        "24/03/2020 19:52:16": [
            39,
            27
        ],
        "24/03/2020 22:06:47": [
            23,
            23
        ]
    },
    "1531": {
        "24/03/2020 14:56:33": [
            -13
        ],
        "24/03/2020 17:11:20": [],
        "24/03/2020 19:52:17": [
            75,
            -28
        ],
        "24/03/2020 22:06:47": [
            21,
            21
        ]
    },
    "1532": {
        "24/03/2020 14:56:34": [
            -6
        ],
        "24/03/2020 17:11:20": [
            124,
            -25,
            -25
        ],
        "24/03/2020 19:52:17": [
            71,
            20
        ],
        "24/03/2020 22:06:48": [
            3,
            3
        ]
    },
    "1533": {
        "24/03/2020 14:56:34": [
            -3
        ],
        "24/03/2020 17:11:21": [
            133,
            -16,
            -16
        ],
        "24/03/2020 19:52:18": [
            57,
            2
        ],
        "24/03/2020 22:06:48": [
            -22,
            -22
        ]
    },
    "1534": {
        "24/03/2020 14:56:35": [
            -56,
            11
        ],
        "24/03/2020 17:11:21": [
            154,
            5,
            5
        ],
        "24/03/2020 19:52:18": [
            111,
            -9
        ],
        "24/03/2020 22:06:49": [
            20,
            20
        ]
    },
    "1535": {
        "24/03/2020 14:56:35": [
            -70,
            18
        ],
        "24/03/2020 17:11:22": [
            142,
            -7,
            -7
        ],
        "24/03/2020 19:52:18": [
            93,
            26
        ],
        "24/03/2020 22:06:49": [
            -3,
            -3
        ]
    },
    "1536": {
        "24/03/2020 14:56:36": [
            -81,
            3
        ],
        "24/03/2020 17:11:22": [
            130,
            -19,
            -19
        ],
        "24/03/2020 19:52:19": [
            77,
            -1
        ],
        "24/03/2020 22:06:50": [
            -29,
            -29
        ]
    },
    "1537": {
        "24/03/2020 14:56:36": [
            -77,
            -21
        ],
        "24/03/2020 17:11:22": [
            159,
            10,
            10
        ],
        "24/03/2020 19:52:19": [
            80,
            -13
        ],
        "24/03/2020 22:06:50": [
            15,
            15
        ]
    },
    "186": {
        "24/03/2020 14:56:37": [
            -65,
            -20
        ],
        "24/03/2020 17:11:23": [
            153,
            4,
            4
        ],
        "24/03/2020 19:52:20": [
            100,
            -11
        ],
        "24/03/2020 22:06:51": [
            11,
            11
        ]
    },
    "838": {
        "24/03/2020 14:56:37": [
            -94
        ],
        "24/03/2020 17:11:23": [
            134,
            -15
        ],
        "24/03/2020 19:52:20": [
            85,
            23
        ],
        "24/03/2020 22:06:51": [
            -25,
            -25
        ]
    },
    "839": {
        "24/03/2020 14:56:38": [
            -65,
            15
        ],
        "24/03/2020 17:11:24": [
            173,
            24
        ],
        "24/03/2020 19:52:21": [
            67,
            -5
        ],
        "24/03/2020 22:06:52": [
            -2,
            -2
        ]
    },
    "840": {
        "24/03/2020 14:56:38": [
            -81,
            2
        ],
        "24/03/2020 17:11:24": [
            157,
            8
        ],
        "24/03/2020 19:52:21": [
            102,
            29
        ],
        "24/03/2020 22:06:52": [
            25,
            25
        ]
    },
    "841": {
        "24/03/2020 14:56:39": [
            -150,
            -21
        ],
        "24/03/2020 17:11:25": [
            129,
            -20
        ],
        "24/03/2020 19:52:22": [
            54,
            -21
        ],
        "24/03/2020 22:06:53": [
            21,
            21
        ]
    },
    "49": {
        "24/03/2020 14:56:39": [
            -9,
            7
        ],
        "24/03/2020 17:11:25": [
            152,
            3
        ],
        "24/03/2020 19:52:22": [
            60,
            -17
        ],
        "24/03/2020 22:06:53": [
            13,
            13
        ]
    },
    "51": {
        "24/03/2020 14:56:40": [
            24,
            -23
        ],
        "24/03/2020 17:11:26": [
            131,
            -18
        ],
        "24/03/2020 19:52:23": [
            20,
            9
        ],
        "24/03/2020 22:06:53": [
            12,
            12
        ]
    },
    "52": {
        "24/03/2020 14:56:40": [
            15,
            27
        ],
        "24/03/2020 17:11:26": [
            -324,
            126,
            -23
        ],
        "24/03/2020 19:52:23": [
            17,
            -4
        ],
        "24/03/2020 22:06:54": [
            -15,
            -15
        ]
    },
    "4725": {
        "24/03/2020 14:56:41": [
            -27,
            5
        ],
        "24/03/2020 17:11:27": [
            -346,
            153,
            4
        ],
        "24/03/2020 19:52:24": [
            -18,
            16
        ],
        "24/03/2020 22:06:54": [
            -25,
            -25
        ]
    },
    "6071": {
        "24/03/2020 14:56:41": [],
        "24/03/2020 17:11:27": [],
        "24/03/2020 19:52:24": [],
        "24/03/2020 22:06:55": []
    }
}