{
    "7559": {
        "25/03/2020 15:00:04": [],
        "25/03/2020 17:39:36": [],
        "25/03/2020 20:07:08": [],
        "25/03/2020 21:34:58": []
    },
    "6004": {
        "25/03/2020 15:00:05": [
            0
        ],
        "25/03/2020 17:39:36": [
            0,
            0,
            0,
            0
        ],
        "25/03/2020 20:07:08": [
            0,
            0
        ],
        "25/03/2020 21:34:59": [
            0,
            0
        ]
    },
    "7": {
        "25/03/2020 15:00:06": [
            -21,
            -21
        ],
        "25/03/2020 17:39:37": [
            -11,
            -11,
            4,
            -11
        ],
        "25/03/2020 20:07:09": [
            7,
            -3
        ],
        "25/03/2020 21:34:59": [
            -3,
            -3
        ]
    },
    "11": {
        "25/03/2020 15:00:06": [
            -24,
            -24
        ],
        "25/03/2020 17:39:37": [
            4,
            4,
            -1,
            4
        ],
        "25/03/2020 20:07:09": [
            8,
            -21
        ],
        "25/03/2020 21:34:59": [
            -21,
            -21
        ]
    },
    "14": {
        "25/03/2020 15:00:07": [
            -25,
            -25
        ],
        "25/03/2020 17:39:38": [
            -12,
            -12,
            -16,
            -12
        ],
        "25/03/2020 20:07:09": [
            -3,
            14
        ],
        "25/03/2020 21:34:59": [
            14,
            14
        ]
    },
    "15": {
        "25/03/2020 15:00:07": [
            -15,
            -15
        ],
        "25/03/2020 17:39:38": [
            -20,
            -20,
            -23,
            -20
        ],
        "25/03/2020 20:07:09": [
            -4,
            -4
        ],
        "25/03/2020 21:35:00": [
            -4,
            -4
        ]
    },
    "834": {
        "25/03/2020 15:00:08": [
            26,
            26
        ],
        "25/03/2020 17:39:39": [
            18,
            18,
            25,
            18
        ],
        "25/03/2020 20:07:10": [
            25
        ],
        "25/03/2020 21:35:00": [
            25
        ]
    },
    "835": {
        "25/03/2020 15:00:08": [
            -2,
            -2
        ],
        "25/03/2020 17:39:40": [
            -12,
            -12,
            3,
            -12
        ],
        "25/03/2020 20:07:10": [
            -5,
            -12
        ],
        "25/03/2020 21:35:00": [
            -12
        ]
    },
    "836": {
        "25/03/2020 15:00:09": [
            -25,
            -25
        ],
        "25/03/2020 17:39:40": [
            22,
            22,
            -14
        ],
        "25/03/2020 20:07:10": [
            77,
            25,
            14
        ],
        "25/03/2020 21:35:01": [
            14,
            14
        ]
    },
    "837": {
        "25/03/2020 15:00:10": [
            3,
            3
        ],
        "25/03/2020 17:39:41": [
            111,
            -12,
            -12,
            2
        ],
        "25/03/2020 20:07:11": [
            36,
            -16,
            -29
        ],
        "25/03/2020 21:35:01": [
            -29,
            -29
        ]
    },
    "1506": {
        "25/03/2020 15:00:10": [
            -13,
            -13
        ],
        "25/03/2020 17:39:42": [
            60,
            22,
            22,
            2
        ],
        "25/03/2020 20:07:11": [
            66,
            -6,
            -27
        ],
        "25/03/2020 21:35:01": [
            -27,
            -27
        ]
    },
    "1507": {
        "25/03/2020 15:00:11": [
            16,
            16
        ],
        "25/03/2020 17:39:42": [
            82,
            -13,
            -13,
            24
        ],
        "25/03/2020 20:07:11": [
            88,
            16,
            -10
        ],
        "25/03/2020 21:35:01": [
            -10,
            -10
        ]
    },
    "1508": {
        "25/03/2020 15:00:11": [
            -7,
            -7
        ],
        "25/03/2020 17:39:43": [
            50,
            21,
            21,
            -6
        ],
        "25/03/2020 20:07:11": [
            56,
            -16
        ],
        "25/03/2020 21:35:02": [
            12,
            12
        ]
    },
    "1509": {
        "25/03/2020 15:00:12": [
            -16,
            -16
        ],
        "25/03/2020 17:39:43": [
            52,
            13,
            13,
            -18
        ],
        "25/03/2020 20:07:12": [
            50,
            -22
        ],
        "25/03/2020 21:35:02": [
            -7,
            -7
        ]
    },
    "1510": {
        "25/03/2020 15:00:13": [
            -30,
            -30
        ],
        "25/03/2020 17:39:44": [
            39,
            8,
            8,
            -22
        ],
        "25/03/2020 20:07:12": [
            43,
            -29
        ],
        "25/03/2020 21:35:02": [
            29,
            29
        ]
    },
    "1511": {
        "25/03/2020 15:00:13": [
            -12,
            -12
        ],
        "25/03/2020 17:39:46": [
            56,
            20,
            20,
            -6
        ],
        "25/03/2020 20:07:12": [
            59,
            -13
        ],
        "25/03/2020 21:35:03": [
            -16,
            -16
        ]
    },
    "1512": {
        "25/03/2020 15:00:14": [
            -5,
            -5
        ],
        "25/03/2020 17:39:46": [
            60,
            6,
            6,
            -5
        ],
        "25/03/2020 20:07:12": [
            57,
            -15
        ],
        "25/03/2020 21:35:03": [
            -19,
            -19
        ]
    },
    "1538": {
        "25/03/2020 15:00:14": [
            -7,
            -7
        ],
        "25/03/2020 17:39:47": [
            52,
            -1,
            -1,
            -15
        ],
        "25/03/2020 20:07:13": [
            46,
            -26
        ],
        "25/03/2020 21:35:03": [
            20,
            20
        ]
    },
    "4548": {
        "25/03/2020 15:00:15": [
            -23,
            -23
        ],
        "25/03/2020 17:39:47": [
            92,
            -21,
            -21,
            22
        ],
        "25/03/2020 20:07:13": [
            84,
            12
        ],
        "25/03/2020 21:35:03": [
            -11,
            -11
        ]
    },
    "1514": {
        "25/03/2020 15:00:15": [
            -1,
            -1
        ],
        "25/03/2020 17:39:48": [
            -22,
            -7,
            -7,
            -28
        ],
        "25/03/2020 20:07:13": [
            93,
            21
        ],
        "25/03/2020 21:35:04": [
            -16,
            -16
        ]
    },
    "980": {
        "25/03/2020 15:00:16": [
            -12,
            -12
        ],
        "25/03/2020 17:39:49": [
            23,
            -22,
            -22,
            14
        ],
        "25/03/2020 20:07:13": [
            75,
            3
        ],
        "25/03/2020 21:35:04": [
            17,
            17
        ]
    },
    "981": {
        "25/03/2020 15:00:17": [
            25,
            25
        ],
        "25/03/2020 17:39:49": [
            0,
            17,
            17,
            -11
        ],
        "25/03/2020 20:07:14": [
            48,
            -24
        ],
        "25/03/2020 21:35:04": [
            -15,
            -15
        ]
    },
    "1576": {
        "25/03/2020 15:00:17": [
            -12,
            -12
        ],
        "25/03/2020 17:39:51": [
            24,
            -15,
            -15,
            7
        ],
        "25/03/2020 20:07:14": [
            -11,
            -11
        ],
        "25/03/2020 21:35:05": [
            -12,
            -12
        ]
    },
    "1577": {
        "25/03/2020 15:00:17": [
            19,
            19
        ],
        "25/03/2020 17:39:59": [
            -5,
            18,
            18,
            -24
        ],
        "25/03/2020 20:07:14": [
            17,
            17
        ],
        "25/03/2020 21:35:05": [
            11,
            11
        ]
    },
    "1578": {
        "25/03/2020 15:00:18": [
            -14,
            -14
        ],
        "25/03/2020 17:40:07": [
            22,
            -14,
            -14,
            1
        ],
        "25/03/2020 20:07:14": [
            -19,
            -19
        ],
        "25/03/2020 21:35:05": [
            -29,
            -29
        ]
    },
    "4364": {
        "25/03/2020 15:00:19": [
            -8,
            -8
        ],
        "25/03/2020 17:40:16": [
            28,
            -4,
            -4,
            3
        ],
        "25/03/2020 20:07:15": [
            -21,
            -21
        ],
        "25/03/2020 21:35:05": [
            21,
            21
        ]
    },
    "1579": {
        "25/03/2020 15:00:19": [
            16,
            16
        ],
        "25/03/2020 17:40:23": [
            -7,
            22,
            22,
            26
        ],
        "25/03/2020 20:07:15": [
            1,
            1
        ],
        "25/03/2020 21:35:06": [
            -20,
            -20
        ]
    },
    "1580": {
        "25/03/2020 15:00:20": [
            26,
            26
        ],
        "25/03/2020 17:40:31": [
            3,
            29,
            29,
            -28
        ],
        "25/03/2020 20:07:15": [
            12,
            12
        ],
        "25/03/2020 21:35:06": [
            -15,
            -15
        ]
    },
    "7237": {
        "25/03/2020 15:00:21": [
            7,
            7
        ],
        "25/03/2020 17:40:39": [
            -20,
            5,
            5,
            3
        ],
        "25/03/2020 20:07:16": [
            -13,
            -13
        ],
        "25/03/2020 21:35:06": [
            18,
            18
        ]
    },
    "7241": {
        "25/03/2020 15:00:21": [
            -23,
            -23
        ],
        "25/03/2020 17:40:46": [
            7,
            -28,
            -28,
            26
        ],
        "25/03/2020 20:07:16": [
            13,
            13
        ],
        "25/03/2020 21:35:06": [
            -17,
            -17
        ]
    },
    "7247": {
        "25/03/2020 15:00:22": [
            6,
            6
        ],
        "25/03/2020 17:40:58": [
            -27,
            -3,
            -3,
            -12
        ],
        "25/03/2020 20:07:16": [
            -23,
            -23
        ],
        "25/03/2020 21:35:07": [
            6,
            6
        ]
    },
    "7243": {
        "25/03/2020 15:00:23": [
            0,
            0
        ],
        "25/03/2020 17:41:03": [
            97,
            21,
            -16,
            -16,
            29
        ],
        "25/03/2020 20:07:17": [
            23,
            23
        ],
        "25/03/2020 21:35:07": [
            -10,
            -10
        ]
    },
    "7126": {
        "25/03/2020 15:00:23": [
            0,
            0
        ],
        "25/03/2020 17:41:11": [
            72,
            16,
            -21,
            -21,
            22
        ],
        "25/03/2020 20:07:17": [
            28,
            28
        ],
        "25/03/2020 21:35:07": [
            -14,
            -14
        ]
    },
    "7124": {
        "25/03/2020 15:00:24": [
            -8,
            -8
        ],
        "25/03/2020 17:41:17": [
            56,
            0,
            25,
            25,
            0
        ],
        "25/03/2020 20:07:17": [
            14,
            14
        ],
        "25/03/2020 21:35:08": [
            27,
            27
        ]
    },
    "7343": {
        "25/03/2020 15:00:25": [
            3
        ],
        "25/03/2020 17:41:23": [
            88,
            12,
            -30,
            -30
        ],
        "25/03/2020 20:07:18": [
            11,
            11
        ],
        "25/03/2020 21:35:08": [
            16,
            16
        ]
    },
    "7318": {
        "25/03/2020 15:00:25": [],
        "25/03/2020 17:41:30": [],
        "25/03/2020 20:07:18": [
            -22,
            -22
        ],
        "25/03/2020 21:35:08": [
            -30,
            -30
        ]
    },
    "4978": {
        "25/03/2020 15:00:26": [
            -20
        ],
        "25/03/2020 17:41:37": [
            72,
            -10,
            -5,
            -5
        ],
        "25/03/2020 20:07:18": [
            18,
            18
        ],
        "25/03/2020 21:35:08": [
            5,
            5
        ]
    },
    "4979": {
        "25/03/2020 15:00:26": [
            25
        ],
        "25/03/2020 17:41:43": [
            57,
            -25,
            -20,
            -20
        ],
        "25/03/2020 20:07:19": [
            3,
            3
        ],
        "25/03/2020 21:35:09": [
            -10,
            -10
        ]
    },
    "4986": {
        "25/03/2020 15:00:27": [
            -150,
            -6
        ],
        "25/03/2020 17:41:49": [
            86,
            4,
            9,
            9
        ],
        "25/03/2020 20:07:19": [
            -28,
            -28
        ],
        "25/03/2020 21:35:09": [
            19,
            19
        ]
    },
    "7107": {
        "25/03/2020 15:00:28": [
            -127,
            17
        ],
        "25/03/2020 17:42:03": [
            109,
            27,
            -28,
            -28
        ],
        "25/03/2020 20:07:20": [
            -5,
            -5
        ],
        "25/03/2020 21:35:09": [
            -18,
            -18
        ]
    },
    "7102": {
        "25/03/2020 15:00:29": [
            -113,
            -29
        ],
        "25/03/2020 17:42:05": [
            63,
            -19,
            -14,
            -14
        ],
        "25/03/2020 20:07:20": [
            9,
            9
        ],
        "25/03/2020 21:35:10": [
            -4,
            -4
        ]
    },
    "7103": {
        "25/03/2020 15:00:30": [
            -128,
            16
        ],
        "25/03/2020 17:42:06": [
            108,
            26,
            -29,
            -29
        ],
        "25/03/2020 20:07:20": [
            -6,
            -6
        ],
        "25/03/2020 21:35:10": [
            -19,
            -19
        ]
    },
    "7104": {
        "25/03/2020 15:00:31": [
            -159,
            -15
        ],
        "25/03/2020 17:42:07": [
            77,
            -5,
            0,
            0
        ],
        "25/03/2020 20:07:20": [
            23,
            23
        ],
        "25/03/2020 21:35:10": [
            10,
            10
        ]
    },
    "7105": {
        "25/03/2020 15:00:32": [
            -136,
            8
        ],
        "25/03/2020 17:42:07": [
            100,
            18,
            23,
            23
        ],
        "25/03/2020 20:07:21": [
            -14,
            -14
        ],
        "25/03/2020 21:35:10": [
            -27,
            -27
        ]
    },
    "7106": {
        "25/03/2020 15:00:32": [
            -121,
            23
        ],
        "25/03/2020 17:42:08": [
            55,
            -27,
            -22,
            -22
        ],
        "25/03/2020 20:07:21": [
            1,
            1
        ],
        "25/03/2020 21:35:11": [
            -12,
            -12
        ]
    },
    "6005": {
        "25/03/2020 15:00:33": [
            -157,
            -13
        ],
        "25/03/2020 17:42:09": [
            79,
            -3,
            2,
            2
        ],
        "25/03/2020 20:07:21": [
            25,
            25
        ],
        "25/03/2020 21:35:11": [
            12,
            12
        ]
    },
    "1546": {
        "25/03/2020 15:00:34": [
            -147,
            -3
        ],
        "25/03/2020 17:42:10": [
            89,
            7,
            12,
            12
        ],
        "25/03/2020 20:07:22": [
            -25,
            -25
        ],
        "25/03/2020 21:35:11": [
            22,
            22
        ]
    },
    "7072": {
        "25/03/2020 15:00:34": [],
        "25/03/2020 17:42:10": [],
        "25/03/2020 20:07:22": [],
        "25/03/2020 21:35:12": []
    },
    "7560": {
        "25/03/2020 15:00:35": [],
        "25/03/2020 17:42:11": [],
        "25/03/2020 20:07:22": [],
        "25/03/2020 21:35:12": []
    },
    "7073": {
        "25/03/2020 15:00:36": [
            0
        ],
        "25/03/2020 17:42:11": [
            0,
            0,
            0,
            0
        ],
        "25/03/2020 20:07:22": [
            0,
            0
        ],
        "25/03/2020 21:35:12": [
            0,
            0
        ]
    },
    "7097": {
        "25/03/2020 15:00:37": [
            2,
            2
        ],
        "25/03/2020 17:42:12": [
            -3,
            -3,
            -3,
            -3
        ],
        "25/03/2020 20:07:23": [
            -13,
            -10
        ],
        "25/03/2020 21:35:13": [
            -10,
            -10
        ]
    },
    "7098": {
        "25/03/2020 15:00:37": [
            -24,
            -24
        ],
        "25/03/2020 17:42:13": [
            28,
            28,
            28,
            28
        ],
        "25/03/2020 20:07:23": [
            13,
            17
        ],
        "25/03/2020 21:35:13": [
            17,
            17
        ]
    },
    "7099": {
        "25/03/2020 15:00:38": [
            7,
            7
        ],
        "25/03/2020 17:42:13": [
            -3,
            -3,
            -3,
            -3
        ],
        "25/03/2020 20:07:23": [
            -23,
            -18
        ],
        "25/03/2020 21:35:13": [
            -18,
            -18
        ]
    },
    "7100": {
        "25/03/2020 15:00:38": [
            -15,
            -15
        ],
        "25/03/2020 17:42:14": [
            -28,
            -28,
            -28,
            -28
        ],
        "25/03/2020 20:07:24": [
            6,
            13
        ],
        "25/03/2020 21:35:13": [
            13,
            13
        ]
    },
    "7101": {
        "25/03/2020 15:00:39": [
            -28,
            -28
        ],
        "25/03/2020 17:42:14": [
            16,
            16,
            16,
            16
        ],
        "25/03/2020 20:07:24": [
            -18,
            -9
        ],
        "25/03/2020 21:35:14": [
            -9,
            -9
        ]
    },
    "7505": {
        "25/03/2020 15:00:40": [
            -16,
            -16
        ],
        "25/03/2020 17:42:15": [
            26,
            26,
            26,
            26
        ],
        "25/03/2020 20:07:24": [
            -9,
            1
        ],
        "25/03/2020 21:35:14": [
            1,
            1
        ]
    },
    "5071": {
        "25/03/2020 15:00:41": [
            5,
            5
        ],
        "25/03/2020 17:42:16": [
            -24,
            -24,
            -24,
            -24
        ],
        "25/03/2020 20:07:24": [
            -22,
            -6
        ],
        "25/03/2020 21:35:14": [
            103,
            -6
        ]
    },
    "5072": {
        "25/03/2020 15:00:41": [
            11,
            11
        ],
        "25/03/2020 17:42:16": [
            -23,
            -23,
            -23,
            -23
        ],
        "25/03/2020 20:07:24": [
            29,
            -12
        ],
        "25/03/2020 21:35:15": [
            97,
            -12
        ]
    },
    "4321": {
        "25/03/2020 15:00:42": [],
        "25/03/2020 17:42:17": [],
        "25/03/2020 20:07:25": [
            1
        ],
        "25/03/2020 21:35:15": [
            76,
            26
        ]
    },
    "7342": {
        "25/03/2020 15:00:43": [
            3
        ],
        "25/03/2020 17:42:17": [
            -2,
            -2,
            -2,
            -2
        ],
        "25/03/2020 20:07:25": [
            7
        ],
        "25/03/2020 21:35:15": [
            53,
            -17
        ]
    },
    "7125": {
        "25/03/2020 15:00:44": [
            21,
            21
        ],
        "25/03/2020 17:42:18": [
            2,
            2,
            2,
            2
        ],
        "25/03/2020 20:07:25": [
            -12
        ],
        "25/03/2020 21:35:15": [
            40,
            -30
        ]
    },
    "7344": {
        "25/03/2020 15:00:45": [
            -26,
            -26
        ],
        "25/03/2020 17:42:19": [
            8,
            8,
            8
        ],
        "25/03/2020 20:07:26": [
            -63,
            -17
        ],
        "25/03/2020 21:35:16": [
            98,
            28
        ]
    },
    "2510": {
        "25/03/2020 15:00:46": [
            -28
        ],
        "25/03/2020 17:42:19": [
            25,
            0,
            0,
            0
        ],
        "25/03/2020 20:07:26": [
            -18,
            28
        ],
        "25/03/2020 21:35:16": [
            84,
            14
        ]
    },
    "7242": {
        "25/03/2020 15:00:46": [
            16,
            16
        ],
        "25/03/2020 17:42:20": [
            29,
            -21,
            -21,
            -21
        ],
        "25/03/2020 20:07:26": [
            -44,
            2
        ],
        "25/03/2020 21:35:16": [
            60,
            -10
        ]
    },
    "7238": {
        "25/03/2020 15:00:47": [
            -15,
            -15
        ],
        "25/03/2020 17:42:21": [
            26,
            4,
            4,
            4
        ],
        "25/03/2020 20:07:26": [
            -21,
            25
        ],
        "25/03/2020 21:35:16": [
            83,
            13
        ]
    },
    "7224": {
        "25/03/2020 15:00:48": [
            -27,
            -27
        ],
        "25/03/2020 17:42:21": [
            27,
            -23,
            -23
        ],
        "25/03/2020 20:07:27": [
            -53,
            -7
        ],
        "25/03/2020 21:35:17": [
            56,
            -14
        ]
    },
    "1581": {
        "25/03/2020 15:00:48": [
            5
        ],
        "25/03/2020 17:42:22": [
            -5,
            0,
            0,
            0
        ],
        "25/03/2020 20:07:27": [
            -34,
            12
        ],
        "25/03/2020 21:35:17": [
            79,
            9
        ]
    },
    "1582": {
        "25/03/2020 15:00:49": [
            7
        ],
        "25/03/2020 17:42:22": [
            -14,
            -24,
            -24,
            -24
        ],
        "25/03/2020 20:07:27": [
            -4,
            -4
        ],
        "25/03/2020 21:35:17": [
            -29,
            -29
        ]
    },
    "4793": {
        "25/03/2020 15:00:49": [
            16
        ],
        "25/03/2020 17:42:23": [
            -5,
            -16,
            -16,
            -16
        ],
        "25/03/2020 20:07:28": [
            4,
            4
        ],
        "25/03/2020 21:35:18": [
            -22,
            -22
        ]
    },
    "6068": {
        "25/03/2020 15:00:50": [
            24,
            24
        ],
        "25/03/2020 17:42:24": [
            16,
            -10,
            -10,
            -10
        ],
        "25/03/2020 20:07:28": [
            6,
            6
        ],
        "25/03/2020 21:35:18": [
            -27,
            -27
        ]
    },
    "1584": {
        "25/03/2020 15:00:51": [
            -11
        ],
        "25/03/2020 17:42:24": [
            -15,
            14,
            14,
            14
        ],
        "25/03/2020 20:07:28": [
            28,
            28
        ],
        "25/03/2020 21:35:18": [
            -7,
            -7
        ]
    },
    "983": {
        "25/03/2020 15:00:51": [
            -8,
            -8
        ],
        "25/03/2020 17:42:25": [
            -1,
            16,
            16,
            16
        ],
        "25/03/2020 20:07:29": [
            25,
            25
        ],
        "25/03/2020 21:35:18": [
            -16,
            -16
        ]
    },
    "984": {
        "25/03/2020 15:00:52": [
            -22,
            -22
        ],
        "25/03/2020 17:42:26": [
            -16,
            -3,
            -3,
            -3
        ],
        "25/03/2020 20:07:29": [
            7,
            7
        ],
        "25/03/2020 21:35:19": [
            20,
            20
        ]
    },
    "985": {
        "25/03/2020 15:00:53": [
            8,
            8
        ],
        "25/03/2020 17:42:26": [
            14,
            24,
            24,
            24
        ],
        "25/03/2020 20:07:29": [
            -26,
            -26
        ],
        "25/03/2020 21:35:19": [
            -17,
            -17
        ]
    },
    "1529": {
        "25/03/2020 15:00:53": [
            26
        ],
        "25/03/2020 17:42:27": [
            -30,
            -26,
            -26,
            -26
        ],
        "25/03/2020 20:07:29": [
            -15,
            -15
        ],
        "25/03/2020 21:35:19": [
            -16,
            -16
        ]
    },
    "4542": {
        "25/03/2020 15:00:54": [
            4
        ],
        "25/03/2020 17:42:27": [
            7,
            8,
            8,
            8
        ],
        "25/03/2020 20:07:30": [
            19,
            19
        ],
        "25/03/2020 21:35:20": [
            14,
            14
        ]
    },
    "1531": {
        "25/03/2020 15:00:55": [
            8
        ],
        "25/03/2020 17:42:28": [
            10,
            6,
            6,
            6
        ],
        "25/03/2020 20:07:30": [
            17,
            17
        ],
        "25/03/2020 21:35:20": [
            4,
            4
        ]
    },
    "1532": {
        "25/03/2020 15:00:55": [
            -4
        ],
        "25/03/2020 17:42:29": [
            -3,
            -11,
            -11,
            -11
        ],
        "25/03/2020 20:07:30": [
            0,
            0
        ],
        "25/03/2020 21:35:20": [
            -19,
            -19
        ]
    },
    "1533": {
        "25/03/2020 15:00:56": [
            -19
        ],
        "25/03/2020 17:42:29": [
            -15,
            -19,
            -19,
            -19
        ],
        "25/03/2020 20:07:31": [
            -29,
            -29
        ],
        "25/03/2020 21:35:21": [
            6,
            6
        ]
    },
    "1534": {
        "25/03/2020 15:00:56": [
            -25
        ],
        "25/03/2020 17:42:30": [
            47,
            -17,
            -17,
            -17,
            -17
        ],
        "25/03/2020 20:07:31": [
            9,
            9
        ],
        "25/03/2020 21:35:21": [
            -23,
            -23
        ]
    },
    "1535": {
        "25/03/2020 15:00:57": [
            22
        ],
        "25/03/2020 17:42:30": [
            35,
            -29,
            24,
            24,
            24
        ],
        "25/03/2020 20:07:31": [
            -21,
            -21
        ],
        "25/03/2020 21:35:21": [
            13,
            13
        ]
    },
    "1536": {
        "25/03/2020 15:00:57": [
            3
        ],
        "25/03/2020 17:42:31": [
            72,
            8,
            -1,
            -1,
            -1
        ],
        "25/03/2020 20:07:32": [
            18,
            18
        ],
        "25/03/2020 21:35:21": [
            -16,
            -16
        ]
    },
    "1537": {
        "25/03/2020 15:00:58": [
            -4
        ],
        "25/03/2020 17:42:31": [
            80,
            16,
            -12,
            -12,
            -12
        ],
        "25/03/2020 20:07:32": [
            1,
            1
        ],
        "25/03/2020 21:35:22": [
            22,
            22
        ]
    },
    "186": {
        "25/03/2020 15:00:58": [
            4
        ],
        "25/03/2020 17:42:32": [
            -5,
            -18,
            -9,
            -9
        ],
        "25/03/2020 20:07:32": [
            -3,
            -3
        ],
        "25/03/2020 21:35:22": [
            10,
            10
        ]
    },
    "838": {
        "25/03/2020 15:00:59": [
            -28
        ],
        "25/03/2020 17:42:33": [
            19,
            6,
            27,
            27
        ],
        "25/03/2020 20:07:32": [
            20,
            20
        ],
        "25/03/2020 21:35:22": [
            -27,
            -27
        ]
    },
    "839": {
        "25/03/2020 15:00:59": [
            102,
            -1
        ],
        "25/03/2020 17:42:33": [
            42,
            29,
            1,
            1
        ],
        "25/03/2020 20:07:33": [
            -18,
            -18
        ],
        "25/03/2020 21:35:22": [
            -6,
            -6
        ]
    },
    "840": {
        "25/03/2020 15:01:00": [
            74,
            -17
        ],
        "25/03/2020 17:42:34": [
            22,
            9,
            -24,
            -24
        ],
        "25/03/2020 20:07:33": [
            8,
            8
        ],
        "25/03/2020 21:35:23": [
            14,
            14
        ]
    },
    "841": {
        "25/03/2020 15:01:01": [
            80,
            13
        ],
        "25/03/2020 17:42:34": [
            35,
            -29,
            -12,
            -12
        ],
        "25/03/2020 20:07:33": [
            2,
            2
        ],
        "25/03/2020 21:35:23": [
            -4,
            -4
        ]
    },
    "49": {
        "25/03/2020 15:01:01": [
            81
        ],
        "25/03/2020 17:42:35": [
            -20,
            -14,
            -6,
            -6
        ],
        "25/03/2020 20:07:34": [
            -8,
            -8
        ],
        "25/03/2020 21:35:23": [
            -26,
            -26
        ]
    },
    "51": {
        "25/03/2020 15:01:02": [
            41
        ],
        "25/03/2020 17:42:35": [
            469,
            -4,
            2,
            -10,
            -10
        ],
        "25/03/2020 20:07:34": [
            -17,
            -17
        ],
        "25/03/2020 21:35:24": [
            11,
            11
        ]
    },
    "52": {
        "25/03/2020 15:01:02": [
            17
        ],
        "25/03/2020 17:42:36": [
            451,
            -22,
            -16,
            21,
            21
        ],
        "25/03/2020 20:07:34": [
            11,
            11
        ],
        "25/03/2020 21:35:24": [
            -28,
            -28
        ]
    },
    "4725": {
        "25/03/2020 15:01:03": [
            30
        ],
        "25/03/2020 17:42:36": [
            447,
            -26,
            -20,
            16,
            16
        ],
        "25/03/2020 20:07:35": [
            219,
            0,
            0
        ],
        "25/03/2020 21:35:24": [
            29,
            29
        ]
    },
    "6071": {
        "25/03/2020 15:01:03": [],
        "25/03/2020 17:42:37": [],
        "25/03/2020 20:07:35": [],
        "25/03/2020 21:35:24": []
    }
}