{
    "119": {
        "27/03/2020 14:17:28": [],
        "27/03/2020 18:00:25": []
    },
    "213": {
        "27/03/2020 14:17:28": [],
        "27/03/2020 18:00:25": []
    },
    "48": {
        "27/03/2020 14:17:29": [],
        "27/03/2020 18:00:26": []
    },
    "4843": {
        "27/03/2020 14:17:29": [],
        "27/03/2020 18:00:26": []
    },
    "5079": {
        "27/03/2020 14:17:30": [],
        "27/03/2020 18:00:27": []
    },
    "51": {
        "27/03/2020 14:17:31": [],
        "27/03/2020 18:00:27": []
    },
    "7594": {
        "27/03/2020 14:17:31": [],
        "27/03/2020 18:00:27": []
    },
    "7603": {
        "27/03/2020 14:17:32": [],
        "27/03/2020 18:00:28": []
    },
    "288": {
        "27/03/2020 14:17:32": [],
        "27/03/2020 18:00:28": []
    },
    "3751": {
        "27/03/2020 14:17:33": [],
        "27/03/2020 18:00:29": []
    },
    "3752": {
        "27/03/2020 14:17:33": [],
        "27/03/2020 18:00:29": []
    },
    "45": {
        "27/03/2020 14:17:34": [],
        "27/03/2020 18:00:30": []
    },
    "47": {
        "27/03/2020 14:17:35": [],
        "27/03/2020 18:00:30": []
    },
    "5053": {
        "27/03/2020 14:17:35": [],
        "27/03/2020 18:00:31": []
    },
    "6117": {
        "27/03/2020 14:17:36": [],
        "27/03/2020 18:00:31": []
    },
    "1631": {
        "27/03/2020 14:17:36": [],
        "27/03/2020 18:00:32": []
    },
    "1632": {
        "27/03/2020 14:17:37": [],
        "27/03/2020 18:00:32": []
    },
    "1633": {
        "27/03/2020 14:17:38": [],
        "27/03/2020 18:00:33": []
    },
    "1634": {
        "27/03/2020 14:17:38": [],
        "27/03/2020 18:00:33": []
    },
    "1635": {
        "27/03/2020 14:17:39": [],
        "27/03/2020 18:00:34": []
    },
    "1636": {
        "27/03/2020 14:17:40": [],
        "27/03/2020 18:00:34": []
    },
    "1637": {
        "27/03/2020 14:17:40": [],
        "27/03/2020 18:00:35": []
    },
    "1638": {
        "27/03/2020 14:17:41": [],
        "27/03/2020 18:00:35": []
    },
    "1639": {
        "27/03/2020 14:17:41": [],
        "27/03/2020 18:00:36": []
    },
    "1640": {
        "27/03/2020 14:17:42": [],
        "27/03/2020 18:00:36": []
    },
    "1641": {
        "27/03/2020 14:17:42": [],
        "27/03/2020 18:00:37": []
    },
    "1642": {
        "27/03/2020 14:17:43": [],
        "27/03/2020 18:00:37": []
    },
    "214": {
        "27/03/2020 14:17:44": [],
        "27/03/2020 18:00:38": []
    },
    "277": {
        "27/03/2020 14:17:44": [],
        "27/03/2020 18:00:38": []
    },
    "3689": {
        "27/03/2020 14:17:45": [],
        "27/03/2020 18:00:39": []
    },
    "3690": {
        "27/03/2020 14:17:46": [],
        "27/03/2020 18:00:39": []
    },
    "3694": {
        "27/03/2020 14:17:46": [],
        "27/03/2020 18:00:40": []
    },
    "3695": {
        "27/03/2020 14:17:47": [],
        "27/03/2020 18:00:40": []
    },
    "3696": {
        "27/03/2020 14:17:47": [],
        "27/03/2020 18:00:40": []
    },
    "3697": {
        "27/03/2020 14:17:48": [],
        "27/03/2020 18:00:41": []
    },
    "3698": {
        "27/03/2020 14:17:49": [],
        "27/03/2020 18:00:41": []
    },
    "3699": {
        "27/03/2020 14:17:49": [],
        "27/03/2020 18:00:41": []
    },
    "44": {
        "27/03/2020 14:17:50": [],
        "27/03/2020 18:00:42": []
    },
    "46": {
        "27/03/2020 14:17:51": [],
        "27/03/2020 18:00:42": []
    },
    "49": {
        "27/03/2020 14:17:51": [],
        "27/03/2020 18:00:42": []
    },
    "4905": {
        "27/03/2020 14:17:52": [],
        "27/03/2020 18:00:43": []
    },
    "4906": {
        "27/03/2020 14:17:52": [],
        "27/03/2020 18:00:43": []
    },
    "4907": {
        "27/03/2020 14:17:53": [],
        "27/03/2020 18:00:43": []
    },
    "4908": {
        "27/03/2020 14:17:53": [],
        "27/03/2020 18:00:44": []
    },
    "4909": {
        "27/03/2020 14:17:54": [],
        "27/03/2020 18:00:44": []
    },
    "4921": {
        "27/03/2020 14:17:54": [],
        "27/03/2020 18:00:44": []
    },
    "4922": {
        "27/03/2020 14:17:55": [],
        "27/03/2020 18:00:45": []
    },
    "52": {
        "27/03/2020 14:17:56": [],
        "27/03/2020 18:00:45": []
    },
    "231": {
        "27/03/2020 14:17:56": [],
        "27/03/2020 18:00:45": []
    },
    "3885": {
        "27/03/2020 14:17:57": [],
        "27/03/2020 18:00:45": []
    },
    "4432": {
        "27/03/2020 14:17:57": [],
        "27/03/2020 18:00:46": []
    },
    "4923": {
        "27/03/2020 14:17:58": [],
        "27/03/2020 18:00:46": []
    },
    "4924": {
        "27/03/2020 14:17:58": [],
        "27/03/2020 18:00:46": []
    },
    "4958": {
        "27/03/2020 14:17:59": [],
        "27/03/2020 18:00:47": []
    }
}