{
    "119": {
        "24/03/2020 14:58:04": [],
        "24/03/2020 17:12:44": [],
        "24/03/2020 19:53:51": [],
        "24/03/2020 22:08:15": []
    },
    "213": {
        "24/03/2020 14:58:05": [],
        "24/03/2020 17:12:44": [],
        "24/03/2020 19:53:51": [],
        "24/03/2020 22:08:15": []
    },
    "48": {
        "24/03/2020 14:58:05": [],
        "24/03/2020 17:12:44": [],
        "24/03/2020 19:53:52": [],
        "24/03/2020 22:08:16": []
    },
    "4843": {
        "24/03/2020 14:58:06": [],
        "24/03/2020 17:12:45": [],
        "24/03/2020 19:53:53": [],
        "24/03/2020 22:08:16": []
    },
    "5079": {
        "24/03/2020 14:58:06": [],
        "24/03/2020 17:12:45": [],
        "24/03/2020 19:53:54": [],
        "24/03/2020 22:08:17": []
    },
    "51": {
        "24/03/2020 14:58:07": [],
        "24/03/2020 17:12:46": [],
        "24/03/2020 19:53:54": [],
        "24/03/2020 22:08:17": []
    },
    "7594": {
        "24/03/2020 14:58:07": [],
        "24/03/2020 17:12:46": [],
        "24/03/2020 19:53:55": [],
        "24/03/2020 22:08:18": []
    },
    "7603": {
        "24/03/2020 14:58:08": [],
        "24/03/2020 17:12:47": [],
        "24/03/2020 19:53:55": [],
        "24/03/2020 22:08:18": []
    },
    "288": {
        "24/03/2020 14:58:08": [],
        "24/03/2020 17:12:47": [],
        "24/03/2020 19:53:56": [],
        "24/03/2020 22:08:19": []
    },
    "3751": {
        "24/03/2020 14:58:08": [],
        "24/03/2020 17:12:47": [],
        "24/03/2020 19:53:56": [],
        "24/03/2020 22:08:19": []
    },
    "3752": {
        "24/03/2020 14:58:09": [],
        "24/03/2020 17:12:48": [],
        "24/03/2020 19:53:57": [],
        "24/03/2020 22:08:19": []
    },
    "45": {
        "24/03/2020 14:58:09": [],
        "24/03/2020 17:12:48": [],
        "24/03/2020 19:53:57": [],
        "24/03/2020 22:08:20": []
    },
    "47": {
        "24/03/2020 14:58:10": [],
        "24/03/2020 17:12:49": [],
        "24/03/2020 19:53:58": [],
        "24/03/2020 22:08:20": []
    },
    "5053": {
        "24/03/2020 14:58:10": [],
        "24/03/2020 17:12:49": [],
        "24/03/2020 19:53:58": [],
        "24/03/2020 22:08:21": []
    },
    "6117": {
        "24/03/2020 14:58:11": [],
        "24/03/2020 17:12:50": [],
        "24/03/2020 19:53:59": [],
        "24/03/2020 22:08:21": []
    },
    "1631": {
        "24/03/2020 14:58:11": [],
        "24/03/2020 17:12:50": [],
        "24/03/2020 19:53:59": [],
        "24/03/2020 22:08:22": []
    },
    "1632": {
        "24/03/2020 14:58:12": [],
        "24/03/2020 17:12:50": [],
        "24/03/2020 19:54:00": [],
        "24/03/2020 22:08:22": []
    },
    "1633": {
        "24/03/2020 14:58:12": [],
        "24/03/2020 17:12:51": [],
        "24/03/2020 19:54:00": [],
        "24/03/2020 22:08:23": []
    },
    "1634": {
        "24/03/2020 14:58:13": [],
        "24/03/2020 17:12:51": [],
        "24/03/2020 19:54:01": [],
        "24/03/2020 22:08:23": []
    },
    "1635": {
        "24/03/2020 14:58:14": [],
        "24/03/2020 17:12:52": [],
        "24/03/2020 19:54:02": [],
        "24/03/2020 22:08:24": []
    },
    "1636": {
        "24/03/2020 14:58:14": [],
        "24/03/2020 17:12:52": [],
        "24/03/2020 19:54:02": [],
        "24/03/2020 22:08:24": []
    },
    "1637": {
        "24/03/2020 14:58:14": [],
        "24/03/2020 17:12:53": [],
        "24/03/2020 19:54:03": [],
        "24/03/2020 22:08:24": []
    },
    "1638": {
        "24/03/2020 14:58:15": [],
        "24/03/2020 17:12:53": [],
        "24/03/2020 19:54:03": [],
        "24/03/2020 22:08:25": []
    },
    "1639": {
        "24/03/2020 14:58:15": [],
        "24/03/2020 17:12:54": [],
        "24/03/2020 19:54:03": [],
        "24/03/2020 22:08:25": []
    },
    "1640": {
        "24/03/2020 14:58:16": [],
        "24/03/2020 17:12:54": [],
        "24/03/2020 19:54:04": [],
        "24/03/2020 22:08:26": []
    },
    "1641": {
        "24/03/2020 14:58:16": [],
        "24/03/2020 17:12:54": [],
        "24/03/2020 19:54:04": [],
        "24/03/2020 22:08:26": []
    },
    "1642": {
        "24/03/2020 14:58:17": [],
        "24/03/2020 17:12:55": [],
        "24/03/2020 19:54:05": [],
        "24/03/2020 22:08:27": []
    },
    "214": {
        "24/03/2020 14:58:17": [],
        "24/03/2020 17:12:55": [],
        "24/03/2020 19:54:05": [],
        "24/03/2020 22:08:27": []
    },
    "277": {
        "24/03/2020 14:58:18": [],
        "24/03/2020 17:12:56": [],
        "24/03/2020 19:54:06": [],
        "24/03/2020 22:08:28": []
    },
    "3689": {
        "24/03/2020 14:58:18": [],
        "24/03/2020 17:12:56": [],
        "24/03/2020 19:54:06": [],
        "24/03/2020 22:08:28": []
    },
    "3690": {
        "24/03/2020 14:58:19": [],
        "24/03/2020 17:12:57": [],
        "24/03/2020 19:54:07": [],
        "24/03/2020 22:08:29": []
    },
    "3694": {
        "24/03/2020 14:58:19": [],
        "24/03/2020 17:12:57": [],
        "24/03/2020 19:54:07": [],
        "24/03/2020 22:08:30": []
    },
    "3695": {
        "24/03/2020 14:58:20": [],
        "24/03/2020 17:12:57": [],
        "24/03/2020 19:54:08": [],
        "24/03/2020 22:08:30": []
    },
    "3696": {
        "24/03/2020 14:58:20": [],
        "24/03/2020 17:12:58": [],
        "24/03/2020 19:54:08": [],
        "24/03/2020 22:08:30": []
    },
    "3697": {
        "24/03/2020 14:58:21": [],
        "24/03/2020 17:12:58": [],
        "24/03/2020 19:54:08": [],
        "24/03/2020 22:08:31": []
    },
    "3698": {
        "24/03/2020 14:58:21": [],
        "24/03/2020 17:12:59": [],
        "24/03/2020 19:54:09": [],
        "24/03/2020 22:08:32": []
    },
    "3699": {
        "24/03/2020 14:58:22": [],
        "24/03/2020 17:12:59": [],
        "24/03/2020 19:54:09": [],
        "24/03/2020 22:08:33": []
    },
    "44": {
        "24/03/2020 14:58:22": [],
        "24/03/2020 17:13:00": [],
        "24/03/2020 19:54:10": [],
        "24/03/2020 22:08:33": []
    },
    "46": {
        "24/03/2020 14:58:23": [],
        "24/03/2020 17:13:00": [],
        "24/03/2020 19:54:10": [],
        "24/03/2020 22:08:34": []
    },
    "49": {
        "24/03/2020 14:58:24": [],
        "24/03/2020 17:13:01": [],
        "24/03/2020 19:54:11": [],
        "24/03/2020 22:08:34": []
    },
    "4905": {
        "24/03/2020 14:58:24": [],
        "24/03/2020 17:13:01": [],
        "24/03/2020 19:54:11": [],
        "24/03/2020 22:08:35": []
    },
    "4906": {
        "24/03/2020 14:58:25": [],
        "24/03/2020 17:13:02": [],
        "24/03/2020 19:54:12": [],
        "24/03/2020 22:08:40": []
    },
    "4907": {
        "24/03/2020 14:58:25": [],
        "24/03/2020 17:13:02": [],
        "24/03/2020 19:54:12": [],
        "24/03/2020 22:08:46": []
    },
    "4908": {
        "24/03/2020 14:58:25": [],
        "24/03/2020 17:13:03": [],
        "24/03/2020 19:54:12": [],
        "24/03/2020 22:08:50": []
    },
    "4909": {
        "24/03/2020 14:58:26": [],
        "24/03/2020 17:13:03": [],
        "24/03/2020 19:54:13": [],
        "24/03/2020 22:08:56": []
    },
    "4921": {
        "24/03/2020 14:58:26": [],
        "24/03/2020 17:13:04": [],
        "24/03/2020 19:54:13": [],
        "24/03/2020 22:09:02": []
    },
    "4922": {
        "24/03/2020 14:58:27": [],
        "24/03/2020 17:13:04": [],
        "24/03/2020 19:54:14": [],
        "24/03/2020 22:09:07": []
    },
    "52": {
        "24/03/2020 14:58:27": [],
        "24/03/2020 17:13:05": [],
        "24/03/2020 19:54:14": [],
        "24/03/2020 22:09:12": []
    },
    "231": {
        "24/03/2020 14:58:28": [],
        "24/03/2020 17:13:05": [],
        "24/03/2020 19:54:15": [],
        "24/03/2020 22:09:18": []
    },
    "3885": {
        "24/03/2020 14:58:28": [],
        "24/03/2020 17:13:06": [],
        "24/03/2020 19:54:15": [],
        "24/03/2020 22:09:23": []
    },
    "4432": {
        "24/03/2020 14:58:29": [],
        "24/03/2020 17:13:06": [],
        "24/03/2020 19:54:15": [],
        "24/03/2020 22:09:28": []
    },
    "4923": {
        "24/03/2020 14:58:29": [],
        "24/03/2020 17:13:06": [],
        "24/03/2020 19:54:16": [],
        "24/03/2020 22:09:33": []
    },
    "4924": {
        "24/03/2020 14:58:30": [],
        "24/03/2020 17:13:07": [],
        "24/03/2020 19:54:16": [],
        "24/03/2020 22:09:38": []
    },
    "4958": {
        "24/03/2020 14:58:30": [],
        "24/03/2020 17:13:07": [],
        "24/03/2020 19:54:17": [],
        "24/03/2020 22:09:42": []
    }
}