{
    "7555": {
        "22/03/2020 16:01:34": [],
        "22/03/2020 18:26:07": [],
        "22/03/2020 20:42:12": []
    },
    "4": {
        "22/03/2020 16:01:40": [],
        "22/03/2020 18:26:07": [],
        "22/03/2020 20:42:12": []
    },
    "2031": {
        "22/03/2020 16:01:44": [],
        "22/03/2020 18:26:08": [],
        "22/03/2020 20:42:13": []
    },
    "281": {
        "22/03/2020 16:01:48": [],
        "22/03/2020 18:26:08": [],
        "22/03/2020 20:42:13": []
    },
    "3058": {
        "22/03/2020 16:01:53": [],
        "22/03/2020 18:26:08": [],
        "22/03/2020 20:42:13": []
    },
    "3059": {
        "22/03/2020 16:01:58": [],
        "22/03/2020 18:26:09": [],
        "22/03/2020 20:42:14": []
    },
    "3060": {
        "22/03/2020 16:02:02": [],
        "22/03/2020 18:26:09": [],
        "22/03/2020 20:42:14": []
    },
    "3061": {
        "22/03/2020 16:02:11": [],
        "22/03/2020 18:26:10": [],
        "22/03/2020 20:42:15": []
    },
    "3073": {
        "22/03/2020 16:02:16": [],
        "22/03/2020 18:26:10": [],
        "22/03/2020 20:42:15": []
    },
    "3074": {
        "22/03/2020 16:02:20": [],
        "22/03/2020 18:26:11": [],
        "22/03/2020 20:42:15": []
    },
    "3075": {
        "22/03/2020 16:02:26": [],
        "22/03/2020 18:26:11": [],
        "22/03/2020 20:42:16": []
    },
    "3076": {
        "22/03/2020 16:02:30": [],
        "22/03/2020 18:26:11": [],
        "22/03/2020 20:42:16": []
    },
    "3077": {
        "22/03/2020 16:02:38": [],
        "22/03/2020 18:26:12": [],
        "22/03/2020 20:42:16": []
    },
    "3079": {
        "22/03/2020 16:02:43": [],
        "22/03/2020 18:26:12": [],
        "22/03/2020 20:42:17": []
    },
    "3080": {
        "22/03/2020 16:02:48": [],
        "22/03/2020 18:26:13": [],
        "22/03/2020 20:42:17": []
    },
    "3081": {
        "22/03/2020 16:02:52": [],
        "22/03/2020 18:26:13": [],
        "22/03/2020 20:42:18": []
    },
    "3084": {
        "22/03/2020 16:02:57": [],
        "22/03/2020 18:26:14": [],
        "22/03/2020 20:42:18": []
    },
    "400": {
        "22/03/2020 16:03:02": [],
        "22/03/2020 18:26:14": [],
        "22/03/2020 20:42:19": []
    },
    "487": {
        "22/03/2020 16:03:07": [],
        "22/03/2020 18:26:15": [],
        "22/03/2020 20:42:19": []
    },
    "488": {
        "22/03/2020 16:03:12": [],
        "22/03/2020 18:26:15": [],
        "22/03/2020 20:42:19": []
    },
    "489": {
        "22/03/2020 16:03:17": [],
        "22/03/2020 18:26:15": [],
        "22/03/2020 20:42:20": []
    },
    "490": {
        "22/03/2020 16:03:25": [],
        "22/03/2020 18:26:16": [],
        "22/03/2020 20:42:20": []
    },
    "491": {
        "22/03/2020 16:03:26": [],
        "22/03/2020 18:26:16": [],
        "22/03/2020 20:42:21": []
    },
    "492": {
        "22/03/2020 16:03:27": [],
        "22/03/2020 18:26:17": [],
        "22/03/2020 20:42:21": []
    },
    "469": {
        "22/03/2020 16:03:27": [],
        "22/03/2020 18:26:17": [],
        "22/03/2020 20:42:21": []
    },
    "493": {
        "22/03/2020 16:03:28": [],
        "22/03/2020 18:26:18": [],
        "22/03/2020 20:42:22": []
    },
    "494": {
        "22/03/2020 16:03:28": [],
        "22/03/2020 18:26:18": [],
        "22/03/2020 20:42:22": []
    },
    "495": {
        "22/03/2020 16:03:29": [],
        "22/03/2020 18:26:19": [],
        "22/03/2020 20:42:23": []
    },
    "7554": {
        "22/03/2020 16:03:29": [],
        "22/03/2020 18:26:19": [],
        "22/03/2020 20:42:23": []
    },
    "477": {
        "22/03/2020 16:03:30": [],
        "22/03/2020 18:26:19": [],
        "22/03/2020 20:42:23": []
    },
    "478": {
        "22/03/2020 16:03:30": [],
        "22/03/2020 18:26:20": [],
        "22/03/2020 20:42:24": []
    },
    "479": {
        "22/03/2020 16:03:31": [],
        "22/03/2020 18:26:20": [],
        "22/03/2020 20:42:24": []
    },
    "480": {
        "22/03/2020 16:03:31": [],
        "22/03/2020 18:26:21": [],
        "22/03/2020 20:42:25": []
    },
    "481": {
        "22/03/2020 16:03:32": [],
        "22/03/2020 18:26:21": [],
        "22/03/2020 20:42:25": []
    },
    "482": {
        "22/03/2020 16:03:32": [],
        "22/03/2020 18:26:22": [],
        "22/03/2020 20:42:26": []
    },
    "483": {
        "22/03/2020 16:03:33": [],
        "22/03/2020 18:26:22": [],
        "22/03/2020 20:42:26": []
    },
    "485": {
        "22/03/2020 16:03:33": [],
        "22/03/2020 18:26:22": [],
        "22/03/2020 20:42:26": []
    },
    "6098": {
        "22/03/2020 16:03:33": [],
        "22/03/2020 18:26:23": [],
        "22/03/2020 20:42:27": []
    },
    "6101": {
        "22/03/2020 16:03:34": [],
        "22/03/2020 18:26:23": [],
        "22/03/2020 20:42:27": []
    },
    "6102": {
        "22/03/2020 16:03:34": [],
        "22/03/2020 18:26:24": [],
        "22/03/2020 20:42:27": []
    },
    "6103": {
        "22/03/2020 16:03:35": [],
        "22/03/2020 18:26:24": [],
        "22/03/2020 20:42:28": []
    },
    "6104": {
        "22/03/2020 16:03:35": [],
        "22/03/2020 18:26:25": [],
        "22/03/2020 20:42:28": []
    },
    "6105": {
        "22/03/2020 16:03:36": [],
        "22/03/2020 18:26:25": [],
        "22/03/2020 20:42:29": []
    },
    "7595": {
        "22/03/2020 16:03:36": [],
        "22/03/2020 18:26:25": [],
        "22/03/2020 20:42:29": []
    },
    "470": {
        "22/03/2020 16:03:37": [],
        "22/03/2020 18:26:26": [],
        "22/03/2020 20:42:29": []
    },
    "4705": {
        "22/03/2020 16:03:37": [],
        "22/03/2020 18:26:26": [],
        "22/03/2020 20:42:30": []
    },
    "471": {
        "22/03/2020 16:03:38": [],
        "22/03/2020 18:26:27": [],
        "22/03/2020 20:42:30": []
    },
    "472": {
        "22/03/2020 16:03:38": [],
        "22/03/2020 18:26:27": [],
        "22/03/2020 20:42:31": []
    },
    "473": {
        "22/03/2020 16:03:39": [],
        "22/03/2020 18:26:28": [],
        "22/03/2020 20:42:31": []
    },
    "475": {
        "22/03/2020 16:03:39": [],
        "22/03/2020 18:26:28": [],
        "22/03/2020 20:42:31": []
    },
    "476": {
        "22/03/2020 16:03:40": [],
        "22/03/2020 18:26:28": [],
        "22/03/2020 20:42:32": []
    },
    "7055": {
        "22/03/2020 16:03:40": [],
        "22/03/2020 18:26:29": [],
        "22/03/2020 20:42:32": []
    },
    "426": {
        "22/03/2020 16:03:41": [],
        "22/03/2020 18:26:29": [],
        "22/03/2020 20:42:33": []
    },
    "427": {
        "22/03/2020 16:03:41": [],
        "22/03/2020 18:26:30": [],
        "22/03/2020 20:42:33": []
    },
    "428": {
        "22/03/2020 16:03:42": [],
        "22/03/2020 18:26:30": [],
        "22/03/2020 20:42:33": []
    },
    "429": {
        "22/03/2020 16:03:42": [],
        "22/03/2020 18:26:31": [],
        "22/03/2020 20:42:34": []
    },
    "4725": {
        "22/03/2020 16:03:42": [],
        "22/03/2020 18:26:31": [],
        "22/03/2020 20:42:34": []
    },
    "7054": {
        "22/03/2020 16:03:43": [],
        "22/03/2020 18:26:32": [],
        "22/03/2020 20:42:35": []
    },
    "2046": {
        "22/03/2020 16:03:43": [],
        "22/03/2020 18:26:32": [],
        "22/03/2020 20:42:35": []
    },
    "3032": {
        "22/03/2020 16:03:44": [],
        "22/03/2020 18:26:32": [],
        "22/03/2020 20:42:35": []
    },
    "3033": {
        "22/03/2020 16:03:44": [],
        "22/03/2020 18:26:33": [],
        "22/03/2020 20:42:36": []
    },
    "3034": {
        "22/03/2020 16:03:45": [],
        "22/03/2020 18:26:33": [],
        "22/03/2020 20:42:36": []
    },
    "3036": {
        "22/03/2020 16:03:45": [],
        "22/03/2020 18:26:34": [],
        "22/03/2020 20:42:37": []
    },
    "3037": {
        "22/03/2020 16:03:46": [],
        "22/03/2020 18:26:34": [],
        "22/03/2020 20:42:37": []
    },
    "3038": {
        "22/03/2020 16:03:46": [],
        "22/03/2020 18:26:35": [],
        "22/03/2020 20:42:37": []
    },
    "3039": {
        "22/03/2020 16:03:47": [],
        "22/03/2020 18:26:35": [],
        "22/03/2020 20:42:38": []
    },
    "3040": {
        "22/03/2020 16:03:47": [],
        "22/03/2020 18:26:36": [],
        "22/03/2020 20:42:38": []
    },
    "3054": {
        "22/03/2020 16:03:48": [],
        "22/03/2020 18:26:36": [],
        "22/03/2020 20:42:39": []
    },
    "3055": {
        "22/03/2020 16:03:48": [],
        "22/03/2020 18:26:36": [],
        "22/03/2020 20:42:39": []
    },
    "3056": {
        "22/03/2020 16:03:49": [],
        "22/03/2020 18:26:37": [],
        "22/03/2020 20:42:40": []
    },
    "3057": {
        "22/03/2020 16:03:49": [],
        "22/03/2020 18:26:37": [],
        "22/03/2020 20:42:40": []
    },
    "418": {
        "22/03/2020 16:03:50": [],
        "22/03/2020 18:26:38": [],
        "22/03/2020 20:42:40": []
    },
    "419": {
        "22/03/2020 16:03:50": [],
        "22/03/2020 18:26:38": [],
        "22/03/2020 20:42:41": []
    },
    "420": {
        "22/03/2020 16:03:50": [],
        "22/03/2020 18:26:39": [],
        "22/03/2020 20:42:41": []
    },
    "421": {
        "22/03/2020 16:03:51": [],
        "22/03/2020 18:26:39": [],
        "22/03/2020 20:42:42": []
    },
    "422": {
        "22/03/2020 16:03:51": [],
        "22/03/2020 18:26:39": [],
        "22/03/2020 20:42:42": []
    },
    "423": {
        "22/03/2020 16:03:52": [],
        "22/03/2020 18:26:40": [],
        "22/03/2020 20:42:42": []
    },
    "424": {
        "22/03/2020 16:03:52": [],
        "22/03/2020 18:26:40": [],
        "22/03/2020 20:42:43": []
    },
    "425": {
        "22/03/2020 16:03:53": [],
        "22/03/2020 18:26:41": [],
        "22/03/2020 20:42:43": []
    },
    "7511": {
        "22/03/2020 16:03:53": [],
        "22/03/2020 18:26:41": [],
        "22/03/2020 20:42:44": []
    },
    "7553": {
        "22/03/2020 16:03:53": [],
        "22/03/2020 18:26:42": [],
        "22/03/2020 20:42:44": []
    },
    "405": {
        "22/03/2020 16:03:54": [],
        "22/03/2020 18:26:42": [],
        "22/03/2020 20:42:44": []
    },
    "408": {
        "22/03/2020 16:03:54": [],
        "22/03/2020 18:26:42": [],
        "22/03/2020 20:42:45": []
    },
    "409": {
        "22/03/2020 16:03:55": [],
        "22/03/2020 18:26:43": [],
        "22/03/2020 20:42:45": []
    },
    "410": {
        "22/03/2020 16:03:55": [],
        "22/03/2020 18:26:43": [],
        "22/03/2020 20:42:46": []
    },
    "411": {
        "22/03/2020 16:03:56": [],
        "22/03/2020 18:26:44": [],
        "22/03/2020 20:42:46": []
    },
    "6099": {
        "22/03/2020 16:03:56": [],
        "22/03/2020 18:26:44": [],
        "22/03/2020 20:42:46": []
    },
    "6100": {
        "22/03/2020 16:03:57": [],
        "22/03/2020 18:26:45": [],
        "22/03/2020 20:42:47": []
    },
    "6118": {
        "22/03/2020 16:03:57": [],
        "22/03/2020 18:26:45": [],
        "22/03/2020 20:42:47": []
    },
    "273": {
        "22/03/2020 16:03:58": [],
        "22/03/2020 18:26:45": [],
        "22/03/2020 20:42:48": []
    },
    "412": {
        "22/03/2020 16:03:58": [],
        "22/03/2020 18:26:46": [],
        "22/03/2020 20:42:48": []
    },
    "413": {
        "22/03/2020 16:03:59": [],
        "22/03/2020 18:26:46": [],
        "22/03/2020 20:42:48": []
    },
    "414": {
        "22/03/2020 16:03:59": [],
        "22/03/2020 18:26:47": [],
        "22/03/2020 20:42:49": []
    },
    "415": {
        "22/03/2020 16:03:59": [],
        "22/03/2020 18:26:47": [],
        "22/03/2020 20:42:49": []
    },
    "416": {
        "22/03/2020 16:04:00": [],
        "22/03/2020 18:26:48": [],
        "22/03/2020 20:42:49": []
    },
    "417": {
        "22/03/2020 16:04:01": [],
        "22/03/2020 18:26:48": [],
        "22/03/2020 20:42:50": []
    },
    "4962": {
        "22/03/2020 16:04:01": [],
        "22/03/2020 18:26:49": [],
        "22/03/2020 20:42:50": []
    },
    "6082": {
        "22/03/2020 16:04:01": [],
        "22/03/2020 18:26:49": [],
        "22/03/2020 20:42:51": []
    }
}