{
    "4713": {
        "23/03/2020 14:00:28": [
            0,
            0
        ],
        "23/03/2020 16:04:41": [
            0,
            0,
            0,
            0,
            0
        ],
        "23/03/2020 19:16:13": [
            0,
            0
        ]
    },
    "4714": {
        "23/03/2020 14:00:28": [
            15,
            15,
            24
        ],
        "23/03/2020 16:04:42": [
            -28,
            -28,
            1,
            1,
            1
        ],
        "23/03/2020 19:16:13": [
            -7,
            -7
        ]
    },
    "4960": {
        "23/03/2020 14:00:29": [
            -17,
            -17,
            2
        ],
        "23/03/2020 16:04:42": [
            18,
            18,
            21,
            21,
            21
        ],
        "23/03/2020 19:16:13": [
            -4,
            -4
        ]
    },
    "4932": {
        "23/03/2020 14:00:29": [
            1,
            1,
            -24
        ],
        "23/03/2020 16:04:42": [
            5,
            5,
            1,
            1
        ],
        "23/03/2020 19:16:14": [
            -26,
            -26
        ]
    },
    "4933": {
        "23/03/2020 14:00:29": [
            -27,
            -27,
            11
        ],
        "23/03/2020 16:04:43": [
            -16,
            -16,
            -8,
            -8
        ],
        "23/03/2020 19:16:14": [
            -3,
            -3
        ]
    },
    "2590": {
        "23/03/2020 14:00:30": [
            17,
            17,
            -2
        ],
        "23/03/2020 16:04:43": [
            -21,
            -21
        ],
        "23/03/2020 19:16:14": [
            -24,
            -24
        ]
    },
    "2591": {
        "23/03/2020 14:00:30": [
            -6,
            -6,
            -21
        ],
        "23/03/2020 16:04:43": [
            9,
            9,
            19,
            19
        ],
        "23/03/2020 19:16:14": [
            11,
            11
        ]
    },
    "2592": {
        "23/03/2020 14:00:31": [
            25,
            25,
            13
        ],
        "23/03/2020 16:04:44": [
            -19,
            -19,
            -8,
            -8
        ],
        "23/03/2020 19:16:15": [
            -21,
            -21
        ]
    },
    "2357": {
        "23/03/2020 14:00:31": [
            -5,
            -10
        ],
        "23/03/2020 16:04:44": [
            15,
            15,
            28,
            28
        ],
        "23/03/2020 19:16:15": [
            0,
            0
        ]
    },
    "2566": {
        "23/03/2020 14:00:31": [
            24,
            24,
            20
        ],
        "23/03/2020 16:04:44": [
            -10,
            -10,
            9,
            9
        ],
        "23/03/2020 19:16:15": [
            25,
            25
        ]
    },
    "2567": {
        "23/03/2020 14:00:31": [
            1,
            1,
            -2
        ],
        "23/03/2020 16:04:45": [
            -25,
            -25,
            2,
            2
        ],
        "23/03/2020 19:16:16": [
            -4,
            -4
        ]
    },
    "2568": {
        "23/03/2020 14:00:32": [
            10,
            10,
            8
        ],
        "23/03/2020 16:04:45": [
            -192,
            -2,
            -2,
            -22,
            -22
        ],
        "23/03/2020 19:16:16": [
            -5,
            -5
        ]
    },
    "2569": {
        "23/03/2020 14:00:32": [
            -1,
            -1,
            -1
        ],
        "23/03/2020 16:04:45": [
            -193,
            -3,
            -3,
            -12,
            -12
        ],
        "23/03/2020 19:16:16": [
            -23,
            -23
        ]
    },
    "7550": {
        "23/03/2020 14:00:32": [
            10,
            11
        ],
        "23/03/2020 16:04:46": [
            -168,
            22,
            22,
            28,
            28
        ],
        "23/03/2020 19:16:17": [
            -23,
            -23
        ]
    },
    "2570": {
        "23/03/2020 14:00:33": [
            6,
            6,
            9
        ],
        "23/03/2020 16:04:46": [
            -220,
            -30,
            -30,
            -13
        ],
        "23/03/2020 19:16:17": [
            25,
            25
        ]
    },
    "2571": {
        "23/03/2020 14:00:33": [
            4,
            4,
            10
        ],
        "23/03/2020 16:04:46": [
            -144,
            -8,
            -8,
            -26
        ],
        "23/03/2020 19:16:17": [
            5,
            5
        ]
    },
    "2359": {
        "23/03/2020 14:00:33": [
            15,
            23
        ],
        "23/03/2020 16:04:47": [
            -118,
            18,
            18,
            14
        ],
        "23/03/2020 19:16:18": [
            6,
            6
        ]
    },
    "2360": {
        "23/03/2020 14:00:34": [
            -22,
            -21
        ],
        "23/03/2020 16:04:47": [
            -148,
            -12,
            -12,
            -18
        ],
        "23/03/2020 19:16:18": [
            15,
            15
        ]
    },
    "4348": {
        "23/03/2020 14:00:34": [
            13,
            13
        ],
        "23/03/2020 16:04:47": [
            -164,
            -28,
            -28,
            24
        ],
        "23/03/2020 19:16:18": [
            -26
        ]
    },
    "4646": {
        "23/03/2020 14:00:34": [
            -15
        ],
        "23/03/2020 16:04:48": [
            -166,
            -30,
            -30,
            24
        ],
        "23/03/2020 19:16:19": [
            -9
        ]
    },
    "4647": {
        "23/03/2020 14:00:34": [],
        "23/03/2020 16:04:48": [
            -111,
            25,
            25,
            21
        ],
        "23/03/2020 19:16:19": [
            28
        ]
    },
    "2346": {
        "23/03/2020 14:00:35": [
            -18
        ],
        "23/03/2020 16:04:48": [
            -137,
            -1,
            -1,
            -3
        ],
        "23/03/2020 19:16:19": [
            -30
        ]
    },
    "4435": {
        "23/03/2020 14:00:35": [
            -249,
            19,
            19
        ],
        "23/03/2020 16:04:49": [
            -135,
            1,
            1,
            2
        ],
        "23/03/2020 19:16:19": [
            -221,
            -10
        ]
    },
    "2604": {
        "23/03/2020 14:00:35": [
            -250,
            18,
            18
        ],
        "23/03/2020 16:04:49": [
            -119,
            17,
            17
        ],
        "23/03/2020 19:16:20": [
            -192,
            -20
        ]
    },
    "2605": {
        "23/03/2020 14:00:36": [
            -266,
            -30,
            -30
        ],
        "23/03/2020 16:04:50": [
            -147,
            -11,
            -11
        ],
        "23/03/2020 19:16:20": [
            -148,
            -19
        ]
    },
    "2538": {
        "23/03/2020 14:00:36": [
            -259,
            -23,
            -23
        ],
        "23/03/2020 16:04:50": [
            -122,
            14,
            14
        ],
        "23/03/2020 19:16:20": [
            -152,
            -23
        ]
    },
    "2606": {
        "23/03/2020 14:00:36": [
            -208,
            28,
            28
        ],
        "23/03/2020 16:04:50": [
            -122,
            14,
            14
        ],
        "23/03/2020 19:16:21": [
            -102,
            27
        ]
    },
    "2607": {
        "23/03/2020 14:00:37": [
            -259,
            -23,
            -23
        ],
        "23/03/2020 16:04:50": [
            -161,
            -25,
            -25
        ],
        "23/03/2020 19:16:21": [
            -154,
            -25
        ]
    },
    "2608": {
        "23/03/2020 14:00:37": [
            -221,
            15,
            15
        ],
        "23/03/2020 16:04:51": [
            -122,
            14,
            14
        ],
        "23/03/2020 19:16:21": [
            -124,
            5
        ]
    },
    "2609": {
        "23/03/2020 14:00:37": [
            -213,
            23,
            23
        ],
        "23/03/2020 16:04:51": [
            -734,
            -112,
            24,
            24
        ],
        "23/03/2020 19:16:21": [
            -129,
            0
        ]
    },
    "2610": {
        "23/03/2020 14:00:38": [
            -203,
            -30,
            -30
        ],
        "23/03/2020 16:04:51": [
            -779,
            -163,
            -27,
            -27
        ],
        "23/03/2020 19:16:22": [
            -135,
            -6
        ]
    },
    "2554": {
        "23/03/2020 14:00:38": [
            -153,
            20,
            20
        ],
        "23/03/2020 16:04:52": [
            -728,
            -112,
            24,
            24
        ],
        "23/03/2020 19:16:22": [
            -216,
            -26
        ]
    },
    "2425": {
        "23/03/2020 14:00:38": [
            -198,
            -25
        ],
        "23/03/2020 16:04:52": [
            -859,
            -155,
            -19,
            -19
        ],
        "23/03/2020 19:16:22": [
            -154,
            -25
        ]
    },
    "2426": {
        "23/03/2020 14:00:39": [
            -155,
            18
        ],
        "23/03/2020 16:04:52": [
            -816,
            -112,
            24,
            24
        ],
        "23/03/2020 19:16:23": [
            -117,
            12
        ]
    },
    "2427": {
        "23/03/2020 14:00:39": [
            -164,
            9
        ],
        "23/03/2020 16:04:53": [
            -825,
            -121,
            15,
            15
        ],
        "23/03/2020 19:16:23": [
            -132,
            -3
        ]
    },
    "2428": {
        "23/03/2020 14:00:39": [
            -179,
            -6
        ],
        "23/03/2020 16:04:53": [
            -868,
            -135,
            1,
            1
        ],
        "23/03/2020 19:16:23": [
            -151,
            -22
        ]
    },
    "2429": {
        "23/03/2020 14:00:40": [
            -148,
            25
        ],
        "23/03/2020 16:04:53": [
            -897,
            -164,
            -28
        ],
        "23/03/2020 19:16:24": [
            -122,
            7
        ]
    },
    "2430": {
        "23/03/2020 14:00:40": [
            -167,
            6
        ],
        "23/03/2020 16:04:54": [
            -855,
            -122,
            14
        ],
        "23/03/2020 19:16:24": [
            -145,
            -16
        ]
    },
    "2371": {
        "23/03/2020 14:00:40": [
            -147,
            26
        ],
        "23/03/2020 16:04:54": [
            -835,
            -158,
            -22
        ],
        "23/03/2020 19:16:24": [
            -142,
            -13
        ]
    },
    "2372": {
        "23/03/2020 14:00:41": [
            -157
        ],
        "23/03/2020 16:04:54": [
            -856,
            -152,
            -16
        ],
        "23/03/2020 19:16:24": [
            -101,
            28
        ]
    },
    "2373": {
        "23/03/2020 14:00:41": [
            -173
        ],
        "23/03/2020 16:04:55": [
            -861,
            -157,
            -21
        ],
        "23/03/2020 19:16:25": [
            -124,
            5
        ]
    },
    "2377": {
        "23/03/2020 14:00:41": [
            -145
        ],
        "23/03/2020 16:04:55": [
            -814,
            -110,
            26
        ],
        "23/03/2020 19:16:25": [
            -108,
            21
        ]
    },
    "2378": {
        "23/03/2020 14:00:42": [
            -195
        ],
        "23/03/2020 16:04:55": [
            -866,
            -162,
            -26
        ],
        "23/03/2020 19:16:26": [
            -120,
            9
        ]
    },
    "2183": {
        "23/03/2020 14:00:42": [
            -317
        ],
        "23/03/2020 16:04:55": [
            -352,
            -830,
            -126,
            10
        ],
        "23/03/2020 19:16:26": [
            -432,
            -112,
            17
        ]
    },
    "2184": {
        "23/03/2020 14:00:42": [
            -341
        ],
        "23/03/2020 16:04:56": [
            -366,
            -850,
            -146,
            -10
        ],
        "23/03/2020 19:16:27": [
            -454,
            -144,
            -15
        ]
    },
    "2185": {
        "23/03/2020 14:00:42": [
            -302
        ],
        "23/03/2020 16:04:56": [
            -316,
            -868,
            -164
        ],
        "23/03/2020 19:16:27": [
            -382,
            -114,
            15
        ]
    },
    "7043": {
        "23/03/2020 14:00:43": [
            -304
        ],
        "23/03/2020 16:04:57": [
            -353,
            -844,
            -140
        ],
        "23/03/2020 19:16:27": [
            -390,
            -139,
            -10
        ]
    },
    "1424": {
        "23/03/2020 14:00:43": [
            -184,
            -11
        ],
        "23/03/2020 16:04:57": [
            -317,
            -727,
            -163
        ],
        "23/03/2020 19:16:27": [
            -421,
            -115,
            14
        ]
    },
    "2186": {
        "23/03/2020 14:00:43": [
            -615,
            -340
        ],
        "23/03/2020 16:04:57": [
            -320,
            -811,
            -107
        ],
        "23/03/2020 19:16:28": [
            -372,
            -129,
            0
        ]
    },
    "2187": {
        "23/03/2020 14:00:44": [
            -609,
            -334
        ],
        "23/03/2020 16:04:58": [
            -312,
            -864,
            -160
        ],
        "23/03/2020 19:16:28": [
            -372,
            -133,
            -4
        ]
    },
    "2188": {
        "23/03/2020 14:00:44": [
            -587,
            -333
        ],
        "23/03/2020 16:04:58": [
            -363,
            -864,
            -160
        ],
        "23/03/2020 19:16:28": [
            -377,
            -149,
            -20
        ]
    },
    "2189": {
        "23/03/2020 14:00:45": [
            -606,
            -352
        ],
        "23/03/2020 16:04:58": [
            -318,
            -825,
            -121
        ],
        "23/03/2020 19:16:29": [
            -400,
            -119,
            10
        ]
    },
    "1436": {
        "23/03/2020 14:00:45": [
            -548,
            -147,
            26
        ],
        "23/03/2020 16:04:59": [
            -316,
            -831,
            -254
        ],
        "23/03/2020 19:16:29": [
            -411,
            -139,
            -10
        ]
    },
    "3952": {
        "23/03/2020 14:00:46": [
            -574,
            -173,
            0
        ],
        "23/03/2020 16:04:59": [
            -339,
            -859,
            -155
        ],
        "23/03/2020 19:16:29": [
            -374,
            -112,
            17
        ]
    },
    "2190": {
        "23/03/2020 14:00:46": [
            -590,
            -338
        ],
        "23/03/2020 16:04:59": [
            -349,
            -815,
            -111
        ],
        "23/03/2020 19:16:29": [
            -385,
            -135
        ]
    },
    "4434": {
        "23/03/2020 14:00:46": [
            -602,
            -348
        ],
        "23/03/2020 16:05:00": [
            -357,
            -826,
            -122
        ],
        "23/03/2020 19:16:30": [
            -374,
            -137
        ]
    },
    "2379": {
        "23/03/2020 14:00:47": [
            -577,
            -173
        ],
        "23/03/2020 16:05:00": [
            -323,
            -850,
            -146
        ],
        "23/03/2020 19:16:30": [
            -404,
            -134
        ]
    },
    "2380": {
        "23/03/2020 14:00:47": [
            -528,
            -188
        ],
        "23/03/2020 16:05:00": [
            -333,
            -866,
            -162
        ],
        "23/03/2020 19:16:30": [
            -414,
            -159
        ]
    },
    "2382": {
        "23/03/2020 14:00:47": [
            -493,
            -153
        ],
        "23/03/2020 16:05:01": [
            -348,
            -828,
            -124
        ],
        "23/03/2020 19:16:31": [
            -380,
            -134
        ]
    },
    "5099": {
        "23/03/2020 14:00:48": [
            -502,
            -162
        ],
        "23/03/2020 16:05:01": [
            -344,
            -833,
            -129
        ],
        "23/03/2020 19:16:31": [
            -391,
            -158
        ]
    },
    "2383": {
        "23/03/2020 14:00:48": [
            -484,
            -144
        ],
        "23/03/2020 16:05:01": [
            -365,
            -870,
            -166
        ],
        "23/03/2020 19:16:31": [
            -377,
            -102
        ]
    },
    "2002": {
        "23/03/2020 14:00:48": [
            -519,
            -179
        ],
        "23/03/2020 16:05:02": [
            -450,
            -368,
            -869
        ],
        "23/03/2020 19:16:31": [
            -572,
            -402,
            -144
        ]
    },
    "1358": {
        "23/03/2020 14:00:49": [
            -411,
            -527,
            -187
        ],
        "23/03/2020 16:05:02": [
            -425,
            -343,
            -812
        ],
        "23/03/2020 19:16:32": [
            -542,
            -384,
            -141
        ]
    },
    "340": {
        "23/03/2020 14:00:49": [
            -426,
            -542,
            -202
        ],
        "23/03/2020 16:05:03": [
            -398,
            -316,
            -862
        ],
        "23/03/2020 19:16:32": [
            -568,
            -365,
            -142
        ]
    },
    "350": {
        "23/03/2020 14:00:49": [
            -399,
            -515,
            -175
        ],
        "23/03/2020 16:05:03": [
            -429,
            -347,
            -834
        ],
        "23/03/2020 19:16:32": [
            -548,
            -392,
            -133
        ]
    },
    "351": {
        "23/03/2020 14:00:50": [
            -393,
            -509,
            -169
        ],
        "23/03/2020 16:05:03": [
            -416,
            -334,
            -858
        ],
        "23/03/2020 19:16:33": [
            -557,
            -392,
            -151
        ]
    },
    "352": {
        "23/03/2020 14:00:50": [
            -395,
            -511,
            -171
        ],
        "23/03/2020 16:05:04": [
            -415,
            -333,
            -845
        ],
        "23/03/2020 19:16:33": [
            -566,
            -396,
            -104
        ]
    },
    "353": {
        "23/03/2020 14:00:50": [
            -398,
            -514,
            -174
        ],
        "23/03/2020 16:05:04": [
            -415,
            -333,
            -835
        ],
        "23/03/2020 19:16:33": [
            -576,
            -402,
            -118
        ]
    },
    "354": {
        "23/03/2020 14:00:51": [],
        "23/03/2020 16:05:04": [],
        "23/03/2020 19:16:33": []
    },
    "395": {
        "23/03/2020 14:00:51": [
            0,
            0,
            0
        ],
        "23/03/2020 16:05:05": [
            0,
            0,
            0
        ],
        "23/03/2020 19:16:34": [
            0,
            0
        ]
    },
    "396": {
        "23/03/2020 14:00:51": [
            20,
            18
        ],
        "23/03/2020 16:05:05": [
            25,
            -28,
            -28
        ],
        "23/03/2020 19:16:34": [
            29,
            20
        ]
    },
    "397": {
        "23/03/2020 14:00:51": [
            5,
            2
        ],
        "23/03/2020 16:05:05": [
            12,
            24,
            24
        ],
        "23/03/2020 19:16:34": [
            18,
            5
        ]
    },
    "398": {
        "23/03/2020 14:00:52": [
            0,
            0
        ],
        "23/03/2020 16:05:06": [
            13,
            25,
            25
        ],
        "23/03/2020 19:16:35": [
            17,
            0
        ]
    },
    "399": {
        "23/03/2020 14:00:52": [
            -15,
            -13
        ],
        "23/03/2020 16:05:06": [
            4,
            15,
            15
        ],
        "23/03/2020 19:16:35": [
            158,
            5,
            -15
        ]
    },
    "400": {
        "23/03/2020 14:00:52": [
            8,
            14
        ],
        "23/03/2020 16:05:07": [
            -24,
            -24,
            -13,
            -13
        ],
        "23/03/2020 19:16:35": [
            177,
            -26,
            8
        ]
    },
    "4522": {
        "23/03/2020 14:00:53": [
            27,
            27,
            -15
        ],
        "23/03/2020 16:05:07": [
            20,
            20,
            26
        ],
        "23/03/2020 19:16:35": [
            189,
            -7,
            27
        ]
    },
    "1934": {
        "23/03/2020 14:00:53": [
            28,
            28,
            -24
        ],
        "23/03/2020 16:05:07": [
            -28,
            -28,
            -18
        ],
        "23/03/2020 19:16:36": [
            224,
            -21,
            28
        ]
    },
    "2310": {
        "23/03/2020 14:00:53": [
            9,
            3
        ],
        "23/03/2020 16:05:07": [
            26,
            26,
            -18
        ],
        "23/03/2020 19:16:36": [
            231,
            -1,
            9
        ]
    },
    "2311": {
        "23/03/2020 14:00:54": [
            -18,
            -16
        ],
        "23/03/2020 16:05:08": [
            -19,
            -19,
            -9
        ],
        "23/03/2020 19:16:36": [
            184,
            16
        ]
    },
    "2312": {
        "23/03/2020 14:00:54": [
            9,
            28
        ],
        "23/03/2020 16:05:08": [
            -13,
            -13,
            -28
        ],
        "23/03/2020 19:16:37": [
            203,
            -23
        ]
    },
    "2313": {
        "23/03/2020 14:00:54": [
            -2,
            26
        ],
        "23/03/2020 16:05:08": [
            -3,
            -3
        ],
        "23/03/2020 19:16:37": [
            187,
            23
        ]
    },
    "2314": {
        "23/03/2020 14:00:55": [
            -26,
            6
        ],
        "23/03/2020 16:05:09": [
            -29,
            -29
        ],
        "23/03/2020 19:16:37": [
            214,
            -10
        ]
    },
    "2315": {
        "23/03/2020 14:00:55": [
            -13
        ],
        "23/03/2020 16:05:09": [
            -20,
            -20
        ],
        "23/03/2020 19:16:37": [
            210,
            -14
        ]
    },
    "2094": {
        "23/03/2020 14:00:56": [
            13,
            13
        ],
        "23/03/2020 16:05:09": [
            22,
            22
        ],
        "23/03/2020 19:16:38": [
            230,
            10
        ]
    },
    "1406": {
        "23/03/2020 14:00:56": [
            7,
            7,
            7
        ],
        "23/03/2020 16:05:10": [
            258,
            -6
        ],
        "23/03/2020 19:16:38": [
            205,
            21
        ]
    },
    "1407": {
        "23/03/2020 14:00:56": [
            16,
            16,
            16
        ],
        "23/03/2020 16:05:10": [
            270,
            6
        ],
        "23/03/2020 19:16:38": [
            201,
            16
        ]
    },
    "1409": {
        "23/03/2020 14:00:57": [
            19,
            19,
            19
        ],
        "23/03/2020 16:05:10": [
            276,
            12
        ],
        "23/03/2020 19:16:39": [
            192,
            6
        ]
    },
    "2095": {
        "23/03/2020 14:00:57": [
            -23,
            -23
        ],
        "23/03/2020 16:05:11": [
            -18,
            -18
        ],
        "23/03/2020 19:16:39": [
            202,
            11
        ]
    },
    "2096": {
        "23/03/2020 14:00:57": [
            -17,
            -17
        ],
        "23/03/2020 16:05:11": [
            -2,
            -2
        ],
        "23/03/2020 19:16:39": [
            200,
            6
        ]
    },
    "2097": {
        "23/03/2020 14:00:57": [
            -24,
            -24
        ],
        "23/03/2020 16:05:11": [
            -5,
            -5
        ],
        "23/03/2020 19:16:39": [
            178,
            -13
        ]
    },
    "2099": {
        "23/03/2020 14:00:58": [
            20,
            20
        ],
        "23/03/2020 16:05:12": [
            -541,
            -1,
            -1
        ],
        "23/03/2020 19:16:40": [
            204,
            20
        ]
    },
    "2101": {
        "23/03/2020 14:00:58": [
            -15,
            -15
        ],
        "23/03/2020 16:05:12": [
            -512,
            28,
            28
        ],
        "23/03/2020 19:16:40": [
            225,
            -18
        ]
    },
    "2102": {
        "23/03/2020 14:00:58": [
            -23,
            -23
        ],
        "23/03/2020 16:05:12": [
            -531,
            -19,
            -19
        ],
        "23/03/2020 19:16:40": [
            198,
            21
        ]
    },
    "2103": {
        "23/03/2020 14:00:59": [
            -14,
            -14
        ],
        "23/03/2020 16:05:13": [
            -500,
            12,
            12
        ],
        "23/03/2020 19:16:40": [
            -261,
            202,
            16
        ]
    },
    "2332": {
        "23/03/2020 14:00:59": [
            15,
            15
        ],
        "23/03/2020 16:05:13": [
            -521,
            -9,
            -9
        ],
        "23/03/2020 19:16:41": [
            -297,
            229,
            -20
        ]
    },
    "2333": {
        "23/03/2020 14:00:59": [
            23,
            23
        ],
        "23/03/2020 16:05:13": [
            -519,
            21,
            21
        ],
        "23/03/2020 19:16:41": [
            -302,
            233,
            -25
        ]
    },
    "2334": {
        "23/03/2020 14:01:00": [
            6,
            6
        ],
        "23/03/2020 16:05:14": [
            -408,
            23,
            23
        ],
        "23/03/2020 19:16:41": [
            -267,
            211,
            10
        ]
    },
    "4662": {
        "23/03/2020 14:01:00": [
            16,
            16
        ],
        "23/03/2020 16:05:14": [
            -426,
            5
        ],
        "23/03/2020 19:16:42": [
            -284,
            215,
            9
        ]
    },
    "2335": {
        "23/03/2020 14:01:00": [
            -17,
            -17
        ],
        "23/03/2020 16:05:14": [
            -444,
            -13
        ],
        "23/03/2020 19:16:42": [
            -264,
            177,
            29
        ]
    },
    "2336": {
        "23/03/2020 14:01:01": [
            -30,
            -30
        ],
        "23/03/2020 16:05:15": [
            -432,
            -1
        ],
        "23/03/2020 19:16:42": [
            -244,
            216,
            3
        ]
    },
    "2337": {
        "23/03/2020 14:01:01": [
            -30
        ],
        "23/03/2020 16:05:15": [
            -455,
            -24
        ],
        "23/03/2020 19:16:42": [
            -303,
            197,
            -26
        ]
    },
    "2339": {
        "23/03/2020 14:01:01": [
            -5
        ],
        "23/03/2020 16:05:15": [
            -413,
            18
        ],
        "23/03/2020 19:16:43": [
            -258,
            180,
            19
        ]
    },
    "2420": {
        "23/03/2020 14:01:02": [
            1
        ],
        "23/03/2020 16:05:16": [
            22,
            -413,
            18
        ],
        "23/03/2020 19:16:43": [
            -278,
            217,
            -1
        ]
    },
    "2421": {
        "23/03/2020 14:01:02": [
            -7
        ],
        "23/03/2020 16:05:16": [
            22,
            -419,
            12
        ],
        "23/03/2020 19:16:43": [
            -292,
            205,
            -15
        ]
    },
    "2423": {
        "23/03/2020 14:01:02": [
            -27
        ],
        "23/03/2020 16:05:16": [
            8,
            -437,
            -6
        ],
        "23/03/2020 19:16:44": [
            -257,
            181,
            20
        ]
    },
    "2424": {
        "23/03/2020 14:01:02": [
            -26
        ],
        "23/03/2020 16:05:16": [
            18,
            -434,
            -3
        ],
        "23/03/2020 19:16:44": [
            -263,
            177,
            14
        ]
    },
    "2447": {
        "23/03/2020 14:01:03": [
            21
        ],
        "23/03/2020 16:05:17": [
            12,
            -441,
            -10
        ],
        "23/03/2020 19:16:44": [
            -284,
            217,
            -7
        ]
    },
    "5133": {
        "23/03/2020 14:01:03": [
            12
        ],
        "23/03/2020 16:05:17": [
            10,
            -445,
            -14
        ],
        "23/03/2020 19:16:44": [
            -301,
            200,
            -24
        ]
    },
    "2596": {
        "23/03/2020 14:01:03": [
            -4,
            -4
        ],
        "23/03/2020 16:05:17": [
            2,
            -455,
            240
        ],
        "23/03/2020 19:16:45": [
            -262,
            181,
            15
        ]
    },
    "2611": {
        "23/03/2020 14:01:04": [
            -463,
            28,
            28
        ],
        "23/03/2020 16:05:18": [
            -9,
            -534,
            287
        ],
        "23/03/2020 19:16:45": [
            -299,
            208,
            -22
        ]
    },
    "2602": {
        "23/03/2020 14:01:04": [
            -516,
            -25,
            -25
        ],
        "23/03/2020 16:05:18": [
            10,
            -576,
            245
        ],
        "23/03/2020 19:16:45": [
            -299,
            212,
            -22
        ]
    },
    "2613": {
        "23/03/2020 14:01:04": [
            -520,
            -29,
            -29
        ],
        "23/03/2020 16:05:18": [
            16,
            -572,
            249
        ],
        "23/03/2020 19:16:45": [
            -249,
            204,
            28
        ]
    },
    "2614": {
        "23/03/2020 14:01:05": [
            -481,
            10,
            10
        ],
        "23/03/2020 16:05:19": [
            2,
            -587,
            234
        ],
        "23/03/2020 19:16:46": [
            -274,
            181,
            3
        ]
    },
    "2615": {
        "23/03/2020 14:01:05": [
            -519,
            -28,
            -28
        ],
        "23/03/2020 16:05:19": [
            18,
            -584
        ],
        "23/03/2020 19:16:46": [
            -275,
            187
        ]
    },
    "2535": {
        "23/03/2020 14:01:05": [
            -497,
            -6,
            -6
        ],
        "23/03/2020 16:05:19": [
            -26,
            -581
        ],
        "23/03/2020 19:16:46": [
            -275,
            193
        ]
    },
    "2536": {
        "23/03/2020 14:01:06": [
            -496,
            -5,
            -5
        ],
        "23/03/2020 16:05:19": [
            -19,
            -448
        ],
        "23/03/2020 19:16:47": [
            -292,
            188
        ]
    },
    "2616": {
        "23/03/2020 14:01:06": [
            -517,
            -9,
            -9
        ],
        "23/03/2020 16:05:20": [
            -17,
            -573
        ],
        "23/03/2020 19:16:47": [
            -252,
            179
        ]
    },
    "2617": {
        "23/03/2020 14:01:06": [
            -410,
            -4,
            -4
        ],
        "23/03/2020 16:05:20": [
            -5,
            -562
        ],
        "23/03/2020 19:16:47": [
            -265,
            178
        ]
    },
    "2557": {
        "23/03/2020 14:01:07": [
            -407,
            -1,
            -1
        ],
        "23/03/2020 16:05:20": [
            5,
            -427
        ],
        "23/03/2020 19:16:47": [
            -222,
            -281
        ]
    },
    "4436": {
        "23/03/2020 14:01:07": [
            -380,
            26
        ],
        "23/03/2020 16:05:21": [
            -19,
            -451
        ],
        "23/03/2020 19:16:48": [
            -186,
            -278,
            194
        ]
    },
    "5008": {
        "23/03/2020 14:01:07": [
            -416,
            -10
        ],
        "23/03/2020 16:05:21": [
            14,
            -420
        ],
        "23/03/2020 19:16:48": [
            -187,
            -279,
            209
        ]
    },
    "4640": {
        "23/03/2020 14:01:08": [
            -386,
            20
        ],
        "23/03/2020 16:05:21": [
            -6,
            -441
        ],
        "23/03/2020 19:16:48": [
            -182,
            -274,
            231
        ]
    },
    "4347": {
        "23/03/2020 14:01:08": [
            -379,
            27
        ],
        "23/03/2020 16:05:22": [
            14,
            -422
        ],
        "23/03/2020 19:16:48": [
            -165,
            -304,
            226
        ]
    },
    "2349": {
        "23/03/2020 14:01:08": [
            -382,
            24
        ],
        "23/03/2020 16:05:22": [
            22,
            -423
        ],
        "23/03/2020 19:16:49": [
            -120,
            -259,
            220
        ]
    },
    "2351": {
        "23/03/2020 14:01:08": [
            -342,
            -409,
            -3
        ],
        "23/03/2020 16:05:23": [
            11,
            -448
        ],
        "23/03/2020 19:16:49": [
            -167,
            -306,
            186
        ]
    },
    "2558": {
        "23/03/2020 14:01:09": [
            -330,
            -397,
            9
        ],
        "23/03/2020 16:05:23": [
            -19,
            -544
        ],
        "23/03/2020 19:16:49": [
            -191,
            -250,
            190
        ]
    },
    "2559": {
        "23/03/2020 14:01:09": [
            -333,
            -400,
            6
        ],
        "23/03/2020 16:05:23": [
            -658,
            7,
            -578
        ],
        "23/03/2020 19:16:50": [
            -140,
            -279,
            234
        ]
    },
    "2560": {
        "23/03/2020 14:01:09": [
            -341,
            -408,
            -2
        ],
        "23/03/2020 16:05:24": [
            -653,
            12,
            -573
        ],
        "23/03/2020 19:16:50": [
            -159,
            -298
        ]
    },
    "2561": {
        "23/03/2020 14:01:10": [
            -338,
            -405,
            1
        ],
        "23/03/2020 16:05:24": [
            -694,
            -29,
            -555
        ],
        "23/03/2020 19:16:50": [
            -110,
            -249
        ]
    },
    "2562": {
        "23/03/2020 14:01:10": [
            -353,
            -420,
            -14
        ],
        "23/03/2020 16:05:24": [
            -638,
            27,
            -433
        ],
        "23/03/2020 19:16:51": [
            -135,
            -274
        ]
    },
    "2564": {
        "23/03/2020 14:01:10": [
            -365,
            -432,
            -26
        ],
        "23/03/2020 16:05:25": [
            -639,
            26,
            -560
        ],
        "23/03/2020 19:16:51": [
            -663,
            -159,
            -298
        ]
    },
    "4927": {
        "23/03/2020 14:01:11": [
            -325,
            -392,
            14
        ],
        "23/03/2020 16:05:25": [
            -649,
            16,
            -444
        ],
        "23/03/2020 19:16:51": [
            -623,
            -127,
            -266
        ]
    },
    "4928": {
        "23/03/2020 14:01:11": [
            317,
            -357,
            -424,
            -18
        ],
        "23/03/2020 16:05:26": [
            -673,
            -8,
            -408
        ],
        "23/03/2020 19:16:52": [
            -655,
            -165,
            -304
        ]
    },
    "2352": {
        "23/03/2020 14:01:11": [
            333,
            -341,
            -408,
            -2
        ],
        "23/03/2020 16:05:26": [
            -639,
            26,
            -434
        ],
        "23/03/2020 19:16:52": [
            -641,
            -166,
            -305
        ]
    },
    "2573": {
        "23/03/2020 14:01:11": [
            354,
            -320,
            -387,
            19
        ],
        "23/03/2020 16:05:26": [
            -667,
            -2,
            -532
        ],
        "23/03/2020 19:16:52": [
            -678,
            -155,
            -294
        ]
    },
    "2574": {
        "23/03/2020 14:01:12": [
            322,
            -352,
            -419,
            -13
        ],
        "23/03/2020 16:05:27": [
            -636,
            29,
            -562
        ],
        "23/03/2020 19:16:52": [
            -649,
            -130,
            -269
        ]
    },
    "2575": {
        "23/03/2020 14:01:12": [
            371,
            -323,
            -390
        ],
        "23/03/2020 16:05:27": [
            -662,
            3,
            -587
        ],
        "23/03/2020 19:16:53": [
            -631,
            -121,
            -260
        ]
    },
    "4929": {
        "23/03/2020 14:01:12": [
            372,
            -322,
            -389
        ],
        "23/03/2020 16:05:27": [
            -658,
            7
        ],
        "23/03/2020 19:16:53": [
            -637,
            -134,
            -273
        ]
    },
    "7460": {
        "23/03/2020 14:01:13": [
            338,
            -356,
            -423
        ],
        "23/03/2020 16:05:28": [
            -690,
            -25
        ],
        "23/03/2020 19:16:53": [
            -673,
            -114,
            -253
        ]
    },
    "4930": {
        "23/03/2020 14:01:13": [
            355,
            -339,
            -406
        ],
        "23/03/2020 16:05:28": [
            -669,
            -4
        ],
        "23/03/2020 19:16:53": [
            -666,
            -114,
            -253
        ]
    },
    "4931": {
        "23/03/2020 14:01:13": [
            332,
            -362,
            -429
        ],
        "23/03/2020 16:05:28": [
            -690,
            -25
        ],
        "23/03/2020 19:16:54": [
            -633,
            -146,
            -285
        ]
    },
    "7459": {
        "23/03/2020 14:01:14": [],
        "23/03/2020 16:05:28": [],
        "23/03/2020 19:16:54": []
    }
}