{
    "7589": {
        "26/03/2020 12:41:08": [],
        "26/03/2020 15:03:43": [],
        "26/03/2020 17:44:11": []
    },
    "6041": {
        "26/03/2020 12:41:08": [],
        "26/03/2020 15:03:43": [],
        "26/03/2020 17:44:11": []
    },
    "2826": {
        "26/03/2020 12:41:09": [],
        "26/03/2020 15:03:44": [],
        "26/03/2020 17:44:12": []
    },
    "2842": {
        "26/03/2020 12:41:09": [],
        "26/03/2020 15:03:44": [],
        "26/03/2020 17:44:12": []
    },
    "2843": {
        "26/03/2020 12:41:10": [],
        "26/03/2020 15:03:44": [],
        "26/03/2020 17:44:13": []
    },
    "2844": {
        "26/03/2020 12:41:10": [],
        "26/03/2020 15:03:45": [],
        "26/03/2020 17:44:13": []
    },
    "2845": {
        "26/03/2020 12:41:11": [],
        "26/03/2020 15:03:45": [],
        "26/03/2020 17:44:14": []
    },
    "2846": {
        "26/03/2020 12:41:12": [],
        "26/03/2020 15:03:46": [],
        "26/03/2020 17:44:14": []
    },
    "2847": {
        "26/03/2020 12:41:12": [],
        "26/03/2020 15:03:46": [],
        "26/03/2020 17:44:15": []
    },
    "4397": {
        "26/03/2020 12:41:13": [],
        "26/03/2020 15:03:47": [],
        "26/03/2020 17:44:15": []
    },
    "2848": {
        "26/03/2020 12:41:13": [],
        "26/03/2020 15:03:47": [],
        "26/03/2020 17:44:16": []
    },
    "2849": {
        "26/03/2020 12:41:14": [],
        "26/03/2020 15:03:48": [],
        "26/03/2020 17:44:16": []
    },
    "2850": {
        "26/03/2020 12:41:14": [],
        "26/03/2020 15:03:48": [],
        "26/03/2020 17:44:17": []
    },
    "2851": {
        "26/03/2020 12:41:15": [],
        "26/03/2020 15:03:49": [],
        "26/03/2020 17:44:17": []
    },
    "2852": {
        "26/03/2020 12:41:15": [],
        "26/03/2020 15:03:50": [],
        "26/03/2020 17:44:18": []
    },
    "4707": {
        "26/03/2020 12:41:16": [],
        "26/03/2020 15:03:50": [],
        "26/03/2020 17:44:18": []
    },
    "4708": {
        "26/03/2020 12:41:16": [],
        "26/03/2020 15:03:51": [],
        "26/03/2020 17:44:19": []
    },
    "4336": {
        "26/03/2020 12:41:17": [],
        "26/03/2020 15:03:51": [],
        "26/03/2020 17:44:19": []
    },
    "1051": {
        "26/03/2020 12:41:17": [],
        "26/03/2020 15:03:52": [],
        "26/03/2020 17:44:20": []
    },
    "1052": {
        "26/03/2020 12:41:18": [],
        "26/03/2020 15:03:52": [],
        "26/03/2020 17:44:20": []
    },
    "1053": {
        "26/03/2020 12:41:19": [],
        "26/03/2020 15:03:53": [],
        "26/03/2020 17:44:21": []
    },
    "1054": {
        "26/03/2020 12:41:19": [],
        "26/03/2020 15:03:53": [],
        "26/03/2020 17:44:21": []
    },
    "1036": {
        "26/03/2020 12:41:20": [],
        "26/03/2020 15:03:54": [],
        "26/03/2020 17:44:22": []
    },
    "4709": {
        "26/03/2020 12:41:20": [],
        "26/03/2020 15:03:54": [],
        "26/03/2020 17:44:22": []
    },
    "1037": {
        "26/03/2020 12:41:21": [],
        "26/03/2020 15:03:55": [],
        "26/03/2020 17:44:23": []
    },
    "1038": {
        "26/03/2020 12:41:21": [],
        "26/03/2020 15:03:55": [],
        "26/03/2020 17:44:23": []
    },
    "2998": {
        "26/03/2020 12:41:22": [],
        "26/03/2020 15:03:56": [],
        "26/03/2020 17:44:24": []
    },
    "2999": {
        "26/03/2020 12:41:22": [],
        "26/03/2020 15:03:57": [],
        "26/03/2020 17:44:24": []
    },
    "3000": {
        "26/03/2020 12:41:23": [],
        "26/03/2020 15:03:57": [],
        "26/03/2020 17:44:25": []
    },
    "3001": {
        "26/03/2020 12:41:23": [],
        "26/03/2020 15:03:58": [],
        "26/03/2020 17:44:26": []
    },
    "3002": {
        "26/03/2020 12:41:24": [],
        "26/03/2020 15:03:58": [],
        "26/03/2020 17:44:26": []
    },
    "1166": {
        "26/03/2020 12:41:24": [],
        "26/03/2020 15:03:59": [],
        "26/03/2020 17:44:27": []
    },
    "1167": {
        "26/03/2020 12:41:25": [],
        "26/03/2020 15:03:59": [],
        "26/03/2020 17:44:27": []
    },
    "1168": {
        "26/03/2020 12:41:25": [],
        "26/03/2020 15:04:00": [],
        "26/03/2020 17:44:28": []
    },
    "1169": {
        "26/03/2020 12:41:26": [],
        "26/03/2020 15:04:00": [],
        "26/03/2020 17:44:28": []
    },
    "1170": {
        "26/03/2020 12:41:26": [],
        "26/03/2020 15:04:01": [],
        "26/03/2020 17:44:29": []
    },
    "1069": {
        "26/03/2020 12:41:27": [],
        "26/03/2020 15:04:01": [],
        "26/03/2020 17:44:29": []
    },
    "1070": {
        "26/03/2020 12:41:27": [],
        "26/03/2020 15:04:02": [],
        "26/03/2020 17:44:29": []
    },
    "1071": {
        "26/03/2020 12:41:28": [],
        "26/03/2020 15:04:02": [],
        "26/03/2020 17:44:30": []
    },
    "4528": {
        "26/03/2020 12:41:28": [],
        "26/03/2020 15:04:02": [],
        "26/03/2020 17:44:30": []
    },
    "1072": {
        "26/03/2020 12:41:29": [],
        "26/03/2020 15:04:03": [],
        "26/03/2020 17:44:31": []
    },
    "7577": {
        "26/03/2020 12:41:29": [],
        "26/03/2020 15:04:04": [],
        "26/03/2020 17:44:31": []
    },
    "1353": {
        "26/03/2020 12:41:30": [],
        "26/03/2020 15:04:04": [],
        "26/03/2020 17:44:32": []
    },
    "1354": {
        "26/03/2020 12:41:30": [],
        "26/03/2020 15:04:05": [],
        "26/03/2020 17:44:32": []
    },
    "7578": {
        "26/03/2020 12:41:31": [],
        "26/03/2020 15:04:05": [],
        "26/03/2020 17:44:33": []
    },
    "7582": {
        "26/03/2020 12:41:31": [],
        "26/03/2020 15:04:06": [],
        "26/03/2020 17:44:33": []
    },
    "297": {
        "26/03/2020 12:41:32": [],
        "26/03/2020 15:04:06": [],
        "26/03/2020 17:44:34": []
    },
    "1190": {
        "26/03/2020 12:41:32": [],
        "26/03/2020 15:04:07": [],
        "26/03/2020 17:44:34": []
    },
    "1191": {
        "26/03/2020 12:41:33": [],
        "26/03/2020 15:04:07": [],
        "26/03/2020 17:44:35": []
    },
    "1192": {
        "26/03/2020 12:41:33": [],
        "26/03/2020 15:04:08": [],
        "26/03/2020 17:44:35": []
    },
    "1193": {
        "26/03/2020 12:41:34": [],
        "26/03/2020 15:04:08": [],
        "26/03/2020 17:44:36": []
    },
    "1194": {
        "26/03/2020 12:41:34": [],
        "26/03/2020 15:04:09": [],
        "26/03/2020 17:44:36": []
    },
    "1195": {
        "26/03/2020 12:41:35": [],
        "26/03/2020 15:04:09": [],
        "26/03/2020 17:44:37": []
    },
    "235": {
        "26/03/2020 12:41:35": [],
        "26/03/2020 15:04:10": [],
        "26/03/2020 17:44:37": []
    },
    "236": {
        "26/03/2020 12:41:36": [],
        "26/03/2020 15:04:10": [],
        "26/03/2020 17:44:38": []
    },
    "255": {
        "26/03/2020 12:41:36": [],
        "26/03/2020 15:04:10": [],
        "26/03/2020 17:44:38": []
    },
    "301": {
        "26/03/2020 12:41:37": [],
        "26/03/2020 15:04:11": [],
        "26/03/2020 17:44:39": []
    },
    "675": {
        "26/03/2020 12:41:37": [],
        "26/03/2020 15:04:11": [],
        "26/03/2020 17:44:39": []
    },
    "234": {
        "26/03/2020 12:41:38": [],
        "26/03/2020 15:04:12": [],
        "26/03/2020 17:44:40": []
    },
    "248": {
        "26/03/2020 12:41:38": [],
        "26/03/2020 15:04:12": [],
        "26/03/2020 17:44:40": []
    },
    "249": {
        "26/03/2020 12:41:39": [],
        "26/03/2020 15:04:13": [],
        "26/03/2020 17:44:41": []
    },
    "615": {
        "26/03/2020 12:41:39": [],
        "26/03/2020 15:04:13": [],
        "26/03/2020 17:44:41": []
    },
    "616": {
        "26/03/2020 12:41:40": [],
        "26/03/2020 15:04:14": [],
        "26/03/2020 17:44:42": []
    },
    "617": {
        "26/03/2020 12:41:40": [],
        "26/03/2020 15:04:14": [],
        "26/03/2020 17:44:42": []
    },
    "618": {
        "26/03/2020 12:41:41": [],
        "26/03/2020 15:04:15": [],
        "26/03/2020 17:44:43": []
    },
    "619": {
        "26/03/2020 12:41:41": [],
        "26/03/2020 15:04:15": [],
        "26/03/2020 17:44:43": []
    },
    "4415": {
        "26/03/2020 12:41:42": [],
        "26/03/2020 15:04:16": [],
        "26/03/2020 17:44:44": []
    },
    "664": {
        "26/03/2020 12:41:42": [],
        "26/03/2020 15:04:16": [],
        "26/03/2020 17:44:44": []
    },
    "665": {
        "26/03/2020 12:41:43": [],
        "26/03/2020 15:04:17": [],
        "26/03/2020 17:44:45": []
    },
    "666": {
        "26/03/2020 12:41:43": [],
        "26/03/2020 15:04:17": [],
        "26/03/2020 17:44:45": []
    },
    "667": {
        "26/03/2020 12:41:44": [],
        "26/03/2020 15:04:18": [],
        "26/03/2020 17:44:46": []
    },
    "668": {
        "26/03/2020 12:41:44": [],
        "26/03/2020 15:04:18": [],
        "26/03/2020 17:44:47": []
    },
    "250": {
        "26/03/2020 12:41:45": [],
        "26/03/2020 15:04:18": [],
        "26/03/2020 17:44:47": []
    },
    "251": {
        "26/03/2020 12:41:45": [],
        "26/03/2020 15:04:19": [],
        "26/03/2020 17:44:48": []
    },
    "252": {
        "26/03/2020 12:41:46": [],
        "26/03/2020 15:04:19": [],
        "26/03/2020 17:44:48": []
    },
    "336": {
        "26/03/2020 12:41:46": [],
        "26/03/2020 15:04:20": [],
        "26/03/2020 17:44:49": []
    },
    "614": {
        "26/03/2020 12:41:47": [],
        "26/03/2020 15:04:20": [],
        "26/03/2020 17:44:49": []
    }
}