{
    "7589": {
        "25/03/2020 13:50:03": [],
        "25/03/2020 16:33:38": [],
        "25/03/2020 19:32:42": [],
        "25/03/2020 21:01:24": []
    },
    "6041": {
        "25/03/2020 13:50:04": [],
        "25/03/2020 16:33:39": [],
        "25/03/2020 19:32:42": [],
        "25/03/2020 21:01:24": []
    },
    "2826": {
        "25/03/2020 13:50:05": [],
        "25/03/2020 16:33:39": [],
        "25/03/2020 19:32:42": [],
        "25/03/2020 21:01:25": []
    },
    "2842": {
        "25/03/2020 13:50:05": [],
        "25/03/2020 16:33:40": [],
        "25/03/2020 19:32:43": [],
        "25/03/2020 21:01:25": []
    },
    "2843": {
        "25/03/2020 13:50:06": [],
        "25/03/2020 16:33:40": [],
        "25/03/2020 19:32:43": [],
        "25/03/2020 21:01:25": []
    },
    "2844": {
        "25/03/2020 13:50:07": [],
        "25/03/2020 16:33:41": [],
        "25/03/2020 19:32:43": [],
        "25/03/2020 21:01:26": []
    },
    "2845": {
        "25/03/2020 13:50:07": [],
        "25/03/2020 16:33:41": [],
        "25/03/2020 19:32:44": [],
        "25/03/2020 21:01:26": []
    },
    "2846": {
        "25/03/2020 13:50:08": [],
        "25/03/2020 16:33:42": [],
        "25/03/2020 19:32:44": [],
        "25/03/2020 21:01:27": []
    },
    "2847": {
        "25/03/2020 13:50:09": [],
        "25/03/2020 16:33:42": [],
        "25/03/2020 19:32:44": [],
        "25/03/2020 21:01:27": []
    },
    "4397": {
        "25/03/2020 13:50:09": [],
        "25/03/2020 16:33:43": [],
        "25/03/2020 19:32:45": [],
        "25/03/2020 21:01:28": []
    },
    "2848": {
        "25/03/2020 13:50:10": [],
        "25/03/2020 16:33:43": [],
        "25/03/2020 19:32:45": [],
        "25/03/2020 21:01:28": []
    },
    "2849": {
        "25/03/2020 13:50:10": [],
        "25/03/2020 16:33:44": [],
        "25/03/2020 19:32:45": [],
        "25/03/2020 21:01:29": []
    },
    "2850": {
        "25/03/2020 13:50:11": [],
        "25/03/2020 16:33:45": [],
        "25/03/2020 19:32:46": [],
        "25/03/2020 21:01:29": []
    },
    "2851": {
        "25/03/2020 13:50:11": [],
        "25/03/2020 16:33:46": [],
        "25/03/2020 19:32:46": [],
        "25/03/2020 21:01:30": []
    },
    "2852": {
        "25/03/2020 13:50:12": [],
        "25/03/2020 16:33:47": [],
        "25/03/2020 19:32:46": [],
        "25/03/2020 21:01:30": []
    },
    "4707": {
        "25/03/2020 13:50:13": [],
        "25/03/2020 16:33:48": [],
        "25/03/2020 19:32:46": [],
        "25/03/2020 21:01:31": []
    },
    "4708": {
        "25/03/2020 13:50:13": [],
        "25/03/2020 16:33:48": [],
        "25/03/2020 19:32:47": [],
        "25/03/2020 21:01:31": []
    },
    "4336": {
        "25/03/2020 13:50:14": [],
        "25/03/2020 16:33:49": [],
        "25/03/2020 19:32:47": [],
        "25/03/2020 21:01:31": []
    },
    "1051": {
        "25/03/2020 13:50:15": [],
        "25/03/2020 16:33:50": [],
        "25/03/2020 19:32:48": [],
        "25/03/2020 21:01:32": []
    },
    "1052": {
        "25/03/2020 13:50:15": [],
        "25/03/2020 16:33:50": [],
        "25/03/2020 19:32:48": [],
        "25/03/2020 21:01:32": []
    },
    "1053": {
        "25/03/2020 13:50:16": [],
        "25/03/2020 16:33:51": [],
        "25/03/2020 19:32:48": [],
        "25/03/2020 21:01:32": []
    },
    "1054": {
        "25/03/2020 13:50:16": [],
        "25/03/2020 16:33:52": [],
        "25/03/2020 19:32:48": [],
        "25/03/2020 21:01:33": []
    },
    "1036": {
        "25/03/2020 13:50:17": [],
        "25/03/2020 16:33:52": [],
        "25/03/2020 19:32:49": [],
        "25/03/2020 21:01:33": []
    },
    "4709": {
        "25/03/2020 13:50:17": [],
        "25/03/2020 16:33:53": [],
        "25/03/2020 19:32:49": [],
        "25/03/2020 21:01:33": []
    },
    "1037": {
        "25/03/2020 13:50:18": [],
        "25/03/2020 16:33:53": [],
        "25/03/2020 19:32:49": [],
        "25/03/2020 21:01:33": []
    },
    "1038": {
        "25/03/2020 13:50:19": [],
        "25/03/2020 16:33:54": [],
        "25/03/2020 19:32:50": [],
        "25/03/2020 21:01:34": []
    },
    "2998": {
        "25/03/2020 13:50:19": [],
        "25/03/2020 16:33:55": [],
        "25/03/2020 19:32:50": [],
        "25/03/2020 21:01:34": []
    },
    "2999": {
        "25/03/2020 13:50:20": [],
        "25/03/2020 16:33:56": [],
        "25/03/2020 19:32:50": [],
        "25/03/2020 21:01:34": []
    },
    "3000": {
        "25/03/2020 13:50:20": [],
        "25/03/2020 16:33:57": [],
        "25/03/2020 19:32:51": [],
        "25/03/2020 21:01:34": []
    },
    "3001": {
        "25/03/2020 13:50:21": [],
        "25/03/2020 16:33:57": [],
        "25/03/2020 19:32:51": [],
        "25/03/2020 21:01:35": []
    },
    "3002": {
        "25/03/2020 13:50:22": [],
        "25/03/2020 16:33:58": [],
        "25/03/2020 19:32:51": [],
        "25/03/2020 21:01:35": []
    },
    "1166": {
        "25/03/2020 13:50:22": [],
        "25/03/2020 16:33:59": [],
        "25/03/2020 19:32:52": [],
        "25/03/2020 21:01:36": []
    },
    "1167": {
        "25/03/2020 13:50:23": [],
        "25/03/2020 16:34:00": [],
        "25/03/2020 19:32:52": [],
        "25/03/2020 21:01:36": []
    },
    "1168": {
        "25/03/2020 13:50:24": [],
        "25/03/2020 16:34:01": [],
        "25/03/2020 19:32:52": [],
        "25/03/2020 21:01:36": []
    },
    "1169": {
        "25/03/2020 13:50:24": [],
        "25/03/2020 16:34:02": [],
        "25/03/2020 19:32:53": [],
        "25/03/2020 21:01:36": []
    },
    "1170": {
        "25/03/2020 13:50:25": [],
        "25/03/2020 16:34:03": [],
        "25/03/2020 19:32:53": [],
        "25/03/2020 21:01:37": []
    },
    "1069": {
        "25/03/2020 13:50:26": [],
        "25/03/2020 16:34:03": [],
        "25/03/2020 19:32:53": [],
        "25/03/2020 21:01:37": []
    },
    "1070": {
        "25/03/2020 13:50:26": [],
        "25/03/2020 16:34:04": [],
        "25/03/2020 19:32:54": [],
        "25/03/2020 21:01:37": []
    },
    "1071": {
        "25/03/2020 13:50:27": [],
        "25/03/2020 16:34:05": [],
        "25/03/2020 19:32:54": [],
        "25/03/2020 21:01:38": []
    },
    "4528": {
        "25/03/2020 13:50:28": [],
        "25/03/2020 16:34:05": [],
        "25/03/2020 19:32:54": [],
        "25/03/2020 21:01:38": []
    },
    "1072": {
        "25/03/2020 13:50:28": [],
        "25/03/2020 16:34:06": [],
        "25/03/2020 19:32:54": [],
        "25/03/2020 21:01:38": []
    },
    "7577": {
        "25/03/2020 13:50:29": [],
        "25/03/2020 16:34:06": [],
        "25/03/2020 19:32:55": [],
        "25/03/2020 21:01:38": []
    },
    "1353": {
        "25/03/2020 13:50:30": [],
        "25/03/2020 16:34:07": [],
        "25/03/2020 19:32:55": [],
        "25/03/2020 21:01:39": []
    },
    "1354": {
        "25/03/2020 13:50:30": [],
        "25/03/2020 16:34:07": [],
        "25/03/2020 19:32:55": [],
        "25/03/2020 21:01:39": []
    },
    "7578": {
        "25/03/2020 13:50:31": [],
        "25/03/2020 16:34:08": [],
        "25/03/2020 19:32:56": [],
        "25/03/2020 21:01:39": []
    },
    "7582": {
        "25/03/2020 13:50:31": [],
        "25/03/2020 16:34:09": [],
        "25/03/2020 19:32:56": [],
        "25/03/2020 21:01:39": []
    },
    "297": {
        "25/03/2020 13:50:32": [],
        "25/03/2020 16:34:09": [],
        "25/03/2020 19:32:56": [],
        "25/03/2020 21:01:40": []
    },
    "1190": {
        "25/03/2020 13:50:33": [],
        "25/03/2020 16:34:10": [],
        "25/03/2020 19:32:57": [],
        "25/03/2020 21:01:40": []
    },
    "1191": {
        "25/03/2020 13:50:33": [],
        "25/03/2020 16:34:11": [],
        "25/03/2020 19:32:57": [],
        "25/03/2020 21:01:40": []
    },
    "1192": {
        "25/03/2020 13:50:34": [],
        "25/03/2020 16:34:11": [],
        "25/03/2020 19:32:57": [],
        "25/03/2020 21:01:41": []
    },
    "1193": {
        "25/03/2020 13:50:35": [],
        "25/03/2020 16:34:12": [],
        "25/03/2020 19:32:57": [],
        "25/03/2020 21:01:41": []
    },
    "1194": {
        "25/03/2020 13:50:36": [],
        "25/03/2020 16:34:12": [],
        "25/03/2020 19:32:58": [],
        "25/03/2020 21:01:41": []
    },
    "1195": {
        "25/03/2020 13:50:36": [],
        "25/03/2020 16:34:13": [],
        "25/03/2020 19:32:58": [],
        "25/03/2020 21:01:41": []
    },
    "235": {
        "25/03/2020 13:50:37": [],
        "25/03/2020 16:34:13": [],
        "25/03/2020 19:32:58": [],
        "25/03/2020 21:01:42": []
    },
    "236": {
        "25/03/2020 13:50:38": [],
        "25/03/2020 16:34:14": [],
        "25/03/2020 19:32:59": [],
        "25/03/2020 21:01:42": []
    },
    "255": {
        "25/03/2020 13:50:38": [],
        "25/03/2020 16:34:14": [],
        "25/03/2020 19:32:59": [],
        "25/03/2020 21:01:42": []
    },
    "301": {
        "25/03/2020 13:50:39": [],
        "25/03/2020 16:34:15": [],
        "25/03/2020 19:32:59": [],
        "25/03/2020 21:01:43": []
    },
    "675": {
        "25/03/2020 13:50:40": [],
        "25/03/2020 16:34:15": [],
        "25/03/2020 19:33:00": [],
        "25/03/2020 21:01:43": []
    },
    "234": {
        "25/03/2020 13:50:41": [],
        "25/03/2020 16:34:16": [],
        "25/03/2020 19:33:00": [],
        "25/03/2020 21:01:43": []
    },
    "248": {
        "25/03/2020 13:50:41": [],
        "25/03/2020 16:34:16": [],
        "25/03/2020 19:33:01": [],
        "25/03/2020 21:01:43": []
    },
    "249": {
        "25/03/2020 13:50:42": [],
        "25/03/2020 16:34:17": [],
        "25/03/2020 19:33:01": [],
        "25/03/2020 21:01:44": []
    },
    "615": {
        "25/03/2020 13:50:42": [],
        "25/03/2020 16:34:17": [],
        "25/03/2020 19:33:01": [],
        "25/03/2020 21:01:44": []
    },
    "616": {
        "25/03/2020 13:50:43": [],
        "25/03/2020 16:34:18": [],
        "25/03/2020 19:33:01": [],
        "25/03/2020 21:01:44": []
    },
    "617": {
        "25/03/2020 13:50:44": [],
        "25/03/2020 16:34:18": [],
        "25/03/2020 19:33:02": [],
        "25/03/2020 21:01:45": []
    },
    "618": {
        "25/03/2020 13:50:45": [],
        "25/03/2020 16:34:19": [],
        "25/03/2020 19:33:02": [],
        "25/03/2020 21:01:45": []
    },
    "619": {
        "25/03/2020 13:50:46": [],
        "25/03/2020 16:34:19": [],
        "25/03/2020 19:33:02": [],
        "25/03/2020 21:01:45": []
    },
    "4415": {
        "25/03/2020 13:50:47": [],
        "25/03/2020 16:34:20": [],
        "25/03/2020 19:33:03": [],
        "25/03/2020 21:01:46": []
    },
    "664": {
        "25/03/2020 13:50:47": [],
        "25/03/2020 16:34:20": [],
        "25/03/2020 19:33:03": [],
        "25/03/2020 21:01:46": []
    },
    "665": {
        "25/03/2020 13:50:48": [],
        "25/03/2020 16:34:21": [],
        "25/03/2020 19:33:03": [],
        "25/03/2020 21:01:46": []
    },
    "666": {
        "25/03/2020 13:50:48": [],
        "25/03/2020 16:34:21": [],
        "25/03/2020 19:33:04": [],
        "25/03/2020 21:01:46": []
    },
    "667": {
        "25/03/2020 13:50:49": [],
        "25/03/2020 16:34:22": [],
        "25/03/2020 19:33:04": [],
        "25/03/2020 21:01:47": []
    },
    "668": {
        "25/03/2020 13:50:50": [],
        "25/03/2020 16:34:22": [],
        "25/03/2020 19:33:04": [],
        "25/03/2020 21:01:47": []
    },
    "250": {
        "25/03/2020 13:50:50": [],
        "25/03/2020 16:34:23": [],
        "25/03/2020 19:33:04": [],
        "25/03/2020 21:01:47": []
    },
    "251": {
        "25/03/2020 13:50:51": [],
        "25/03/2020 16:34:23": [],
        "25/03/2020 19:33:05": [],
        "25/03/2020 21:01:48": []
    },
    "252": {
        "25/03/2020 13:50:52": [],
        "25/03/2020 16:34:24": [],
        "25/03/2020 19:33:05": [],
        "25/03/2020 21:01:48": []
    },
    "336": {
        "25/03/2020 13:50:52": [],
        "25/03/2020 16:34:25": [],
        "25/03/2020 19:33:05": [],
        "25/03/2020 21:01:48": []
    },
    "614": {
        "25/03/2020 13:50:58": [],
        "25/03/2020 16:34:25": [],
        "25/03/2020 19:33:06": [],
        "25/03/2020 21:01:48": []
    }
}