{
    "1791": {
        "20/03/2020 17:19:17": [
            0,
            0
        ],
        "20/03/2020 21:45:20": [
            0
        ]
    },
    "1792": {
        "20/03/2020 17:19:17": [
            20,
            21
        ],
        "20/03/2020 21:45:20": [
            2
        ]
    },
    "1793": {
        "20/03/2020 17:19:17": [
            -7,
            -5
        ],
        "20/03/2020 21:45:20": [
            27
        ]
    },
    "962": {
        "20/03/2020 17:19:42": [
            -12,
            -9
        ],
        "20/03/2020 21:45:21": [
            10
        ],
        "20/03/2020 21:45:44": [
            10
        ]
    },
    "635": {
        "20/03/2020 17:19:43": [
            -28
        ],
        "20/03/2020 21:45:21": [
            -18
        ],
        "20/03/2020 21:45:44": [
            -18
        ]
    },
    "636": {
        "20/03/2020 17:19:43": [
            -5,
            -1
        ],
        "20/03/2020 21:45:21": [
            3
        ],
        "20/03/2020 21:45:44": [
            3
        ]
    },
    "637": {
        "20/03/2020 17:19:43": [
            -20,
            -17
        ],
        "20/03/2020 21:45:21": [
            -22
        ],
        "20/03/2020 21:45:44": [
            -22
        ]
    },
    "638": {
        "20/03/2020 17:19:43": [
            1,
            5
        ],
        "20/03/2020 21:45:22": [
            -5
        ],
        "20/03/2020 21:45:45": [
            -5
        ]
    },
    "639": {
        "20/03/2020 17:19:44": [
            24,
            28
        ],
        "20/03/2020 21:45:22": [
            13
        ],
        "20/03/2020 21:45:45": [
            13
        ]
    },
    "640": {
        "20/03/2020 17:19:44": [
            3,
            7
        ],
        "20/03/2020 21:45:22": [
            -16
        ],
        "20/03/2020 21:45:45": [
            -16
        ]
    },
    "641": {
        "20/03/2020 17:19:44": [
            20,
            24
        ],
        "20/03/2020 21:45:22": [
            -2
        ],
        "20/03/2020 21:45:46": [
            -2
        ]
    },
    "642": {
        "20/03/2020 17:19:45": [
            -11,
            -7
        ],
        "20/03/2020 21:45:23": [
            21
        ],
        "20/03/2020 21:45:46": [
            21
        ]
    },
    "643": {
        "20/03/2020 17:19:45": [
            19,
            24
        ],
        "20/03/2020 21:45:23": [
            -16
        ],
        "20/03/2020 21:45:46": [
            -16
        ]
    },
    "644": {
        "20/03/2020 17:19:45": [
            -15,
            -10
        ],
        "20/03/2020 21:45:23": [
            5
        ],
        "20/03/2020 21:45:46": [
            5
        ]
    },
    "645": {
        "20/03/2020 17:19:45": [
            -27,
            -22
        ],
        "20/03/2020 21:45:23": [
            -17
        ],
        "20/03/2020 21:45:47": [
            -17
        ]
    },
    "1796": {
        "20/03/2020 17:19:46": [
            20,
            28
        ],
        "20/03/2020 21:45:24": [
            26
        ],
        "20/03/2020 21:45:47": [
            26
        ]
    },
    "1797": {
        "20/03/2020 17:19:46": [
            -15,
            -5
        ],
        "20/03/2020 21:45:24": [
            -11
        ],
        "20/03/2020 21:45:47": [
            -11
        ]
    },
    "1798": {
        "20/03/2020 17:19:46": [
            23,
            -26
        ],
        "20/03/2020 21:45:24": [
            23
        ],
        "20/03/2020 21:45:48": [
            23
        ]
    },
    "1799": {
        "20/03/2020 17:19:47": [
            -12,
            2
        ],
        "20/03/2020 21:45:25": [
            -14
        ],
        "20/03/2020 21:45:48": [
            -14
        ]
    },
    "1800": {
        "20/03/2020 17:19:47": [
            15,
            -30
        ],
        "20/03/2020 21:45:25": [
            11
        ],
        "20/03/2020 21:45:48": [
            11
        ]
    },
    "1801": {
        "20/03/2020 17:19:47": [
            -1,
            15
        ],
        "20/03/2020 21:45:25": [
            -22
        ],
        "20/03/2020 21:45:48": [
            -22
        ]
    },
    "1277": {
        "20/03/2020 17:19:48": [
            2,
            19
        ],
        "20/03/2020 21:45:25": [
            18
        ],
        "20/03/2020 21:45:49": [
            18
        ]
    },
    "1219": {
        "20/03/2020 17:19:48": [
            -29,
            -10
        ],
        "20/03/2020 21:45:26": [
            -21
        ],
        "20/03/2020 21:45:49": [
            -21
        ]
    },
    "1220": {
        "20/03/2020 17:19:48": [
            22,
            -13
        ],
        "20/03/2020 21:45:26": [
            18
        ],
        "20/03/2020 21:45:49": [
            18
        ]
    },
    "1221": {
        "20/03/2020 17:19:48": [
            19,
            -23
        ],
        "20/03/2020 21:45:26": [
            8
        ],
        "20/03/2020 21:45:50": [
            8
        ]
    },
    "664": {
        "20/03/2020 17:19:49": [
            17,
            27
        ],
        "20/03/2020 21:45:27": [
            -1
        ],
        "20/03/2020 21:45:50": [
            -1
        ]
    },
    "665": {
        "20/03/2020 17:19:49": [
            -7,
            -4
        ],
        "20/03/2020 21:45:27": [
            27
        ],
        "20/03/2020 21:45:50": [
            27
        ]
    },
    "666": {
        "20/03/2020 17:19:49": [
            -30,
            25
        ],
        "20/03/2020 21:45:27": [
            -5
        ],
        "20/03/2020 21:45:50": [
            -5
        ]
    },
    "667": {
        "20/03/2020 17:19:50": [
            8,
            -4
        ],
        "20/03/2020 21:45:28": [
            97
        ],
        "20/03/2020 21:45:51": []
    },
    "668": {
        "20/03/2020 17:19:50": [
            13
        ],
        "20/03/2020 21:45:29": [
            97
        ],
        "20/03/2020 21:45:51": [
            97
        ]
    },
    "614": {
        "20/03/2020 17:19:50": [
            2
        ],
        "20/03/2020 21:45:29": [
            81
        ],
        "20/03/2020 21:45:51": [
            81
        ]
    },
    "615": {
        "20/03/2020 17:19:51": [
            -7
        ],
        "20/03/2020 21:45:29": [
            61
        ],
        "20/03/2020 21:45:52": [
            61
        ]
    },
    "616": {
        "20/03/2020 17:19:51": [
            -24
        ],
        "20/03/2020 21:45:29": [
            95
        ],
        "20/03/2020 21:45:52": [
            95
        ]
    },
    "617": {
        "20/03/2020 17:19:51": [
            24
        ],
        "20/03/2020 21:45:30": [
            68
        ],
        "20/03/2020 21:45:52": [
            68
        ]
    },
    "618": {
        "20/03/2020 17:19:52": [
            12
        ],
        "20/03/2020 21:45:30": [
            101
        ],
        "20/03/2020 21:45:52": [
            101
        ]
    },
    "619": {
        "20/03/2020 17:19:52": [
            2
        ],
        "20/03/2020 21:45:30": [
            80
        ],
        "20/03/2020 21:45:53": [
            80
        ]
    },
    "675": {
        "20/03/2020 17:19:52": [
            29
        ],
        "20/03/2020 21:45:31": [
            102
        ],
        "20/03/2020 21:45:53": [
            102
        ]
    },
    "620": {
        "20/03/2020 17:19:52": [
            -9
        ],
        "20/03/2020 21:45:31": [
            71
        ],
        "20/03/2020 21:45:53": [
            71
        ]
    },
    "7568": {
        "20/03/2020 17:19:53": [],
        "20/03/2020 21:45:31": [],
        "20/03/2020 21:45:53": []
    },
    "300": {
        "20/03/2020 17:19:29": [
            0,
            0
        ],
        "20/03/2020 21:45:31": [
            0
        ]
    },
    "496": {
        "20/03/2020 17:19:29": [
            -21,
            -21
        ],
        "20/03/2020 21:45:32": [
            24,
            24
        ]
    },
    "497": {
        "20/03/2020 17:19:30": [
            -15
        ],
        "20/03/2020 21:45:32": [
            3,
            3
        ]
    },
    "515": {
        "20/03/2020 17:19:30": [
            -18
        ],
        "20/03/2020 21:45:32": [
            16,
            16
        ]
    },
    "516": {
        "20/03/2020 17:19:30": [
            12
        ],
        "20/03/2020 21:45:32": [
            12,
            12
        ]
    },
    "4384": {
        "20/03/2020 17:19:31": [
            18
        ],
        "20/03/2020 21:45:33": [
            -7,
            -7
        ]
    },
    "519": {
        "20/03/2020 17:19:31": [
            -21
        ],
        "20/03/2020 21:45:33": [
            -15,
            -15
        ]
    },
    "521": {
        "20/03/2020 17:19:31": [
            23
        ],
        "20/03/2020 21:45:33": [
            11,
            11
        ]
    },
    "522": {
        "20/03/2020 17:19:32": [
            25
        ],
        "20/03/2020 21:45:34": [
            -10,
            -10
        ]
    },
    "523": {
        "20/03/2020 17:19:32": [
            -10
        ],
        "20/03/2020 21:45:34": [
            27,
            27
        ]
    },
    "669": {
        "20/03/2020 17:19:32": [
            -11,
            11
        ],
        "20/03/2020 21:45:34": [
            12,
            12
        ]
    },
    "670": {
        "20/03/2020 17:19:33": [
            -31,
            28
        ],
        "20/03/2020 21:45:34": [
            -5,
            -5
        ]
    },
    "671": {
        "20/03/2020 17:19:33": [
            -50,
            8
        ],
        "20/03/2020 21:45:35": [
            22,
            22
        ]
    },
    "672": {
        "20/03/2020 17:19:33": [
            -43,
            11
        ],
        "20/03/2020 21:45:35": [
            5,
            5
        ]
    },
    "4382": {
        "20/03/2020 17:19:33": [
            -9,
            -16
        ],
        "20/03/2020 21:45:35": [
            27,
            27
        ]
    },
    "1196": {
        "20/03/2020 17:19:34": [
            -23,
            17
        ],
        "20/03/2020 21:45:36": [
            26,
            26
        ]
    },
    "1197": {
        "20/03/2020 17:19:34": [
            -32,
            2
        ],
        "20/03/2020 21:45:36": [
            -5,
            -5
        ]
    },
    "1198": {
        "20/03/2020 17:19:34": [
            -1,
            -23
        ],
        "20/03/2020 21:45:36": [
            -5,
            -5
        ]
    },
    "4782": {
        "20/03/2020 17:19:35": [
            -37,
            0
        ],
        "20/03/2020 21:45:36": [
            -16,
            -16
        ]
    },
    "1782": {
        "20/03/2020 17:19:35": [
            -23,
            12
        ],
        "20/03/2020 21:45:37": [
            28
        ]
    },
    "1783": {
        "20/03/2020 17:19:35": [
            -38,
            -6
        ],
        "20/03/2020 21:45:37": [
            1
        ]
    },
    "1784": {
        "20/03/2020 17:19:36": [
            6,
            -26
        ],
        "20/03/2020 21:45:37": [
            -27
        ]
    },
    "1785": {
        "20/03/2020 17:19:36": [
            -3,
            22
        ],
        "20/03/2020 21:45:38": [
            11
        ]
    },
    "1786": {
        "20/03/2020 17:19:36": [
            -41,
            -18
        ],
        "20/03/2020 21:45:38": [
            28
        ]
    },
    "624": {
        "20/03/2020 17:19:36": [
            -32,
            -14
        ],
        "20/03/2020 21:45:38": [
            19
        ]
    },
    "625": {
        "20/03/2020 17:19:37": [
            -36,
            -28
        ],
        "20/03/2020 21:45:38": [
            -2
        ]
    },
    "626": {
        "20/03/2020 17:19:37": [
            -12,
            -19
        ],
        "20/03/2020 21:45:39": [
            -4
        ]
    },
    "627": {
        "20/03/2020 17:19:37": [
            -28,
            18
        ],
        "20/03/2020 21:45:39": [
            27
        ]
    },
    "628": {
        "20/03/2020 17:19:38": [
            -43,
            -6
        ],
        "20/03/2020 21:45:39": [
            -3
        ]
    },
    "629": {
        "20/03/2020 17:19:38": [
            -7,
            24
        ],
        "20/03/2020 21:45:39": [
            23
        ]
    },
    "630": {
        "20/03/2020 17:19:38": [
            -6,
            14
        ],
        "20/03/2020 21:45:40": [
            5
        ]
    },
    "4466": {
        "20/03/2020 17:19:39": [
            -31,
            -17
        ],
        "20/03/2020 21:45:40": [
            29
        ]
    },
    "633": {
        "20/03/2020 17:19:39": [
            -52,
            15
        ],
        "20/03/2020 21:45:40": [
            -4
        ]
    },
    "634": {
        "20/03/2020 17:19:39": [
            -29,
            24
        ],
        "20/03/2020 21:45:41": [
            -6
        ]
    },
    "1005": {
        "20/03/2020 17:19:40": [
            -46,
            -1
        ],
        "20/03/2020 21:45:41": [
            24
        ]
    },
    "1788": {
        "20/03/2020 17:19:40": [
            -50,
            -9
        ],
        "20/03/2020 21:45:41": [
            3
        ]
    },
    "1789": {
        "20/03/2020 17:19:40": [
            -49,
            -12
        ],
        "20/03/2020 21:45:41": [
            -14
        ]
    },
    "7199": {
        "20/03/2020 17:19:40": [],
        "20/03/2020 21:45:42": []
    },
    "956": {
        "20/03/2020 17:19:41": [],
        "20/03/2020 21:45:42": []
    },
    "957": {
        "20/03/2020 17:19:41": [],
        "20/03/2020 21:45:42": []
    },
    "958": {
        "20/03/2020 17:19:41": [],
        "20/03/2020 21:45:42": []
    },
    "959": {
        "20/03/2020 17:19:41": [],
        "20/03/2020 21:45:43": []
    },
    "960": {
        "20/03/2020 17:19:42": [],
        "20/03/2020 21:45:43": []
    },
    "961": {
        "20/03/2020 17:19:42": [],
        "20/03/2020 21:45:43": []
    }
}