{
    "overall_punctuality": -48374,
    "overall_num": 2604,
    "overall_avg": -18,
    "daily_punctuality": {
        "Sunday": {
            "num_results": 243,
            "total": 959,
            "avg:": 0,
            "avg": 4
        },
        "Monday": {
            "num_results": 334,
            "total": 7697,
            "avg:": 0,
            "avg": 24
        },
        "Tuesday": {
            "num_results": 431,
            "total": -41521,
            "avg:": 0,
            "avg": -96
        },
        "Wednesday": {
            "num_results": 414,
            "total": 20826,
            "avg:": 0,
            "avg": 51
        },
        "Thursday": {
            "num_results": 376,
            "total": 9791,
            "avg:": 0,
            "avg": 27
        },
        "Friday": {
            "num_results": 225,
            "total": 3778,
            "avg:": 0,
            "avg": 17
        },
        "Saturday": {
            "num_results": 581,
            "total": -49904,
            "avg:": 0,
            "avg": -85
        }
    }
}