{
    "1171": {
        "27/03/2020 14:20:13": [],
        "27/03/2020 18:03:40": []
    },
    "1172": {
        "27/03/2020 14:20:14": [],
        "27/03/2020 18:03:40": []
    },
    "1173": {
        "27/03/2020 14:20:14": [],
        "27/03/2020 18:03:40": []
    },
    "1174": {
        "27/03/2020 14:20:15": [],
        "27/03/2020 18:03:41": []
    },
    "1175": {
        "27/03/2020 14:20:15": [],
        "27/03/2020 18:03:41": []
    },
    "15": {
        "27/03/2020 14:20:16": [],
        "27/03/2020 18:03:41": []
    },
    "17": {
        "27/03/2020 14:20:17": [],
        "27/03/2020 18:03:42": []
    },
    "18": {
        "27/03/2020 14:20:17": [],
        "27/03/2020 18:03:42": []
    },
    "19": {
        "27/03/2020 14:20:18": [],
        "27/03/2020 18:03:42": []
    },
    "21": {
        "27/03/2020 14:20:18": [],
        "27/03/2020 18:03:42": []
    },
    "7602": {
        "27/03/2020 14:20:19": [],
        "27/03/2020 18:03:43": []
    },
    "85": {
        "27/03/2020 14:20:19": [],
        "27/03/2020 18:03:43": []
    },
    "203": {
        "27/03/2020 14:20:20": [],
        "27/03/2020 18:03:43": []
    },
    "204": {
        "27/03/2020 14:20:21": [],
        "27/03/2020 18:03:44": []
    },
    "205": {
        "27/03/2020 14:20:21": [],
        "27/03/2020 18:03:44": []
    },
    "1620": {
        "27/03/2020 14:20:22": [],
        "27/03/2020 18:03:44": []
    },
    "220": {
        "27/03/2020 14:20:22": [],
        "27/03/2020 18:03:44": []
    },
    "1622": {
        "27/03/2020 14:20:23": [],
        "27/03/2020 18:03:45": []
    },
    "1623": {
        "27/03/2020 14:20:24": [],
        "27/03/2020 18:03:45": []
    },
    "1624": {
        "27/03/2020 14:20:24": [],
        "27/03/2020 18:03:45": []
    },
    "1625": {
        "27/03/2020 14:20:25": [],
        "27/03/2020 18:03:46": []
    },
    "1626": {
        "27/03/2020 14:20:25": [],
        "27/03/2020 18:03:46": []
    },
    "1627": {
        "27/03/2020 14:20:26": [],
        "27/03/2020 18:03:46": []
    },
    "1628": {
        "27/03/2020 14:20:27": [],
        "27/03/2020 18:03:46": []
    },
    "1629": {
        "27/03/2020 14:20:27": [],
        "27/03/2020 18:03:47": []
    },
    "1630": {
        "27/03/2020 14:20:27": [],
        "27/03/2020 18:03:47": []
    },
    "3670": {
        "27/03/2020 14:20:28": [],
        "27/03/2020 18:03:47": []
    },
    "3671": {
        "27/03/2020 14:20:29": [],
        "27/03/2020 18:03:48": []
    },
    "3672": {
        "27/03/2020 14:20:29": [],
        "27/03/2020 18:03:48": []
    },
    "3674": {
        "27/03/2020 14:20:30": [],
        "27/03/2020 18:03:48": []
    },
    "3675": {
        "27/03/2020 14:20:30": [],
        "27/03/2020 18:03:48": []
    },
    "3676": {
        "27/03/2020 14:20:31": [],
        "27/03/2020 18:03:49": []
    },
    "5073": {
        "27/03/2020 14:20:32": [],
        "27/03/2020 18:03:49": []
    },
    "5074": {
        "27/03/2020 14:20:32": [],
        "27/03/2020 18:03:49": []
    },
    "6054": {
        "27/03/2020 14:20:33": [],
        "27/03/2020 18:03:50": []
    },
    "4330": {
        "27/03/2020 14:20:33": [],
        "27/03/2020 18:03:50": []
    },
    "3679": {
        "27/03/2020 14:20:34": [],
        "27/03/2020 18:03:50": []
    },
    "3711": {
        "27/03/2020 14:20:35": [],
        "27/03/2020 18:03:50": []
    },
    "7189": {
        "27/03/2020 14:20:35": [],
        "27/03/2020 18:03:51": []
    },
    "5044": {
        "27/03/2020 14:20:36": [],
        "27/03/2020 18:03:51": []
    },
    "3751": {
        "27/03/2020 14:20:36": [],
        "27/03/2020 18:03:51": []
    },
    "3689": {
        "27/03/2020 14:20:37": [],
        "27/03/2020 18:03:52": []
    },
    "3690": {
        "27/03/2020 14:20:37": [],
        "27/03/2020 18:03:52": []
    },
    "6117": {
        "27/03/2020 14:20:38": [],
        "27/03/2020 18:03:52": []
    },
    "5079": {
        "27/03/2020 14:20:39": [],
        "27/03/2020 18:03:52": []
    },
    "3694": {
        "27/03/2020 14:20:39": [],
        "27/03/2020 18:03:53": []
    },
    "3695": {
        "27/03/2020 14:20:40": [],
        "27/03/2020 18:03:53": []
    },
    "3696": {
        "27/03/2020 14:20:40": [],
        "27/03/2020 18:03:53": []
    },
    "3697": {
        "27/03/2020 14:20:41": [],
        "27/03/2020 18:03:53": []
    },
    "3698": {
        "27/03/2020 14:20:42": [],
        "27/03/2020 18:03:54": []
    },
    "3699": {
        "27/03/2020 14:20:42": [],
        "27/03/2020 18:03:54": []
    },
    "3885": {
        "27/03/2020 14:20:43": [],
        "27/03/2020 18:03:54": []
    },
    "1631": {
        "27/03/2020 14:20:43": [],
        "27/03/2020 18:03:55": []
    },
    "1632": {
        "27/03/2020 14:20:44": [],
        "27/03/2020 18:03:55": []
    },
    "5053": {
        "27/03/2020 14:20:45": [],
        "27/03/2020 18:03:55": []
    },
    "1633": {
        "27/03/2020 14:20:45": [],
        "27/03/2020 18:03:56": []
    },
    "1634": {
        "27/03/2020 14:20:46": [],
        "27/03/2020 18:03:56": []
    },
    "1635": {
        "27/03/2020 14:20:47": [],
        "27/03/2020 18:03:56": []
    },
    "1636": {
        "27/03/2020 14:20:47": [],
        "27/03/2020 18:03:56": []
    },
    "1637": {
        "27/03/2020 14:20:48": [],
        "27/03/2020 18:03:57": []
    },
    "1638": {
        "27/03/2020 14:20:48": [],
        "27/03/2020 18:03:57": []
    },
    "1639": {
        "27/03/2020 14:20:49": [],
        "27/03/2020 18:03:57": []
    },
    "1640": {
        "27/03/2020 14:20:50": [],
        "27/03/2020 18:03:58": []
    },
    "231": {
        "27/03/2020 14:20:50": [],
        "27/03/2020 18:03:58": []
    },
    "1641": {
        "27/03/2020 14:20:51": [],
        "27/03/2020 18:03:58": []
    },
    "1642": {
        "27/03/2020 14:20:52": [],
        "27/03/2020 18:03:58": []
    },
    "213": {
        "27/03/2020 14:20:52": [],
        "27/03/2020 18:03:59": []
    },
    "214": {
        "27/03/2020 14:20:53": [],
        "27/03/2020 18:03:59": []
    },
    "4432": {
        "27/03/2020 14:20:54": [],
        "27/03/2020 18:03:59": []
    },
    "119": {
        "27/03/2020 14:20:54": [],
        "27/03/2020 18:04:00": []
    },
    "44": {
        "27/03/2020 14:20:55": [],
        "27/03/2020 18:04:00": []
    },
    "7603": {
        "27/03/2020 14:20:55": [],
        "27/03/2020 18:04:00": []
    },
    "45": {
        "27/03/2020 14:20:56": [],
        "27/03/2020 18:04:00": []
    },
    "46": {
        "27/03/2020 14:20:57": [],
        "27/03/2020 18:04:01": []
    },
    "47": {
        "27/03/2020 14:20:57": [],
        "27/03/2020 18:04:01": []
    },
    "48": {
        "27/03/2020 14:20:58": [],
        "27/03/2020 18:04:01": []
    },
    "49": {
        "27/03/2020 14:20:59": [],
        "27/03/2020 18:04:02": []
    },
    "51": {
        "27/03/2020 14:20:59": [],
        "27/03/2020 18:04:02": []
    },
    "52": {
        "27/03/2020 14:21:00": [],
        "27/03/2020 18:04:02": []
    },
    "277": {
        "27/03/2020 14:21:00": [],
        "27/03/2020 18:04:03": []
    },
    "288": {
        "27/03/2020 14:21:01": [],
        "27/03/2020 18:04:03": []
    }
}