{
    "337": {
        "27/03/2020 10:58:03": [],
        "27/03/2020 13:13:39": [],
        "27/03/2020 17:06:51": []
    },
    "4495": {
        "27/03/2020 10:58:04": [
            0,
            0,
            0
        ],
        "27/03/2020 13:13:39": [
            0,
            0,
            0
        ],
        "27/03/2020 17:06:52": [
            0,
            0,
            0
        ]
    },
    "1279": {
        "27/03/2020 10:58:04": [
            -13,
            -5,
            -5
        ],
        "27/03/2020 13:13:40": [
            -5,
            -5,
            -5
        ],
        "27/03/2020 17:06:52": [
            8,
            10,
            10
        ]
    },
    "1934": {
        "27/03/2020 10:58:05": [
            -11,
            2,
            2
        ],
        "27/03/2020 13:13:41": [
            2,
            2,
            2
        ],
        "27/03/2020 17:06:52": [
            23,
            25,
            25
        ]
    },
    "2310": {
        "27/03/2020 10:58:05": [
            -25,
            -4,
            -4
        ],
        "27/03/2020 13:13:41": [
            -4,
            -4,
            -4
        ],
        "27/03/2020 17:06:53": [
            -30,
            -26,
            -26
        ]
    },
    "2311": {
        "27/03/2020 10:58:06": [
            6,
            -25,
            -25
        ],
        "27/03/2020 13:13:42": [
            -25,
            -25,
            -25
        ],
        "27/03/2020 17:06:53": [
            13,
            8,
            8
        ]
    },
    "5025": {
        "27/03/2020 10:58:06": [
            -8,
            25
        ],
        "27/03/2020 13:13:43": [
            25,
            25,
            25
        ],
        "27/03/2020 17:06:54": [
            1,
            -11,
            -11
        ]
    },
    "4854": {
        "27/03/2020 10:58:07": [
            1,
            1,
            -24
        ],
        "27/03/2020 13:13:43": [
            -24,
            -24,
            -24
        ],
        "27/03/2020 17:06:54": [
            11,
            -5,
            -5
        ]
    },
    "1438": {
        "27/03/2020 10:58:07": [
            29,
            29,
            7
        ],
        "27/03/2020 13:13:44": [
            7,
            7,
            7
        ],
        "27/03/2020 17:06:55": [
            -20,
            24,
            24
        ]
    },
    "4855": {
        "27/03/2020 10:58:08": [
            0,
            0,
            -18
        ],
        "27/03/2020 13:13:45": [
            -18,
            -18,
            -18
        ],
        "27/03/2020 17:06:55": [
            12,
            -3,
            -3
        ]
    },
    "1439": {
        "27/03/2020 10:58:08": [
            -20,
            -20,
            26
        ],
        "27/03/2020 13:13:45": [
            26,
            26,
            26
        ],
        "27/03/2020 17:06:55": [
            0,
            -18
        ]
    },
    "1440": {
        "27/03/2020 10:58:09": [
            28,
            28,
            18
        ],
        "27/03/2020 13:13:46": [
            18,
            18,
            18
        ],
        "27/03/2020 17:06:56": [
            -3,
            -23
        ]
    },
    "1386": {
        "27/03/2020 10:58:09": [
            6,
            6,
            -3
        ],
        "27/03/2020 13:13:47": [
            -3,
            -3,
            -3
        ],
        "27/03/2020 17:06:56": [
            -122,
            -17,
            16
        ]
    },
    "1387": {
        "27/03/2020 10:58:10": [
            -23,
            -23,
            -30
        ],
        "27/03/2020 13:13:47": [
            -30,
            -30,
            -30
        ],
        "27/03/2020 17:06:57": [
            -84,
            21,
            -12
        ]
    },
    "1388": {
        "27/03/2020 10:58:10": [
            22,
            22,
            16
        ],
        "27/03/2020 13:13:48": [
            16,
            16,
            16
        ],
        "27/03/2020 17:06:57": [
            -105,
            15,
            -26
        ]
    },
    "1389": {
        "27/03/2020 10:58:11": [
            3,
            3,
            -2
        ],
        "27/03/2020 13:13:48": [
            -2,
            -2,
            -2
        ],
        "27/03/2020 17:06:58": [
            -116,
            4,
            15
        ]
    },
    "3355": {
        "27/03/2020 10:58:11": [
            26,
            26,
            22
        ],
        "27/03/2020 13:13:49": [
            22,
            22,
            22
        ],
        "27/03/2020 17:06:58": [
            -148,
            -28,
            -21
        ]
    },
    "3356": {
        "27/03/2020 10:58:12": [
            1,
            1,
            8
        ],
        "27/03/2020 13:13:50": [
            8,
            8,
            8
        ],
        "27/03/2020 17:06:59": [
            -101,
            19,
            17
        ]
    },
    "1441": {
        "27/03/2020 10:58:12": [
            26,
            26,
            -21
        ],
        "27/03/2020 13:13:50": [
            -21,
            -21,
            -21
        ],
        "27/03/2020 17:06:59": [
            -128,
            -8,
            -16
        ]
    },
    "1442": {
        "27/03/2020 10:58:13": [
            2,
            2,
            13
        ],
        "27/03/2020 13:13:51": [
            13,
            13,
            13
        ],
        "27/03/2020 17:06:59": [
            -150,
            -30,
            21
        ]
    },
    "7414": {
        "27/03/2020 10:58:13": [
            -23,
            -23,
            -12
        ],
        "27/03/2020 13:13:52": [
            -12,
            -12,
            -12
        ],
        "27/03/2020 17:07:00": [
            -118,
            2,
            -9
        ]
    },
    "1396": {
        "27/03/2020 10:58:14": [
            12,
            12,
            23
        ],
        "27/03/2020 13:13:52": [
            393,
            23,
            23,
            23
        ],
        "27/03/2020 17:07:00": [
            -146,
            -26,
            22
        ]
    },
    "2317": {
        "27/03/2020 10:58:14": [
            0,
            0,
            11
        ],
        "27/03/2020 13:13:53": [
            360,
            11,
            11,
            11
        ],
        "27/03/2020 17:07:01": [
            -102,
            18,
            3
        ]
    },
    "2318": {
        "27/03/2020 10:58:15": [
            -24,
            -24,
            -11
        ],
        "27/03/2020 13:13:53": [
            338,
            -11,
            -11,
            -11
        ],
        "27/03/2020 17:07:01": [
            -129,
            -9,
            -29
        ]
    },
    "2319": {
        "27/03/2020 10:58:15": [
            -19,
            -19,
            -2
        ],
        "27/03/2020 13:13:54": [
            347,
            -2,
            -2,
            -2
        ],
        "27/03/2020 17:07:02": [
            -129,
            -9,
            24
        ]
    },
    "2320": {
        "27/03/2020 10:58:16": [
            7,
            7,
            14
        ],
        "27/03/2020 13:13:54": [
            384,
            14,
            14,
            14
        ],
        "27/03/2020 17:07:02": [
            -109,
            11,
            -22
        ]
    },
    "2321": {
        "27/03/2020 10:58:16": [
            17,
            17,
            15
        ],
        "27/03/2020 13:13:55": [
            385,
            15,
            15
        ],
        "27/03/2020 17:07:03": [
            -104,
            16,
            -22
        ]
    },
    "2322": {
        "27/03/2020 10:58:17": [
            2,
            2,
            0
        ],
        "27/03/2020 13:13:56": [
            370,
            0,
            0
        ],
        "27/03/2020 17:07:03": [
            -104,
            16,
            25
        ]
    },
    "6163": {
        "27/03/2020 10:58:17": [
            13,
            13,
            12
        ],
        "27/03/2020 13:13:56": [
            382,
            12,
            12
        ],
        "27/03/2020 17:07:04": [
            -149,
            -29,
            -23
        ]
    },
    "1095": {
        "27/03/2020 10:58:18": [
            -5,
            -5,
            -6
        ],
        "27/03/2020 13:13:57": [
            364,
            -6,
            -6
        ],
        "27/03/2020 17:07:04": [
            -93,
            27,
            21
        ]
    },
    "1096": {
        "27/03/2020 10:58:18": [
            9,
            9,
            8
        ],
        "27/03/2020 13:13:57": [
            378,
            8,
            8
        ],
        "27/03/2020 17:07:05": [
            -139,
            -19,
            -25
        ]
    },
    "1097": {
        "27/03/2020 10:58:19": [
            -18,
            -18,
            -19
        ],
        "27/03/2020 13:13:58": [
            351,
            -19,
            -19
        ],
        "27/03/2020 17:07:05": [
            -104,
            16,
            8
        ]
    },
    "1099": {
        "27/03/2020 10:58:19": [
            3,
            3,
            2
        ],
        "27/03/2020 13:13:58": [
            372,
            2,
            2
        ],
        "27/03/2020 17:07:06": [
            -143,
            -23,
            29
        ]
    },
    "6132": {
        "27/03/2020 10:58:20": [
            140,
            1395,
            18,
            18,
            15
        ],
        "27/03/2020 13:13:59": [
            385,
            15,
            15
        ],
        "27/03/2020 17:07:06": [
            -126,
            -6
        ]
    },
    "4861": {
        "27/03/2020 10:58:20": [
            -16,
            -16
        ],
        "27/03/2020 13:14:00": [
            351,
            -19,
            -19
        ],
        "27/03/2020 17:07:07": [
            -80,
            -99,
            21
        ]
    },
    "4862": {
        "27/03/2020 10:58:21": [],
        "27/03/2020 13:14:00": [],
        "27/03/2020 17:07:07": []
    },
    "5192": {
        "27/03/2020 10:58:21": [],
        "27/03/2020 13:14:01": [],
        "27/03/2020 17:07:07": []
    },
    "4863": {
        "27/03/2020 10:58:22": [
            0,
            0,
            0
        ],
        "27/03/2020 13:14:01": [
            0,
            0,
            0
        ],
        "27/03/2020 17:07:08": [
            0,
            0,
            0
        ]
    },
    "4864": {
        "27/03/2020 10:58:22": [
            28,
            28,
            27
        ],
        "27/03/2020 13:14:02": [
            27,
            27,
            27
        ],
        "27/03/2020 17:07:08": [
            -29,
            28,
            28
        ]
    },
    "4865": {
        "27/03/2020 10:58:22": [
            -12,
            -12,
            -13
        ],
        "27/03/2020 13:14:03": [
            -13,
            -13,
            -13
        ],
        "27/03/2020 17:07:09": [
            -6,
            -11,
            -11
        ]
    },
    "4577": {
        "27/03/2020 10:58:23": [
            85,
            9,
            8
        ],
        "27/03/2020 13:14:03": [
            8,
            8,
            8
        ],
        "27/03/2020 17:07:09": [
            17,
            10,
            10
        ]
    },
    "4578": {
        "27/03/2020 10:58:24": [
            -15,
            -15,
            -16
        ],
        "27/03/2020 13:14:04": [
            -16,
            -16,
            -16
        ],
        "27/03/2020 17:07:10": [
            -2,
            -13,
            -13
        ]
    },
    "1100": {
        "27/03/2020 10:58:24": [
            54,
            -22,
            -24
        ],
        "27/03/2020 13:14:05": [
            -24,
            -24,
            -24
        ],
        "27/03/2020 17:07:10": [
            -3,
            -20,
            -20
        ]
    },
    "100": {
        "27/03/2020 10:58:25": [
            81,
            5,
            2
        ],
        "27/03/2020 13:14:05": [
            2,
            2,
            2
        ],
        "27/03/2020 17:07:10": [
            27,
            7,
            7
        ]
    },
    "1111": {
        "27/03/2020 10:58:25": [
            50,
            -26,
            -29
        ],
        "27/03/2020 13:14:06": [
            -29,
            -29,
            -29
        ],
        "27/03/2020 17:07:11": [
            0,
            -24,
            -24
        ]
    },
    "2323": {
        "27/03/2020 10:58:26": [
            26,
            26,
            22
        ],
        "27/03/2020 13:14:06": [
            22,
            22,
            22
        ],
        "27/03/2020 17:07:11": [
            -2,
            29,
            29
        ]
    },
    "2324": {
        "27/03/2020 10:58:26": [
            -13,
            -13,
            -18
        ],
        "27/03/2020 13:14:07": [
            -18,
            -18,
            -18
        ],
        "27/03/2020 17:07:12": [
            17,
            -11,
            -11
        ]
    },
    "2325": {
        "27/03/2020 10:58:26": [
            11,
            11,
            5
        ],
        "27/03/2020 13:14:08": [
            5,
            5,
            5
        ],
        "27/03/2020 17:07:12": [
            -21,
            12,
            12
        ]
    },
    "2326": {
        "27/03/2020 10:58:27": [
            -15,
            -15,
            -21
        ],
        "27/03/2020 13:14:08": [
            -21,
            -21,
            -21
        ],
        "27/03/2020 17:07:13": [
            15,
            -17,
            -17
        ]
    },
    "5150": {
        "27/03/2020 10:58:27": [
            -28,
            -28,
            26
        ],
        "27/03/2020 13:14:09": [
            26,
            26,
            26
        ],
        "27/03/2020 17:07:13": [
            5,
            26
        ]
    },
    "2327": {
        "27/03/2020 10:58:28": [
            -4,
            -4,
            -9
        ],
        "27/03/2020 13:14:09": [
            -9,
            -9,
            -9
        ],
        "27/03/2020 17:07:14": [
            -30,
            -12,
            -12
        ]
    },
    "2328": {
        "27/03/2020 10:58:28": [
            -1,
            -1,
            -7
        ],
        "27/03/2020 13:14:10": [
            -7,
            -7,
            -7
        ],
        "27/03/2020 17:07:14": [
            -75,
            -24,
            -15
        ]
    },
    "2329": {
        "27/03/2020 10:58:29": [
            25
        ],
        "27/03/2020 13:14:10": [
            25,
            25,
            25
        ],
        "27/03/2020 17:07:15": [
            -42,
            9,
            14
        ]
    },
    "2330": {
        "27/03/2020 10:58:29": [
            6,
            6,
            1
        ],
        "27/03/2020 13:14:11": [
            1,
            1,
            1
        ],
        "27/03/2020 17:07:15": [
            -64,
            -13,
            -13
        ]
    },
    "2331": {
        "27/03/2020 10:58:29": [
            10,
            10,
            16
        ],
        "27/03/2020 13:14:11": [
            16,
            16,
            16
        ],
        "27/03/2020 17:07:16": [
            -47,
            4,
            0
        ]
    },
    "1397": {
        "27/03/2020 10:58:30": [
            68,
            -8,
            -8
        ],
        "27/03/2020 13:14:12": [
            -8,
            -8,
            -8
        ],
        "27/03/2020 17:07:16": [
            -48,
            2,
            -27
        ]
    },
    "1398": {
        "27/03/2020 10:58:30": [
            104,
            28,
            22
        ],
        "27/03/2020 13:14:13": [
            208,
            22,
            22,
            22
        ],
        "27/03/2020 17:07:16": [
            -10,
            -10,
            1
        ]
    },
    "1399": {
        "27/03/2020 10:58:31": [
            88,
            12,
            13
        ],
        "27/03/2020 13:14:13": [
            199,
            13,
            13,
            13
        ],
        "27/03/2020 17:07:17": [
            -28,
            -28,
            -11
        ]
    },
    "5148": {
        "27/03/2020 10:58:31": [
            -7,
            -7,
            1
        ],
        "27/03/2020 13:14:14": [
            116,
            1,
            1
        ],
        "27/03/2020 17:07:17": [
            -54,
            11,
            -27
        ]
    },
    "1401": {
        "27/03/2020 10:58:32": [
            24,
            24,
            27
        ],
        "27/03/2020 13:14:14": [
            193,
            27,
            27,
            27
        ],
        "27/03/2020 17:07:18": [
            -86,
            -21,
            0
        ]
    },
    "1402": {
        "27/03/2020 10:58:32": [
            0,
            0,
            -4
        ],
        "27/03/2020 13:14:15": [
            162,
            -4,
            -4
        ],
        "27/03/2020 17:07:18": [
            -54,
            11,
            -30
        ]
    },
    "1403": {
        "27/03/2020 10:58:33": [
            5,
            -5
        ],
        "27/03/2020 13:14:16": [
            181,
            -5,
            -5
        ],
        "27/03/2020 17:07:19": [
            -44,
            21,
            -28
        ]
    },
    "1404": {
        "27/03/2020 10:58:33": [
            55,
            -21,
            25
        ],
        "27/03/2020 13:14:16": [
            211,
            25,
            25
        ],
        "27/03/2020 17:07:19": [
            -67,
            -2,
            4
        ]
    },
    "1405": {
        "27/03/2020 10:58:34": [
            90,
            14,
            -3
        ],
        "27/03/2020 13:14:17": [
            183,
            -3,
            -3
        ],
        "27/03/2020 17:07:19": [
            -24,
            -24,
            -23
        ]
    },
    "4856": {
        "27/03/2020 10:58:34": [
            -9,
            -9,
            -30
        ],
        "27/03/2020 13:14:18": [
            156,
            -30,
            -30
        ],
        "27/03/2020 17:07:20": [
            15,
            15,
            12
        ]
    },
    "4857": {
        "27/03/2020 10:58:35": [
            -26,
            -26
        ],
        "27/03/2020 13:14:18": [
            196,
            10,
            10
        ],
        "27/03/2020 17:07:20": [
            -5,
            -5,
            -9
        ]
    },
    "307": {
        "27/03/2020 10:58:35": [
            59,
            79,
            3,
            -23
        ],
        "27/03/2020 13:14:19": [
            111,
            -23,
            -23
        ],
        "27/03/2020 17:07:21": [
            22,
            22,
            16
        ]
    },
    "308": {
        "27/03/2020 10:58:36": [
            42,
            -14,
            -14
        ],
        "27/03/2020 13:14:19": [
            156,
            22,
            22
        ],
        "27/03/2020 17:07:21": [
            8,
            8,
            4
        ]
    },
    "309": {
        "27/03/2020 10:58:36": [
            61,
            5,
            5
        ],
        "27/03/2020 13:14:20": [
            116,
            -18,
            -18
        ],
        "27/03/2020 17:07:22": [
            28,
            28,
            25
        ]
    },
    "7412": {
        "27/03/2020 10:58:37": [
            73,
            93,
            17
        ],
        "27/03/2020 13:14:20": [
            133,
            -1,
            -1
        ],
        "27/03/2020 17:07:22": [
            -22,
            -22,
            -30
        ]
    },
    "7413": {
        "27/03/2020 10:58:37": [
            60,
            80,
            4
        ],
        "27/03/2020 13:14:21": [
            123,
            -11,
            -11
        ],
        "27/03/2020 17:07:23": [
            24,
            24,
            13
        ]
    },
    "2383": {
        "27/03/2020 10:58:38": [
            55,
            75,
            -1
        ],
        "27/03/2020 13:14:22": [
            122,
            -12,
            -12
        ],
        "27/03/2020 17:07:23": [
            18,
            18,
            2
        ]
    },
    "2003": {
        "27/03/2020 10:58:38": [
            2,
            2,
            2
        ],
        "27/03/2020 13:14:22": [
            122,
            -12,
            -12
        ],
        "27/03/2020 17:07:24": [
            162,
            25,
            25,
            18
        ]
    },
    "1358": {
        "27/03/2020 10:58:39": [
            26,
            26,
            26
        ],
        "27/03/2020 13:14:23": [
            149,
            15,
            15
        ],
        "27/03/2020 17:07:24": [
            89,
            -8,
            -8,
            -15
        ]
    },
    "4494": {
        "27/03/2020 10:58:39": [],
        "27/03/2020 13:14:23": [],
        "27/03/2020 17:07:25": []
    }
}