{
    "overall_punctuality": -2719,
    "overall_num": 218,
    "overall_avg": -12,
    "daily_punctuality": {
        "Sunday": {
            "num_results": 0,
            "total": 0,
            "avg:": 0
        },
        "Monday": {
            "num_results": 0,
            "total": 0,
            "avg:": 0
        },
        "Tuesday": {
            "num_results": 0,
            "total": 0,
            "avg:": 0
        },
        "Wednesday": {
            "num_results": 0,
            "total": 0,
            "avg:": 0
        },
        "Thursday": {
            "num_results": 0,
            "total": 0,
            "avg:": 0
        },
        "Friday": {
            "num_results": 0,
            "total": 0,
            "avg:": 0
        },
        "Saturday": {
            "num_results": 218,
            "total": -2719,
            "avg:": 0,
            "avg": -12
        }
    }
}