{
    "395": {
        "26/03/2020 12:49:36": [],
        "26/03/2020 15:12:19": [],
        "26/03/2020 17:52:34": []
    },
    "396": {
        "26/03/2020 12:49:37": [],
        "26/03/2020 15:12:19": [],
        "26/03/2020 17:52:35": []
    },
    "397": {
        "26/03/2020 12:49:38": [],
        "26/03/2020 15:12:20": [],
        "26/03/2020 17:52:35": []
    },
    "398": {
        "26/03/2020 12:49:38": [],
        "26/03/2020 15:12:20": [],
        "26/03/2020 17:52:36": []
    },
    "399": {
        "26/03/2020 12:49:38": [],
        "26/03/2020 15:12:21": [],
        "26/03/2020 17:52:36": []
    },
    "400": {
        "26/03/2020 12:49:39": [],
        "26/03/2020 15:12:21": [],
        "26/03/2020 17:52:37": []
    },
    "7581": {
        "26/03/2020 12:49:39": [],
        "26/03/2020 15:12:22": [],
        "26/03/2020 17:52:37": []
    },
    "1283": {
        "26/03/2020 12:49:40": [],
        "26/03/2020 15:12:22": [],
        "26/03/2020 17:52:38": []
    },
    "7579": {
        "26/03/2020 12:49:40": [],
        "26/03/2020 15:12:23": [],
        "26/03/2020 17:52:38": []
    },
    "1285": {
        "26/03/2020 12:49:41": [],
        "26/03/2020 15:12:24": [],
        "26/03/2020 17:52:39": []
    },
    "1016": {
        "26/03/2020 12:49:41": [],
        "26/03/2020 15:12:24": [],
        "26/03/2020 17:52:39": []
    },
    "1017": {
        "26/03/2020 12:49:42": [],
        "26/03/2020 15:12:25": [],
        "26/03/2020 17:52:40": []
    },
    "1018": {
        "26/03/2020 12:49:42": [],
        "26/03/2020 15:12:25": [],
        "26/03/2020 17:52:40": []
    },
    "1019": {
        "26/03/2020 12:49:43": [],
        "26/03/2020 15:12:26": [
            88
        ],
        "26/03/2020 17:52:41": []
    },
    "1020": {
        "26/03/2020 12:49:43": [],
        "26/03/2020 15:12:26": [
            57
        ],
        "26/03/2020 17:52:41": []
    },
    "1076": {
        "26/03/2020 12:49:44": [],
        "26/03/2020 15:12:27": [
            38
        ],
        "26/03/2020 17:52:42": []
    },
    "1077": {
        "26/03/2020 12:49:44": [],
        "26/03/2020 15:12:27": [
            34
        ],
        "26/03/2020 17:52:42": []
    },
    "1078": {
        "26/03/2020 12:49:45": [],
        "26/03/2020 15:12:28": [
            3
        ],
        "26/03/2020 17:52:43": []
    },
    "1079": {
        "26/03/2020 12:49:45": [],
        "26/03/2020 15:12:29": [
            80
        ],
        "26/03/2020 17:52:43": []
    },
    "1080": {
        "26/03/2020 12:49:46": [],
        "26/03/2020 15:12:29": [
            53
        ],
        "26/03/2020 17:52:44": []
    },
    "1081": {
        "26/03/2020 12:49:46": [],
        "26/03/2020 15:12:30": [
            40
        ],
        "26/03/2020 17:52:45": []
    },
    "2914": {
        "26/03/2020 12:49:47": [],
        "26/03/2020 15:12:30": [
            79
        ],
        "26/03/2020 17:52:45": []
    },
    "2915": {
        "26/03/2020 12:49:47": [],
        "26/03/2020 15:12:30": [
            50
        ],
        "26/03/2020 17:52:46": []
    },
    "2916": {
        "26/03/2020 12:49:48": [],
        "26/03/2020 15:12:31": [
            44
        ],
        "26/03/2020 17:52:46": []
    },
    "2917": {
        "26/03/2020 12:49:48": [],
        "26/03/2020 15:12:31": [
            79
        ],
        "26/03/2020 17:52:47": []
    },
    "2918": {
        "26/03/2020 12:49:49": [],
        "26/03/2020 15:12:32": [
            60
        ],
        "26/03/2020 17:52:47": []
    },
    "1300": {
        "26/03/2020 12:49:50": [],
        "26/03/2020 15:12:32": [
            60
        ],
        "26/03/2020 17:52:48": []
    },
    "1301": {
        "26/03/2020 12:49:50": [],
        "26/03/2020 15:12:33": [
            51
        ],
        "26/03/2020 17:52:48": []
    },
    "1302": {
        "26/03/2020 12:49:51": [],
        "26/03/2020 15:12:33": [
            74
        ],
        "26/03/2020 17:52:49": []
    },
    "1303": {
        "26/03/2020 12:49:51": [],
        "26/03/2020 15:12:34": [
            47
        ],
        "26/03/2020 17:52:49": []
    },
    "5129": {
        "26/03/2020 12:49:52": [],
        "26/03/2020 15:12:34": [
            82
        ],
        "26/03/2020 17:52:50": []
    },
    "5130": {
        "26/03/2020 12:49:53": [],
        "26/03/2020 15:12:35": [
            83
        ],
        "26/03/2020 17:52:50": []
    },
    "1135": {
        "26/03/2020 12:49:53": [],
        "26/03/2020 15:12:35": [
            25
        ],
        "26/03/2020 17:52:51": []
    },
    "7064": {
        "26/03/2020 12:49:54": [],
        "26/03/2020 15:12:36": [
            20
        ],
        "26/03/2020 17:52:51": []
    },
    "7066": {
        "26/03/2020 12:49:54": [],
        "26/03/2020 15:12:36": [
            -2
        ],
        "26/03/2020 17:52:52": []
    },
    "2924": {
        "26/03/2020 12:49:55": [],
        "26/03/2020 15:12:37": [
            -21
        ],
        "26/03/2020 17:52:52": []
    },
    "2925": {
        "26/03/2020 12:49:55": [],
        "26/03/2020 15:12:38": [
            7
        ],
        "26/03/2020 17:52:53": []
    },
    "2948": {
        "26/03/2020 12:49:56": [],
        "26/03/2020 15:12:38": [
            -7
        ],
        "26/03/2020 17:52:53": []
    },
    "2949": {
        "26/03/2020 12:49:56": [],
        "26/03/2020 15:12:38": [
            17
        ],
        "26/03/2020 17:52:54": []
    },
    "2950": {
        "26/03/2020 12:49:57": [],
        "26/03/2020 15:12:39": [
            -4
        ],
        "26/03/2020 17:52:54": []
    },
    "2954": {
        "26/03/2020 12:49:57": [],
        "26/03/2020 15:12:40": [
            -19
        ],
        "26/03/2020 17:52:55": []
    },
    "2955": {
        "26/03/2020 12:49:58": [],
        "26/03/2020 15:12:40": [],
        "26/03/2020 17:52:55": []
    },
    "7067": {
        "26/03/2020 12:49:58": [],
        "26/03/2020 15:12:41": [],
        "26/03/2020 17:52:56": []
    },
    "2956": {
        "26/03/2020 12:49:59": [],
        "26/03/2020 15:12:41": [],
        "26/03/2020 17:52:56": []
    },
    "2965": {
        "26/03/2020 12:50:00": [],
        "26/03/2020 15:12:42": [],
        "26/03/2020 17:52:57": []
    },
    "2983": {
        "26/03/2020 12:50:00": [],
        "26/03/2020 15:12:42": [],
        "26/03/2020 17:52:58": []
    },
    "2984": {
        "26/03/2020 12:50:01": [],
        "26/03/2020 15:12:42": [],
        "26/03/2020 17:52:58": []
    },
    "2941": {
        "26/03/2020 12:50:01": [],
        "26/03/2020 15:12:43": [],
        "26/03/2020 17:52:59": []
    },
    "2942": {
        "26/03/2020 12:50:02": [],
        "26/03/2020 15:12:43": [],
        "26/03/2020 17:52:59": []
    },
    "7065": {
        "26/03/2020 12:50:03": [],
        "26/03/2020 15:12:44": [],
        "26/03/2020 17:53:00": []
    },
    "7063": {
        "26/03/2020 12:50:03": [],
        "26/03/2020 15:12:44": [],
        "26/03/2020 17:53:00": []
    },
    "1137": {
        "26/03/2020 12:50:04": [],
        "26/03/2020 15:12:45": [],
        "26/03/2020 17:53:01": []
    },
    "5131": {
        "26/03/2020 12:50:04": [],
        "26/03/2020 15:12:45": [],
        "26/03/2020 17:53:01": []
    },
    "5132": {
        "26/03/2020 12:50:04": [],
        "26/03/2020 15:12:46": [],
        "26/03/2020 17:53:01": []
    },
    "1331": {
        "26/03/2020 12:50:05": [],
        "26/03/2020 15:12:46": [],
        "26/03/2020 17:53:02": []
    },
    "1332": {
        "26/03/2020 12:50:05": [],
        "26/03/2020 15:12:47": [],
        "26/03/2020 17:53:02": []
    },
    "1333": {
        "26/03/2020 12:50:06": [],
        "26/03/2020 15:12:48": [],
        "26/03/2020 17:53:03": []
    },
    "1334": {
        "26/03/2020 12:50:07": [],
        "26/03/2020 15:12:48": [],
        "26/03/2020 17:53:03": []
    },
    "2985": {
        "26/03/2020 12:50:07": [],
        "26/03/2020 15:12:49": [],
        "26/03/2020 17:53:04": []
    },
    "2986": {
        "26/03/2020 12:50:07": [],
        "26/03/2020 15:12:49": [],
        "26/03/2020 17:53:05": []
    },
    "2988": {
        "26/03/2020 12:50:08": [],
        "26/03/2020 15:12:49": [],
        "26/03/2020 17:53:05": []
    },
    "3001": {
        "26/03/2020 12:50:09": [],
        "26/03/2020 15:12:50": [],
        "26/03/2020 17:53:06": []
    },
    "3002": {
        "26/03/2020 12:50:09": [],
        "26/03/2020 15:12:50": [],
        "26/03/2020 17:53:06": []
    },
    "1166": {
        "26/03/2020 12:50:10": [],
        "26/03/2020 15:12:51": [],
        "26/03/2020 17:53:07": []
    },
    "1167": {
        "26/03/2020 12:50:10": [],
        "26/03/2020 15:12:52": [],
        "26/03/2020 17:53:08": []
    },
    "1168": {
        "26/03/2020 12:50:10": [],
        "26/03/2020 15:12:52": [],
        "26/03/2020 17:53:08": []
    },
    "1169": {
        "26/03/2020 12:50:11": [],
        "26/03/2020 15:12:52": [],
        "26/03/2020 17:53:09": []
    },
    "1170": {
        "26/03/2020 12:50:11": [],
        "26/03/2020 15:12:53": [],
        "26/03/2020 17:53:09": []
    },
    "1069": {
        "26/03/2020 12:50:12": [],
        "26/03/2020 15:12:54": [],
        "26/03/2020 17:53:10": []
    },
    "1070": {
        "26/03/2020 12:50:13": [],
        "26/03/2020 15:12:54": [],
        "26/03/2020 17:53:10": []
    },
    "1071": {
        "26/03/2020 12:50:13": [],
        "26/03/2020 15:12:55": [],
        "26/03/2020 17:53:11": []
    },
    "4528": {
        "26/03/2020 12:50:14": [],
        "26/03/2020 15:12:55": [],
        "26/03/2020 17:53:11": []
    },
    "1072": {
        "26/03/2020 12:50:14": [],
        "26/03/2020 15:12:56": [],
        "26/03/2020 17:53:12": []
    },
    "7577": {
        "26/03/2020 12:50:14": [],
        "26/03/2020 15:12:56": [],
        "26/03/2020 17:53:12": []
    },
    "1353": {
        "26/03/2020 12:50:15": [],
        "26/03/2020 15:12:57": [],
        "26/03/2020 17:53:13": []
    },
    "1354": {
        "26/03/2020 12:50:16": [],
        "26/03/2020 15:12:57": [],
        "26/03/2020 17:53:13": []
    },
    "7578": {
        "26/03/2020 12:50:16": [],
        "26/03/2020 15:12:58": [],
        "26/03/2020 17:53:14": []
    },
    "7582": {
        "26/03/2020 12:50:17": [],
        "26/03/2020 15:12:58": [],
        "26/03/2020 17:53:14": []
    },
    "340": {
        "26/03/2020 12:50:17": [],
        "26/03/2020 15:12:59": [],
        "26/03/2020 17:53:15": []
    },
    "350": {
        "26/03/2020 12:50:18": [],
        "26/03/2020 15:12:59": [],
        "26/03/2020 17:53:15": []
    },
    "351": {
        "26/03/2020 12:50:18": [],
        "26/03/2020 15:13:00": [],
        "26/03/2020 17:53:16": []
    },
    "352": {
        "26/03/2020 12:50:19": [],
        "26/03/2020 15:13:00": [],
        "26/03/2020 17:53:16": []
    },
    "353": {
        "26/03/2020 12:50:19": [],
        "26/03/2020 15:13:01": [],
        "26/03/2020 17:53:17": []
    },
    "354": {
        "26/03/2020 12:50:19": [],
        "26/03/2020 15:13:01": [],
        "26/03/2020 17:53:17": []
    }
}