{
    "1172": {
        "24/03/2020 14:29:45": [],
        "24/03/2020 16:44:03": [],
        "24/03/2020 19:23:23": [],
        "24/03/2020 21:40:11": []
    },
    "7590": {
        "24/03/2020 14:29:45": [],
        "24/03/2020 16:44:04": [],
        "24/03/2020 19:23:24": [],
        "24/03/2020 21:40:12": []
    },
    "950": {
        "24/03/2020 14:29:46": [
            0,
            0,
            0
        ],
        "24/03/2020 16:44:04": [
            0,
            0,
            0
        ],
        "24/03/2020 19:23:24": [
            0,
            0
        ],
        "24/03/2020 21:40:12": [
            0,
            0
        ]
    },
    "915": {
        "24/03/2020 14:29:46": [
            -7,
            -7,
            -7
        ],
        "24/03/2020 16:44:05": [
            -12,
            -12,
            -20
        ],
        "24/03/2020 19:23:25": [
            -25,
            -25
        ],
        "24/03/2020 21:40:13": [
            29,
            29
        ]
    },
    "916": {
        "24/03/2020 14:29:47": [
            -28,
            -28,
            -28
        ],
        "24/03/2020 16:44:06": [
            24,
            24,
            10
        ],
        "24/03/2020 19:23:25": [
            2,
            2
        ],
        "24/03/2020 21:40:13": [
            -9,
            -9
        ]
    },
    "917": {
        "24/03/2020 14:29:47": [
            1,
            1,
            1
        ],
        "24/03/2020 16:44:06": [
            -8,
            -8,
            -24
        ],
        "24/03/2020 19:23:26": [
            26,
            26
        ],
        "24/03/2020 21:40:14": [
            12,
            12
        ]
    },
    "918": {
        "24/03/2020 14:29:48": [
            -16,
            -16,
            -16
        ],
        "24/03/2020 16:44:07": [
            -29,
            -29,
            12
        ],
        "24/03/2020 19:23:26": [
            -1,
            -1
        ],
        "24/03/2020 21:40:15": [
            -19,
            -19
        ]
    },
    "919": {
        "24/03/2020 14:29:48": [
            28,
            28,
            28
        ],
        "24/03/2020 16:44:07": [
            13,
            13,
            -9
        ],
        "24/03/2020 19:23:27": [
            -25,
            -25
        ],
        "24/03/2020 21:40:15": [
            13,
            13
        ]
    },
    "7551": {
        "24/03/2020 14:29:49": [
            29,
            29,
            29
        ],
        "24/03/2020 16:44:08": [
            12,
            12,
            -15
        ],
        "24/03/2020 19:23:27": [
            15,
            15
        ],
        "24/03/2020 21:40:16": [
            -16,
            -16
        ]
    },
    "4800": {
        "24/03/2020 14:29:49": [
            -22,
            -22,
            -22
        ],
        "24/03/2020 16:44:08": [
            19,
            19,
            -14
        ],
        "24/03/2020 19:23:28": [
            1,
            1,
            1
        ],
        "24/03/2020 21:40:16": [
            19,
            19
        ]
    },
    "5157": {
        "24/03/2020 14:29:50": [
            11,
            11,
            11
        ],
        "24/03/2020 16:44:09": [
            -11,
            -11,
            -11,
            9
        ],
        "24/03/2020 19:23:28": [
            2,
            2,
            2
        ],
        "24/03/2020 21:40:16": [
            6,
            6
        ]
    },
    "5154": {
        "24/03/2020 14:29:50": [
            -3,
            -3,
            -3
        ],
        "24/03/2020 16:44:09": [
            -27,
            -27,
            -27,
            -11
        ],
        "24/03/2020 19:23:29": [
            -28,
            -28,
            -28
        ],
        "24/03/2020 21:40:17": [
            29,
            29
        ]
    },
    "4804": {
        "24/03/2020 14:29:51": [
            -17,
            -17
        ],
        "24/03/2020 16:44:10": [
            18,
            18,
            -30
        ],
        "24/03/2020 19:23:29": [
            3,
            3,
            3
        ],
        "24/03/2020 21:40:17": [
            -7,
            -7
        ]
    },
    "738": {
        "24/03/2020 14:29:51": [
            -22,
            -22,
            -22
        ],
        "24/03/2020 16:44:10": [
            11,
            11,
            11,
            19
        ],
        "24/03/2020 19:23:30": [
            -21,
            -21,
            -21
        ],
        "24/03/2020 21:40:18": [
            21,
            21
        ]
    },
    "739": {
        "24/03/2020 14:29:52": [
            12,
            12
        ],
        "24/03/2020 16:44:11": [
            22,
            22,
            22,
            27
        ],
        "24/03/2020 19:23:30": [
            -14,
            -14,
            -14
        ],
        "24/03/2020 21:40:18": [
            10,
            10
        ]
    },
    "740": {
        "24/03/2020 14:29:52": [
            26,
            26
        ],
        "24/03/2020 16:44:11": [
            26,
            26,
            26,
            28
        ],
        "24/03/2020 19:23:30": [
            -17,
            -17
        ],
        "24/03/2020 21:40:19": [
            -10,
            -10
        ]
    },
    "741": {
        "24/03/2020 14:29:52": [
            -52,
            -2,
            -2
        ],
        "24/03/2020 16:44:12": [
            -6,
            -6,
            -6,
            -5
        ],
        "24/03/2020 19:23:31": [
            8,
            8
        ],
        "24/03/2020 21:40:19": [
            8,
            8
        ]
    },
    "742": {
        "24/03/2020 14:29:53": [
            -61,
            3,
            3
        ],
        "24/03/2020 16:44:12": [
            -6,
            -6,
            -6,
            15
        ],
        "24/03/2020 19:23:31": [
            2,
            2
        ],
        "24/03/2020 21:40:20": [
            -12,
            -12
        ]
    },
    "743": {
        "24/03/2020 14:29:53": [
            -97,
            -1,
            -1
        ],
        "24/03/2020 16:44:13": [
            -16,
            -16,
            -16
        ],
        "24/03/2020 19:23:32": [
            -12,
            -12
        ],
        "24/03/2020 21:40:20": [
            22,
            22
        ]
    },
    "744": {
        "24/03/2020 14:29:54": [
            -87,
            9,
            9
        ],
        "24/03/2020 16:44:13": [
            -12,
            -12,
            -12
        ],
        "24/03/2020 19:23:32": [
            -15,
            -15
        ],
        "24/03/2020 21:40:20": [
            6,
            6
        ]
    },
    "745": {
        "24/03/2020 14:29:54": [
            -118,
            -19,
            -19
        ],
        "24/03/2020 16:44:13": [
            13,
            13,
            13
        ],
        "24/03/2020 19:23:33": [
            2,
            2
        ],
        "24/03/2020 21:40:21": [
            3,
            3
        ]
    },
    "600": {
        "24/03/2020 14:29:55": [
            -139,
            23,
            23
        ],
        "24/03/2020 16:44:14": [
            -6,
            -6,
            -6
        ],
        "24/03/2020 19:23:33": [
            -24,
            -24
        ],
        "24/03/2020 21:40:21": [
            -30,
            -30
        ]
    },
    "654": {
        "24/03/2020 14:29:55": [
            -92,
            25,
            25
        ],
        "24/03/2020 16:44:14": [
            -6,
            -6,
            -6
        ],
        "24/03/2020 19:23:34": [
            25,
            25
        ],
        "24/03/2020 21:40:22": [
            9,
            9
        ]
    },
    "655": {
        "24/03/2020 14:29:56": [
            -138,
            28,
            28
        ],
        "24/03/2020 16:44:15": [
            -4,
            -4,
            -4
        ],
        "24/03/2020 19:23:34": [
            17,
            17
        ],
        "24/03/2020 21:40:22": [
            -10,
            -10
        ]
    },
    "656": {
        "24/03/2020 14:29:56": [
            -93,
            15,
            15
        ],
        "24/03/2020 16:44:15": [
            -18,
            -18,
            -18
        ],
        "24/03/2020 19:23:35": [
            -6,
            -6
        ],
        "24/03/2020 21:40:23": [
            21,
            21
        ]
    },
    "657": {
        "24/03/2020 14:29:56": [
            -120,
            -9,
            -9
        ],
        "24/03/2020 16:44:16": [
            17,
            17,
            17
        ],
        "24/03/2020 19:23:35": [
            23,
            23
        ],
        "24/03/2020 21:40:23": [
            -17,
            -17
        ]
    },
    "658": {
        "24/03/2020 14:29:57": [
            -120,
            -2,
            -2
        ],
        "24/03/2020 16:44:16": [
            -100,
            22,
            22,
            22
        ],
        "24/03/2020 19:23:36": [
            17,
            17
        ],
        "24/03/2020 21:40:24": [
            26,
            26
        ]
    },
    "659": {
        "24/03/2020 14:29:57": [
            -28,
            -21,
            -21
        ],
        "24/03/2020 16:44:17": [
            -119,
            2,
            2,
            2
        ],
        "24/03/2020 19:23:36": [
            -10,
            -10
        ],
        "24/03/2020 21:40:24": [
            -7,
            -7
        ]
    },
    "604": {
        "24/03/2020 14:29:58": [
            29,
            -25,
            -25
        ],
        "24/03/2020 16:44:18": [
            -119,
            -6,
            -6,
            -6
        ],
        "24/03/2020 19:23:37": [
            -19,
            -19
        ],
        "24/03/2020 21:40:25": [
            -21,
            -21
        ]
    },
    "605": {
        "24/03/2020 14:29:58": [
            -1,
            5,
            5
        ],
        "24/03/2020 16:44:18": [
            -87,
            22,
            22,
            22
        ],
        "24/03/2020 19:23:37": [
            8,
            8
        ],
        "24/03/2020 21:40:25": [
            4,
            4
        ]
    },
    "606": {
        "24/03/2020 14:29:59": [
            2,
            17,
            17
        ],
        "24/03/2020 16:44:19": [
            -83,
            24,
            24,
            24
        ],
        "24/03/2020 19:23:38": [
            -5,
            -5
        ],
        "24/03/2020 21:40:26": [
            -16,
            -16
        ]
    },
    "607": {
        "24/03/2020 14:29:59": [
            3,
            21,
            21
        ],
        "24/03/2020 16:44:19": [
            -77,
            14,
            14,
            14
        ],
        "24/03/2020 19:23:38": [
            -19,
            -19
        ],
        "24/03/2020 21:40:26": [
            23,
            23
        ]
    },
    "608": {
        "24/03/2020 14:30:00": [
            -21,
            -1,
            -1
        ],
        "24/03/2020 16:44:20": [
            -97,
            -16,
            -16,
            -16
        ],
        "24/03/2020 19:23:39": [
            8,
            8
        ],
        "24/03/2020 21:40:26": [
            -13,
            -13
        ]
    },
    "609": {
        "24/03/2020 14:30:01": [
            -26,
            -9
        ],
        "24/03/2020 16:44:20": [
            -109,
            -23,
            -23,
            -23
        ],
        "24/03/2020 19:23:39": [
            -5,
            -5
        ],
        "24/03/2020 21:40:27": [
            26,
            26
        ]
    },
    "610": {
        "24/03/2020 14:30:01": [
            13,
            28
        ],
        "24/03/2020 16:44:21": [
            -75,
            15,
            15,
            15
        ],
        "24/03/2020 19:23:40": [
            29,
            29
        ],
        "24/03/2020 21:40:27": [
            -6,
            -6
        ]
    },
    "611": {
        "24/03/2020 14:30:01": [
            17,
            -28
        ],
        "24/03/2020 16:44:22": [
            -124,
            20,
            20,
            20
        ],
        "24/03/2020 19:23:40": [
            -24,
            -24
        ],
        "24/03/2020 21:40:28": [
            -16,
            -16
        ]
    },
    "612": {
        "24/03/2020 14:30:02": [
            0,
            15
        ],
        "24/03/2020 16:44:22": [
            -77,
            3,
            3
        ],
        "24/03/2020 19:23:41": [
            20,
            20
        ],
        "24/03/2020 21:40:28": [
            17,
            17
        ]
    },
    "613": {
        "24/03/2020 14:30:02": [
            -14,
            -1
        ],
        "24/03/2020 16:44:23": [
            -82,
            -14,
            -14
        ],
        "24/03/2020 19:23:41": [
            6,
            6
        ],
        "24/03/2020 21:40:29": [
            -3,
            -3
        ]
    },
    "614": {
        "24/03/2020 14:30:03": [
            24,
            24,
            -28
        ],
        "24/03/2020 16:44:23": [
            -88,
            17,
            17
        ],
        "24/03/2020 19:23:41": [
            -18,
            -18
        ],
        "24/03/2020 21:40:29": [
            21,
            21
        ]
    },
    "615": {
        "24/03/2020 14:30:03": [
            23,
            23,
            24
        ],
        "24/03/2020 16:44:24": [
            -89,
            15,
            15
        ],
        "24/03/2020 19:23:42": [
            29,
            29
        ],
        "24/03/2020 21:40:29": [
            0,
            0
        ]
    },
    "616": {
        "24/03/2020 14:30:04": [
            13,
            13,
            8
        ],
        "24/03/2020 16:44:24": [
            -98,
            5,
            5
        ],
        "24/03/2020 19:23:43": [
            9,
            9
        ],
        "24/03/2020 21:40:30": [
            -27,
            -27
        ]
    },
    "617": {
        "24/03/2020 14:30:04": [
            3,
            3,
            -6
        ],
        "24/03/2020 16:44:25": [
            -113,
            -13,
            -13
        ],
        "24/03/2020 19:23:43": [
            -10,
            -10
        ],
        "24/03/2020 21:40:30": [
            7,
            7
        ]
    },
    "618": {
        "24/03/2020 14:30:05": [
            -7,
            -7,
            -19
        ],
        "24/03/2020 16:44:25": [
            -128,
            -30,
            -30
        ],
        "24/03/2020 19:23:44": [
            -359,
            -29,
            -29
        ],
        "24/03/2020 21:40:31": [
            -18,
            -18
        ]
    },
    "619": {
        "24/03/2020 14:30:05": [
            -12,
            -12,
            -26
        ],
        "24/03/2020 16:44:26": [
            -70,
            -27,
            -27
        ],
        "24/03/2020 19:23:44": [
            -307,
            23,
            23
        ],
        "24/03/2020 21:40:31": [
            21
        ]
    },
    "675": {
        "24/03/2020 14:30:06": [
            18,
            18,
            3
        ],
        "24/03/2020 16:44:26": [
            -99,
            8,
            8
        ],
        "24/03/2020 19:23:45": [
            -339,
            -9,
            -9
        ],
        "24/03/2020 21:40:32": [
            -17,
            -17
        ]
    },
    "620": {
        "24/03/2020 14:30:06": [
            -3,
            -3,
            -20
        ],
        "24/03/2020 16:44:27": [
            -121,
            -6,
            -6
        ],
        "24/03/2020 19:23:45": [
            -319,
            16,
            16
        ],
        "24/03/2020 21:40:32": [
            0
        ]
    },
    "621": {
        "24/03/2020 14:30:07": [
            3,
            3,
            -16
        ],
        "24/03/2020 16:44:27": [
            -116,
            4,
            4
        ],
        "24/03/2020 19:23:45": [
            -345,
            12,
            12
        ],
        "24/03/2020 21:40:33": [
            -54,
            -9
        ]
    },
    "291": {
        "24/03/2020 14:30:07": [],
        "24/03/2020 16:44:28": [],
        "24/03/2020 19:23:46": [],
        "24/03/2020 21:40:33": []
    },
    "5155": {
        "24/03/2020 14:30:08": [
            -68,
            -20,
            22
        ],
        "24/03/2020 16:44:28": [
            21,
            -3,
            -3
        ],
        "24/03/2020 19:23:46": [
            74,
            -124,
            9
        ],
        "24/03/2020 21:40:33": [
            44,
            -22
        ]
    },
    "5156": {
        "24/03/2020 14:30:08": [
            -120,
            -29,
            27
        ],
        "24/03/2020 16:44:29": [
            43,
            20,
            20
        ],
        "24/03/2020 19:23:47": [
            54,
            -144,
            -11
        ],
        "24/03/2020 21:40:34": [
            13,
            13
        ]
    },
    "516": {
        "24/03/2020 14:30:09": [
            25,
            25,
            25
        ],
        "24/03/2020 16:44:29": [
            40,
            -19,
            -19,
            2
        ],
        "24/03/2020 19:23:47": [
            -5,
            -5
        ],
        "24/03/2020 21:40:34": [
            -15,
            -15
        ]
    },
    "5160": {
        "24/03/2020 14:30:09": [
            14,
            -6
        ],
        "24/03/2020 16:44:30": [
            49,
            24,
            24
        ],
        "24/03/2020 19:23:48": [
            51,
            -147,
            -14
        ],
        "24/03/2020 21:40:35": [
            82,
            16
        ]
    },
    "4384": {
        "24/03/2020 14:30:10": [
            18,
            18,
            18
        ],
        "24/03/2020 16:44:30": [
            33,
            -26,
            -26,
            9
        ],
        "24/03/2020 19:23:48": [
            -17,
            -17
        ],
        "24/03/2020 21:40:35": [
            26,
            26
        ]
    },
    "4386": {
        "24/03/2020 14:30:10": [
            2,
            15,
            15
        ],
        "24/03/2020 16:44:31": [
            67,
            19,
            19,
            19
        ],
        "24/03/2020 19:23:49": [
            -144,
            -11,
            -11
        ],
        "24/03/2020 21:40:35": [
            94,
            28
        ]
    },
    "4472": {
        "24/03/2020 14:30:11": [
            -2,
            -14,
            -14
        ],
        "24/03/2020 16:44:31": [
            47,
            10,
            10,
            10
        ],
        "24/03/2020 19:23:49": [
            -140,
            -7,
            -7
        ],
        "24/03/2020 21:40:36": [
            42,
            -24
        ]
    },
    "515": {
        "24/03/2020 14:30:11": [
            -23,
            -23,
            -23
        ],
        "24/03/2020 16:44:31": [
            41,
            -18,
            -18,
            -12
        ],
        "24/03/2020 19:23:50": [
            -3,
            -3
        ],
        "24/03/2020 21:40:36": [
            -1,
            -1
        ]
    },
    "523": {
        "24/03/2020 14:30:12": [
            -17,
            -17,
            -17
        ],
        "24/03/2020 16:44:32": [
            74,
            12,
            12,
            -1
        ],
        "24/03/2020 19:23:50": [
            -18,
            -18
        ],
        "24/03/2020 21:40:37": [
            0,
            0
        ]
    },
    "4806": {
        "24/03/2020 14:30:12": [
            -71,
            -8,
            -24
        ],
        "24/03/2020 16:44:32": [
            37,
            13,
            13
        ],
        "24/03/2020 19:23:51": [
            85,
            -113,
            20
        ],
        "24/03/2020 21:40:37": [
            54,
            -12
        ]
    },
    "496": {
        "24/03/2020 14:30:12": [
            -8,
            -8,
            -8
        ],
        "24/03/2020 16:44:33": [
            -20,
            -20,
            16
        ],
        "24/03/2020 19:23:51": [
            -5,
            -5
        ],
        "24/03/2020 21:40:38": [
            23,
            23
        ]
    },
    "497": {
        "24/03/2020 14:30:13": [],
        "24/03/2020 16:44:33": [],
        "24/03/2020 19:23:52": [],
        "24/03/2020 21:40:38": []
    },
    "527": {
        "24/03/2020 14:30:13": [
            -90,
            21,
            21
        ],
        "24/03/2020 16:44:34": [
            5,
            5,
            5
        ],
        "24/03/2020 19:23:52": [
            28,
            28
        ],
        "24/03/2020 21:40:39": [
            42,
            -4
        ]
    },
    "528": {
        "24/03/2020 14:30:14": [
            -57,
            0,
            0
        ],
        "24/03/2020 16:44:34": [
            1,
            1,
            1
        ],
        "24/03/2020 19:23:53": [
            2,
            2
        ],
        "24/03/2020 21:40:39": [
            23
        ]
    },
    "529": {
        "24/03/2020 14:30:14": [
            -84,
            -23,
            -23
        ],
        "24/03/2020 16:44:35": [
            -6,
            -6,
            -6
        ],
        "24/03/2020 19:23:53": [
            -258,
            -26,
            -26
        ],
        "24/03/2020 21:40:40": [
            36,
            -10
        ]
    },
    "530": {
        "24/03/2020 14:30:15": [
            -47,
            20,
            20
        ],
        "24/03/2020 16:44:35": [
            -5,
            -5,
            -5
        ],
        "24/03/2020 19:23:54": [
            -221,
            11,
            11
        ],
        "24/03/2020 21:40:40": [
            66,
            20
        ]
    },
    "531": {
        "24/03/2020 14:30:16": [
            -62,
            12,
            12
        ],
        "24/03/2020 16:44:36": [
            10,
            10,
            10
        ],
        "24/03/2020 19:23:54": [
            -254,
            -3,
            -3
        ],
        "24/03/2020 21:40:41": [
            43,
            -3
        ]
    },
    "532": {
        "24/03/2020 14:30:16": [
            -71,
            19,
            19
        ],
        "24/03/2020 16:44:36": [
            -18,
            -18,
            -18
        ],
        "24/03/2020 19:23:55": [
            -206,
            9,
            9
        ],
        "24/03/2020 21:40:41": [
            60,
            14
        ]
    },
    "649": {
        "24/03/2020 14:30:16": [
            -84,
            9,
            9
        ],
        "24/03/2020 16:44:36": [
            -24,
            -24,
            -24
        ],
        "24/03/2020 19:23:55": [
            -219,
            -4,
            -4
        ],
        "24/03/2020 21:40:42": [
            40,
            -6
        ]
    },
    "650": {
        "24/03/2020 14:30:17": [
            -76,
            -15,
            -15
        ],
        "24/03/2020 16:44:37": [
            -10,
            -10,
            -10
        ],
        "24/03/2020 19:23:56": [
            -218,
            -3,
            -3
        ],
        "24/03/2020 21:40:42": [
            56,
            -10
        ]
    },
    "651": {
        "24/03/2020 14:30:17": [
            14,
            -15,
            -15
        ],
        "24/03/2020 16:44:37": [
            52,
            23,
            23,
            23
        ],
        "24/03/2020 19:23:56": [
            -201,
            14,
            14
        ],
        "24/03/2020 21:40:43": [
            66,
            0
        ]
    },
    "653": {
        "24/03/2020 14:30:18": [
            -9,
            23,
            23
        ],
        "24/03/2020 16:44:38": [
            68,
            12,
            12
        ],
        "24/03/2020 19:23:57": [
            -160,
            -27
        ],
        "24/03/2020 21:40:43": [
            73,
            7
        ]
    },
    "709": {
        "24/03/2020 14:30:18": [
            -79,
            -16,
            -16
        ],
        "24/03/2020 16:44:38": [
            -30,
            -30,
            -30
        ],
        "24/03/2020 19:23:57": [
            -260,
            -9,
            -9
        ],
        "24/03/2020 21:40:43": [
            17,
            -29
        ]
    },
    "724": {
        "24/03/2020 14:30:19": [
            -11,
            6
        ],
        "24/03/2020 16:44:39": [
            38,
            14,
            14
        ],
        "24/03/2020 19:23:58": [
            71,
            -127,
            6
        ],
        "24/03/2020 21:40:44": [
            93,
            27
        ]
    },
    "725": {
        "24/03/2020 14:30:19": [
            8,
            -19
        ],
        "24/03/2020 16:44:40": [
            69,
            -27,
            -27
        ],
        "24/03/2020 19:23:58": [
            79,
            -119,
            14
        ],
        "24/03/2020 21:40:44": [
            94,
            28
        ]
    },
    "726": {
        "24/03/2020 14:30:20": [
            21,
            8
        ],
        "24/03/2020 16:44:40": [
            33,
            -14,
            -14
        ],
        "24/03/2020 19:23:59": [
            81,
            -117,
            16
        ],
        "24/03/2020 21:40:45": [
            91,
            25
        ]
    },
    "727": {
        "24/03/2020 14:30:20": [
            10,
            22
        ],
        "24/03/2020 16:44:41": [
            35,
            -21,
            -21
        ],
        "24/03/2020 19:23:59": [
            65,
            -133,
            0
        ],
        "24/03/2020 21:40:45": [
            65,
            -1
        ]
    },
    "728": {
        "24/03/2020 14:30:20": [
            14,
            0
        ],
        "24/03/2020 16:44:41": [
            58,
            -9,
            -9
        ],
        "24/03/2020 19:24:00": [
            64,
            -134,
            -1
        ],
        "24/03/2020 21:40:46": [
            51,
            -15
        ]
    },
    "729": {
        "24/03/2020 14:30:21": [
            -8,
            -4
        ],
        "24/03/2020 16:44:42": [
            46,
            -28,
            -28
        ],
        "24/03/2020 19:24:00": [
            38,
            -160,
            -27
        ],
        "24/03/2020 21:40:46": [
            78,
            12
        ]
    },
    "525": {
        "24/03/2020 14:30:21": [
            24,
            24
        ],
        "24/03/2020 16:44:42": [
            1,
            1,
            1
        ],
        "24/03/2020 19:24:01": [
            19,
            19
        ],
        "24/03/2020 21:40:47": [
            8,
            8
        ]
    },
    "722": {
        "24/03/2020 14:30:22": [
            -22,
            29,
            29
        ],
        "24/03/2020 16:44:43": [
            68,
            3,
            3
        ],
        "24/03/2020 19:24:01": [
            80,
            -118,
            15,
            15
        ],
        "24/03/2020 21:40:47": [
            52,
            -14
        ]
    },
    "723": {
        "24/03/2020 14:30:22": [
            -14,
            -10,
            -10
        ],
        "24/03/2020 16:44:43": [
            26,
            11,
            11
        ],
        "24/03/2020 19:24:01": [
            77,
            -121,
            12
        ],
        "24/03/2020 21:40:48": [
            44,
            -22
        ]
    },
    "7552": {
        "24/03/2020 14:30:23": [
            -107,
            -16,
            -15
        ],
        "24/03/2020 16:44:44": [
            60,
            -26
        ],
        "24/03/2020 19:24:02": [
            51,
            -147,
            -14
        ],
        "24/03/2020 21:40:48": [
            8,
            8
        ]
    },
    "289": {
        "24/03/2020 14:30:23": [
            0,
            0,
            0
        ],
        "24/03/2020 16:44:44": [
            0,
            0,
            0
        ],
        "24/03/2020 19:24:02": [
            0,
            0
        ],
        "24/03/2020 21:40:49": [
            0,
            0
        ]
    },
    "522": {
        "24/03/2020 14:30:24": [
            -17,
            -17,
            -17
        ],
        "24/03/2020 16:44:45": [
            40,
            -22,
            -22,
            26
        ],
        "24/03/2020 19:24:03": [
            -11,
            -11
        ],
        "24/03/2020 21:40:49": [
            18,
            18
        ]
    },
    "526": {
        "24/03/2020 14:30:24": [
            11,
            11
        ],
        "24/03/2020 16:44:45": [
            15,
            15,
            15
        ],
        "24/03/2020 19:24:03": [
            11,
            11
        ],
        "24/03/2020 21:40:50": [
            -9,
            -9
        ]
    },
    "730": {
        "24/03/2020 14:30:25": [
            29,
            3
        ],
        "24/03/2020 16:44:46": [
            51,
            26,
            26
        ],
        "24/03/2020 19:24:04": [
            71,
            -127,
            6
        ],
        "24/03/2020 21:40:50": [
            43,
            -23
        ]
    },
    "924": {
        "24/03/2020 14:30:25": [
            -63,
            -15,
            -11
        ],
        "24/03/2020 16:44:46": [
            63,
            -25
        ],
        "24/03/2020 19:24:04": [
            38,
            -160,
            -27
        ],
        "24/03/2020 21:40:50": [
            -7,
            -7
        ]
    },
    "925": {
        "24/03/2020 14:30:26": [
            -30,
            29,
            -24
        ],
        "24/03/2020 16:44:47": [
            50,
            20
        ],
        "24/03/2020 19:24:05": [
            73,
            -125,
            8
        ],
        "24/03/2020 21:40:51": [
            27,
            27
        ]
    },
    "927": {
        "24/03/2020 14:30:26": [
            -88,
            -29,
            -26
        ],
        "24/03/2020 16:44:47": [
            62,
            27
        ],
        "24/03/2020 19:24:05": [
            66,
            -132,
            1
        ],
        "24/03/2020 21:40:51": [
            18,
            18
        ]
    },
    "938": {
        "24/03/2020 14:30:26": [],
        "24/03/2020 16:44:48": [],
        "24/03/2020 19:24:06": [],
        "24/03/2020 21:40:52": []
    },
    "519": {
        "24/03/2020 14:30:27": [
            23,
            23,
            23
        ],
        "24/03/2020 16:44:48": [
            39,
            -20,
            -20,
            -29
        ],
        "24/03/2020 19:24:06": [
            -18,
            -18
        ],
        "24/03/2020 21:40:52": [
            17,
            17
        ]
    },
    "521": {
        "24/03/2020 14:30:27": [
            -4,
            -4,
            -4
        ],
        "24/03/2020 16:44:49": [
            87,
            28,
            28,
            18
        ],
        "24/03/2020 19:24:07": [
            9,
            9
        ],
        "24/03/2020 21:40:53": [
            -18,
            -18
        ]
    }
}