{
    "2181": {
        "20/03/2020 17:06:51": [],
        "20/03/2020 21:32:37": []
    },
    "2182": {
        "20/03/2020 17:06:52": [],
        "20/03/2020 21:32:37": []
    },
    "2185": {
        "20/03/2020 17:06:52": [],
        "20/03/2020 21:32:37": []
    },
    "2317": {
        "20/03/2020 17:06:52": [],
        "20/03/2020 21:32:37": []
    },
    "2318": {
        "20/03/2020 17:06:52": [],
        "20/03/2020 21:32:38": []
    },
    "2319": {
        "20/03/2020 17:06:53": [],
        "20/03/2020 21:32:38": []
    },
    "2471": {
        "20/03/2020 17:06:53": [],
        "20/03/2020 21:32:38": []
    },
    "2472": {
        "20/03/2020 17:06:53": [],
        "20/03/2020 21:32:38": []
    },
    "2473": {
        "20/03/2020 17:06:54": [],
        "20/03/2020 21:32:39": []
    },
    "2474": {
        "20/03/2020 17:06:54": [],
        "20/03/2020 21:32:39": []
    },
    "2475": {
        "20/03/2020 17:06:54": [],
        "20/03/2020 21:32:39": []
    },
    "2476": {
        "20/03/2020 17:06:55": [],
        "20/03/2020 21:32:40": []
    },
    "2202": {
        "20/03/2020 17:06:55": [],
        "20/03/2020 21:32:40": []
    },
    "2203": {
        "20/03/2020 17:06:55": [],
        "20/03/2020 21:32:40": []
    },
    "2204": {
        "20/03/2020 17:06:56": [],
        "20/03/2020 21:32:40": []
    },
    "2205": {
        "20/03/2020 17:06:56": [],
        "20/03/2020 21:32:41": []
    },
    "2464": {
        "20/03/2020 17:06:56": [],
        "20/03/2020 21:32:41": []
    },
    "2465": {
        "20/03/2020 17:06:56": [],
        "20/03/2020 21:32:41": []
    },
    "2687": {
        "20/03/2020 17:06:57": [],
        "20/03/2020 21:32:41": []
    },
    "2688": {
        "20/03/2020 17:06:57": [],
        "20/03/2020 21:32:42": []
    },
    "2689": {
        "20/03/2020 17:06:57": [],
        "20/03/2020 21:32:42": []
    },
    "2696": {
        "20/03/2020 17:06:58": [],
        "20/03/2020 21:32:42": []
    },
    "2697": {
        "20/03/2020 17:06:58": [],
        "20/03/2020 21:32:42": []
    },
    "2700": {
        "20/03/2020 17:06:58": [],
        "20/03/2020 21:32:43": []
    },
    "1421": {
        "20/03/2020 17:06:58": [],
        "20/03/2020 21:32:43": []
    },
    "2778": {
        "20/03/2020 17:06:59": [],
        "20/03/2020 21:32:43": []
    },
    "2784": {
        "20/03/2020 17:06:59": [],
        "20/03/2020 21:32:43": []
    },
    "2785": {
        "20/03/2020 17:06:59": [],
        "20/03/2020 21:32:44": []
    },
    "2786": {
        "20/03/2020 17:07:00": [],
        "20/03/2020 21:32:44": []
    },
    "2787": {
        "20/03/2020 17:07:00": [],
        "20/03/2020 21:32:44": []
    },
    "2466": {
        "20/03/2020 17:07:00": [],
        "20/03/2020 21:32:45": []
    },
    "2467": {
        "20/03/2020 17:07:00": [],
        "20/03/2020 21:32:45": []
    },
    "2796": {
        "20/03/2020 17:07:01": [],
        "20/03/2020 21:32:45": []
    },
    "2797": {
        "20/03/2020 17:07:01": [],
        "20/03/2020 21:32:45": []
    },
    "2800": {
        "20/03/2020 17:07:01": [],
        "20/03/2020 21:32:46": []
    },
    "2801": {
        "20/03/2020 17:07:02": [],
        "20/03/2020 21:32:46": []
    },
    "2788": {
        "20/03/2020 17:07:02": [],
        "20/03/2020 21:32:46": []
    },
    "2789": {
        "20/03/2020 17:07:02": [],
        "20/03/2020 21:32:46": []
    },
    "2790": {
        "20/03/2020 17:07:03": [],
        "20/03/2020 21:32:47": []
    },
    "375": {
        "20/03/2020 17:07:03": [],
        "20/03/2020 21:32:47": []
    },
    "414": {
        "20/03/2020 17:07:03": [],
        "20/03/2020 21:32:47": []
    },
    "415": {
        "20/03/2020 17:07:03": [],
        "20/03/2020 21:32:47": []
    },
    "2477": {
        "20/03/2020 17:07:04": [],
        "20/03/2020 21:32:48": []
    },
    "2478": {
        "20/03/2020 17:07:04": [],
        "20/03/2020 21:32:48": []
    },
    "2494": {
        "20/03/2020 17:07:04": [],
        "20/03/2020 21:32:48": []
    },
    "2495": {
        "20/03/2020 17:07:05": [],
        "20/03/2020 21:32:49": []
    },
    "2496": {
        "20/03/2020 17:07:05": [],
        "20/03/2020 21:32:49": []
    },
    "2497": {
        "20/03/2020 17:07:05": [],
        "20/03/2020 21:32:49": []
    },
    "2701": {
        "20/03/2020 17:07:06": [],
        "20/03/2020 21:32:49": []
    },
    "2702": {
        "20/03/2020 17:07:06": [],
        "20/03/2020 21:32:50": []
    },
    "4359": {
        "20/03/2020 17:07:06": [],
        "20/03/2020 21:32:50": []
    },
    "4360": {
        "20/03/2020 17:07:06": [],
        "20/03/2020 21:32:50": []
    },
    "4361": {
        "20/03/2020 17:07:07": [],
        "20/03/2020 21:32:51": []
    },
    "4527": {
        "20/03/2020 17:07:07": [],
        "20/03/2020 21:32:51": []
    },
    "416": {
        "20/03/2020 17:07:07": [],
        "20/03/2020 21:32:52": []
    },
    "417": {
        "20/03/2020 17:07:08": [],
        "20/03/2020 21:32:52": []
    },
    "4888": {
        "20/03/2020 17:07:08": [],
        "20/03/2020 21:32:52": []
    },
    "359": {
        "20/03/2020 17:07:08": [],
        "20/03/2020 21:32:53": []
    },
    "779": {
        "20/03/2020 17:07:08": [],
        "20/03/2020 21:32:53": []
    },
    "4799": {
        "20/03/2020 17:07:09": [],
        "20/03/2020 21:32:53": []
    },
    "780": {
        "20/03/2020 17:07:09": [],
        "20/03/2020 21:32:53": []
    },
    "781": {
        "20/03/2020 17:07:09": [],
        "20/03/2020 21:32:54": []
    },
    "903": {
        "20/03/2020 17:07:10": [],
        "20/03/2020 21:32:54": []
    },
    "904": {
        "20/03/2020 17:07:10": [],
        "20/03/2020 21:32:55": []
    },
    "7599": {
        "20/03/2020 17:07:10": [],
        "20/03/2020 21:32:55": []
    },
    "2798": {
        "20/03/2020 17:07:10": [],
        "20/03/2020 21:32:55": []
    },
    "2799": {
        "20/03/2020 17:07:11": [],
        "20/03/2020 21:32:55": []
    },
    "2806": {
        "20/03/2020 17:07:11": [],
        "20/03/2020 21:32:56": []
    },
    "2807": {
        "20/03/2020 17:07:11": [],
        "20/03/2020 21:32:56": []
    },
    "385": {
        "20/03/2020 17:07:12": [],
        "20/03/2020 21:32:56": []
    },
    "486": {
        "20/03/2020 17:07:12": [],
        "20/03/2020 21:32:56": []
    },
    "753": {
        "20/03/2020 17:07:12": [],
        "20/03/2020 21:32:57": []
    },
    "754": {
        "20/03/2020 17:07:13": [],
        "20/03/2020 21:32:57": []
    },
    "755": {
        "20/03/2020 17:07:13": [],
        "20/03/2020 21:32:57": []
    },
    "487": {
        "20/03/2020 17:07:13": [],
        "20/03/2020 21:32:58": []
    },
    "2808": {
        "20/03/2020 17:07:14": [],
        "20/03/2020 21:32:58": []
    },
    "2328": {
        "20/03/2020 17:07:14": [],
        "20/03/2020 21:32:58": []
    },
    "2448": {
        "20/03/2020 17:07:14": [],
        "20/03/2020 21:32:58": []
    },
    "2726": {
        "20/03/2020 17:07:15": [],
        "20/03/2020 21:32:59": []
    },
    "2727": {
        "20/03/2020 17:07:15": [],
        "20/03/2020 21:32:59": []
    },
    "2780": {
        "20/03/2020 17:07:15": [],
        "20/03/2020 21:32:59": []
    },
    "2781": {
        "20/03/2020 17:07:16": [],
        "20/03/2020 21:33:00": []
    },
    "2782": {
        "20/03/2020 17:07:16": [],
        "20/03/2020 21:33:00": []
    },
    "2783": {
        "20/03/2020 17:07:16": [],
        "20/03/2020 21:33:00": []
    },
    "2791": {
        "20/03/2020 17:07:17": [],
        "20/03/2020 21:33:00": []
    },
    "2793": {
        "20/03/2020 17:07:17": [],
        "20/03/2020 21:33:01": []
    },
    "2794": {
        "20/03/2020 17:07:17": [],
        "20/03/2020 21:33:01": []
    },
    "4357": {
        "20/03/2020 17:07:17": [],
        "20/03/2020 21:33:01": []
    },
    "2206": {
        "20/03/2020 17:07:18": [],
        "20/03/2020 21:33:02": []
    },
    "2207": {
        "20/03/2020 17:07:18": [],
        "20/03/2020 21:33:02": []
    },
    "2208": {
        "20/03/2020 17:07:18": [],
        "20/03/2020 21:33:02": []
    },
    "2210": {
        "20/03/2020 17:07:19": [],
        "20/03/2020 21:33:02": []
    },
    "2211": {
        "20/03/2020 17:07:20": [],
        "20/03/2020 21:33:03": []
    },
    "2212": {
        "20/03/2020 17:07:20": [],
        "20/03/2020 21:33:03": []
    },
    "2652": {
        "20/03/2020 17:07:20": [],
        "20/03/2020 21:33:03": []
    },
    "2653": {
        "20/03/2020 17:07:21": [],
        "20/03/2020 21:33:03": []
    },
    "2654": {
        "20/03/2020 17:07:21": [],
        "20/03/2020 21:33:04": []
    },
    "2655": {
        "20/03/2020 17:07:21": [],
        "20/03/2020 21:33:04": []
    },
    "2656": {
        "20/03/2020 17:07:22": [],
        "20/03/2020 21:33:04": []
    },
    "2668": {
        "20/03/2020 17:07:22": [],
        "20/03/2020 21:33:04": []
    },
    "1077": {
        "20/03/2020 17:07:22": [],
        "20/03/2020 21:33:05": []
    },
    "2101": {
        "20/03/2020 17:07:23": [],
        "20/03/2020 21:33:05": []
    },
    "2102": {
        "20/03/2020 17:07:23": [],
        "20/03/2020 21:33:05": []
    },
    "2105": {
        "20/03/2020 17:07:23": [],
        "20/03/2020 21:33:05": []
    },
    "2329": {
        "20/03/2020 17:07:24": [],
        "20/03/2020 21:33:06": []
    },
    "2330": {
        "20/03/2020 17:07:24": [],
        "20/03/2020 21:33:06": []
    },
    "2331": {
        "20/03/2020 17:07:24": [],
        "20/03/2020 21:33:06": []
    },
    "2450": {
        "20/03/2020 17:07:24": [],
        "20/03/2020 21:33:06": []
    },
    "2479": {
        "20/03/2020 17:07:25": [],
        "20/03/2020 21:33:07": []
    },
    "2480": {
        "20/03/2020 17:07:25": [],
        "20/03/2020 21:33:07": []
    },
    "2481": {
        "20/03/2020 17:07:25": [],
        "20/03/2020 21:33:07": []
    },
    "2482": {
        "20/03/2020 17:07:25": [],
        "20/03/2020 21:33:08": []
    },
    "2483": {
        "20/03/2020 17:07:26": [],
        "20/03/2020 21:33:08": []
    },
    "2484": {
        "20/03/2020 17:07:26": [],
        "20/03/2020 21:33:08": []
    },
    "2485": {
        "20/03/2020 17:07:26": [],
        "20/03/2020 21:33:09": []
    },
    "2486": {
        "20/03/2020 17:07:27": [],
        "20/03/2020 21:33:09": []
    },
    "2487": {
        "20/03/2020 17:07:27": [],
        "20/03/2020 21:33:09": []
    },
    "2488": {
        "20/03/2020 17:07:27": [],
        "20/03/2020 21:33:09": []
    },
    "2489": {
        "20/03/2020 17:07:27": [],
        "20/03/2020 21:33:10": []
    },
    "5026": {
        "20/03/2020 17:07:28": [],
        "20/03/2020 21:33:10": []
    },
    "849": {
        "20/03/2020 17:07:28": [],
        "20/03/2020 21:33:10": []
    },
    "850": {
        "20/03/2020 17:07:28": [],
        "20/03/2020 21:33:11": []
    },
    "851": {
        "20/03/2020 17:07:29": [],
        "20/03/2020 21:33:11": []
    },
    "2672": {
        "20/03/2020 17:07:29": [],
        "20/03/2020 21:33:11": []
    },
    "2673": {
        "20/03/2020 17:07:29": [],
        "20/03/2020 21:33:11": []
    },
    "7165": {
        "20/03/2020 17:07:30": [],
        "20/03/2020 21:33:12": []
    }
}