{
    "2181": {
        "26/03/2020 12:55:46": [],
        "26/03/2020 15:20:37": [],
        "26/03/2020 17:58:44": []
    },
    "2182": {
        "26/03/2020 12:55:46": [],
        "26/03/2020 15:20:37": [],
        "26/03/2020 17:58:44": []
    },
    "2185": {
        "26/03/2020 12:55:46": [],
        "26/03/2020 15:20:38": [],
        "26/03/2020 17:58:45": []
    },
    "2317": {
        "26/03/2020 12:55:47": [],
        "26/03/2020 15:20:38": [],
        "26/03/2020 17:58:45": []
    },
    "2318": {
        "26/03/2020 12:55:48": [],
        "26/03/2020 15:20:39": [],
        "26/03/2020 17:58:46": []
    },
    "2319": {
        "26/03/2020 12:55:48": [],
        "26/03/2020 15:20:39": [],
        "26/03/2020 17:58:46": []
    },
    "2471": {
        "26/03/2020 12:55:49": [],
        "26/03/2020 15:20:39": [],
        "26/03/2020 17:58:47": []
    },
    "2472": {
        "26/03/2020 12:55:49": [],
        "26/03/2020 15:20:40": [],
        "26/03/2020 17:58:47": []
    },
    "2473": {
        "26/03/2020 12:55:50": [],
        "26/03/2020 15:20:40": [],
        "26/03/2020 17:58:48": []
    },
    "2474": {
        "26/03/2020 12:55:50": [],
        "26/03/2020 15:20:41": [],
        "26/03/2020 17:58:48": []
    },
    "2475": {
        "26/03/2020 12:55:51": [],
        "26/03/2020 15:20:41": [],
        "26/03/2020 17:58:49": []
    },
    "2476": {
        "26/03/2020 12:55:51": [],
        "26/03/2020 15:20:42": [],
        "26/03/2020 17:58:49": []
    },
    "2202": {
        "26/03/2020 12:55:52": [],
        "26/03/2020 15:20:42": [],
        "26/03/2020 17:58:50": []
    },
    "2203": {
        "26/03/2020 12:55:52": [],
        "26/03/2020 15:20:43": [],
        "26/03/2020 17:58:51": []
    },
    "2204": {
        "26/03/2020 12:55:53": [],
        "26/03/2020 15:20:43": [],
        "26/03/2020 17:58:51": []
    },
    "2205": {
        "26/03/2020 12:55:53": [],
        "26/03/2020 15:20:44": [],
        "26/03/2020 17:58:52": []
    },
    "2464": {
        "26/03/2020 12:55:54": [],
        "26/03/2020 15:20:44": [],
        "26/03/2020 17:58:52": []
    },
    "2465": {
        "26/03/2020 12:55:54": [],
        "26/03/2020 15:20:45": [],
        "26/03/2020 17:58:53": []
    },
    "2687": {
        "26/03/2020 12:55:55": [],
        "26/03/2020 15:20:45": [],
        "26/03/2020 17:58:53": []
    },
    "2688": {
        "26/03/2020 12:55:55": [],
        "26/03/2020 15:20:46": [],
        "26/03/2020 17:58:54": []
    },
    "2689": {
        "26/03/2020 12:55:56": [],
        "26/03/2020 15:20:46": [],
        "26/03/2020 17:58:54": []
    },
    "2696": {
        "26/03/2020 12:55:56": [],
        "26/03/2020 15:20:47": [],
        "26/03/2020 17:58:55": []
    },
    "2697": {
        "26/03/2020 12:55:57": [],
        "26/03/2020 15:20:47": [],
        "26/03/2020 17:58:55": []
    },
    "2700": {
        "26/03/2020 12:55:57": [],
        "26/03/2020 15:20:48": [],
        "26/03/2020 17:58:56": []
    },
    "1421": {
        "26/03/2020 12:55:58": [],
        "26/03/2020 15:20:48": [],
        "26/03/2020 17:58:56": []
    },
    "2778": {
        "26/03/2020 12:55:58": [],
        "26/03/2020 15:20:48": [],
        "26/03/2020 17:58:57": []
    },
    "2784": {
        "26/03/2020 12:55:59": [],
        "26/03/2020 15:20:49": [],
        "26/03/2020 17:58:57": []
    },
    "2785": {
        "26/03/2020 12:55:59": [],
        "26/03/2020 15:20:49": [],
        "26/03/2020 17:58:58": []
    },
    "2786": {
        "26/03/2020 12:56:00": [],
        "26/03/2020 15:20:50": [],
        "26/03/2020 17:58:58": []
    },
    "2787": {
        "26/03/2020 12:56:00": [],
        "26/03/2020 15:20:50": [],
        "26/03/2020 17:58:59": []
    },
    "2466": {
        "26/03/2020 12:56:01": [],
        "26/03/2020 15:20:51": [],
        "26/03/2020 17:58:59": []
    },
    "2467": {
        "26/03/2020 12:56:01": [],
        "26/03/2020 15:20:51": [],
        "26/03/2020 17:58:59": []
    },
    "2796": {
        "26/03/2020 12:56:02": [],
        "26/03/2020 15:20:52": [],
        "26/03/2020 17:59:00": []
    },
    "2797": {
        "26/03/2020 12:56:02": [],
        "26/03/2020 15:20:52": [],
        "26/03/2020 17:59:00": []
    },
    "2800": {
        "26/03/2020 12:56:03": [],
        "26/03/2020 15:20:53": [],
        "26/03/2020 17:59:01": []
    },
    "2801": {
        "26/03/2020 12:56:03": [],
        "26/03/2020 15:20:53": [],
        "26/03/2020 17:59:01": []
    },
    "2788": {
        "26/03/2020 12:56:04": [],
        "26/03/2020 15:20:54": [],
        "26/03/2020 17:59:02": []
    },
    "2789": {
        "26/03/2020 12:56:04": [],
        "26/03/2020 15:20:54": [],
        "26/03/2020 17:59:02": []
    },
    "2790": {
        "26/03/2020 12:56:05": [],
        "26/03/2020 15:20:55": [],
        "26/03/2020 17:59:03": []
    },
    "375": {
        "26/03/2020 12:56:05": [],
        "26/03/2020 15:20:55": [],
        "26/03/2020 17:59:04": []
    },
    "414": {
        "26/03/2020 12:56:06": [],
        "26/03/2020 15:20:56": [],
        "26/03/2020 17:59:04": []
    },
    "415": {
        "26/03/2020 12:56:07": [],
        "26/03/2020 15:20:56": [],
        "26/03/2020 17:59:05": []
    },
    "2477": {
        "26/03/2020 12:56:08": [],
        "26/03/2020 15:20:56": [],
        "26/03/2020 17:59:05": []
    },
    "2478": {
        "26/03/2020 12:56:08": [],
        "26/03/2020 15:20:57": [],
        "26/03/2020 17:59:05": []
    },
    "2494": {
        "26/03/2020 12:56:09": [],
        "26/03/2020 15:20:57": [],
        "26/03/2020 17:59:06": []
    },
    "2495": {
        "26/03/2020 12:56:09": [],
        "26/03/2020 15:20:58": [],
        "26/03/2020 17:59:07": []
    },
    "2496": {
        "26/03/2020 12:56:09": [],
        "26/03/2020 15:20:58": [],
        "26/03/2020 17:59:07": []
    },
    "2497": {
        "26/03/2020 12:56:10": [],
        "26/03/2020 15:20:59": [],
        "26/03/2020 17:59:08": []
    },
    "2701": {
        "26/03/2020 12:56:11": [],
        "26/03/2020 15:20:59": [],
        "26/03/2020 17:59:08": []
    },
    "2702": {
        "26/03/2020 12:56:11": [],
        "26/03/2020 15:21:00": [],
        "26/03/2020 17:59:09": []
    },
    "4359": {
        "26/03/2020 12:56:12": [],
        "26/03/2020 15:21:00": [],
        "26/03/2020 17:59:09": []
    },
    "4360": {
        "26/03/2020 12:56:12": [],
        "26/03/2020 15:21:01": [],
        "26/03/2020 17:59:10": []
    },
    "4361": {
        "26/03/2020 12:56:13": [],
        "26/03/2020 15:21:01": [],
        "26/03/2020 17:59:10": []
    },
    "4527": {
        "26/03/2020 12:56:13": [],
        "26/03/2020 15:21:02": [],
        "26/03/2020 17:59:11": []
    },
    "416": {
        "26/03/2020 12:56:14": [],
        "26/03/2020 15:21:02": [],
        "26/03/2020 17:59:11": []
    },
    "417": {
        "26/03/2020 12:56:14": [],
        "26/03/2020 15:21:03": [],
        "26/03/2020 17:59:12": []
    },
    "4888": {
        "26/03/2020 12:56:15": [],
        "26/03/2020 15:21:03": [],
        "26/03/2020 17:59:12": []
    },
    "359": {
        "26/03/2020 12:56:15": [],
        "26/03/2020 15:21:04": [],
        "26/03/2020 17:59:12": []
    },
    "779": {
        "26/03/2020 12:56:16": [],
        "26/03/2020 15:21:04": [],
        "26/03/2020 17:59:13": []
    },
    "4799": {
        "26/03/2020 12:56:16": [],
        "26/03/2020 15:21:05": [],
        "26/03/2020 17:59:14": []
    },
    "780": {
        "26/03/2020 12:56:17": [],
        "26/03/2020 15:21:05": [],
        "26/03/2020 17:59:14": []
    },
    "781": {
        "26/03/2020 12:56:17": [],
        "26/03/2020 15:21:06": [],
        "26/03/2020 17:59:15": []
    },
    "903": {
        "26/03/2020 12:56:18": [],
        "26/03/2020 15:21:06": [],
        "26/03/2020 17:59:15": []
    },
    "904": {
        "26/03/2020 12:56:18": [],
        "26/03/2020 15:21:07": [],
        "26/03/2020 17:59:16": []
    },
    "7599": {
        "26/03/2020 12:56:19": [],
        "26/03/2020 15:21:08": [],
        "26/03/2020 17:59:16": []
    },
    "2798": {
        "26/03/2020 12:56:19": [],
        "26/03/2020 15:21:08": [],
        "26/03/2020 17:59:17": []
    },
    "2799": {
        "26/03/2020 12:56:20": [],
        "26/03/2020 15:21:09": [],
        "26/03/2020 17:59:17": []
    },
    "2806": {
        "26/03/2020 12:56:21": [],
        "26/03/2020 15:21:09": [],
        "26/03/2020 17:59:17": []
    },
    "2807": {
        "26/03/2020 12:56:21": [],
        "26/03/2020 15:21:10": [],
        "26/03/2020 17:59:18": []
    },
    "385": {
        "26/03/2020 12:56:21": [],
        "26/03/2020 15:21:11": [],
        "26/03/2020 17:59:18": []
    },
    "486": {
        "26/03/2020 12:56:22": [],
        "26/03/2020 15:21:12": [],
        "26/03/2020 17:59:19": []
    },
    "753": {
        "26/03/2020 12:56:22": [],
        "26/03/2020 15:21:12": [],
        "26/03/2020 17:59:20": []
    },
    "754": {
        "26/03/2020 12:56:23": [],
        "26/03/2020 15:21:13": [],
        "26/03/2020 17:59:20": []
    },
    "755": {
        "26/03/2020 12:56:23": [],
        "26/03/2020 15:21:13": [],
        "26/03/2020 17:59:20": []
    },
    "487": {
        "26/03/2020 12:56:24": [],
        "26/03/2020 15:21:14": [],
        "26/03/2020 17:59:21": []
    },
    "2808": {
        "26/03/2020 12:56:24": [],
        "26/03/2020 15:21:15": [],
        "26/03/2020 17:59:21": []
    },
    "2328": {
        "26/03/2020 12:56:25": [],
        "26/03/2020 15:21:15": [],
        "26/03/2020 17:59:22": []
    },
    "2448": {
        "26/03/2020 12:56:25": [],
        "26/03/2020 15:21:16": [],
        "26/03/2020 17:59:22": []
    },
    "2726": {
        "26/03/2020 12:56:26": [],
        "26/03/2020 15:21:16": [],
        "26/03/2020 17:59:23": []
    },
    "2727": {
        "26/03/2020 12:56:26": [],
        "26/03/2020 15:21:17": [],
        "26/03/2020 17:59:23": []
    },
    "2780": {
        "26/03/2020 12:56:27": [],
        "26/03/2020 15:21:17": [],
        "26/03/2020 17:59:24": []
    },
    "2781": {
        "26/03/2020 12:56:28": [],
        "26/03/2020 15:21:18": [],
        "26/03/2020 17:59:24": []
    },
    "2782": {
        "26/03/2020 12:56:28": [],
        "26/03/2020 15:21:18": [],
        "26/03/2020 17:59:25": []
    },
    "2783": {
        "26/03/2020 12:56:29": [],
        "26/03/2020 15:21:19": [],
        "26/03/2020 17:59:25": []
    },
    "2791": {
        "26/03/2020 12:56:29": [],
        "26/03/2020 15:21:19": [],
        "26/03/2020 17:59:26": []
    },
    "2793": {
        "26/03/2020 12:56:30": [],
        "26/03/2020 15:21:20": [],
        "26/03/2020 17:59:26": []
    },
    "2794": {
        "26/03/2020 12:56:30": [],
        "26/03/2020 15:21:20": [],
        "26/03/2020 17:59:27": []
    },
    "4357": {
        "26/03/2020 12:56:31": [],
        "26/03/2020 15:21:21": [],
        "26/03/2020 17:59:27": []
    },
    "2206": {
        "26/03/2020 12:56:31": [],
        "26/03/2020 15:21:21": [],
        "26/03/2020 17:59:28": []
    },
    "2207": {
        "26/03/2020 12:56:32": [],
        "26/03/2020 15:21:22": [],
        "26/03/2020 17:59:28": []
    },
    "2208": {
        "26/03/2020 12:56:32": [],
        "26/03/2020 15:21:22": [],
        "26/03/2020 17:59:29": []
    },
    "2210": {
        "26/03/2020 12:56:33": [],
        "26/03/2020 15:21:23": [],
        "26/03/2020 17:59:29": []
    },
    "2211": {
        "26/03/2020 12:56:33": [],
        "26/03/2020 15:21:23": [],
        "26/03/2020 17:59:30": []
    },
    "2212": {
        "26/03/2020 12:56:34": [],
        "26/03/2020 15:21:24": [],
        "26/03/2020 17:59:30": []
    },
    "2652": {
        "26/03/2020 12:56:34": [],
        "26/03/2020 15:21:24": [],
        "26/03/2020 17:59:30": []
    },
    "2653": {
        "26/03/2020 12:56:35": [],
        "26/03/2020 15:21:25": [],
        "26/03/2020 17:59:31": []
    },
    "2654": {
        "26/03/2020 12:56:35": [],
        "26/03/2020 15:21:25": [],
        "26/03/2020 17:59:31": []
    },
    "2655": {
        "26/03/2020 12:56:36": [],
        "26/03/2020 15:21:26": [],
        "26/03/2020 17:59:32": []
    },
    "2656": {
        "26/03/2020 12:56:36": [],
        "26/03/2020 15:21:26": [],
        "26/03/2020 17:59:32": []
    },
    "2668": {
        "26/03/2020 12:56:37": [],
        "26/03/2020 15:21:27": [],
        "26/03/2020 17:59:33": []
    },
    "1077": {
        "26/03/2020 12:56:37": [],
        "26/03/2020 15:21:27": [],
        "26/03/2020 17:59:33": []
    },
    "2101": {
        "26/03/2020 12:56:38": [],
        "26/03/2020 15:21:28": [],
        "26/03/2020 17:59:34": []
    },
    "2102": {
        "26/03/2020 12:56:39": [],
        "26/03/2020 15:21:28": [],
        "26/03/2020 17:59:34": []
    },
    "2105": {
        "26/03/2020 12:56:40": [],
        "26/03/2020 15:21:29": [],
        "26/03/2020 17:59:35": []
    },
    "2329": {
        "26/03/2020 12:56:40": [],
        "26/03/2020 15:21:30": [],
        "26/03/2020 17:59:35": []
    },
    "2330": {
        "26/03/2020 12:56:41": [],
        "26/03/2020 15:21:30": [],
        "26/03/2020 17:59:36": []
    },
    "2331": {
        "26/03/2020 12:56:41": [],
        "26/03/2020 15:21:31": [],
        "26/03/2020 17:59:36": []
    },
    "2450": {
        "26/03/2020 12:56:42": [],
        "26/03/2020 15:21:31": [],
        "26/03/2020 17:59:36": []
    },
    "2479": {
        "26/03/2020 12:56:42": [],
        "26/03/2020 15:21:32": [],
        "26/03/2020 17:59:37": []
    },
    "2480": {
        "26/03/2020 12:56:43": [],
        "26/03/2020 15:21:32": [],
        "26/03/2020 17:59:37": []
    },
    "2481": {
        "26/03/2020 12:56:44": [],
        "26/03/2020 15:21:33": [],
        "26/03/2020 17:59:38": []
    },
    "2482": {
        "26/03/2020 12:56:44": [],
        "26/03/2020 15:21:33": [],
        "26/03/2020 17:59:38": []
    },
    "2483": {
        "26/03/2020 12:56:45": [],
        "26/03/2020 15:21:34": [],
        "26/03/2020 17:59:39": []
    },
    "2484": {
        "26/03/2020 12:56:46": [],
        "26/03/2020 15:21:34": [],
        "26/03/2020 17:59:39": []
    },
    "2485": {
        "26/03/2020 12:56:46": [],
        "26/03/2020 15:21:35": [],
        "26/03/2020 17:59:40": []
    },
    "2486": {
        "26/03/2020 12:56:47": [],
        "26/03/2020 15:21:35": [],
        "26/03/2020 17:59:40": []
    },
    "2487": {
        "26/03/2020 12:56:47": [],
        "26/03/2020 15:21:36": [],
        "26/03/2020 17:59:41": []
    },
    "2488": {
        "26/03/2020 12:56:48": [],
        "26/03/2020 15:21:36": [],
        "26/03/2020 17:59:41": []
    },
    "2489": {
        "26/03/2020 12:56:48": [],
        "26/03/2020 15:21:37": [],
        "26/03/2020 17:59:41": []
    },
    "5026": {
        "26/03/2020 12:56:49": [],
        "26/03/2020 15:21:37": [],
        "26/03/2020 17:59:42": []
    },
    "849": {
        "26/03/2020 12:56:49": [],
        "26/03/2020 15:21:38": [],
        "26/03/2020 17:59:42": []
    },
    "850": {
        "26/03/2020 12:56:50": [],
        "26/03/2020 15:21:38": [],
        "26/03/2020 17:59:43": []
    },
    "851": {
        "26/03/2020 12:56:50": [],
        "26/03/2020 15:21:39": [],
        "26/03/2020 17:59:44": []
    },
    "2672": {
        "26/03/2020 12:56:51": [],
        "26/03/2020 15:21:39": [],
        "26/03/2020 17:59:45": []
    },
    "2673": {
        "26/03/2020 12:56:51": [],
        "26/03/2020 15:21:40": [],
        "26/03/2020 17:59:45": []
    },
    "7165": {
        "26/03/2020 12:56:52": [],
        "26/03/2020 15:21:40": [],
        "26/03/2020 17:59:46": []
    }
}