{
    "3202": {
        "26/03/2020 12:27:52": [],
        "26/03/2020 14:49:40": [],
        "26/03/2020 17:30:53": []
    },
    "3203": {
        "26/03/2020 12:27:52": [],
        "26/03/2020 14:49:41": [],
        "26/03/2020 17:30:53": []
    },
    "3204": {
        "26/03/2020 12:27:53": [],
        "26/03/2020 14:49:42": [],
        "26/03/2020 17:30:54": []
    },
    "3205": {
        "26/03/2020 12:27:53": [],
        "26/03/2020 14:49:42": [],
        "26/03/2020 17:30:54": []
    },
    "3206": {
        "26/03/2020 12:27:54": [],
        "26/03/2020 14:49:43": [],
        "26/03/2020 17:30:55": []
    },
    "3207": {
        "26/03/2020 12:27:54": [],
        "26/03/2020 14:49:44": [],
        "26/03/2020 17:30:55": []
    },
    "3208": {
        "26/03/2020 12:27:55": [],
        "26/03/2020 14:49:44": [],
        "26/03/2020 17:30:56": []
    },
    "3209": {
        "26/03/2020 12:27:55": [],
        "26/03/2020 14:49:45": [],
        "26/03/2020 17:30:56": []
    },
    "3210": {
        "26/03/2020 12:27:56": [],
        "26/03/2020 14:49:45": [],
        "26/03/2020 17:30:57": []
    },
    "3211": {
        "26/03/2020 12:27:56": [],
        "26/03/2020 14:49:46": [],
        "26/03/2020 17:30:57": []
    },
    "3212": {
        "26/03/2020 12:27:57": [],
        "26/03/2020 14:49:46": [],
        "26/03/2020 17:30:58": []
    },
    "3213": {
        "26/03/2020 12:27:57": [],
        "26/03/2020 14:49:47": [],
        "26/03/2020 17:30:58": []
    },
    "4981": {
        "26/03/2020 12:27:58": [],
        "26/03/2020 14:49:47": [],
        "26/03/2020 17:30:59": []
    },
    "2037": {
        "26/03/2020 12:27:58": [],
        "26/03/2020 14:49:48": [],
        "26/03/2020 17:30:59": []
    },
    "2040": {
        "26/03/2020 12:27:59": [],
        "26/03/2020 14:49:49": [],
        "26/03/2020 17:31:00": []
    },
    "3047": {
        "26/03/2020 12:27:59": [],
        "26/03/2020 14:49:49": [],
        "26/03/2020 17:31:00": []
    },
    "3214": {
        "26/03/2020 12:28:00": [],
        "26/03/2020 14:49:50": [],
        "26/03/2020 17:31:01": []
    },
    "3215": {
        "26/03/2020 12:28:00": [],
        "26/03/2020 14:49:50": [],
        "26/03/2020 17:31:01": []
    },
    "3216": {
        "26/03/2020 12:28:01": [],
        "26/03/2020 14:49:51": [],
        "26/03/2020 17:31:03": []
    },
    "3217": {
        "26/03/2020 12:28:01": [],
        "26/03/2020 14:49:51": [],
        "26/03/2020 17:31:03": []
    },
    "3218": {
        "26/03/2020 12:28:02": [],
        "26/03/2020 14:49:52": [],
        "26/03/2020 17:31:04": []
    },
    "3219": {
        "26/03/2020 12:28:02": [],
        "26/03/2020 14:49:52": [],
        "26/03/2020 17:31:04": []
    },
    "3220": {
        "26/03/2020 12:28:03": [],
        "26/03/2020 14:49:53": [],
        "26/03/2020 17:31:05": []
    },
    "3221": {
        "26/03/2020 12:28:03": [],
        "26/03/2020 14:49:53": [],
        "26/03/2020 17:31:05": []
    },
    "4982": {
        "26/03/2020 12:28:04": [],
        "26/03/2020 14:49:54": [],
        "26/03/2020 17:31:06": []
    },
    "3068": {
        "26/03/2020 12:28:04": [],
        "26/03/2020 14:49:54": [],
        "26/03/2020 17:31:06": []
    },
    "3069": {
        "26/03/2020 12:28:05": [],
        "26/03/2020 14:49:55": [],
        "26/03/2020 17:31:07": []
    },
    "3070": {
        "26/03/2020 12:28:06": [],
        "26/03/2020 14:49:56": [],
        "26/03/2020 17:31:08": []
    },
    "3222": {
        "26/03/2020 12:28:06": [],
        "26/03/2020 14:49:57": [],
        "26/03/2020 17:31:08": []
    },
    "3223": {
        "26/03/2020 12:28:07": [],
        "26/03/2020 14:49:57": [],
        "26/03/2020 17:31:09": []
    },
    "3224": {
        "26/03/2020 12:28:07": [],
        "26/03/2020 14:49:58": [],
        "26/03/2020 17:31:09": []
    },
    "3225": {
        "26/03/2020 12:28:08": [],
        "26/03/2020 14:49:58": [],
        "26/03/2020 17:31:10": []
    },
    "3226": {
        "26/03/2020 12:28:09": [],
        "26/03/2020 14:49:59": [],
        "26/03/2020 17:31:10": []
    },
    "3227": {
        "26/03/2020 12:28:09": [],
        "26/03/2020 14:49:59": [],
        "26/03/2020 17:31:11": []
    },
    "3228": {
        "26/03/2020 12:28:10": [],
        "26/03/2020 14:50:00": [],
        "26/03/2020 17:31:11": []
    },
    "3229": {
        "26/03/2020 12:28:10": [],
        "26/03/2020 14:50:00": [],
        "26/03/2020 17:31:12": []
    },
    "3230": {
        "26/03/2020 12:28:11": [],
        "26/03/2020 14:50:01": [],
        "26/03/2020 17:31:12": []
    },
    "3232": {
        "26/03/2020 12:28:11": [],
        "26/03/2020 14:50:01": [],
        "26/03/2020 17:31:13": []
    },
    "3233": {
        "26/03/2020 12:28:12": [],
        "26/03/2020 14:50:02": [],
        "26/03/2020 17:31:13": []
    },
    "3234": {
        "26/03/2020 12:28:12": [],
        "26/03/2020 14:50:02": [],
        "26/03/2020 17:31:14": []
    },
    "3235": {
        "26/03/2020 12:28:13": [],
        "26/03/2020 14:50:03": [],
        "26/03/2020 17:31:14": []
    },
    "3236": {
        "26/03/2020 12:28:13": [],
        "26/03/2020 14:50:03": [],
        "26/03/2020 17:31:15": []
    },
    "3237": {
        "26/03/2020 12:28:14": [],
        "26/03/2020 14:50:04": [],
        "26/03/2020 17:31:15": []
    },
    "3238": {
        "26/03/2020 12:28:14": [],
        "26/03/2020 14:50:04": [],
        "26/03/2020 17:31:16": []
    },
    "3239": {
        "26/03/2020 12:28:15": [],
        "26/03/2020 14:50:05": [],
        "26/03/2020 17:31:16": []
    },
    "3240": {
        "26/03/2020 12:28:15": [],
        "26/03/2020 14:50:05": [],
        "26/03/2020 17:31:17": []
    },
    "4983": {
        "26/03/2020 12:28:16": [],
        "26/03/2020 14:50:06": [],
        "26/03/2020 17:31:17": []
    },
    "4462": {
        "26/03/2020 12:28:17": [],
        "26/03/2020 14:50:07": [],
        "26/03/2020 17:31:18": []
    },
    "7472": {
        "26/03/2020 12:28:18": [],
        "26/03/2020 14:50:07": [],
        "26/03/2020 17:31:18": []
    }
}