{
    "3980": {
        "20/03/2020 18:37:34": [
            0,
            0
        ],
        "20/03/2020 22:59:14": [
            0
        ],
        "20/03/2020 23:00:20": [
            0
        ],
        "20/03/2020 23:00:36": [
            0
        ]
    },
    "3981": {
        "20/03/2020 18:37:34": [
            3,
            -24,
            -24
        ],
        "20/03/2020 22:59:14": [
            -3
        ],
        "20/03/2020 23:00:21": [
            -3
        ],
        "20/03/2020 23:00:36": [
            -3
        ]
    },
    "3982": {
        "20/03/2020 18:37:35": [
            -20,
            -20,
            -20
        ],
        "20/03/2020 22:59:14": [
            -28
        ],
        "20/03/2020 23:00:21": [
            -28
        ],
        "20/03/2020 23:00:37": [
            -28
        ]
    },
    "3983": {
        "20/03/2020 18:37:35": [
            5,
            5,
            5
        ],
        "20/03/2020 22:59:15": [
            -26
        ],
        "20/03/2020 23:00:22": [
            -26
        ],
        "20/03/2020 23:00:37": [
            -26
        ]
    },
    "6089": {
        "20/03/2020 18:37:34": [
            26,
            26
        ],
        "20/03/2020 22:59:15": [
            -14
        ],
        "20/03/2020 23:00:20": [
            -14
        ],
        "20/03/2020 23:00:36": [
            -14
        ]
    },
    "1472": {
        "20/03/2020 18:37:46": [
            -583,
            13
        ],
        "20/03/2020 22:59:15": [
            -26,
            -21
        ],
        "20/03/2020 22:59:38": [
            -26,
            -21
        ],
        "20/03/2020 23:00:31": [
            -26,
            -21
        ],
        "20/03/2020 23:00:47": [
            -26,
            -21
        ]
    },
    "1473": {
        "20/03/2020 18:37:46": [
            -604,
            -2
        ],
        "20/03/2020 22:59:16": [
            10,
            11
        ],
        "20/03/2020 22:59:39": [
            10,
            11
        ],
        "20/03/2020 23:00:32": [
            10,
            11
        ],
        "20/03/2020 23:00:49": [
            10,
            11
        ]
    },
    "1474": {
        "20/03/2020 18:37:47": [
            -530,
            1
        ],
        "20/03/2020 22:59:16": [
            6,
            2
        ],
        "20/03/2020 22:59:39": [
            6,
            2
        ],
        "20/03/2020 23:00:32": [
            6,
            2
        ],
        "20/03/2020 23:00:49": [
            6,
            2
        ]
    },
    "315": {
        "20/03/2020 18:37:48": [
            -502,
            -13
        ],
        "20/03/2020 22:59:16": [
            -23
        ],
        "20/03/2020 22:59:41": [
            -23
        ],
        "20/03/2020 23:00:34": [
            -23
        ],
        "20/03/2020 23:00:52": [
            -23
        ]
    },
    "3372": {
        "20/03/2020 18:37:39": [
            -17,
            -17
        ],
        "20/03/2020 22:59:16": [
            -44,
            -9
        ],
        "20/03/2020 22:59:32": [
            -44,
            -9
        ],
        "20/03/2020 23:00:25": [
            -44,
            -9
        ],
        "20/03/2020 23:00:41": [
            -44,
            -9
        ]
    },
    "3373": {
        "20/03/2020 18:37:39": [
            25,
            25
        ],
        "20/03/2020 22:59:17": [
            -63,
            22
        ],
        "20/03/2020 22:59:33": [
            -63,
            22
        ],
        "20/03/2020 23:00:26": [
            -63,
            22
        ],
        "20/03/2020 23:00:41": [
            -63,
            22
        ]
    },
    "3374": {
        "20/03/2020 18:37:40": [
            0,
            0
        ],
        "20/03/2020 22:59:17": [
            -50,
            -18
        ],
        "20/03/2020 22:59:33": [
            -50,
            -18
        ],
        "20/03/2020 23:00:26": [
            -50,
            -18
        ],
        "20/03/2020 23:00:42": [
            -50,
            -18
        ]
    },
    "3949": {
        "20/03/2020 18:37:39": [
            -15,
            -15
        ],
        "20/03/2020 22:59:17": [
            -75,
            -12
        ],
        "20/03/2020 22:59:32": [
            -75,
            -12
        ],
        "20/03/2020 23:00:25": [
            -12
        ],
        "20/03/2020 23:00:40": [
            -12
        ]
    },
    "3950": {
        "20/03/2020 18:37:39": [
            19,
            19
        ],
        "20/03/2020 22:59:18": [
            -47,
            13
        ],
        "20/03/2020 22:59:32": [
            -47,
            13
        ],
        "20/03/2020 23:00:25": [
            13
        ],
        "20/03/2020 23:00:41": [
            13
        ]
    },
    "3985": {
        "20/03/2020 18:37:36": [
            -14,
            -14
        ],
        "20/03/2020 22:59:18": [
            22
        ],
        "20/03/2020 22:59:29": [
            22
        ],
        "20/03/2020 23:00:22": [
            22
        ],
        "20/03/2020 23:00:37": [
            22
        ]
    },
    "3986": {
        "20/03/2020 18:37:36": [
            -1,
            -1
        ],
        "20/03/2020 22:59:18": [
            -29
        ],
        "20/03/2020 22:59:29": [
            -29
        ],
        "20/03/2020 23:00:22": [
            -29
        ],
        "20/03/2020 23:00:38": [
            -29
        ]
    },
    "3987": {
        "20/03/2020 18:37:36": [
            22,
            22
        ],
        "20/03/2020 22:59:18": [
            26
        ],
        "20/03/2020 22:59:29": [
            26
        ],
        "20/03/2020 23:00:22": [
            26
        ],
        "20/03/2020 23:00:38": [
            26
        ]
    },
    "3989": {
        "20/03/2020 18:37:36": [
            2,
            2
        ],
        "20/03/2020 22:59:19": [
            -7
        ],
        "20/03/2020 22:59:30": [
            -7
        ],
        "20/03/2020 23:00:23": [
            -7
        ],
        "20/03/2020 23:00:38": [
            -7
        ]
    },
    "3990": {
        "20/03/2020 18:37:37": [
            -5,
            -5
        ],
        "20/03/2020 22:59:19": [
            28
        ],
        "20/03/2020 22:59:30": [
            28
        ],
        "20/03/2020 23:00:23": [
            28
        ],
        "20/03/2020 23:00:39": [
            28
        ]
    },
    "3991": {
        "20/03/2020 18:37:37": [
            -5,
            -5
        ],
        "20/03/2020 22:59:19": [
            10
        ],
        "20/03/2020 22:59:30": [
            10
        ],
        "20/03/2020 23:00:23": [
            10
        ],
        "20/03/2020 23:00:39": [
            10
        ]
    },
    "2236": {
        "20/03/2020 18:37:41": [
            0,
            0
        ],
        "20/03/2020 22:59:20": [
            -68,
            -1
        ],
        "20/03/2020 22:59:34": [
            -68,
            -1
        ],
        "20/03/2020 23:00:27": [
            -68,
            -1
        ],
        "20/03/2020 23:00:43": [
            -68,
            -1
        ]
    },
    "2237": {
        "20/03/2020 18:36:16": [],
        "20/03/2020 22:59:20": []
    },
    "2238": {
        "20/03/2020 18:37:42": [
            21,
            21
        ],
        "20/03/2020 22:59:20": [
            -45,
            19
        ],
        "20/03/2020 22:59:35": [
            -45,
            19
        ],
        "20/03/2020 23:00:28": [
            -45,
            19
        ],
        "20/03/2020 23:00:43": [
            -45,
            19
        ]
    },
    "2239": {
        "20/03/2020 18:37:42": [
            15,
            15
        ],
        "20/03/2020 22:59:20": [
            -6,
            -22
        ],
        "20/03/2020 22:59:35": [
            -6,
            -22
        ],
        "20/03/2020 23:00:28": [
            -6,
            -22
        ],
        "20/03/2020 23:00:44": [
            -6,
            -22
        ]
    },
    "2241": {
        "20/03/2020 18:37:42": [
            21,
            21
        ],
        "20/03/2020 22:59:21": [
            -10,
            5
        ],
        "20/03/2020 22:59:35": [
            -10,
            5
        ],
        "20/03/2020 23:00:28": [
            -10,
            5
        ],
        "20/03/2020 23:00:44": [
            -10,
            5
        ]
    },
    "2242": {
        "20/03/2020 18:37:43": [
            -5,
            -5
        ],
        "20/03/2020 22:59:21": [
            19,
            29
        ],
        "20/03/2020 22:59:36": [
            19,
            29
        ],
        "20/03/2020 23:00:29": [
            19,
            29
        ],
        "20/03/2020 23:00:44": [
            19,
            29
        ]
    },
    "2243": {
        "20/03/2020 18:37:43": [
            21,
            21
        ],
        "20/03/2020 22:59:21": [
            -29,
            -30
        ],
        "20/03/2020 22:59:36": [
            -29,
            -30
        ],
        "20/03/2020 23:00:29": [
            -29,
            -30
        ],
        "20/03/2020 23:00:45": [
            -29,
            -30
        ]
    },
    "2244": {
        "20/03/2020 18:37:43": [
            -589,
            -3
        ],
        "20/03/2020 22:59:22": [
            3,
            -3
        ],
        "20/03/2020 22:59:36": [
            3,
            -3
        ],
        "20/03/2020 23:00:29": [
            3,
            -3
        ],
        "20/03/2020 23:00:45": [
            3,
            -3
        ]
    },
    "2245": {
        "20/03/2020 18:37:44": [
            -613,
            27
        ],
        "20/03/2020 22:59:22": [
            28,
            18
        ],
        "20/03/2020 22:59:37": [
            28,
            18
        ],
        "20/03/2020 23:00:29": [
            28,
            18
        ],
        "20/03/2020 23:00:45": [
            28,
            18
        ]
    },
    "2246": {
        "20/03/2020 18:37:44": [
            -609,
            -25
        ],
        "20/03/2020 22:59:22": [
            22,
            1
        ],
        "20/03/2020 22:59:37": [
            22,
            1
        ],
        "20/03/2020 23:00:30": [
            22,
            1
        ],
        "20/03/2020 23:00:46": [
            22,
            1
        ]
    },
    "2247": {
        "20/03/2020 18:37:44": [
            -595,
            -28
        ],
        "20/03/2020 22:59:22": [
            10,
            -20
        ],
        "20/03/2020 22:59:37": [
            10,
            -20
        ],
        "20/03/2020 23:00:30": [
            10,
            -20
        ],
        "20/03/2020 23:00:46": [
            10,
            -20
        ]
    },
    "2248": {
        "20/03/2020 18:37:44": [
            -557,
            6
        ],
        "20/03/2020 22:59:23": [
            -18,
            11
        ],
        "20/03/2020 22:59:37": [
            -18,
            11
        ],
        "20/03/2020 23:00:30": [
            -18,
            11
        ],
        "20/03/2020 23:00:46": [
            -18,
            11
        ]
    },
    "2249": {
        "20/03/2020 18:37:45": [
            -588,
            -28
        ],
        "20/03/2020 22:59:23": [
            7,
            -26
        ],
        "20/03/2020 22:59:38": [
            7,
            -26
        ],
        "20/03/2020 23:00:31": [
            7,
            -26
        ],
        "20/03/2020 23:00:46": [
            7,
            -26
        ]
    },
    "2250": {
        "20/03/2020 18:37:45": [
            -562,
            -4
        ],
        "20/03/2020 22:59:23": [
            -30,
            -5
        ],
        "20/03/2020 22:59:38": [
            -30,
            -5
        ],
        "20/03/2020 23:00:31": [
            -30,
            -5
        ],
        "20/03/2020 23:00:47": [
            -30,
            -5
        ]
    },
    "2251": {
        "20/03/2020 18:37:45": [
            -576,
            -28
        ],
        "20/03/2020 22:59:24": [
            -1,
            15
        ],
        "20/03/2020 22:59:38": [
            -1,
            15
        ],
        "20/03/2020 23:00:31": [
            -1,
            15
        ],
        "20/03/2020 23:00:47": [
            -1,
            15
        ]
    },
    "2810": {
        "20/03/2020 18:37:49": [
            -512,
            8
        ],
        "20/03/2020 22:59:24": [
            7
        ],
        "20/03/2020 22:59:41": [
            7
        ],
        "20/03/2020 23:00:52": [
            7
        ]
    },
    "7453": {
        "20/03/2020 18:37:47": [
            -530,
            3
        ],
        "20/03/2020 22:59:24": [
            14,
            -17
        ],
        "20/03/2020 22:59:40": [
            14,
            -17
        ],
        "20/03/2020 23:00:33": [
            14,
            -17
        ],
        "20/03/2020 23:00:50": [
            14,
            -17
        ]
    },
    "1476": {
        "20/03/2020 18:37:47": [
            -528,
            21
        ],
        "20/03/2020 22:59:24": [
            -1,
            -11
        ],
        "20/03/2020 22:59:40": [
            -1,
            -11
        ],
        "20/03/2020 23:00:33": [
            -1,
            -11
        ],
        "20/03/2020 23:00:50": [
            -1,
            -11
        ]
    },
    "1478": {
        "20/03/2020 18:37:48": [
            -491,
            -30
        ],
        "20/03/2020 22:59:25": [
            16
        ],
        "20/03/2020 22:59:40": [
            16
        ],
        "20/03/2020 23:00:33": [
            16
        ],
        "20/03/2020 23:00:51": [
            16
        ]
    },
    "1479": {
        "20/03/2020 18:37:48": [
            -543,
            29
        ],
        "20/03/2020 22:59:25": [
            0,
            1
        ],
        "20/03/2020 22:59:40": [
            0,
            1
        ],
        "20/03/2020 23:00:34": [
            0,
            1
        ],
        "20/03/2020 23:00:51": [
            0,
            1
        ]
    },
    "2232": {
        "20/03/2020 18:37:40": [
            3,
            3
        ],
        "20/03/2020 22:59:25": [
            -59,
            28
        ],
        "20/03/2020 22:59:33": [
            -59,
            28
        ],
        "20/03/2020 23:00:26": [
            -59,
            28
        ],
        "20/03/2020 23:00:42": [
            -59,
            28
        ]
    },
    "2233": {
        "20/03/2020 18:37:40": [
            -23,
            -23
        ],
        "20/03/2020 22:59:25": [
            -82,
            7
        ],
        "20/03/2020 22:59:33": [
            -82,
            7
        ],
        "20/03/2020 23:00:26": [
            -82,
            7
        ],
        "20/03/2020 23:00:42": [
            -82,
            7
        ]
    },
    "2234": {
        "20/03/2020 18:37:41": [
            -19,
            -19
        ],
        "20/03/2020 22:59:26": [
            -83,
            -3
        ],
        "20/03/2020 22:59:34": [
            -83,
            -3
        ],
        "20/03/2020 23:00:27": [
            -83,
            -3
        ],
        "20/03/2020 23:00:42": [
            -83,
            -3
        ]
    },
    "2235": {
        "20/03/2020 18:37:41": [
            3,
            3
        ],
        "20/03/2020 22:59:26": [
            -62,
            15
        ],
        "20/03/2020 22:59:34": [
            -62,
            15
        ],
        "20/03/2020 23:00:27": [
            -62,
            15
        ],
        "20/03/2020 23:00:43": [
            -62,
            15
        ]
    },
    "347": {
        "20/03/2020 18:36:24": [],
        "20/03/2020 22:59:26": []
    },
    "3998": {
        "20/03/2020 18:37:37": [
            -26,
            -26
        ],
        "20/03/2020 22:59:27": [
            15
        ],
        "20/03/2020 22:59:31": [
            15
        ],
        "20/03/2020 23:00:24": [
            15
        ],
        "20/03/2020 23:00:39": [
            15
        ]
    },
    "3999": {
        "20/03/2020 18:37:38": [
            20,
            20
        ],
        "20/03/2020 22:59:27": [
            -4
        ],
        "20/03/2020 22:59:31": [
            -4
        ],
        "20/03/2020 23:00:24": [
            -4
        ],
        "20/03/2020 23:00:40": [
            -4
        ]
    },
    "4000": {
        "20/03/2020 18:37:38": [
            -11,
            -11
        ],
        "20/03/2020 22:59:27": [
            21
        ],
        "20/03/2020 22:59:31": [
            21
        ],
        "20/03/2020 23:00:24": [
            21
        ],
        "20/03/2020 23:00:40": [
            21
        ]
    },
    "4001": {
        "20/03/2020 18:37:38": [
            20,
            20
        ],
        "20/03/2020 22:59:28": [
            -13
        ],
        "20/03/2020 22:59:31": [
            -13
        ],
        "20/03/2020 23:00:24": [
            -13
        ],
        "20/03/2020 23:00:40": [
            -13
        ]
    },
    "406": {
        "20/03/2020 18:37:48": [
            -539,
            -27
        ],
        "20/03/2020 22:59:28": [],
        "20/03/2020 22:59:41": [],
        "20/03/2020 23:00:52": []
    },
    "4408": {
        "20/03/2020 18:37:46": [
            -626,
            -19
        ],
        "20/03/2020 22:59:28": [
            -4,
            -1
        ],
        "20/03/2020 22:59:39": [
            -4,
            -1
        ],
        "20/03/2020 23:00:32": [
            -4,
            -1
        ],
        "20/03/2020 23:00:48": [
            -4,
            -1
        ]
    },
    "5056": {
        "20/03/2020 18:37:42": [
            -21,
            -21
        ],
        "20/03/2020 22:59:28": [
            -90,
            -28
        ],
        "20/03/2020 22:59:35": [
            -90,
            -28
        ],
        "20/03/2020 23:00:28": [
            -90,
            -28
        ],
        "20/03/2020 23:00:44": [
            -90,
            -28
        ]
    },
    "7387": {
        "20/03/2020 18:37:49": [],
        "20/03/2020 22:59:29": [],
        "20/03/2020 22:59:42": [],
        "20/03/2020 23:00:52": []
    },
    "1444": {
        "20/03/2020 18:37:02": [
            24,
            24
        ],
        "20/03/2020 22:59:43": [
            -3
        ],
        "20/03/2020 23:00:04": [
            -3
        ]
    },
    "1445": {
        "20/03/2020 18:37:02": [
            18,
            18
        ],
        "20/03/2020 22:59:43": [
            -11
        ],
        "20/03/2020 23:00:04": [
            -11
        ]
    },
    "1449": {
        "20/03/2020 18:37:03": [
            -6,
            -6
        ],
        "20/03/2020 22:59:43": [
            -2
        ],
        "20/03/2020 23:00:05": [
            -2
        ]
    },
    "1450": {
        "20/03/2020 18:37:03": [
            -23,
            -23
        ],
        "20/03/2020 22:59:44": [
            26
        ],
        "20/03/2020 23:00:05": [
            26
        ]
    },
    "1451": {
        "20/03/2020 18:37:03": [
            16,
            16
        ],
        "20/03/2020 22:59:44": [
            -8
        ],
        "20/03/2020 23:00:06": [
            -8
        ]
    },
    "2191": {
        "20/03/2020 18:37:04": [
            3,
            3
        ],
        "20/03/2020 22:59:44": [
            -18
        ],
        "20/03/2020 23:00:06": [
            -18
        ]
    },
    "2192": {
        "20/03/2020 18:37:04": [
            -28,
            -28
        ],
        "20/03/2020 22:59:45": [
            8
        ],
        "20/03/2020 23:00:06": [
            8
        ]
    },
    "2193": {
        "20/03/2020 18:37:04": [
            7,
            7
        ],
        "20/03/2020 22:59:45": [
            -21
        ],
        "20/03/2020 23:00:06": [
            -21
        ]
    },
    "2194": {
        "20/03/2020 18:37:04": [
            28,
            28
        ],
        "20/03/2020 22:59:45": [
            -1
        ],
        "20/03/2020 23:00:07": [
            -1
        ]
    },
    "2195": {
        "20/03/2020 18:37:05": [
            7,
            7
        ],
        "20/03/2020 22:59:45": [
            -24
        ],
        "20/03/2020 23:00:07": [
            -24
        ]
    },
    "2196": {
        "20/03/2020 18:37:05": [
            -4,
            -4
        ],
        "20/03/2020 22:59:46": [
            10
        ],
        "20/03/2020 23:00:07": [
            10
        ]
    },
    "2200": {
        "20/03/2020 18:37:06": [
            -18,
            -18
        ],
        "20/03/2020 22:59:46": [
            4
        ],
        "20/03/2020 23:00:08": [
            4
        ]
    },
    "2201": {
        "20/03/2020 18:37:06": [
            20
        ],
        "20/03/2020 22:59:46": [
            6
        ],
        "20/03/2020 23:00:08": [
            6
        ]
    },
    "2213": {
        "20/03/2020 18:37:07": [
            -12
        ],
        "20/03/2020 22:59:47": [
            -247,
            -6
        ],
        "20/03/2020 23:00:09": [
            -247,
            -6
        ]
    },
    "2214": {
        "20/03/2020 18:37:07": [
            -409,
            -21
        ],
        "20/03/2020 22:59:47": [
            -237,
            -24
        ],
        "20/03/2020 23:00:10": [
            -237,
            -24
        ]
    },
    "2215": {
        "20/03/2020 18:37:08": [
            -389,
            -24
        ],
        "20/03/2020 22:59:47": [
            -188,
            25
        ],
        "20/03/2020 23:00:10": [
            -188,
            25
        ]
    },
    "317": {
        "20/03/2020 18:37:01": [
            -29,
            -29
        ],
        "20/03/2020 22:59:48": [
            0
        ],
        "20/03/2020 23:00:03": [
            0
        ]
    },
    "3365": {
        "20/03/2020 18:37:10": [
            -358,
            -4
        ],
        "20/03/2020 22:59:48": [
            -216
        ],
        "20/03/2020 23:00:12": [
            -216
        ]
    },
    "3366": {
        "20/03/2020 18:37:10": [
            -393,
            22
        ],
        "20/03/2020 22:59:48": [
            -194,
            19
        ],
        "20/03/2020 23:00:12": [
            -194,
            19
        ]
    },
    "3886": {
        "20/03/2020 18:37:11": [
            -359,
            -24
        ],
        "20/03/2020 22:59:48": [
            -244,
            -3
        ],
        "20/03/2020 23:00:13": [
            -244,
            -3
        ]
    },
    "3887": {
        "20/03/2020 18:37:11": [
            -385,
            15
        ],
        "20/03/2020 22:59:49": [
            -161,
            -28
        ],
        "20/03/2020 23:00:14": [
            -161,
            -28
        ]
    },
    "312": {
        "20/03/2020 18:37:01": [
            -2,
            -2
        ],
        "20/03/2020 22:59:49": [
            -25
        ],
        "20/03/2020 23:00:04": [
            -25
        ]
    },
    "3367": {
        "20/03/2020 18:37:10": [
            -407,
            -28
        ],
        "20/03/2020 22:59:49": [
            -226,
            15
        ],
        "20/03/2020 23:00:13": [
            -226,
            15
        ]
    },
    "3918": {
        "20/03/2020 18:37:17": [
            268,
            -390
        ],
        "20/03/2020 22:59:49": [
            -145
        ],
        "20/03/2020 23:00:19": [
            -145
        ]
    },
    "3954": {
        "20/03/2020 18:37:12": [
            -365,
            -25
        ],
        "20/03/2020 22:59:50": [
            -270,
            -11
        ],
        "20/03/2020 23:00:15": [
            -270,
            -11
        ]
    },
    "3955": {
        "20/03/2020 18:37:13": [
            -402,
            -1
        ],
        "20/03/2020 22:59:50": [
            -252,
            7
        ],
        "20/03/2020 23:00:15": [
            -252,
            7
        ]
    },
    "3956": {
        "20/03/2020 18:37:13": [
            -371,
            20
        ],
        "20/03/2020 22:59:50": [
            -236,
            23
        ],
        "20/03/2020 23:00:15": [
            -236,
            23
        ]
    },
    "3957": {
        "20/03/2020 18:37:13": [
            -414,
            13
        ],
        "20/03/2020 22:59:51": [
            -128,
            5
        ],
        "20/03/2020 23:00:16": [
            -128,
            5
        ]
    },
    "3958": {
        "20/03/2020 18:37:14": [
            -406,
            -1
        ],
        "20/03/2020 22:59:51": [
            -278,
            -19
        ],
        "20/03/2020 23:00:16": [
            -278,
            -19
        ]
    },
    "3959": {
        "20/03/2020 18:37:14": [
            -384,
            -4
        ],
        "20/03/2020 22:59:51": [
            -234,
            25
        ],
        "20/03/2020 23:00:16": [
            -234,
            25
        ]
    },
    "3960": {
        "20/03/2020 18:37:14": [
            -404,
            -23
        ],
        "20/03/2020 22:59:51": [
            -256,
            3
        ],
        "20/03/2020 23:00:17": [
            -256,
            3
        ]
    },
    "3961": {
        "20/03/2020 18:37:14": [
            -370,
            13
        ],
        "20/03/2020 22:59:52": [
            -158,
            -25
        ],
        "20/03/2020 23:00:17": [
            -158,
            -25
        ]
    },
    "3962": {
        "20/03/2020 18:37:15": [
            -373,
            13
        ],
        "20/03/2020 22:59:52": [
            -231,
            28
        ],
        "20/03/2020 23:00:17": [
            -231,
            28
        ]
    },
    "3963": {
        "20/03/2020 18:37:15": [
            -393,
            -12
        ],
        "20/03/2020 22:59:52": [
            -261,
            -2
        ],
        "20/03/2020 23:00:17": [
            -261,
            -2
        ]
    },
    "3964": {
        "20/03/2020 18:37:15": [
            -397,
            -23
        ],
        "20/03/2020 22:59:53": [
            -152
        ],
        "20/03/2020 23:00:18": [
            -152
        ]
    },
    "3965": {
        "20/03/2020 18:37:16": [
            -414,
            14
        ],
        "20/03/2020 22:59:53": [
            -245
        ],
        "20/03/2020 23:00:18": [
            -245
        ]
    },
    "3966": {
        "20/03/2020 18:37:16": [
            -382
        ],
        "20/03/2020 22:59:53": [
            -283
        ],
        "20/03/2020 23:00:19": [
            -283
        ]
    },
    "3968": {
        "20/03/2020 18:37:16": [
            -385,
            24
        ],
        "20/03/2020 22:59:55": [
            -251
        ],
        "20/03/2020 23:00:18": [
            -251
        ]
    },
    "2197": {
        "20/03/2020 18:37:05": [
            -1,
            -1
        ],
        "20/03/2020 22:59:55": [
            -7
        ],
        "20/03/2020 23:00:08": [
            -7
        ]
    },
    "2198": {
        "20/03/2020 18:37:06": [
            6,
            6
        ],
        "20/03/2020 22:59:56": [
            -21
        ],
        "20/03/2020 23:00:08": [
            -21
        ]
    },
    "346": {
        "20/03/2020 18:37:01": [
            26,
            26
        ],
        "20/03/2020 22:59:56": [
            20
        ],
        "20/03/2020 23:00:03": [
            20
        ]
    },
    "400": {
        "20/03/2020 18:37:00": [
            9,
            9
        ],
        "20/03/2020 22:59:56": [
            28
        ],
        "20/03/2020 23:00:03": [
            28
        ]
    },
    "4401": {
        "20/03/2020 18:37:07": [
            29
        ],
        "20/03/2020 22:59:57": [
            0
        ],
        "20/03/2020 23:00:09": [
            0
        ]
    },
    "5113": {
        "20/03/2020 18:37:17": [
            -376
        ],
        "20/03/2020 22:59:57": [
            -120
        ],
        "20/03/2020 23:00:19": [
            -120
        ]
    },
    "4599": {
        "20/03/2020 18:37:08": [
            -324,
            -25
        ],
        "20/03/2020 22:59:57": [
            -257,
            2
        ],
        "20/03/2020 23:00:11": [
            -257,
            2
        ]
    },
    "7078": {
        "20/03/2020 18:37:02": [
            11,
            11
        ],
        "20/03/2020 22:59:58": [
            19
        ],
        "20/03/2020 23:00:05": [
            19
        ]
    },
    "7391": {
        "20/03/2020 18:36:59": [
            0,
            0
        ],
        "20/03/2020 22:59:58": [
            0
        ],
        "20/03/2020 23:00:02": [
            0
        ]
    },
    "5114": {
        "20/03/2020 18:37:17": [],
        "20/03/2020 22:59:58": [],
        "20/03/2020 23:00:20": []
    },
    "2216": {
        "20/03/2020 18:37:08": [
            -338,
            17
        ],
        "20/03/2020 22:59:58": [
            -213,
            0
        ],
        "20/03/2020 23:00:10": [
            -213,
            0
        ]
    },
    "2217": {
        "20/03/2020 18:37:09": [
            -393,
            26
        ],
        "20/03/2020 22:59:59": [
            -231,
            -18
        ],
        "20/03/2020 23:00:11": [
            -231,
            -18
        ]
    },
    "2218": {
        "20/03/2020 18:37:09": [
            -388,
            2
        ],
        "20/03/2020 22:59:59": [
            -200,
            13
        ],
        "20/03/2020 23:00:11": [
            -200,
            13
        ]
    },
    "2219": {
        "20/03/2020 18:37:09": [
            -394,
            -25
        ],
        "20/03/2020 22:59:59": [
            -233,
            -20
        ],
        "20/03/2020 23:00:12": [
            -233,
            -20
        ]
    },
    "3888": {
        "20/03/2020 18:37:11": [
            -416,
            -13
        ],
        "20/03/2020 23:00:00": [
            -131,
            2
        ],
        "20/03/2020 23:00:14": [
            -131,
            2
        ]
    },
    "493": {
        "20/03/2020 18:37:00": [
            21,
            21
        ],
        "20/03/2020 23:00:00": [
            -26
        ],
        "20/03/2020 23:00:02": [
            -26
        ]
    },
    "494": {
        "20/03/2020 18:37:00": [
            10,
            10
        ],
        "20/03/2020 23:00:00": [
            -12
        ],
        "20/03/2020 23:00:02": [
            -12
        ]
    },
    "495": {
        "20/03/2020 18:37:00": [
            22,
            22
        ],
        "20/03/2020 23:00:00": [
            16
        ],
        "20/03/2020 23:00:03": [
            16
        ]
    },
    "7186": {
        "20/03/2020 18:37:12": [
            -382,
            -14
        ],
        "20/03/2020 23:00:01": [
            -127,
            6
        ],
        "20/03/2020 23:00:14": [
            -127,
            6
        ]
    },
    "7187": {
        "20/03/2020 18:37:12": [
            -364,
            -5
        ],
        "20/03/2020 23:00:01": [
            -106,
            27
        ],
        "20/03/2020 23:00:15": [
            -106,
            27
        ]
    },
    "7239": {
        "20/03/2020 18:37:07": [
            0
        ],
        "20/03/2020 23:00:01": [
            -22
        ],
        "20/03/2020 23:00:09": [
            -22
        ]
    },
    "7694": {
        "20/03/2020 18:37:16": [
            -373
        ],
        "20/03/2020 23:00:19": [
            -264
        ]
    },
    "7704": {
        "20/03/2020 18:37:35": [
            12,
            12,
            12
        ],
        "20/03/2020 23:00:21": [
            -1
        ],
        "20/03/2020 23:00:37": [
            -1
        ]
    },
    "7313": {
        "20/03/2020 18:37:32": [],
        "20/03/2020 23:00:34": []
    },
    "6164": {
        "20/03/2020 18:37:32": [],
        "20/03/2020 23:00:34": []
    },
    "7712": {
        "20/03/2020 18:37:33": [],
        "20/03/2020 23:00:35": []
    },
    "6159": {
        "20/03/2020 18:37:33": [],
        "20/03/2020 23:00:35": []
    },
    "6160": {
        "20/03/2020 18:37:33": [],
        "20/03/2020 23:00:35": []
    },
    "6161": {
        "20/03/2020 18:37:34": [],
        "20/03/2020 23:00:36": []
    }
}