{
    "2237": {
        "26/03/2020 14:07:57": [],
        "26/03/2020 16:31:49": [],
        "26/03/2020 19:09:19": []
    },
    "347": {
        "26/03/2020 14:07:57": [],
        "26/03/2020 16:31:49": [],
        "26/03/2020 19:09:19": []
    },
    "7391": {
        "26/03/2020 14:07:58": [
            0,
            0
        ],
        "26/03/2020 16:31:50": [
            0,
            0
        ],
        "26/03/2020 19:09:20": [
            0,
            0
        ]
    },
    "493": {
        "26/03/2020 14:07:58": [
            20,
            -10,
            -10
        ],
        "26/03/2020 16:31:50": [],
        "26/03/2020 19:09:20": [
            26
        ]
    },
    "494": {
        "26/03/2020 14:07:59": [
            22,
            16,
            16
        ],
        "26/03/2020 16:31:51": [
            25,
            25
        ],
        "26/03/2020 19:09:21": [
            -27
        ]
    },
    "495": {
        "26/03/2020 14:07:59": [
            -22,
            -1,
            -1
        ],
        "26/03/2020 16:31:51": [
            -15,
            -15
        ],
        "26/03/2020 19:09:21": [
            -6
        ]
    },
    "400": {
        "26/03/2020 14:08:00": [
            -21,
            23,
            23
        ],
        "26/03/2020 16:31:52": [
            -22,
            -22
        ],
        "26/03/2020 19:09:22": [
            -1
        ]
    },
    "346": {
        "26/03/2020 14:08:00": [
            23,
            24
        ],
        "26/03/2020 16:31:52": [
            0,
            0
        ],
        "26/03/2020 19:09:22": [
            -13,
            -13
        ]
    },
    "317": {
        "26/03/2020 14:08:01": [
            28,
            -25
        ],
        "26/03/2020 16:31:53": [
            19,
            19
        ],
        "26/03/2020 19:09:23": [
            10
        ]
    },
    "312": {
        "26/03/2020 14:08:01": [
            -14,
            8
        ],
        "26/03/2020 16:31:53": [
            0,
            0
        ],
        "26/03/2020 19:09:23": [
            9
        ]
    },
    "1444": {
        "26/03/2020 14:08:02": [
            -8,
            -30
        ],
        "26/03/2020 16:31:54": [
            14
        ],
        "26/03/2020 19:09:24": [
            23
        ]
    },
    "1445": {
        "26/03/2020 14:08:02": [
            -27,
            22
        ],
        "26/03/2020 16:31:54": [
            0
        ],
        "26/03/2020 19:09:24": [
            9
        ]
    },
    "7078": {
        "26/03/2020 14:08:03": [
            12,
            -23
        ],
        "26/03/2020 16:31:55": [
            0,
            0
        ],
        "26/03/2020 19:09:25": [
            29,
            29
        ]
    },
    "1449": {
        "26/03/2020 14:08:03": [
            1,
            23
        ],
        "26/03/2020 16:31:55": [
            0,
            0
        ],
        "26/03/2020 19:09:25": [
            2
        ]
    },
    "1450": {
        "26/03/2020 14:08:04": [
            26,
            -16
        ],
        "26/03/2020 16:31:56": [
            -29,
            -29
        ],
        "26/03/2020 19:09:26": [
            24
        ]
    },
    "1451": {
        "26/03/2020 14:08:04": [
            -11,
            4
        ],
        "26/03/2020 16:31:56": [
            0,
            0
        ],
        "26/03/2020 19:09:26": [
            -16
        ]
    },
    "2191": {
        "26/03/2020 14:08:05": [
            -27,
            7
        ],
        "26/03/2020 16:31:57": [
            0,
            0
        ],
        "26/03/2020 19:09:27": [
            23
        ]
    },
    "2192": {
        "26/03/2020 14:08:05": [
            0,
            -24
        ],
        "26/03/2020 16:31:57": [
            0,
            0
        ],
        "26/03/2020 19:09:27": [
            -12
        ]
    },
    "2193": {
        "26/03/2020 14:08:06": [
            -27,
            9
        ],
        "26/03/2020 16:31:58": [
            0,
            0
        ],
        "26/03/2020 19:09:28": [
            20
        ]
    },
    "2194": {
        "26/03/2020 14:08:06": [
            -6,
            29
        ],
        "26/03/2020 16:31:58": [
            21,
            21
        ],
        "26/03/2020 19:09:28": [
            -21
        ]
    },
    "2195": {
        "26/03/2020 14:08:07": [
            -27,
            6
        ],
        "26/03/2020 16:31:59": [
            0,
            0
        ],
        "26/03/2020 19:09:29": [
            16
        ]
    },
    "2196": {
        "26/03/2020 14:08:07": [
            9,
            -13
        ],
        "26/03/2020 16:31:59": [
            -19,
            -19
        ],
        "26/03/2020 19:09:29": [
            -6
        ]
    },
    "2197": {
        "26/03/2020 14:08:08": [
            -5,
            -20
        ],
        "26/03/2020 16:32:00": [
            -26,
            -26
        ],
        "26/03/2020 19:09:30": [
            -17
        ]
    },
    "2198": {
        "26/03/2020 14:08:09": [
            -15,
            -23
        ],
        "26/03/2020 16:32:00": [
            14,
            -30
        ],
        "26/03/2020 19:09:30": [
            -25
        ]
    },
    "2200": {
        "26/03/2020 14:08:09": [
            11,
            7
        ],
        "26/03/2020 16:32:01": [
            -18,
            0
        ],
        "26/03/2020 19:09:31": [
            3
        ]
    },
    "2201": {
        "26/03/2020 14:08:10": [
            13,
            -19
        ],
        "26/03/2020 16:32:01": [
            -23,
            23
        ],
        "26/03/2020 19:09:31": [
            1
        ]
    },
    "7239": {
        "26/03/2020 14:08:10": [
            -15,
            6
        ],
        "26/03/2020 16:32:02": [
            7,
            -15
        ],
        "26/03/2020 19:09:32": [
            -29,
            -29
        ]
    },
    "4401": {
        "26/03/2020 14:08:11": [
            7,
            23
        ],
        "26/03/2020 16:32:03": [
            28,
            0
        ],
        "26/03/2020 19:09:32": [
            -7,
            -7
        ]
    },
    "2213": {
        "26/03/2020 14:08:11": [
            -15,
            -24
        ],
        "26/03/2020 16:32:03": [
            29,
            0
        ],
        "26/03/2020 19:09:33": [
            -18,
            -18
        ]
    },
    "2214": {
        "26/03/2020 14:08:12": [
            16,
            15
        ],
        "26/03/2020 16:32:03": [
            2,
            0
        ],
        "26/03/2020 19:09:33": [
            21,
            21
        ]
    },
    "2215": {
        "26/03/2020 14:08:12": [
            -7,
            -4
        ],
        "26/03/2020 16:32:04": [
            -11,
            0
        ],
        "26/03/2020 19:09:34": [
            8,
            8
        ]
    },
    "2216": {
        "26/03/2020 14:08:13": [
            26,
            -27
        ],
        "26/03/2020 16:32:05": [
            -25,
            0
        ],
        "26/03/2020 19:09:35": [
            293,
            -19,
            -19
        ]
    },
    "4599": {
        "26/03/2020 14:08:13": [
            -29
        ],
        "26/03/2020 16:32:05": [
            -18,
            -24
        ],
        "26/03/2020 19:09:35": [
            288,
            -24
        ]
    },
    "2217": {
        "26/03/2020 14:08:14": [
            14
        ],
        "26/03/2020 16:32:06": [
            26,
            0
        ],
        "26/03/2020 19:09:36": [
            325,
            13,
            13
        ]
    },
    "2218": {
        "26/03/2020 14:08:14": [
            -15
        ],
        "26/03/2020 16:32:06": [
            -1,
            0
        ],
        "26/03/2020 19:09:36": [
            295,
            -17,
            -17
        ]
    },
    "2219": {
        "26/03/2020 14:08:14": [
            144,
            9
        ],
        "26/03/2020 16:32:07": [
            -24,
            25
        ],
        "26/03/2020 19:09:37": [
            318,
            6,
            6
        ]
    },
    "3365": {
        "26/03/2020 14:08:15": [
            160,
            25
        ],
        "26/03/2020 16:32:07": [
            0,
            -20
        ],
        "26/03/2020 19:09:37": [
            332,
            20,
            20
        ]
    },
    "3366": {
        "26/03/2020 14:08:15": [
            119,
            -16
        ],
        "26/03/2020 16:32:08": [
            29,
            0
        ],
        "26/03/2020 19:09:38": [
            290,
            -22,
            -22
        ]
    },
    "3367": {
        "26/03/2020 14:08:16": [
            108,
            -7
        ],
        "26/03/2020 16:32:08": [
            -5,
            0
        ],
        "26/03/2020 19:09:38": [
            354,
            28,
            28
        ]
    },
    "3886": {
        "26/03/2020 14:08:16": [
            109,
            -6
        ],
        "26/03/2020 16:32:09": [
            -2,
            0
        ],
        "26/03/2020 19:09:39": [
            273
        ]
    },
    "3887": {
        "26/03/2020 14:08:17": [
            138,
            23
        ],
        "26/03/2020 16:32:09": [
            -83,
            27,
            -27
        ],
        "26/03/2020 19:09:39": [
            242
        ]
    },
    "3888": {
        "26/03/2020 14:08:17": [
            102,
            -13
        ],
        "26/03/2020 16:32:10": [
            -121,
            -9,
            0
        ],
        "26/03/2020 19:09:40": [
            267
        ]
    },
    "7186": {
        "26/03/2020 14:08:18": [
            120,
            -15
        ],
        "26/03/2020 16:32:10": [
            -143,
            -1,
            0
        ],
        "26/03/2020 19:09:40": [
            301,
            5
        ]
    },
    "7187": {
        "26/03/2020 14:08:18": [
            129,
            -6
        ],
        "26/03/2020 16:32:11": [
            -83,
            24,
            0
        ],
        "26/03/2020 19:09:41": [
            313,
            17
        ]
    },
    "3954": {
        "26/03/2020 14:08:19": [
            155,
            20
        ],
        "26/03/2020 16:32:11": [
            -144,
            -17,
            0
        ],
        "26/03/2020 19:09:41": [
            272,
            -24
        ]
    },
    "3955": {
        "26/03/2020 14:08:19": [
            112,
            -23
        ],
        "26/03/2020 16:32:12": [
            -119,
            8,
            0
        ],
        "26/03/2020 19:09:42": [
            291,
            -5
        ]
    },
    "3956": {
        "26/03/2020 14:08:20": [
            130,
            -5
        ],
        "26/03/2020 16:32:13": [
            -151,
            -24,
            7
        ],
        "26/03/2020 19:09:42": [
            306,
            10
        ]
    },
    "3957": {
        "26/03/2020 14:08:20": [
            116,
            -19
        ],
        "26/03/2020 16:32:13": [
            -139,
            -12,
            25
        ],
        "26/03/2020 19:09:43": [
            283,
            -13
        ]
    },
    "3958": {
        "26/03/2020 14:08:21": [
            156,
            21
        ],
        "26/03/2020 16:32:14": [
            -138,
            -11,
            -19
        ],
        "26/03/2020 19:09:43": [
            316,
            20
        ]
    },
    "3959": {
        "26/03/2020 14:08:22": [
            145,
            10
        ],
        "26/03/2020 16:32:14": [
            -122,
            5,
            0
        ],
        "26/03/2020 19:09:44": [
            296,
            0
        ]
    },
    "3960": {
        "26/03/2020 14:08:22": [
            118,
            -17
        ],
        "26/03/2020 16:32:15": [
            -144,
            -17,
            0
        ],
        "26/03/2020 19:09:44": [
            270,
            -26
        ]
    },
    "3961": {
        "26/03/2020 14:08:23": [
            146,
            11
        ],
        "26/03/2020 16:32:15": [
            -105,
            22,
            22
        ],
        "26/03/2020 19:09:45": [
            307,
            11
        ]
    },
    "3962": {
        "26/03/2020 14:08:23": [
            134,
            -1
        ],
        "26/03/2020 16:32:16": [
            -101,
            26,
            0
        ],
        "26/03/2020 19:09:45": [
            309,
            13
        ]
    },
    "3963": {
        "26/03/2020 14:08:24": [
            107,
            -28
        ],
        "26/03/2020 16:32:16": [
            -128,
            -1,
            -10
        ],
        "26/03/2020 19:09:46": [
            286,
            -10
        ]
    },
    "3964": {
        "26/03/2020 14:08:24": [
            154,
            19
        ],
        "26/03/2020 16:32:16": [
            -142,
            -15,
            0
        ],
        "26/03/2020 19:09:46": [
            278,
            -18
        ]
    },
    "3965": {
        "26/03/2020 14:08:25": [
            130,
            -5
        ],
        "26/03/2020 16:32:17": [
            -107,
            20,
            -6
        ],
        "26/03/2020 19:09:47": [
            317,
            21
        ]
    },
    "3968": {
        "26/03/2020 14:08:25": [
            134,
            -1
        ],
        "26/03/2020 16:32:18": [
            -105,
            22,
            0
        ],
        "26/03/2020 19:09:47": [
            224,
            -21
        ]
    },
    "7694": {
        "26/03/2020 14:08:26": [
            144,
            9
        ],
        "26/03/2020 16:32:19": [
            -5,
            -132,
            -5,
            10
        ],
        "26/03/2020 19:09:48": [
            220,
            -25
        ]
    },
    "3966": {
        "26/03/2020 14:08:26": [
            133,
            -2
        ],
        "26/03/2020 16:32:19": [
            -6,
            -133,
            -6,
            0
        ],
        "26/03/2020 19:09:48": [
            265,
            20
        ]
    },
    "5113": {
        "26/03/2020 14:08:27": [
            132,
            -3
        ],
        "26/03/2020 16:32:20": [
            -17,
            -144,
            -17,
            -3
        ],
        "26/03/2020 19:09:49": [
            247
        ]
    },
    "3918": {
        "26/03/2020 14:08:27": [
            160,
            25
        ],
        "26/03/2020 16:32:20": [
            -14,
            -141,
            -14
        ],
        "26/03/2020 19:09:49": [
            234,
            -11
        ]
    },
    "5114": {
        "26/03/2020 14:08:28": [],
        "26/03/2020 16:32:21": [],
        "26/03/2020 19:09:50": []
    },
    "7313": {
        "26/03/2020 14:08:28": [],
        "26/03/2020 16:32:21": [],
        "26/03/2020 19:09:51": []
    },
    "6164": {
        "26/03/2020 14:08:29": [],
        "26/03/2020 16:32:22": [],
        "26/03/2020 19:09:51": []
    },
    "7712": {
        "26/03/2020 14:08:29": [],
        "26/03/2020 16:32:22": [],
        "26/03/2020 19:09:52": []
    },
    "6159": {
        "26/03/2020 14:08:30": [],
        "26/03/2020 16:32:23": [],
        "26/03/2020 19:09:52": []
    },
    "6160": {
        "26/03/2020 14:08:31": [],
        "26/03/2020 16:32:23": [],
        "26/03/2020 19:09:53": []
    },
    "6161": {
        "26/03/2020 14:08:31": [],
        "26/03/2020 16:32:23": [],
        "26/03/2020 19:09:53": []
    },
    "3980": {
        "26/03/2020 14:08:32": [
            0,
            0
        ],
        "26/03/2020 16:32:24": [
            0,
            0
        ],
        "26/03/2020 19:09:54": [
            0,
            0
        ]
    },
    "6089": {
        "26/03/2020 14:08:32": [
            6,
            6
        ],
        "26/03/2020 16:32:24": [
            13,
            23
        ],
        "26/03/2020 19:09:54": [
            3,
            3
        ]
    },
    "3981": {
        "26/03/2020 14:08:33": [
            -14
        ],
        "26/03/2020 16:32:25": [
            4,
            -30
        ],
        "26/03/2020 19:09:55": [
            -22,
            -22
        ]
    },
    "3982": {
        "26/03/2020 14:08:33": [
            -24
        ],
        "26/03/2020 16:32:26": [
            -2,
            -28
        ],
        "26/03/2020 19:09:55": [
            25,
            25
        ]
    },
    "7704": {
        "26/03/2020 14:08:34": [
            9
        ],
        "26/03/2020 16:32:26": [
            -26,
            1
        ],
        "26/03/2020 19:09:56": [
            -5,
            -5
        ]
    },
    "3983": {
        "26/03/2020 14:08:34": [
            6
        ],
        "26/03/2020 16:32:26": [
            139,
            -19,
            -15
        ],
        "26/03/2020 19:09:56": [
            39,
            -18,
            -18
        ]
    },
    "3985": {
        "26/03/2020 14:08:35": [
            -13
        ],
        "26/03/2020 16:32:27": [
            126,
            11,
            -10,
            0
        ],
        "26/03/2020 19:09:57": [
            82,
            25,
            25
        ]
    },
    "3986": {
        "26/03/2020 14:08:35": [
            0
        ],
        "26/03/2020 16:32:27": [
            141,
            23,
            5,
            27
        ],
        "26/03/2020 19:09:57": [
            35,
            -22,
            -22
        ]
    },
    "3987": {
        "26/03/2020 14:08:36": [
            22
        ],
        "26/03/2020 16:32:28": [
            143,
            -20,
            -21,
            26
        ],
        "26/03/2020 19:09:58": [
            1,
            1,
            1
        ]
    },
    "3989": {
        "26/03/2020 14:08:36": [
            2
        ],
        "26/03/2020 16:32:28": [
            130,
            17,
            25,
            -8
        ],
        "26/03/2020 19:09:58": [
            -18,
            -18,
            -18
        ]
    },
    "3990": {
        "26/03/2020 14:08:37": [
            -9
        ],
        "26/03/2020 16:32:29": [
            169,
            16,
            -16,
            -28
        ],
        "26/03/2020 19:09:58": [
            22,
            22,
            22
        ]
    },
    "3991": {
        "26/03/2020 14:08:37": [
            74,
            -5
        ],
        "26/03/2020 16:32:29": [
            164,
            26,
            -18,
            15
        ],
        "26/03/2020 19:09:59": [
            8,
            8,
            8
        ]
    },
    "3998": {
        "26/03/2020 14:08:38": [
            -29,
            -29
        ],
        "26/03/2020 16:32:30": [
            139,
            10,
            8
        ],
        "26/03/2020 19:09:59": [
            -29,
            -29,
            -29
        ]
    },
    "3999": {
        "26/03/2020 14:08:38": [
            19,
            19
        ],
        "26/03/2020 16:32:31": [
            128,
            -3,
            -9
        ],
        "26/03/2020 19:10:00": [
            18,
            18
        ]
    },
    "4000": {
        "26/03/2020 14:08:39": [
            -12
        ],
        "26/03/2020 16:32:32": [
            155,
            27,
            16
        ],
        "26/03/2020 19:10:01": [
            -14,
            -14
        ]
    },
    "4001": {
        "26/03/2020 14:08:39": [
            19
        ],
        "26/03/2020 16:32:32": [
            125,
            -1,
            -18
        ],
        "26/03/2020 19:10:01": [
            17,
            17
        ]
    },
    "3949": {
        "26/03/2020 14:08:40": [
            -21,
            -21
        ],
        "26/03/2020 16:32:33": [
            151,
            28,
            -1
        ],
        "26/03/2020 19:10:01": [
            -24,
            -24
        ]
    },
    "3950": {
        "26/03/2020 14:08:40": [
            12,
            12
        ],
        "26/03/2020 16:32:33": [
            120,
            1,
            -15
        ],
        "26/03/2020 19:10:02": [
            9,
            9
        ]
    },
    "3372": {
        "26/03/2020 14:08:41": [
            -21
        ],
        "26/03/2020 16:32:34": [
            135,
            25,
            -14
        ],
        "26/03/2020 19:10:03": [
            11,
            11
        ]
    },
    "3373": {
        "26/03/2020 14:08:42": [
            18
        ],
        "26/03/2020 16:32:34": [
            116,
            7,
            22
        ],
        "26/03/2020 19:10:04": [
            -13,
            -13
        ]
    },
    "3374": {
        "26/03/2020 14:08:42": [
            -17
        ],
        "26/03/2020 16:32:35": [
            151,
            -22,
            -15
        ],
        "26/03/2020 19:10:04": [
            18,
            18
        ]
    },
    "2233": {
        "26/03/2020 14:08:43": [
            10
        ],
        "26/03/2020 16:32:35": [
            -18,
            16,
            4
        ],
        "26/03/2020 19:10:04": [
            -13,
            -13
        ]
    },
    "2232": {
        "26/03/2020 14:08:43": [
            -30
        ],
        "26/03/2020 16:32:36": [
            1,
            -22,
            23
        ],
        "26/03/2020 19:10:05": [
            12,
            12
        ]
    },
    "2234": {
        "26/03/2020 14:08:44": [
            9
        ],
        "26/03/2020 16:32:36": [
            -19,
            17,
            -3
        ],
        "26/03/2020 19:10:05": [
            -8,
            -8
        ]
    },
    "2235": {
        "26/03/2020 14:08:44": [
            -28
        ],
        "26/03/2020 16:32:37": [
            5,
            -20,
            17
        ],
        "26/03/2020 19:10:06": [
            15,
            15
        ]
    },
    "2236": {
        "26/03/2020 14:08:45": [
            -29
        ],
        "26/03/2020 16:32:38": [
            5,
            -21,
            8
        ],
        "26/03/2020 19:10:06": [
            14,
            14
        ]
    },
    "2238": {
        "26/03/2020 14:08:45": [
            -3
        ],
        "26/03/2020 16:32:38": [
            28,
            4,
            -24
        ],
        "26/03/2020 19:10:07": [
            -21,
            -21
        ]
    },
    "5056": {
        "26/03/2020 14:08:46": [
            13
        ],
        "26/03/2020 16:32:39": [
            124,
            21,
            -4
        ],
        "26/03/2020 19:10:07": [
            -7,
            -7
        ]
    },
    "2239": {
        "26/03/2020 14:08:47": [
            -26
        ],
        "26/03/2020 16:32:39": [
            -7,
            -10
        ],
        "26/03/2020 19:10:08": [
            8,
            8
        ]
    },
    "2241": {
        "26/03/2020 14:08:47": [
            18
        ],
        "26/03/2020 16:32:40": [
            21,
            -7
        ],
        "26/03/2020 19:10:08": [
            -16,
            -16
        ]
    },
    "2242": {
        "26/03/2020 14:08:48": [
            -9
        ],
        "26/03/2020 16:32:40": [
            -46,
            -4,
            25
        ],
        "26/03/2020 19:10:09": [
            16,
            16
        ]
    },
    "2243": {
        "26/03/2020 14:08:48": [
            14
        ],
        "26/03/2020 16:32:41": [
            -32,
            26,
            -12
        ],
        "26/03/2020 19:10:09": [
            -23,
            -23
        ]
    },
    "2244": {
        "26/03/2020 14:08:49": [
            -10
        ],
        "26/03/2020 16:32:41": [
            5,
            5,
            23
        ],
        "26/03/2020 19:10:10": [
            12,
            12
        ]
    },
    "2245": {
        "26/03/2020 14:08:49": [
            19
        ],
        "26/03/2020 16:32:42": [
            -24,
            -24,
            -8
        ],
        "26/03/2020 19:10:10": [
            -20,
            -20
        ]
    },
    "2246": {
        "26/03/2020 14:08:50": [
            27
        ],
        "26/03/2020 16:32:42": [
            -4,
            -4,
            0
        ],
        "26/03/2020 19:10:11": [
            -24,
            -24
        ]
    },
    "2247": {
        "26/03/2020 14:08:51": [
            26
        ],
        "26/03/2020 16:32:43": [
            -7,
            -7,
            2
        ],
        "26/03/2020 19:10:11": [
            -29,
            -29
        ]
    },
    "2248": {
        "26/03/2020 14:08:51": [],
        "26/03/2020 16:32:44": [
            -30,
            -30,
            -21
        ],
        "26/03/2020 19:10:12": [
            7,
            7
        ]
    },
    "2249": {
        "26/03/2020 14:08:52": [],
        "26/03/2020 16:32:44": [
            -2,
            -2,
            8
        ],
        "26/03/2020 19:10:12": [
            -25,
            -25
        ]
    },
    "2250": {
        "26/03/2020 14:08:52": [],
        "26/03/2020 16:32:44": [
            21,
            21,
            -26
        ],
        "26/03/2020 19:10:13": [
            0,
            0
        ]
    },
    "2251": {
        "26/03/2020 14:08:53": [],
        "26/03/2020 16:32:45": [
            6,
            6,
            9
        ],
        "26/03/2020 19:10:13": [
            -30,
            -30
        ]
    },
    "1472": {
        "26/03/2020 14:08:53": [
            -167
        ],
        "26/03/2020 16:32:45": [
            -1,
            -1,
            -10
        ],
        "26/03/2020 19:10:14": [
            5,
            5
        ]
    },
    "4408": {
        "26/03/2020 14:08:54": [
            -161,
            -7
        ],
        "26/03/2020 16:32:46": [
            26,
            168,
            18
        ],
        "26/03/2020 19:10:14": [
            27,
            27
        ]
    },
    "1473": {
        "26/03/2020 14:08:54": [
            -160
        ],
        "26/03/2020 16:32:46": [
            -17,
            -17,
            -25
        ],
        "26/03/2020 19:10:15": [
            -19,
            -19
        ]
    },
    "1474": {
        "26/03/2020 14:08:55": [
            -123
        ],
        "26/03/2020 16:32:47": [
            10,
            10,
            12
        ],
        "26/03/2020 19:10:15": [
            51,
            -16,
            -16
        ]
    },
    "1476": {
        "26/03/2020 14:08:55": [
            -111
        ],
        "26/03/2020 16:32:47": [
            17,
            17,
            24
        ],
        "26/03/2020 19:10:16": [
            47,
            -20,
            -20
        ]
    },
    "7453": {
        "26/03/2020 14:08:56": [
            -187,
            -24
        ],
        "26/03/2020 16:32:48": [
            26,
            168,
            -8
        ],
        "26/03/2020 19:10:16": [
            56,
            -11,
            -11
        ]
    },
    "1478": {
        "26/03/2020 14:08:56": [
            -128
        ],
        "26/03/2020 16:32:48": [
            24,
            24,
            7
        ],
        "26/03/2020 19:10:17": [
            55,
            -12,
            -12
        ]
    },
    "1479": {
        "26/03/2020 14:08:57": [
            -137
        ],
        "26/03/2020 16:32:49": [
            4,
            4,
            -2
        ],
        "26/03/2020 19:10:17": [
            95,
            28,
            28
        ]
    },
    "315": {
        "26/03/2020 14:08:58": [
            -143,
            -15
        ],
        "26/03/2020 16:32:49": [
            12,
            154,
            -8
        ],
        "26/03/2020 19:10:18": [
            -22,
            -22
        ]
    },
    "406": {
        "26/03/2020 14:08:58": [
            -129,
            2
        ],
        "26/03/2020 16:32:50": [
            720,
            29,
            171,
            6
        ],
        "26/03/2020 19:10:18": [
            866,
            -8,
            -8
        ]
    },
    "2810": {
        "26/03/2020 14:08:59": [
            -144
        ],
        "26/03/2020 16:32:51": [
            666,
            15,
            15,
            -9
        ],
        "26/03/2020 19:10:19": [
            931,
            -23,
            -23
        ]
    },
    "7387": {
        "26/03/2020 14:08:59": [],
        "26/03/2020 16:32:51": [],
        "26/03/2020 19:10:19": []
    }
}