{
    "2353": {
        "21/03/2020 14:58:43": [],
        "21/03/2020 14:59:36": [],
        "21/03/2020 17:17:27": [],
        "21/03/2020 20:00:22": [],
        "21/03/2020 22:02:36": []
    },
    "2357": {
        "21/03/2020 14:58:43": [],
        "21/03/2020 17:17:13": [],
        "21/03/2020 20:00:03": [],
        "21/03/2020 22:02:17": []
    },
    "2359": {
        "21/03/2020 14:58:44": [],
        "21/03/2020 14:59:37": [],
        "21/03/2020 17:17:27": [],
        "21/03/2020 20:00:23": [],
        "21/03/2020 22:02:37": []
    },
    "7122": {
        "21/03/2020 14:58:44": [
            -12,
            -12
        ],
        "21/03/2020 14:59:22": [
            -12,
            -12
        ],
        "21/03/2020 14:59:53": [
            -12,
            -12
        ],
        "21/03/2020 17:17:44": [
            45,
            -10
        ],
        "21/03/2020 20:00:47": [
            -27
        ],
        "21/03/2020 22:03:02": [
            5
        ]
    },
    "7121": {
        "21/03/2020 14:58:44": [
            7,
            7
        ],
        "21/03/2020 14:59:23": [
            7,
            7
        ],
        "21/03/2020 14:59:48": [
            7,
            7
        ],
        "21/03/2020 17:17:38": [
            4,
            4
        ],
        "21/03/2020 20:00:39": [
            -23
        ],
        "21/03/2020 22:02:54": [
            2
        ]
    },
    "7183": {
        "21/03/2020 14:58:45": [
            -15,
            -15
        ],
        "21/03/2020 14:59:23": [
            -15,
            -15
        ],
        "21/03/2020 14:59:50": [
            -15,
            -15
        ],
        "21/03/2020 17:17:41": [
            -21,
            -21
        ],
        "21/03/2020 20:00:43": [
            8
        ],
        "21/03/2020 22:02:58": [
            -30
        ]
    },
    "4880": {
        "21/03/2020 14:58:45": [
            -8,
            -8
        ],
        "21/03/2020 14:59:23": [
            -8,
            -8
        ],
        "21/03/2020 14:59:53": [
            -8,
            -8
        ],
        "21/03/2020 17:17:43": [
            -19,
            -19
        ],
        "21/03/2020 20:00:47": [
            3
        ],
        "21/03/2020 22:03:02": [
            19
        ]
    },
    "2539": {
        "21/03/2020 14:58:45": [
            -8,
            -8
        ],
        "21/03/2020 14:59:24": [
            -8,
            -8
        ],
        "21/03/2020 14:59:44": [
            -8,
            -8
        ],
        "21/03/2020 17:17:35": [
            -27,
            -27
        ],
        "21/03/2020 20:00:34": [
            -19
        ],
        "21/03/2020 22:02:49": [
            -14
        ]
    },
    "2540": {
        "21/03/2020 14:58:45": [
            25,
            25
        ],
        "21/03/2020 14:59:24": [
            25,
            25
        ],
        "21/03/2020 14:59:45": [
            25,
            25
        ],
        "21/03/2020 17:17:35": [
            4,
            4
        ],
        "21/03/2020 20:00:34": [
            8
        ],
        "21/03/2020 22:02:49": [
            10
        ]
    },
    "2542": {
        "21/03/2020 14:58:46": [
            10,
            10
        ],
        "21/03/2020 14:59:24": [
            10,
            10
        ],
        "21/03/2020 14:59:45": [
            10,
            10
        ],
        "21/03/2020 17:17:36": [
            -11,
            -11
        ],
        "21/03/2020 20:00:35": [
            -9
        ],
        "21/03/2020 22:02:50": [
            -10
        ]
    },
    "3004": {
        "21/03/2020 14:58:46": [
            24,
            24
        ],
        "21/03/2020 14:59:24": [
            24,
            24
        ],
        "21/03/2020 14:59:49": [
            24,
            24
        ],
        "21/03/2020 17:17:39": [
            1,
            1
        ],
        "21/03/2020 20:00:41": [
            -1
        ],
        "21/03/2020 22:02:56": [
            -13
        ]
    },
    "4756": {
        "21/03/2020 14:58:46": [
            -3,
            -3
        ],
        "21/03/2020 14:59:25": [
            -3,
            -3
        ],
        "21/03/2020 14:59:46": [
            -3,
            -3
        ],
        "21/03/2020 17:17:36": [
            -26,
            -26
        ],
        "21/03/2020 20:00:36": [
            -30
        ],
        "21/03/2020 22:02:51": [
            16
        ]
    },
    "3005": {
        "21/03/2020 14:58:46": [
            -28,
            -28
        ],
        "21/03/2020 14:59:25": [
            -28,
            -28
        ],
        "21/03/2020 14:59:49": [
            -28,
            -28
        ],
        "21/03/2020 17:17:40": [
            9,
            9
        ],
        "21/03/2020 20:00:41": [
            4
        ],
        "21/03/2020 22:02:56": [
            -13
        ]
    },
    "4757": {
        "21/03/2020 14:58:47": [
            -38,
            9
        ],
        "21/03/2020 14:59:25": [
            -38,
            9
        ],
        "21/03/2020 14:59:46": [
            -38,
            9
        ],
        "21/03/2020 17:17:37": [
            -15,
            -15
        ],
        "21/03/2020 20:00:36": [
            -24
        ],
        "21/03/2020 22:02:51": [
            12
        ]
    },
    "4758": {
        "21/03/2020 14:58:47": [
            -47,
            -2
        ],
        "21/03/2020 14:59:26": [
            -47,
            -2
        ],
        "21/03/2020 14:59:51": [
            -47,
            -2
        ],
        "21/03/2020 17:17:41": [
            -27,
            -27
        ],
        "21/03/2020 20:00:44": [
            23
        ],
        "21/03/2020 22:02:59": [
            -5
        ]
    },
    "6343": {
        "21/03/2020 14:58:47": [
            -33,
            12
        ],
        "21/03/2020 14:59:26": [
            -33,
            12
        ],
        "21/03/2020 14:59:48": [
            -33,
            12
        ],
        "21/03/2020 17:17:38": [
            -13,
            -13
        ],
        "21/03/2020 20:00:38": [
            -23
        ],
        "21/03/2020 22:02:54": [
            7
        ]
    },
    "4759": {
        "21/03/2020 14:58:48": [
            -39,
            4
        ],
        "21/03/2020 14:59:26": [
            -39,
            4
        ],
        "21/03/2020 14:59:51": [
            -39,
            4
        ],
        "21/03/2020 17:17:42": [
            -22,
            -22
        ],
        "21/03/2020 20:00:44": [
            26
        ],
        "21/03/2020 22:02:59": [
            -7
        ]
    },
    "4760": {
        "21/03/2020 14:58:48": [
            -57,
            -15
        ],
        "21/03/2020 14:59:26": [
            -57,
            -15
        ],
        "21/03/2020 14:59:51": [
            -57,
            -15
        ],
        "21/03/2020 17:17:42": [
            24,
            24
        ],
        "21/03/2020 20:00:45": [
            3
        ],
        "21/03/2020 22:03:00": [
            25
        ]
    },
    "2547": {
        "21/03/2020 14:58:48": [
            -30,
            18
        ],
        "21/03/2020 14:59:27": [
            -30,
            18
        ],
        "21/03/2020 14:59:48": [
            -100,
            18
        ],
        "21/03/2020 17:17:39": [
            9,
            9
        ],
        "21/03/2020 20:00:39": [
            26
        ],
        "21/03/2020 22:02:55": [
            -21
        ]
    },
    "2548": {
        "21/03/2020 14:58:48": [
            -24,
            12
        ],
        "21/03/2020 14:59:27": [
            -24,
            12
        ],
        "21/03/2020 14:59:49": [
            -94,
            12
        ],
        "21/03/2020 17:17:39": [
            0,
            0
        ],
        "21/03/2020 20:00:40": [
            16
        ],
        "21/03/2020 22:02:55": [
            16
        ]
    },
    "946": {
        "21/03/2020 14:58:49": [
            -26,
            -12
        ],
        "21/03/2020 14:59:28": [
            -26,
            -12
        ],
        "21/03/2020 14:59:53": [
            -96,
            -12
        ],
        "21/03/2020 17:17:44": [
            -29,
            -29
        ],
        "21/03/2020 20:00:48": [
            -13
        ],
        "21/03/2020 22:03:03": [
            23
        ]
    },
    "1155": {
        "21/03/2020 14:58:49": [
            9,
            5
        ],
        "21/03/2020 14:59:28": [
            9,
            5
        ],
        "21/03/2020 14:59:40": [
            9,
            5
        ],
        "21/03/2020 17:17:31": [
            -16,
            -16
        ],
        "21/03/2020 20:00:27": [
            -1
        ],
        "21/03/2020 22:02:42": [
            17
        ]
    },
    "1157": {
        "21/03/2020 14:58:49": [
            14,
            5
        ],
        "21/03/2020 14:59:29": [
            14,
            5
        ],
        "21/03/2020 14:59:40": [
            14,
            5
        ],
        "21/03/2020 17:17:31": [
            -21,
            -21
        ],
        "21/03/2020 20:00:28": [
            1
        ],
        "21/03/2020 22:02:42": [
            -1
        ]
    },
    "1158": {
        "21/03/2020 14:58:50": [
            25,
            5
        ],
        "21/03/2020 14:59:29": [
            25,
            5
        ],
        "21/03/2020 14:59:40": [
            25,
            5
        ],
        "21/03/2020 17:17:31": [
            18,
            18
        ],
        "21/03/2020 20:00:28": [
            -19
        ],
        "21/03/2020 22:02:43": [
            -24
        ]
    },
    "1159": {
        "21/03/2020 14:58:50": [
            20,
            -13
        ],
        "21/03/2020 14:59:29": [
            20,
            -13
        ],
        "21/03/2020 14:59:41": [
            20,
            -13
        ],
        "21/03/2020 17:17:32": [
            -1,
            -1
        ],
        "21/03/2020 20:00:29": [
            -21
        ],
        "21/03/2020 22:02:43": [
            10
        ]
    },
    "1160": {
        "21/03/2020 14:58:50": [
            8,
            12
        ],
        "21/03/2020 14:59:30": [
            8,
            12
        ],
        "21/03/2020 14:59:41": [
            8,
            12
        ],
        "21/03/2020 17:17:32": [
            28,
            28
        ],
        "21/03/2020 20:00:29": [
            6
        ],
        "21/03/2020 22:02:43": [
            -23
        ]
    },
    "1161": {
        "21/03/2020 14:58:51": [
            -11,
            -26
        ],
        "21/03/2020 14:59:30": [
            -11,
            -26
        ],
        "21/03/2020 14:59:41": [
            -11,
            -26
        ],
        "21/03/2020 17:17:32": [
            -7,
            -7
        ],
        "21/03/2020 20:00:30": [
            29
        ],
        "21/03/2020 22:02:44": [
            1
        ]
    },
    "1162": {
        "21/03/2020 14:58:51": [
            -29,
            -3
        ],
        "21/03/2020 14:59:30": [
            -29,
            -3
        ],
        "21/03/2020 14:59:41": [
            -29,
            -3
        ],
        "21/03/2020 17:17:32": [
            19,
            19
        ],
        "21/03/2020 20:00:30": [
            -7
        ],
        "21/03/2020 22:02:44": [
            25
        ]
    },
    "1163": {
        "21/03/2020 14:58:51": [
            -12,
            -1
        ],
        "21/03/2020 14:59:30": [
            -12,
            -1
        ],
        "21/03/2020 14:59:42": [
            -12,
            -1
        ],
        "21/03/2020 17:17:33": [
            -30,
            -30
        ],
        "21/03/2020 20:00:30": [
            -27
        ],
        "21/03/2020 22:02:45": [
            1
        ]
    },
    "1337": {
        "21/03/2020 14:58:51": [
            5,
            -11
        ],
        "21/03/2020 14:59:31": [
            5,
            -11
        ],
        "21/03/2020 14:59:42": [
            5,
            -11
        ],
        "21/03/2020 17:17:33": [
            -23,
            -23
        ],
        "21/03/2020 20:00:31": [
            -14
        ],
        "21/03/2020 22:02:45": [
            7
        ]
    },
    "1338": {
        "21/03/2020 14:58:52": [
            -26,
            15
        ],
        "21/03/2020 14:59:31": [
            -26,
            15
        ],
        "21/03/2020 14:59:42": [
            -26,
            15
        ],
        "21/03/2020 17:17:33": [
            5,
            5
        ],
        "21/03/2020 20:00:31": [
            11
        ],
        "21/03/2020 22:02:46": [
            28
        ]
    },
    "1339": {
        "21/03/2020 14:58:52": [
            -27,
            6
        ],
        "21/03/2020 14:59:31": [
            -27,
            6
        ],
        "21/03/2020 14:59:43": [
            -27,
            6
        ],
        "21/03/2020 17:17:34": [
            141,
            -1,
            -1
        ],
        "21/03/2020 20:00:32": [
            0
        ],
        "21/03/2020 22:02:46": [
            9
        ]
    },
    "1340": {
        "21/03/2020 14:58:52": [
            7,
            -23
        ],
        "21/03/2020 14:59:32": [
            7,
            -23
        ],
        "21/03/2020 14:59:43": [
            7,
            -23
        ],
        "21/03/2020 17:17:34": [
            132,
            -28
        ],
        "21/03/2020 20:00:32": [
            -30
        ],
        "21/03/2020 22:02:47": [
            -27
        ]
    },
    "1341": {
        "21/03/2020 14:58:52": [
            16,
            -23
        ],
        "21/03/2020 14:59:32": [
            16,
            -23
        ],
        "21/03/2020 14:59:43": [
            16,
            -23
        ],
        "21/03/2020 17:17:34": [
            132,
            -24
        ],
        "21/03/2020 20:00:32": [
            28
        ],
        "21/03/2020 22:02:47": [
            22
        ]
    },
    "1342": {
        "21/03/2020 14:58:53": [
            -2,
            11
        ],
        "21/03/2020 14:59:32": [
            -2,
            11
        ],
        "21/03/2020 14:59:43": [
            -2,
            11
        ],
        "21/03/2020 17:17:34": [
            146,
            20
        ],
        "21/03/2020 20:00:33": [
            6
        ],
        "21/03/2020 22:02:47": [
            -9
        ]
    },
    "1343": {
        "21/03/2020 14:58:53": [
            26,
            -26
        ],
        "21/03/2020 14:59:32": [
            26,
            -26
        ],
        "21/03/2020 14:59:46": [
            26,
            -26
        ],
        "21/03/2020 17:17:37": [
            129,
            -11
        ],
        "21/03/2020 20:00:36": [
            -29
        ],
        "21/03/2020 22:02:52": [
            11
        ]
    },
    "1344": {
        "21/03/2020 14:58:53": [
            2,
            -8
        ],
        "21/03/2020 14:59:33": [
            2,
            -8
        ],
        "21/03/2020 14:59:46": [
            2,
            -8
        ],
        "21/03/2020 17:17:37": [
            127,
            27
        ],
        "21/03/2020 20:00:37": [
            -3
        ],
        "21/03/2020 22:02:52": [
            18
        ]
    },
    "1345": {
        "21/03/2020 14:58:54": [
            26,
            -5
        ],
        "21/03/2020 14:59:33": [
            26,
            -5
        ],
        "21/03/2020 14:59:47": [
            26,
            -5
        ],
        "21/03/2020 17:17:37": [
            130,
            -18
        ],
        "21/03/2020 20:00:37": [
            2
        ],
        "21/03/2020 22:02:53": [
            -10
        ]
    },
    "1347": {
        "21/03/2020 14:58:54": [
            29,
            27
        ],
        "21/03/2020 14:59:33": [
            29,
            27
        ],
        "21/03/2020 14:59:47": [
            29,
            27
        ],
        "21/03/2020 17:17:38": [
            162,
            -28
        ],
        "21/03/2020 20:00:38": [
            -23
        ],
        "21/03/2020 22:02:53": [
            -21
        ]
    },
    "2634": {
        "21/03/2020 14:58:54": [
            -16,
            -26
        ],
        "21/03/2020 14:59:34": [
            -16,
            -26
        ],
        "21/03/2020 14:59:52": [
            -16,
            -26
        ],
        "21/03/2020 17:17:42": [
            129,
            -23
        ],
        "21/03/2020 20:00:46": [
            28
        ],
        "21/03/2020 22:03:00": [
            27
        ]
    },
    "2635": {
        "21/03/2020 14:58:54": [
            -17,
            26
        ],
        "21/03/2020 14:59:34": [
            -17,
            26
        ],
        "21/03/2020 14:59:52": [
            -17,
            26
        ],
        "21/03/2020 17:17:43": [
            161,
            28
        ],
        "21/03/2020 20:00:46": [
            7
        ],
        "21/03/2020 22:03:01": [
            5
        ]
    },
    "2636": {
        "21/03/2020 14:58:55": [
            -9,
            -23
        ],
        "21/03/2020 14:59:34": [
            -9,
            -23
        ],
        "21/03/2020 14:59:52": [
            -9,
            -23
        ],
        "21/03/2020 17:17:43": [
            132,
            -20
        ],
        "21/03/2020 20:00:47": [
            5
        ],
        "21/03/2020 22:03:01": [
            -9
        ]
    },
    "5097": {
        "21/03/2020 14:58:55": [
            -26,
            23
        ],
        "21/03/2020 14:59:35": [
            -26,
            23
        ],
        "21/03/2020 14:59:50": [
            -26,
            23
        ],
        "21/03/2020 17:17:41": [
            158,
            25
        ],
        "21/03/2020 20:00:43": [
            -19
        ],
        "21/03/2020 22:02:57": [
            21
        ]
    },
    "2383": {
        "21/03/2020 14:58:55": [
            9,
            -1
        ],
        "21/03/2020 14:59:35": [
            9,
            -1
        ],
        "21/03/2020 14:59:47": [
            9,
            -1
        ],
        "21/03/2020 17:17:38": [
            134,
            2
        ],
        "21/03/2020 20:00:38": [
            11
        ],
        "21/03/2020 22:02:53": [
            -15
        ]
    },
    "2002": {
        "21/03/2020 14:58:56": [
            1
        ],
        "21/03/2020 14:59:35": [
            1
        ],
        "21/03/2020 14:59:44": [
            1
        ],
        "21/03/2020 17:17:35": [
            125,
            13
        ],
        "21/03/2020 20:00:34": [
            25
        ],
        "21/03/2020 22:02:48": [
            -15
        ]
    },
    "1358": {
        "21/03/2020 14:58:56": [
            -457,
            20
        ],
        "21/03/2020 14:59:35": [
            -536,
            20
        ],
        "21/03/2020 14:59:44": [
            -536,
            20
        ],
        "21/03/2020 17:17:35": [
            148,
            1
        ],
        "21/03/2020 20:00:33": [
            2
        ],
        "21/03/2020 22:02:48": [
            -4
        ]
    },
    "5192": {
        "21/03/2020 14:58:56": [
            -438,
            -11
        ],
        "21/03/2020 14:59:36": [
            -555,
            -11
        ],
        "21/03/2020 14:59:51": [
            -555,
            -11
        ],
        "21/03/2020 17:17:42": [
            141,
            -1
        ],
        "21/03/2020 20:00:45": [],
        "21/03/2020 22:03:00": [
            16
        ]
    },
    "342": {
        "21/03/2020 14:58:56": [
            0,
            0
        ],
        "21/03/2020 14:59:05": [
            0,
            0
        ],
        "21/03/2020 14:59:09": [
            0,
            0
        ],
        "21/03/2020 14:59:36": [
            0,
            0
        ],
        "21/03/2020 14:59:49": [
            0,
            0
        ],
        "21/03/2020 17:17:40": [
            0,
            0
        ],
        "21/03/2020 20:00:42": [
            0
        ],
        "21/03/2020 22:02:56": [
            0
        ]
    },
    "1121": {
        "21/03/2020 14:58:57": [
            7,
            7
        ],
        "21/03/2020 14:59:14": [
            7,
            7
        ],
        "21/03/2020 17:17:18": [
            -458,
            -23
        ],
        "21/03/2020 20:00:10": [
            1
        ],
        "21/03/2020 22:02:24": [
            11
        ]
    },
    "1122": {
        "21/03/2020 14:58:57": [
            18,
            18
        ],
        "21/03/2020 14:59:14": [
            18,
            18
        ],
        "21/03/2020 17:17:18": [
            -457,
            -22
        ],
        "21/03/2020 20:00:11": [
            2
        ],
        "21/03/2020 22:02:24": [
            3
        ]
    },
    "1123": {
        "21/03/2020 14:58:57": [
            -20,
            -20
        ],
        "21/03/2020 14:59:14": [
            -20,
            -20
        ],
        "21/03/2020 17:17:19": [
            -438,
            -3
        ],
        "21/03/2020 20:00:12": [
            24
        ],
        "21/03/2020 22:02:25": [
            25
        ]
    },
    "1124": {
        "21/03/2020 14:58:58": [
            0
        ],
        "21/03/2020 14:59:15": [
            0
        ],
        "21/03/2020 17:17:19": [
            -420,
            15
        ],
        "21/03/2020 20:00:12": [
            -17
        ],
        "21/03/2020 22:02:25": [
            -16
        ]
    },
    "1125": {
        "21/03/2020 14:58:58": [
            -1
        ],
        "21/03/2020 14:59:15": [
            -1
        ],
        "21/03/2020 17:17:19": [
            -423,
            12
        ],
        "21/03/2020 20:00:13": [
            -20
        ],
        "21/03/2020 22:02:26": [
            -28
        ]
    },
    "1290": {
        "21/03/2020 14:58:58": [
            21,
            21
        ],
        "21/03/2020 14:59:11": [
            21,
            21
        ],
        "21/03/2020 17:17:16": [
            -19,
            24
        ],
        "21/03/2020 20:00:06": [
            27,
            27
        ],
        "21/03/2020 22:02:20": [
            24
        ]
    },
    "1291": {
        "21/03/2020 14:58:58": [
            19,
            19
        ],
        "21/03/2020 14:59:11": [
            19,
            19
        ],
        "21/03/2020 17:17:16": [
            -15
        ],
        "21/03/2020 20:00:07": [
            -21
        ],
        "21/03/2020 22:02:20": [
            29
        ]
    },
    "1292": {
        "21/03/2020 14:58:59": [
            -30,
            -30
        ],
        "21/03/2020 14:59:12": [
            -30,
            -30
        ],
        "21/03/2020 17:17:16": [
            -12
        ],
        "21/03/2020 20:00:07": [
            -29
        ],
        "21/03/2020 22:02:21": [
            12
        ]
    },
    "1293": {
        "21/03/2020 14:58:59": [
            -21,
            -21
        ],
        "21/03/2020 14:59:12": [
            -21,
            -21
        ],
        "21/03/2020 17:17:16": [
            -12
        ],
        "21/03/2020 20:00:08": [
            21
        ],
        "21/03/2020 22:02:21": [
            -6
        ]
    },
    "1294": {
        "21/03/2020 14:58:59": [
            -27,
            -27
        ],
        "21/03/2020 14:59:12": [
            -27,
            -27
        ],
        "21/03/2020 17:17:17": [
            -24
        ],
        "21/03/2020 20:00:08": [
            1
        ],
        "21/03/2020 22:02:22": [
            26
        ]
    },
    "1295": {
        "21/03/2020 14:58:59": [
            -20,
            -20
        ],
        "21/03/2020 14:59:13": [
            -20,
            -20
        ],
        "21/03/2020 17:17:17": [
            -25
        ],
        "21/03/2020 20:00:08": [
            -10
        ],
        "21/03/2020 22:02:22": [
            7
        ]
    },
    "1296": {
        "21/03/2020 14:59:00": [
            28,
            28
        ],
        "21/03/2020 14:59:13": [
            28,
            28
        ],
        "21/03/2020 17:17:17": [
            18
        ],
        "21/03/2020 20:00:09": [
            -24
        ],
        "21/03/2020 22:02:23": [
            -7
        ]
    },
    "1297": {
        "21/03/2020 14:59:00": [
            28,
            28
        ],
        "21/03/2020 14:59:13": [
            28,
            28
        ],
        "21/03/2020 17:17:18": [
            -423,
            12
        ],
        "21/03/2020 20:00:09": [
            -26
        ],
        "21/03/2020 22:02:23": [
            -9
        ]
    },
    "1127": {
        "21/03/2020 14:59:00": [
            -25
        ],
        "21/03/2020 14:59:15": [
            -25
        ],
        "21/03/2020 17:17:20": [
            -514,
            -21
        ],
        "21/03/2020 20:00:13": [
            -3
        ],
        "21/03/2020 22:02:26": [
            -19
        ]
    },
    "1130": {
        "21/03/2020 14:59:01": [
            2
        ],
        "21/03/2020 14:59:15": [
            2
        ],
        "21/03/2020 17:17:20": [
            -412,
            4
        ],
        "21/03/2020 20:00:13": [
            7
        ],
        "21/03/2020 22:02:27": [
            -17
        ]
    },
    "1140": {
        "21/03/2020 14:59:01": [
            22
        ],
        "21/03/2020 14:59:16": [
            22
        ],
        "21/03/2020 17:17:20": [
            -395,
            21
        ],
        "21/03/2020 20:00:14": [
            11
        ],
        "21/03/2020 22:02:27": [
            -21
        ]
    },
    "1934": {
        "21/03/2020 14:59:01": [
            -14,
            -14
        ],
        "21/03/2020 14:59:10": [
            -14,
            -14
        ],
        "21/03/2020 17:17:14": [
            26,
            25
        ],
        "21/03/2020 20:00:04": [
            16,
            16
        ],
        "21/03/2020 22:02:18": [
            24
        ]
    },
    "2385": {
        "21/03/2020 14:59:01": [
            -25,
            -25
        ],
        "21/03/2020 14:59:10": [
            -25,
            -25
        ],
        "21/03/2020 17:17:14": [
            -12,
            -14
        ],
        "21/03/2020 20:00:05": [
            -20,
            -20
        ],
        "21/03/2020 22:02:18": [
            5
        ]
    },
    "2386": {
        "21/03/2020 14:59:02": [
            -30,
            -30
        ],
        "21/03/2020 14:59:10": [
            -30,
            -30
        ],
        "21/03/2020 17:17:15": [
            -7,
            26
        ],
        "21/03/2020 20:00:05": [
            -29,
            -29
        ],
        "21/03/2020 22:02:19": [
            -15
        ]
    },
    "2387": {
        "21/03/2020 14:59:02": [
            -5,
            -5
        ],
        "21/03/2020 14:59:11": [
            -5,
            -5
        ],
        "21/03/2020 17:17:15": [
            16,
            -10
        ],
        "21/03/2020 20:00:06": [
            -6,
            -6
        ],
        "21/03/2020 22:02:19": [
            7
        ]
    },
    "1298": {
        "21/03/2020 14:59:02": [
            1,
            1
        ],
        "21/03/2020 14:59:13": [
            1,
            1
        ],
        "21/03/2020 17:17:18": [
            -454,
            -19
        ],
        "21/03/2020 20:00:10": [
            5
        ],
        "21/03/2020 22:02:23": [
            23
        ]
    },
    "2515": {
        "21/03/2020 14:59:03": [
            -245,
            21
        ],
        "21/03/2020 14:59:16": [
            -245,
            21
        ],
        "21/03/2020 17:17:20": [
            -398,
            18
        ],
        "21/03/2020 20:00:14": [
            -1
        ],
        "21/03/2020 22:02:27": [
            21
        ]
    },
    "2516": {
        "21/03/2020 14:59:03": [
            -264,
            3
        ],
        "21/03/2020 14:59:16": [
            -264,
            3
        ],
        "21/03/2020 17:17:21": [
            -417,
            -1
        ],
        "21/03/2020 20:00:15": [
            -27
        ],
        "21/03/2020 22:02:28": [
            -9
        ]
    },
    "2517": {
        "21/03/2020 14:59:03": [
            -242,
            25
        ],
        "21/03/2020 14:59:16": [
            -242,
            25
        ],
        "21/03/2020 17:17:21": [
            -396,
            20
        ],
        "21/03/2020 20:00:15": [
            -5
        ],
        "21/03/2020 22:02:28": [
            17
        ]
    },
    "2518": {
        "21/03/2020 14:59:03": [
            -263,
            4
        ],
        "21/03/2020 14:59:17": [
            -263,
            4
        ],
        "21/03/2020 17:17:21": [
            -417,
            -1
        ],
        "21/03/2020 20:00:16": [
            -25
        ],
        "21/03/2020 22:02:29": [
            3
        ]
    },
    "2522": {
        "21/03/2020 14:59:04": [
            -286,
            10
        ],
        "21/03/2020 14:59:19": [
            -286,
            10
        ],
        "21/03/2020 17:17:24": [
            297,
            -430,
            -14
        ],
        "21/03/2020 20:00:18": [
            23
        ],
        "21/03/2020 22:02:32": []
    },
    "2523": {
        "21/03/2020 14:59:04": [
            -229,
            3
        ],
        "21/03/2020 14:59:20": [
            -229,
            3
        ],
        "21/03/2020 17:17:25": [
            290,
            -424
        ],
        "21/03/2020 20:00:19": [
            9
        ],
        "21/03/2020 22:02:33": []
    },
    "2524": {
        "21/03/2020 14:59:04": [
            -263,
            -29
        ],
        "21/03/2020 14:59:19": [
            -263,
            -29
        ],
        "21/03/2020 17:17:25": [
            258,
            -400,
            16
        ],
        "21/03/2020 20:00:19": [
            -22
        ],
        "21/03/2020 22:02:32": []
    },
    "2532": {
        "21/03/2020 14:59:05": [
            -266,
            24
        ],
        "21/03/2020 14:59:20": [
            -266,
            24
        ],
        "21/03/2020 17:17:25": [
            311,
            -394
        ],
        "21/03/2020 20:00:20": [
            24
        ],
        "21/03/2020 22:02:33": []
    },
    "4521": {
        "21/03/2020 14:59:05": [
            -25,
            -25
        ],
        "21/03/2020 14:59:09": [
            -25,
            -25
        ],
        "21/03/2020 17:17:14": [
            -8,
            -8
        ],
        "21/03/2020 20:00:04": [
            21,
            21
        ],
        "21/03/2020 22:02:17": [
            -2
        ]
    },
    "4749": {
        "21/03/2020 14:59:05": [
            -287,
            27
        ],
        "21/03/2020 14:59:17": [
            -287,
            27
        ],
        "21/03/2020 17:17:22": [
            -395,
            21
        ],
        "21/03/2020 20:00:16": [
            1
        ],
        "21/03/2020 22:02:29": [
            24
        ]
    },
    "4750": {
        "21/03/2020 14:59:06": [
            -238,
            9
        ],
        "21/03/2020 14:59:17": [
            -238,
            9
        ],
        "21/03/2020 17:17:22": [
            -413,
            3
        ],
        "21/03/2020 20:00:16": [
            -15
        ],
        "21/03/2020 22:02:30": [
            6
        ]
    },
    "4751": {
        "21/03/2020 14:59:06": [
            -276,
            28
        ],
        "21/03/2020 14:59:18": [
            -276,
            28
        ],
        "21/03/2020 17:17:23": [
            -444,
            -28
        ],
        "21/03/2020 20:00:17": [
            -1
        ],
        "21/03/2020 22:02:30": [
            13
        ]
    },
    "2388": {
        "21/03/2020 14:59:06": [
            -20,
            -20
        ],
        "21/03/2020 14:59:11": [
            -20,
            -20
        ],
        "21/03/2020 17:17:15": [
            -4,
            -26
        ],
        "21/03/2020 20:00:06": [
            -24,
            -24
        ],
        "21/03/2020 22:02:20": [
            -14
        ]
    },
    "4347": {
        "21/03/2020 14:59:07": [
            -287,
            -19
        ],
        "21/03/2020 14:59:21": [
            -287,
            -19
        ],
        "21/03/2020 17:17:27": [
            268,
            -429
        ],
        "21/03/2020 20:00:22": [
            -1
        ],
        "21/03/2020 22:02:35": [
            -338
        ]
    },
    "4877": {
        "21/03/2020 14:59:07": [
            -266,
            21
        ],
        "21/03/2020 14:59:20": [
            -266,
            21
        ],
        "21/03/2020 17:17:25": [
            308,
            -404
        ],
        "21/03/2020 20:00:20": [
            19
        ],
        "21/03/2020 22:02:34": []
    },
    "4878": {
        "21/03/2020 14:59:07": [
            -257,
            25
        ],
        "21/03/2020 14:59:20": [
            -257,
            25
        ],
        "21/03/2020 17:17:26": [
            312,
            -408
        ],
        "21/03/2020 20:00:20": [
            23
        ],
        "21/03/2020 22:02:34": [
            -362
        ]
    },
    "3003": {
        "21/03/2020 14:59:07": [
            -239,
            -1
        ],
        "21/03/2020 14:59:19": [
            -239,
            -1
        ],
        "21/03/2020 17:17:24": [
            286,
            -389,
            27
        ],
        "21/03/2020 20:00:18": [
            16
        ],
        "21/03/2020 22:02:31": []
    },
    "7180": {
        "21/03/2020 14:59:08": [
            -253,
            25
        ],
        "21/03/2020 14:59:21": [
            -253,
            25
        ],
        "21/03/2020 17:17:26": [
            312,
            -415
        ],
        "21/03/2020 20:00:21": [
            21
        ],
        "21/03/2020 22:02:34": [
            -370
        ]
    },
    "7181": {
        "21/03/2020 14:59:08": [],
        "21/03/2020 14:59:22": [],
        "21/03/2020 17:17:27": [],
        "21/03/2020 20:00:22": [],
        "21/03/2020 22:02:36": []
    },
    "4754": {
        "21/03/2020 14:59:08": [
            -277,
            26
        ],
        "21/03/2020 14:59:18": [
            -277,
            26
        ],
        "21/03/2020 17:17:23": [
            -440,
            -24
        ],
        "21/03/2020 20:00:17": [
            -7
        ],
        "21/03/2020 22:02:31": [
            2
        ]
    },
    "4755": {
        "21/03/2020 14:59:09": [
            -282,
            18
        ],
        "21/03/2020 14:59:18": [
            -282,
            18
        ],
        "21/03/2020 17:17:24": [
            -436,
            -20
        ],
        "21/03/2020 20:00:18": [
            -23
        ],
        "21/03/2020 22:02:31": []
    },
    "7123": {
        "21/03/2020 14:59:09": [
            -254,
            16
        ],
        "21/03/2020 14:59:21": [
            -254,
            16
        ],
        "21/03/2020 17:17:26": [
            303,
            -438
        ],
        "21/03/2020 20:00:21": [
            10
        ],
        "21/03/2020 22:02:35": [
            -334
        ]
    },
    "4342": {
        "21/03/2020 14:59:22": [
            0,
            0
        ],
        "21/03/2020 14:59:45": [
            0,
            0
        ],
        "21/03/2020 17:17:36": [
            0,
            0
        ],
        "21/03/2020 20:00:35": [
            0
        ],
        "21/03/2020 22:02:50": [
            0
        ]
    },
    "4348": {
        "21/03/2020 14:59:22": [
            -28,
            -28
        ],
        "21/03/2020 14:59:50": [
            -28,
            -28
        ],
        "21/03/2020 17:17:40": [
            -27,
            -30
        ],
        "21/03/2020 20:00:42": [
            26
        ],
        "21/03/2020 22:02:57": [
            15
        ]
    },
    "2629": {
        "21/03/2020 14:59:37": [],
        "21/03/2020 17:17:28": [],
        "21/03/2020 20:00:23": [],
        "21/03/2020 22:02:37": []
    },
    "2631": {
        "21/03/2020 14:59:37": [],
        "21/03/2020 17:17:28": [],
        "21/03/2020 20:00:24": [],
        "21/03/2020 22:02:38": []
    },
    "4440": {
        "21/03/2020 14:59:37": [],
        "21/03/2020 17:17:28": [],
        "21/03/2020 20:00:24": [],
        "21/03/2020 22:02:38": []
    },
    "4643": {
        "21/03/2020 14:59:38": [],
        "21/03/2020 17:17:29": [],
        "21/03/2020 20:00:25": [],
        "21/03/2020 22:02:39": []
    },
    "4644": {
        "21/03/2020 14:59:38": [],
        "21/03/2020 17:17:29": [],
        "21/03/2020 20:00:25": [],
        "21/03/2020 22:02:39": []
    },
    "4645": {
        "21/03/2020 14:59:38": [],
        "21/03/2020 17:17:29": [],
        "21/03/2020 20:00:25": [],
        "21/03/2020 22:02:39": []
    },
    "6095": {
        "21/03/2020 14:59:38": [],
        "21/03/2020 17:17:30": [],
        "21/03/2020 20:00:26": [],
        "21/03/2020 22:02:40": []
    },
    "7062": {
        "21/03/2020 14:59:39": [],
        "21/03/2020 17:17:30": [],
        "21/03/2020 20:00:26": [],
        "21/03/2020 22:02:40": []
    },
    "6075": {
        "21/03/2020 14:59:39": [],
        "21/03/2020 17:17:30": [],
        "21/03/2020 20:00:27": [],
        "21/03/2020 22:02:41": []
    },
    "2628": {
        "21/03/2020 14:59:39": [],
        "21/03/2020 17:17:30": [],
        "21/03/2020 20:00:27": [],
        "21/03/2020 22:02:41": []
    }
}