{
    "2357": {
        "24/03/2020 15:11:09": [],
        "24/03/2020 17:25:09": [],
        "24/03/2020 20:06:59": [],
        "24/03/2020 22:20:55": []
    },
    "4521": {
        "24/03/2020 15:11:09": [
            16,
            16
        ],
        "24/03/2020 17:25:09": [
            -3,
            -3,
            -3
        ],
        "24/03/2020 20:06:59": [
            -8,
            22
        ],
        "24/03/2020 22:20:55": [
            22
        ]
    },
    "1934": {
        "24/03/2020 15:11:10": [
            5,
            5
        ],
        "24/03/2020 17:25:10": [
            -24,
            -24,
            -24
        ],
        "24/03/2020 20:07:00": [
            10,
            4
        ],
        "24/03/2020 22:20:55": [
            4
        ]
    },
    "2385": {
        "24/03/2020 15:11:11": [
            19,
            19
        ],
        "24/03/2020 17:25:10": [
            6,
            6
        ],
        "24/03/2020 20:07:00": [
            -21,
            -21
        ],
        "24/03/2020 22:20:56": [
            -21
        ]
    },
    "2386": {
        "24/03/2020 15:11:11": [
            29,
            29
        ],
        "24/03/2020 17:25:11": [
            17,
            12
        ],
        "24/03/2020 20:07:01": [
            11
        ],
        "24/03/2020 22:20:57": [
            4
        ]
    },
    "2387": {
        "24/03/2020 15:11:12": [
            0,
            0
        ],
        "24/03/2020 17:25:11": [
            -13,
            -17
        ],
        "24/03/2020 20:07:01": [
            -25
        ],
        "24/03/2020 22:20:57": [
            24
        ]
    },
    "2388": {
        "24/03/2020 15:11:12": [
            -5,
            -5
        ],
        "24/03/2020 17:25:11": [
            -19,
            -21
        ],
        "24/03/2020 20:07:01": [
            17
        ],
        "24/03/2020 22:20:58": [
            0
        ]
    },
    "1290": {
        "24/03/2020 15:11:13": [
            13,
            13
        ],
        "24/03/2020 17:25:12": [
            27,
            28
        ],
        "24/03/2020 20:07:02": [
            17
        ],
        "24/03/2020 22:20:58": [
            16
        ]
    },
    "1291": {
        "24/03/2020 15:11:13": [
            28,
            28
        ],
        "24/03/2020 17:25:12": [
            22,
            13
        ],
        "24/03/2020 20:07:02": [
            -5
        ],
        "24/03/2020 22:20:58": [
            -28
        ]
    },
    "1292": {
        "24/03/2020 15:11:14": [
            24,
            24
        ],
        "24/03/2020 17:25:13": [
            -12,
            7
        ],
        "24/03/2020 20:07:03": [
            1
        ],
        "24/03/2020 22:20:59": [
            12
        ]
    },
    "1293": {
        "24/03/2020 15:11:14": [
            16,
            16
        ],
        "24/03/2020 17:25:13": [
            7,
            -5
        ],
        "24/03/2020 20:07:03": [
            5
        ],
        "24/03/2020 22:20:59": [
            -9
        ]
    },
    "1294": {
        "24/03/2020 15:11:15": [
            -16,
            -16
        ],
        "24/03/2020 17:25:14": [
            -1185,
            -3,
            22
        ],
        "24/03/2020 20:07:04": [
            -5
        ],
        "24/03/2020 22:21:00": [
            22
        ]
    },
    "1295": {
        "24/03/2020 15:11:15": [
            -28,
            -28
        ],
        "24/03/2020 17:25:14": [
            -1247,
            12,
            7
        ],
        "24/03/2020 20:07:04": [
            -3
        ],
        "24/03/2020 22:21:00": [
            0
        ]
    },
    "1296": {
        "24/03/2020 15:11:16": [
            -12,
            -12
        ],
        "24/03/2020 17:25:15": [
            -1280,
            -21,
            -1
        ],
        "24/03/2020 20:07:05": [
            -23
        ],
        "24/03/2020 22:21:01": [
            -25
        ]
    },
    "1297": {
        "24/03/2020 15:11:16": [
            23,
            23
        ],
        "24/03/2020 17:25:15": [
            -1232,
            27,
            4
        ],
        "24/03/2020 20:07:05": [
            27
        ],
        "24/03/2020 22:21:01": [
            20
        ]
    },
    "1298": {
        "24/03/2020 15:11:17": [
            14,
            14
        ],
        "24/03/2020 17:25:16": [
            -1233,
            26,
            -21
        ],
        "24/03/2020 20:07:06": [
            -5
        ],
        "24/03/2020 22:21:02": [
            -15
        ]
    },
    "1121": {
        "24/03/2020 15:11:17": [
            -23,
            -23
        ],
        "24/03/2020 17:25:16": [
            -1255,
            4,
            -6
        ],
        "24/03/2020 20:07:06": [
            -22
        ],
        "24/03/2020 22:21:02": [
            28
        ]
    },
    "1122": {
        "24/03/2020 15:11:18": [
            7
        ],
        "24/03/2020 17:25:16": [
            -1270,
            -11,
            15
        ],
        "24/03/2020 20:07:07": [
            26
        ],
        "24/03/2020 22:21:02": [
            15
        ]
    },
    "1123": {
        "24/03/2020 15:11:18": [
            -20
        ],
        "24/03/2020 17:25:17": [
            -1241,
            18,
            -19
        ],
        "24/03/2020 20:07:07": [
            -10
        ],
        "24/03/2020 22:21:03": [
            -26
        ]
    },
    "1124": {
        "24/03/2020 15:11:19": [
            10
        ],
        "24/03/2020 17:25:17": [
            -1198,
            -16
        ],
        "24/03/2020 20:07:08": [
            12
        ],
        "24/03/2020 22:21:03": [
            -8
        ]
    },
    "1125": {
        "24/03/2020 15:11:19": [
            -8
        ],
        "24/03/2020 17:25:18": [
            -1002,
            -1193,
            -11
        ],
        "24/03/2020 20:07:08": [
            16
        ],
        "24/03/2020 22:21:04": [
            -16
        ]
    },
    "1127": {
        "24/03/2020 15:11:20": [
            -29
        ],
        "24/03/2020 17:25:18": [
            -962,
            -1153,
            29
        ],
        "24/03/2020 20:07:08": [
            -72,
            21
        ],
        "24/03/2020 22:21:04": [
            -23
        ]
    },
    "1130": {
        "24/03/2020 15:11:20": [
            -6
        ],
        "24/03/2020 17:25:19": [
            -1003,
            -1194,
            -12
        ],
        "24/03/2020 20:07:09": [
            -118,
            -25
        ],
        "24/03/2020 22:21:05": [
            -21
        ]
    },
    "1140": {
        "24/03/2020 15:11:21": [
            4
        ],
        "24/03/2020 17:25:19": [
            -998,
            -1189,
            -7
        ],
        "24/03/2020 20:07:10": [
            -110,
            -17
        ],
        "24/03/2020 22:21:05": [
            -24
        ]
    },
    "2515": {
        "24/03/2020 15:11:21": [
            -20
        ],
        "24/03/2020 17:25:20": [
            -964,
            -723,
            27
        ],
        "24/03/2020 20:07:10": [
            -98,
            -27
        ],
        "24/03/2020 22:21:05": [
            18
        ]
    },
    "2516": {
        "24/03/2020 15:11:22": [
            -11
        ],
        "24/03/2020 17:25:20": [
            -1017,
            -776,
            -26
        ],
        "24/03/2020 20:07:11": [
            -62,
            9
        ],
        "24/03/2020 22:21:06": [
            -12
        ]
    },
    "2517": {
        "24/03/2020 15:11:23": [
            -329,
            15
        ],
        "24/03/2020 17:25:21": [
            -991,
            -750,
            0
        ],
        "24/03/2020 20:07:11": [
            -99,
            -28
        ],
        "24/03/2020 22:21:06": [
            9
        ]
    },
    "2518": {
        "24/03/2020 15:11:23": [
            -350,
            2
        ],
        "24/03/2020 17:25:21": [
            -1005,
            -764,
            -14
        ],
        "24/03/2020 20:07:12": [
            -78,
            13
        ],
        "24/03/2020 22:21:07": [
            -14
        ]
    },
    "4749": {
        "24/03/2020 15:11:23": [
            -323,
            -7
        ],
        "24/03/2020 17:25:21": [
            -1018,
            -1014
        ],
        "24/03/2020 20:07:12": [
            -102,
            -27
        ],
        "24/03/2020 22:21:07": [
            -2
        ]
    },
    "4750": {
        "24/03/2020 15:11:24": [
            -339,
            -10
        ],
        "24/03/2020 17:25:22": [
            -963,
            -959
        ],
        "24/03/2020 20:07:13": [
            -61,
            14
        ],
        "24/03/2020 22:21:08": [
            -25
        ]
    },
    "4751": {
        "24/03/2020 15:11:24": [
            -323,
            19
        ],
        "24/03/2020 17:25:22": [
            -995,
            -991
        ],
        "24/03/2020 20:07:13": [
            40,
            20
        ],
        "24/03/2020 22:21:10": [
            -23
        ]
    },
    "4754": {
        "24/03/2020 15:11:25": [
            -327,
            23
        ],
        "24/03/2020 17:25:23": [
            -1048,
            -992,
            -988
        ],
        "24/03/2020 20:07:13": [
            28,
            8
        ],
        "24/03/2020 22:21:15": [
            22
        ]
    },
    "4755": {
        "24/03/2020 15:11:26": [
            -340,
            27
        ],
        "24/03/2020 17:25:23": [
            -1045,
            -989,
            -985
        ],
        "24/03/2020 20:07:14": [
            1,
            -19
        ],
        "24/03/2020 22:21:20": [
            -12
        ]
    },
    "3003": {
        "24/03/2020 15:11:26": [
            -300,
            13
        ],
        "24/03/2020 17:25:24": [
            -1059,
            -1003,
            -1194
        ],
        "24/03/2020 20:07:14": [
            35,
            15
        ],
        "24/03/2020 22:21:25": [
            21
        ]
    },
    "2522": {
        "24/03/2020 15:11:26": [
            -352,
            -28
        ],
        "24/03/2020 17:25:24": [
            -1041,
            -985,
            -744
        ],
        "24/03/2020 20:07:15": [
            34,
            14
        ],
        "24/03/2020 22:21:31": [
            16
        ]
    },
    "2524": {
        "24/03/2020 15:11:27": [
            -334
        ],
        "24/03/2020 17:25:25": [
            -1072,
            -1016,
            -775
        ],
        "24/03/2020 20:07:15": [
            42,
            22
        ],
        "24/03/2020 22:21:36": [
            19
        ]
    },
    "2523": {
        "24/03/2020 15:11:27": [
            -303
        ],
        "24/03/2020 17:25:25": [
            -1036,
            -980,
            -739
        ],
        "24/03/2020 20:07:16": [
            9,
            -11
        ],
        "24/03/2020 22:21:41": [
            -16
        ]
    },
    "2532": {
        "24/03/2020 15:11:28": [
            -345
        ],
        "24/03/2020 17:25:26": [
            -1067,
            -1011,
            -770
        ],
        "24/03/2020 20:07:16": [
            16,
            -4
        ],
        "24/03/2020 22:21:47": [
            -13
        ]
    },
    "4877": {
        "24/03/2020 15:11:28": [
            -347
        ],
        "24/03/2020 17:25:26": [
            -1063,
            -1007,
            -1003
        ],
        "24/03/2020 20:07:17": [
            5,
            -15
        ],
        "24/03/2020 22:21:52": [
            -27
        ]
    },
    "4878": {
        "24/03/2020 15:11:29": [
            -342
        ],
        "24/03/2020 17:25:27": [
            -259,
            -1049,
            -993,
            -989
        ],
        "24/03/2020 20:07:17": [
            1,
            -19
        ],
        "24/03/2020 22:21:57": [
            26
        ]
    },
    "7180": {
        "24/03/2020 15:11:29": [
            -341
        ],
        "24/03/2020 17:25:27": [
            -237,
            -1041,
            -985,
            -1176
        ],
        "24/03/2020 20:07:18": [
            -7,
            -27
        ],
        "24/03/2020 22:22:03": [
            14
        ]
    },
    "7123": {
        "24/03/2020 15:11:30": [
            -348
        ],
        "24/03/2020 17:25:28": [
            -266,
            -1035,
            -979,
            -1170
        ],
        "24/03/2020 20:07:18": [
            29,
            9
        ],
        "24/03/2020 22:22:08": [
            -15
        ]
    },
    "4347": {
        "24/03/2020 15:11:30": [
            -320
        ],
        "24/03/2020 17:25:28": [
            -260,
            -1037,
            -981,
            -1172
        ],
        "24/03/2020 20:07:19": [
            40,
            20
        ],
        "24/03/2020 22:22:13": [
            -9
        ]
    },
    "7181": {
        "24/03/2020 15:11:31": [],
        "24/03/2020 17:25:29": [],
        "24/03/2020 20:07:19": [],
        "24/03/2020 22:22:18": []
    },
    "2353": {
        "24/03/2020 15:11:31": [],
        "24/03/2020 17:25:29": [],
        "24/03/2020 20:07:20": [],
        "24/03/2020 22:22:23": []
    },
    "2359": {
        "24/03/2020 15:11:32": [],
        "24/03/2020 17:25:30": [],
        "24/03/2020 20:07:20": [],
        "24/03/2020 22:22:27": []
    },
    "2629": {
        "24/03/2020 15:11:33": [],
        "24/03/2020 17:25:31": [],
        "24/03/2020 20:07:21": [],
        "24/03/2020 22:22:32": []
    },
    "2631": {
        "24/03/2020 15:11:33": [],
        "24/03/2020 17:25:31": [],
        "24/03/2020 20:07:21": [],
        "24/03/2020 22:22:39": []
    },
    "4440": {
        "24/03/2020 15:11:34": [],
        "24/03/2020 17:25:32": [],
        "24/03/2020 20:07:22": [],
        "24/03/2020 22:22:44": []
    },
    "4643": {
        "24/03/2020 15:11:34": [],
        "24/03/2020 17:25:32": [],
        "24/03/2020 20:07:22": [],
        "24/03/2020 22:22:49": []
    },
    "4644": {
        "24/03/2020 15:11:35": [],
        "24/03/2020 17:25:33": [],
        "24/03/2020 20:07:23": [],
        "24/03/2020 22:22:54": []
    },
    "4645": {
        "24/03/2020 15:11:35": [],
        "24/03/2020 17:25:33": [],
        "24/03/2020 20:07:23": [],
        "24/03/2020 22:22:58": []
    },
    "6095": {
        "24/03/2020 15:11:36": [],
        "24/03/2020 17:25:33": [],
        "24/03/2020 20:07:23": [],
        "24/03/2020 22:23:04": []
    },
    "7062": {
        "24/03/2020 15:11:36": [],
        "24/03/2020 17:25:34": [],
        "24/03/2020 20:07:24": [],
        "24/03/2020 22:23:09": []
    },
    "6075": {
        "24/03/2020 15:11:36": [],
        "24/03/2020 17:25:34": [],
        "24/03/2020 20:07:24": [],
        "24/03/2020 22:23:16": []
    },
    "2628": {
        "24/03/2020 15:11:37": [],
        "24/03/2020 17:25:35": [],
        "24/03/2020 20:07:25": [],
        "24/03/2020 22:23:17": []
    },
    "1155": {
        "24/03/2020 15:11:37": [
            25,
            24
        ],
        "24/03/2020 17:25:35": [
            27
        ],
        "24/03/2020 20:07:25": [
            200,
            27
        ],
        "24/03/2020 22:23:18": [
            7
        ]
    },
    "1157": {
        "24/03/2020 15:11:38": [
            20,
            19
        ],
        "24/03/2020 17:25:36": [
            -28
        ],
        "24/03/2020 20:07:26": [
            190,
            17
        ],
        "24/03/2020 22:23:18": [
            -8
        ]
    },
    "1158": {
        "24/03/2020 15:11:38": [
            14,
            13
        ],
        "24/03/2020 17:25:36": [
            -14
        ],
        "24/03/2020 20:07:26": [
            173,
            0
        ],
        "24/03/2020 22:23:19": [
            -29
        ]
    },
    "1159": {
        "24/03/2020 15:11:39": [
            -4,
            -5
        ],
        "24/03/2020 17:25:36": [
            -20
        ],
        "24/03/2020 20:07:27": [
            158
        ],
        "24/03/2020 22:23:20": [
            -4
        ]
    },
    "1160": {
        "24/03/2020 15:11:39": [
            24,
            23
        ],
        "24/03/2020 17:25:37": [
            13
        ],
        "24/03/2020 20:07:27": [
            181
        ],
        "24/03/2020 22:23:20": [
            17
        ]
    },
    "1161": {
        "24/03/2020 15:11:40": [
            -12,
            -13
        ],
        "24/03/2020 17:25:37": [
            -18
        ],
        "24/03/2020 20:07:28": [
            201
        ],
        "24/03/2020 22:23:20": [
            -24
        ]
    },
    "1162": {
        "24/03/2020 15:11:40": [
            13,
            12
        ],
        "24/03/2020 17:25:38": [
            11
        ],
        "24/03/2020 20:07:28": [
            162
        ],
        "24/03/2020 22:23:21": [
            -5
        ]
    },
    "1163": {
        "24/03/2020 15:11:41": [
            5,
            4
        ],
        "24/03/2020 17:25:38": [
            6
        ],
        "24/03/2020 20:07:28": [
            147
        ],
        "24/03/2020 22:23:22": [
            21
        ]
    },
    "1337": {
        "24/03/2020 15:11:41": [
            -23,
            -24
        ],
        "24/03/2020 17:25:39": [
            -15
        ],
        "24/03/2020 20:07:29": [
            167
        ],
        "24/03/2020 22:23:22": [
            9
        ]
    },
    "1338": {
        "24/03/2020 15:11:42": [
            5,
            4
        ],
        "24/03/2020 17:25:39": [
            13
        ],
        "24/03/2020 20:07:29": [
            187
        ],
        "24/03/2020 22:23:23": [
            27
        ]
    },
    "1339": {
        "24/03/2020 15:11:42": [
            1,
            0
        ],
        "24/03/2020 17:25:40": [
            8
        ],
        "24/03/2020 20:07:30": [
            167
        ],
        "24/03/2020 22:23:23": [
            2
        ]
    },
    "1340": {
        "24/03/2020 15:11:43": [
            -26,
            -27
        ],
        "24/03/2020 17:25:40": [
            -19
        ],
        "24/03/2020 20:07:30": [
            191
        ],
        "24/03/2020 22:23:24": [
            24
        ]
    },
    "1341": {
        "24/03/2020 15:11:44": [
            -20,
            -21
        ],
        "24/03/2020 17:25:40": [
            -14
        ],
        "24/03/2020 20:07:31": [
            179
        ],
        "24/03/2020 22:23:24": [
            6
        ]
    },
    "1342": {
        "24/03/2020 15:11:44": [
            18,
            17
        ],
        "24/03/2020 17:25:41": [
            -738,
            28
        ],
        "24/03/2020 20:07:31": [
            149
        ],
        "24/03/2020 22:23:24": [
            -28,
            -28
        ]
    },
    "1358": {
        "24/03/2020 15:11:45": [
            348,
            -24
        ],
        "24/03/2020 17:25:41": [
            -681,
            1
        ],
        "24/03/2020 20:07:32": [
            187
        ],
        "24/03/2020 22:23:25": [
            -8,
            -8
        ]
    },
    "2002": {
        "24/03/2020 15:11:45": [
            314,
            1
        ],
        "24/03/2020 17:25:42": [
            -656,
            26
        ],
        "24/03/2020 20:07:32": [
            152
        ],
        "24/03/2020 22:23:25": [
            28,
            28
        ]
    },
    "2539": {
        "24/03/2020 15:11:46": [
            -2,
            -2
        ],
        "24/03/2020 17:25:42": [
            -14,
            3
        ],
        "24/03/2020 20:07:33": [
            135,
            21
        ],
        "24/03/2020 22:23:26": [
            -25
        ]
    },
    "2540": {
        "24/03/2020 15:11:46": [
            -24
        ],
        "24/03/2020 17:25:43": [
            25,
            -20
        ],
        "24/03/2020 20:07:33": [
            102,
            -12
        ],
        "24/03/2020 22:23:27": [
            -2
        ]
    },
    "2542": {
        "24/03/2020 15:11:47": [
            17
        ],
        "24/03/2020 17:25:43": [
            9,
            25
        ],
        "24/03/2020 20:07:33": [
            140,
            26
        ],
        "24/03/2020 22:23:27": [
            -28
        ]
    },
    "4342": {
        "24/03/2020 15:11:47": [
            0,
            0
        ],
        "24/03/2020 17:25:44": [
            0,
            0
        ],
        "24/03/2020 20:07:34": [
            0
        ],
        "24/03/2020 22:23:27": [
            0
        ]
    },
    "4756": {
        "24/03/2020 15:11:48": [
            10,
            -10
        ],
        "24/03/2020 17:25:44": [
            -9,
            12
        ],
        "24/03/2020 20:07:34": [
            159,
            -14
        ],
        "24/03/2020 22:23:28": [
            -20
        ]
    },
    "4757": {
        "24/03/2020 15:11:48": [
            -8,
            -9
        ],
        "24/03/2020 17:25:45": [
            -1,
            24
        ],
        "24/03/2020 20:07:35": [
            150,
            -23
        ],
        "24/03/2020 22:23:28": [
            20
        ]
    },
    "1343": {
        "24/03/2020 15:11:49": [
            -16,
            -17
        ],
        "24/03/2020 17:25:45": [
            -769,
            -3
        ],
        "24/03/2020 20:07:35": [
            169
        ],
        "24/03/2020 22:23:29": [
            -11,
            -11
        ]
    },
    "1344": {
        "24/03/2020 15:11:49": [
            11,
            10
        ],
        "24/03/2020 17:25:45": [
            -760,
            -27
        ],
        "24/03/2020 20:07:36": [
            178
        ],
        "24/03/2020 22:23:29": [
            -13,
            -13
        ]
    },
    "1345": {
        "24/03/2020 15:11:50": [
            8,
            7
        ],
        "24/03/2020 17:25:46": [
            -705,
            28
        ],
        "24/03/2020 20:07:36": [
            174
        ],
        "24/03/2020 22:23:30": [
            24,
            24
        ]
    },
    "1347": {
        "24/03/2020 15:11:50": [
            -27,
            -28
        ],
        "24/03/2020 17:25:46": [
            -777,
            -11
        ],
        "24/03/2020 20:07:37": [
            196
        ],
        "24/03/2020 22:23:30": [
            20,
            20
        ]
    },
    "2383": {
        "24/03/2020 15:11:51": [
            325,
            0
        ],
        "24/03/2020 17:25:47": [
            -685,
            -3
        ],
        "24/03/2020 20:07:37": [
            150
        ],
        "24/03/2020 22:23:31": [
            -23,
            -23
        ]
    },
    "6343": {
        "24/03/2020 15:11:51": [
            26,
            -11
        ],
        "24/03/2020 17:25:47": [
            1,
            26
        ],
        "24/03/2020 20:07:38": [],
        "24/03/2020 22:23:31": [
            8
        ]
    },
    "7121": {
        "24/03/2020 15:11:52": [
            -19,
            -19
        ],
        "24/03/2020 17:25:48": [
            22,
            -4
        ],
        "24/03/2020 20:07:38": [
            17
        ],
        "24/03/2020 22:23:32": [
            1
        ]
    },
    "2547": {
        "24/03/2020 15:11:52": [
            3,
            2
        ],
        "24/03/2020 17:25:48": [
            6,
            12
        ],
        "24/03/2020 20:07:39": [
            183,
            10
        ],
        "24/03/2020 22:23:32": [
            11
        ]
    },
    "2548": {
        "24/03/2020 15:11:53": [
            5,
            4
        ],
        "24/03/2020 17:25:48": [
            22,
            12
        ],
        "24/03/2020 20:07:39": [
            170,
            -3
        ],
        "24/03/2020 22:23:33": [
            -7
        ]
    },
    "3004": {
        "24/03/2020 15:11:53": [
            40,
            20
        ],
        "24/03/2020 17:25:49": [
            19,
            -22
        ],
        "24/03/2020 20:07:40": [
            191,
            18
        ],
        "24/03/2020 22:23:33": [
            14
        ]
    },
    "3005": {
        "24/03/2020 15:11:53": [
            42,
            22
        ],
        "24/03/2020 17:25:49": [
            25,
            -13
        ],
        "24/03/2020 20:07:40": [
            188,
            15
        ],
        "24/03/2020 22:23:34": [
            7
        ]
    },
    "342": {
        "24/03/2020 15:11:54": [
            0,
            0,
            0
        ],
        "24/03/2020 17:25:50": [
            0,
            0,
            0
        ],
        "24/03/2020 20:07:40": [
            0,
            0
        ],
        "24/03/2020 22:23:34": [
            0,
            0
        ]
    },
    "4348": {
        "24/03/2020 15:11:54": [
            -19,
            -19
        ],
        "24/03/2020 17:25:50": [
            -3,
            -11
        ],
        "24/03/2020 20:07:41": [
            17
        ],
        "24/03/2020 22:23:35": [
            15
        ]
    },
    "5097": {
        "24/03/2020 15:11:55": [
            308,
            26
        ],
        "24/03/2020 17:25:51": [
            -666,
            16
        ],
        "24/03/2020 20:07:41": [
            184
        ],
        "24/03/2020 22:23:35": [
            16,
            16
        ]
    },
    "7183": {
        "24/03/2020 15:11:56": [
            24,
            24
        ],
        "24/03/2020 17:25:51": [
            6,
            -23
        ],
        "24/03/2020 20:07:42": [
            -13
        ],
        "24/03/2020 22:23:36": [
            27
        ]
    },
    "4758": {
        "24/03/2020 15:11:56": [
            13,
            -24
        ],
        "24/03/2020 17:25:51": [
            -13,
            12
        ],
        "24/03/2020 20:07:42": [
            191,
            18
        ],
        "24/03/2020 22:23:36": [
            -2
        ]
    },
    "4759": {
        "24/03/2020 15:11:57": [
            13,
            -24
        ],
        "24/03/2020 17:25:52": [
            -9,
            18
        ],
        "24/03/2020 20:07:43": [
            186,
            13
        ],
        "24/03/2020 22:23:36": [
            -12
        ]
    },
    "4760": {
        "24/03/2020 15:11:57": [
            41,
            21
        ],
        "24/03/2020 17:25:52": [
            -9,
            11
        ],
        "24/03/2020 20:07:43": [
            162,
            -11
        ],
        "24/03/2020 22:23:37": [
            13
        ]
    },
    "5192": {
        "24/03/2020 15:11:57": [
            327,
            16
        ],
        "24/03/2020 17:25:53": [
            -700,
            -18
        ],
        "24/03/2020 20:07:43": [
            166
        ],
        "24/03/2020 22:23:37": [
            20,
            20
        ]
    },
    "2634": {
        "24/03/2020 15:11:58": [
            330,
            -17,
            -18
        ],
        "24/03/2020 17:25:53": [
            -760,
            6
        ],
        "24/03/2020 20:07:44": [
            184
        ],
        "24/03/2020 22:23:38": [
            -12,
            -12
        ]
    },
    "2635": {
        "24/03/2020 15:11:58": [
            323,
            -23,
            -24
        ],
        "24/03/2020 17:25:54": [
            -761,
            5
        ],
        "24/03/2020 20:07:44": [
            162
        ],
        "24/03/2020 22:23:38": [
            11,
            11
        ]
    },
    "2636": {
        "24/03/2020 15:11:59": [
            327,
            -16,
            -17
        ],
        "24/03/2020 17:25:54": [
            -741,
            25
        ],
        "24/03/2020 20:07:45": [
            152
        ],
        "24/03/2020 22:23:39": [
            -9,
            -9
        ]
    },
    "4880": {
        "24/03/2020 15:11:59": [
            -19,
            -19
        ],
        "24/03/2020 17:25:55": [
            25,
            -8
        ],
        "24/03/2020 20:07:45": [
            119,
            -17
        ],
        "24/03/2020 22:23:39": [
            13
        ]
    },
    "7122": {
        "24/03/2020 15:12:00": [
            10,
            10
        ],
        "24/03/2020 17:25:55": [
            -11,
            29
        ],
        "24/03/2020 20:07:46": [
            12
        ],
        "24/03/2020 22:23:40": [
            7
        ]
    },
    "946": {
        "24/03/2020 15:12:00": [
            -4,
            -5
        ],
        "24/03/2020 17:25:55": [
            -22,
            0
        ],
        "24/03/2020 20:07:46": [
            193,
            20
        ],
        "24/03/2020 22:23:40": [
            7
        ]
    }
}