{
    "7576": {
        "25/03/2020 15:30:02": [],
        "25/03/2020 18:15:06": [],
        "25/03/2020 20:31:37": [],
        "25/03/2020 21:58:14": []
    },
    "7333": {
        "25/03/2020 15:30:02": [
            0,
            0
        ],
        "25/03/2020 18:15:06": [
            0,
            0
        ],
        "25/03/2020 20:31:38": [
            0
        ],
        "25/03/2020 21:58:14": [
            0
        ]
    },
    "783": {
        "25/03/2020 15:30:02": [
            -12,
            -12
        ],
        "25/03/2020 18:15:06": [
            -24,
            -24
        ],
        "25/03/2020 20:31:38": [
            1
        ],
        "25/03/2020 21:58:15": [
            1
        ]
    },
    "784": {
        "25/03/2020 15:30:03": [],
        "25/03/2020 18:15:06": [
            0,
            0
        ],
        "25/03/2020 20:31:38": [
            18
        ],
        "25/03/2020 21:58:15": [
            18
        ]
    },
    "785": {
        "25/03/2020 15:30:03": [
            -20,
            -20
        ],
        "25/03/2020 18:15:07": [
            -19,
            -19
        ],
        "25/03/2020 20:31:39": [
            -13,
            -13
        ],
        "25/03/2020 21:58:15": [
            -13
        ]
    },
    "786": {
        "25/03/2020 15:30:03": [
            25,
            25
        ],
        "25/03/2020 18:15:07": [
            -3,
            -3
        ],
        "25/03/2020 20:31:39": [
            -12,
            -12
        ],
        "25/03/2020 21:58:15": [
            -12
        ]
    },
    "793": {
        "25/03/2020 15:30:04": [
            1,
            1
        ],
        "25/03/2020 18:15:07": [
            13,
            -11,
            -11
        ],
        "25/03/2020 20:31:39": [
            20,
            20
        ],
        "25/03/2020 21:58:16": [
            20
        ]
    },
    "7586": {
        "25/03/2020 15:30:04": [
            -24,
            -24
        ],
        "25/03/2020 18:15:08": [
            -2,
            -16,
            -16
        ],
        "25/03/2020 20:31:39": [
            0,
            0
        ],
        "25/03/2020 21:58:16": [
            0
        ]
    },
    "7587": {
        "25/03/2020 15:30:04": [
            14,
            14
        ],
        "25/03/2020 18:15:08": [
            -13,
            -19
        ],
        "25/03/2020 20:31:40": [
            -17,
            -17
        ],
        "25/03/2020 21:58:16": [
            -17
        ]
    },
    "7588": {
        "25/03/2020 15:30:05": [
            -3,
            -3
        ],
        "25/03/2020 18:15:08": [
            -27,
            13
        ],
        "25/03/2020 20:31:40": [
            11,
            11
        ],
        "25/03/2020 21:58:17": [
            11
        ]
    },
    "329": {
        "25/03/2020 15:30:05": [
            -28,
            -28
        ],
        "25/03/2020 18:15:09": [
            23,
            -7
        ],
        "25/03/2020 20:31:40": [
            -29,
            -29
        ],
        "25/03/2020 21:58:17": [
            -29
        ]
    },
    "1443": {
        "25/03/2020 15:30:05": [
            6,
            6
        ],
        "25/03/2020 18:15:09": [
            11,
            26
        ],
        "25/03/2020 20:31:41": [
            -17
        ],
        "25/03/2020 21:58:17": [
            -17
        ]
    },
    "1444": {
        "25/03/2020 15:30:06": [
            9,
            9
        ],
        "25/03/2020 18:15:09": [
            8,
            7
        ],
        "25/03/2020 20:31:41": [
            23
        ],
        "25/03/2020 21:58:17": [
            23
        ]
    },
    "1445": {
        "25/03/2020 15:30:06": [
            20,
            20
        ],
        "25/03/2020 18:15:10": [
            12,
            -6
        ],
        "25/03/2020 20:31:41": [
            7
        ],
        "25/03/2020 21:58:18": [
            7
        ]
    },
    "1647": {
        "25/03/2020 15:30:06": [
            18,
            18
        ],
        "25/03/2020 18:15:10": [
            -1,
            11
        ],
        "25/03/2020 20:31:41": [
            22
        ],
        "25/03/2020 21:58:18": [
            22
        ]
    },
    "1648": {
        "25/03/2020 15:30:07": [
            -26
        ],
        "25/03/2020 18:15:11": [
            8,
            2
        ],
        "25/03/2020 20:31:42": [
            10
        ],
        "25/03/2020 21:58:18": [
            10
        ]
    },
    "1649": {
        "25/03/2020 15:30:07": [
            5
        ],
        "25/03/2020 18:15:11": [
            36,
            -21,
            27
        ],
        "25/03/2020 20:31:42": [
            -30
        ],
        "25/03/2020 21:58:19": [
            -30
        ]
    },
    "1911": {
        "25/03/2020 15:30:07": [
            -30
        ],
        "25/03/2020 18:15:11": [
            44,
            2,
            -23
        ],
        "25/03/2020 20:31:42": [
            25
        ],
        "25/03/2020 21:58:19": [
            25
        ]
    },
    "1913": {
        "25/03/2020 15:30:08": [
            25
        ],
        "25/03/2020 18:15:12": [
            39,
            -18,
            21
        ],
        "25/03/2020 20:31:43": [
            -3
        ],
        "25/03/2020 21:58:19": [
            -3
        ]
    },
    "1914": {
        "25/03/2020 15:30:08": [
            6
        ],
        "25/03/2020 18:15:12": [
            69,
            12,
            -5
        ],
        "25/03/2020 20:31:43": [
            22
        ],
        "25/03/2020 21:58:19": [
            22
        ]
    },
    "1805": {
        "25/03/2020 15:30:08": [
            -14
        ],
        "25/03/2020 18:15:12": [
            42,
            -15,
            24
        ],
        "25/03/2020 20:31:43": [
            -16
        ],
        "25/03/2020 21:58:20": [
            -16
        ]
    },
    "1806": {
        "25/03/2020 15:30:09": [
            5
        ],
        "25/03/2020 18:15:12": [
            62,
            -11,
            17
        ],
        "25/03/2020 20:31:43": [
            25
        ],
        "25/03/2020 21:58:20": [
            25
        ]
    },
    "1660": {
        "25/03/2020 15:30:09": [
            -28
        ],
        "25/03/2020 18:15:13": [
            65,
            -8,
            10
        ],
        "25/03/2020 20:31:44": [
            13
        ],
        "25/03/2020 21:58:20": [
            13
        ]
    },
    "1661": {
        "25/03/2020 15:30:09": [
            -26
        ],
        "25/03/2020 18:15:13": [
            51,
            -22,
            -19
        ],
        "25/03/2020 20:31:44": [
            -22
        ],
        "25/03/2020 21:58:20": [
            -22
        ]
    },
    "1662": {
        "25/03/2020 15:30:09": [
            -16
        ],
        "25/03/2020 18:15:13": [
            44,
            -29,
            17
        ],
        "25/03/2020 20:31:44": [
            7
        ],
        "25/03/2020 21:58:21": [
            7
        ]
    },
    "1664": {
        "25/03/2020 15:30:10": [
            -27
        ],
        "25/03/2020 18:15:14": [
            98,
            25,
            -4
        ],
        "25/03/2020 20:31:44": [
            -18
        ],
        "25/03/2020 21:58:21": [
            -18
        ]
    },
    "1665": {
        "25/03/2020 15:30:10": [
            4
        ],
        "25/03/2020 18:15:14": [
            72,
            -1,
            21
        ],
        "25/03/2020 20:31:45": [
            5
        ],
        "25/03/2020 21:58:21": [
            5
        ]
    },
    "1666": {
        "25/03/2020 15:30:10": [
            -18
        ],
        "25/03/2020 18:15:14": [
            43,
            -30,
            -6
        ],
        "25/03/2020 20:31:45": [
            24
        ],
        "25/03/2020 21:58:22": [
            24
        ]
    },
    "1807": {
        "25/03/2020 15:30:11": [
            -11
        ],
        "25/03/2020 18:15:15": [
            47,
            50,
            -23,
            -14
        ],
        "25/03/2020 20:31:45": [
            17
        ],
        "25/03/2020 21:58:22": [
            17
        ]
    },
    "7167": {
        "25/03/2020 15:30:11": [
            18
        ],
        "25/03/2020 18:15:15": [
            37,
            88,
            15,
            14
        ],
        "25/03/2020 20:31:46": [
            -19
        ],
        "25/03/2020 21:58:22": [
            -19
        ]
    },
    "1808": {
        "25/03/2020 15:30:11": [
            13
        ],
        "25/03/2020 18:15:15": [
            34,
            85,
            12,
            7
        ],
        "25/03/2020 20:31:46": [
            -27
        ],
        "25/03/2020 21:58:22": [
            -27
        ]
    },
    "7389": {
        "25/03/2020 15:30:11": [
            -2
        ],
        "25/03/2020 18:15:16": [
            4,
            6,
            4,
            -11
        ],
        "25/03/2020 20:31:46": [
            12
        ],
        "25/03/2020 21:58:23": [
            12
        ]
    },
    "4325": {
        "25/03/2020 15:30:12": [],
        "25/03/2020 18:15:16": [
            1,
            3,
            1
        ],
        "25/03/2020 20:31:46": [
            -17
        ],
        "25/03/2020 21:58:23": [
            351,
            -17
        ]
    },
    "3328": {
        "25/03/2020 15:30:12": [],
        "25/03/2020 18:15:16": [
            -367,
            -28,
            -26,
            -28
        ],
        "25/03/2020 20:31:47": [
            -1
        ],
        "25/03/2020 21:58:23": [
            367
        ]
    },
    "3329": {
        "25/03/2020 15:30:12": [],
        "25/03/2020 18:15:16": [
            -364,
            -25,
            -23,
            -25
        ],
        "25/03/2020 20:31:47": [
            -3
        ],
        "25/03/2020 21:58:24": [
            365
        ]
    },
    "3330": {
        "25/03/2020 15:30:13": [],
        "25/03/2020 18:15:17": [
            -348,
            -9,
            -7,
            -9
        ],
        "25/03/2020 20:31:47": [
            13
        ],
        "25/03/2020 21:58:24": [
            381
        ]
    },
    "3331": {
        "25/03/2020 15:30:13": [],
        "25/03/2020 18:15:17": [
            -354,
            -15,
            -13,
            -15
        ],
        "25/03/2020 20:31:47": [
            7
        ],
        "25/03/2020 21:58:24": [
            375
        ]
    },
    "3351": {
        "25/03/2020 15:30:13": [
            -641
        ],
        "25/03/2020 18:15:17": [
            -314,
            24,
            26,
            24
        ],
        "25/03/2020 20:31:48": [
            -13
        ],
        "25/03/2020 21:58:25": [
            355
        ]
    },
    "3332": {
        "25/03/2020 15:30:14": [
            -568
        ],
        "25/03/2020 18:15:18": [
            -366,
            -27,
            -25,
            -27
        ],
        "25/03/2020 20:31:48": [
            19
        ],
        "25/03/2020 21:58:25": [
            387
        ]
    },
    "313": {
        "25/03/2020 15:30:14": [],
        "25/03/2020 18:15:18": [],
        "25/03/2020 20:31:48": [],
        "25/03/2020 21:58:25": []
    },
    "349": {
        "25/03/2020 15:30:15": [],
        "25/03/2020 18:15:18": [],
        "25/03/2020 20:31:49": [],
        "25/03/2020 21:58:26": []
    },
    "3333": {
        "25/03/2020 15:30:15": [
            0
        ],
        "25/03/2020 18:15:19": [
            0
        ],
        "25/03/2020 20:31:49": [
            0
        ],
        "25/03/2020 21:58:26": [
            0
        ]
    },
    "3334": {
        "25/03/2020 15:30:15": [
            -3
        ],
        "25/03/2020 18:15:19": [
            -26
        ],
        "25/03/2020 20:31:49": [
            21
        ],
        "25/03/2020 21:58:26": [
            21
        ]
    },
    "3352": {
        "25/03/2020 15:30:15": [
            -9
        ],
        "25/03/2020 18:15:19": [
            7
        ],
        "25/03/2020 20:31:49": [
            -18
        ],
        "25/03/2020 21:58:26": [
            -18
        ]
    },
    "3335": {
        "25/03/2020 15:30:16": [
            -20
        ],
        "25/03/2020 18:15:20": [
            -4
        ],
        "25/03/2020 20:31:50": [
            17
        ],
        "25/03/2020 21:58:27": [
            17
        ]
    },
    "3336": {
        "25/03/2020 15:30:16": [
            -27
        ],
        "25/03/2020 18:15:20": [
            -18
        ],
        "25/03/2020 20:31:50": [
            -11
        ],
        "25/03/2020 21:58:27": [
            -11
        ]
    },
    "3337": {
        "25/03/2020 15:30:16": [
            10
        ],
        "25/03/2020 18:15:20": [
            9
        ],
        "25/03/2020 20:31:50": [
            8
        ],
        "25/03/2020 21:58:27": [
            8
        ]
    },
    "3338": {
        "25/03/2020 15:30:17": [
            -8
        ],
        "25/03/2020 18:15:21": [
            25
        ],
        "25/03/2020 20:31:50": [
            2
        ],
        "25/03/2020 21:58:28": [
            2
        ]
    },
    "3339": {
        "25/03/2020 15:30:17": [
            22
        ],
        "25/03/2020 18:15:21": [
            -7
        ],
        "25/03/2020 20:31:51": [
            17
        ],
        "25/03/2020 21:58:28": [
            17
        ]
    },
    "3340": {
        "25/03/2020 15:30:17": [
            6
        ],
        "25/03/2020 18:15:21": [
            -22
        ],
        "25/03/2020 20:31:51": [
            20
        ],
        "25/03/2020 21:58:28": [
            272,
            20
        ]
    },
    "4324": {
        "25/03/2020 15:30:18": [
            -24
        ],
        "25/03/2020 18:15:22": [
            2,
            -9,
            4,
            2,
            13
        ],
        "25/03/2020 20:31:51": [
            17
        ],
        "25/03/2020 21:58:28": [
            269,
            17
        ]
    },
    "4769": {
        "25/03/2020 15:30:18": [
            -6
        ],
        "25/03/2020 18:15:22": [
            21,
            16,
            23,
            21,
            -30
        ],
        "25/03/2020 20:31:52": [
            -14,
            -24
        ],
        "25/03/2020 21:58:29": [
            228,
            -14,
            -24
        ]
    },
    "4770": {
        "25/03/2020 15:30:18": [
            -20
        ],
        "25/03/2020 18:15:22": [
            5,
            -5,
            7,
            5,
            10
        ],
        "25/03/2020 20:31:52": [
            22,
            6
        ],
        "25/03/2020 21:58:29": [
            412,
            258,
            22,
            6
        ]
    },
    "4765": {
        "25/03/2020 15:30:19": [
            14
        ],
        "25/03/2020 18:15:23": [
            -21,
            25,
            -19,
            -21,
            -21
        ],
        "25/03/2020 20:31:52": [
            -11,
            29
        ],
        "25/03/2020 21:58:29": [
            379,
            281,
            -11,
            29
        ]
    },
    "4766": {
        "25/03/2020 15:30:19": [
            80,
            8
        ],
        "25/03/2020 18:15:23": [
            -29,
            -2,
            -27,
            -29,
            26
        ],
        "25/03/2020 20:31:52": [
            -29,
            -4
        ],
        "25/03/2020 21:58:30": [
            361,
            248,
            -29,
            -4
        ]
    },
    "4767": {
        "25/03/2020 15:30:20": [
            48
        ],
        "25/03/2020 18:15:23": [
            15,
            25,
            17,
            15,
            5
        ],
        "25/03/2020 20:31:53": [
            7,
            18
        ],
        "25/03/2020 21:58:30": [
            397,
            270,
            7,
            18
        ]
    },
    "4768": {
        "25/03/2020 15:30:20": [
            65
        ],
        "25/03/2020 18:15:24": [
            -19,
            -18,
            -17,
            -19,
            29
        ],
        "25/03/2020 20:31:53": [
            28,
            -29
        ],
        "25/03/2020 21:58:30": [
            418,
            223,
            28,
            -29
        ]
    },
    "1845": {
        "25/03/2020 15:30:20": [
            -30
        ],
        "25/03/2020 18:15:24": [
            -15
        ],
        "25/03/2020 20:31:53": [
            343,
            -7
        ],
        "25/03/2020 21:58:30": [
            245
        ]
    },
    "7166": {
        "25/03/2020 15:30:21": [
            12
        ],
        "25/03/2020 18:15:24": [
            26
        ],
        "25/03/2020 20:31:53": [
            380,
            26
        ],
        "25/03/2020 21:58:31": [
            278
        ]
    },
    "1847": {
        "25/03/2020 15:30:21": [
            9
        ],
        "25/03/2020 18:15:25": [
            -30
        ],
        "25/03/2020 20:31:54": [
            322,
            20
        ],
        "25/03/2020 21:58:31": [
            272
        ]
    },
    "1696": {
        "25/03/2020 15:30:21": [
            -18
        ],
        "25/03/2020 18:15:25": [
            8
        ],
        "25/03/2020 20:31:54": [
            302,
            -13
        ],
        "25/03/2020 21:58:31": [
            239
        ]
    },
    "1697": {
        "25/03/2020 15:30:22": [
            5
        ],
        "25/03/2020 18:15:25": [
            26
        ],
        "25/03/2020 20:31:54": [
            316,
            -4
        ],
        "25/03/2020 21:58:32": [
            248
        ]
    },
    "1698": {
        "25/03/2020 15:30:22": [
            -11
        ],
        "25/03/2020 18:15:26": [
            1
        ],
        "25/03/2020 20:31:55": [
            343,
            13
        ],
        "25/03/2020 21:58:32": [
            265
        ]
    },
    "1699": {
        "25/03/2020 15:30:23": [
            18
        ],
        "25/03/2020 18:15:26": [
            20
        ],
        "25/03/2020 20:31:55": [
            303,
            24
        ],
        "25/03/2020 21:58:32": [
            276
        ]
    },
    "1700": {
        "25/03/2020 15:30:23": [
            4
        ],
        "25/03/2020 18:15:26": [
            -9
        ],
        "25/03/2020 20:31:55": [
            334,
            -17
        ],
        "25/03/2020 21:58:33": [
            235
        ]
    },
    "1701": {
        "25/03/2020 15:30:23": [
            -28
        ],
        "25/03/2020 18:15:27": [
            27
        ],
        "25/03/2020 20:31:55": [
            306,
            2
        ],
        "25/03/2020 21:58:33": [
            254
        ]
    },
    "1702": {
        "25/03/2020 15:30:24": [
            -8
        ],
        "25/03/2020 18:15:27": [
            -8
        ],
        "25/03/2020 20:31:56": [
            329,
            16
        ],
        "25/03/2020 21:58:33": [
            268
        ]
    },
    "1703": {
        "25/03/2020 15:30:24": [
            11
        ],
        "25/03/2020 18:15:27": [
            46,
            15
        ],
        "25/03/2020 20:31:56": [
            354,
            -30
        ],
        "25/03/2020 21:58:33": [
            222
        ]
    },
    "1905": {
        "25/03/2020 15:30:24": [
            -19
        ],
        "25/03/2020 18:15:28": [
            21,
            -10
        ],
        "25/03/2020 20:31:56": [
            332,
            -8
        ],
        "25/03/2020 21:58:34": [
            244
        ]
    },
    "1906": {
        "25/03/2020 15:30:25": [
            28
        ],
        "25/03/2020 18:15:28": [
            -37,
            -25
        ],
        "25/03/2020 20:31:57": [
            334,
            -17
        ],
        "25/03/2020 21:58:34": [
            235
        ]
    },
    "1907": {
        "25/03/2020 15:30:25": [
            -7
        ],
        "25/03/2020 18:15:28": [
            18,
            2
        ],
        "25/03/2020 20:31:57": [
            354,
            1
        ],
        "25/03/2020 21:58:34": [
            253
        ]
    },
    "1908": {
        "25/03/2020 15:30:26": [
            -22
        ],
        "25/03/2020 18:15:29": [
            0,
            -16
        ],
        "25/03/2020 20:31:57": [
            321
        ],
        "25/03/2020 21:58:34": [
            281
        ]
    },
    "1909": {
        "25/03/2020 15:30:26": [
            -26
        ],
        "25/03/2020 18:15:29": [
            -22
        ],
        "25/03/2020 20:31:58": [
            356,
            4
        ],
        "25/03/2020 21:58:35": [
            256
        ]
    },
    "1713": {
        "25/03/2020 15:30:26": [
            21
        ],
        "25/03/2020 18:15:29": [
            11,
            -1
        ],
        "25/03/2020 20:31:58": [
            241
        ],
        "25/03/2020 21:58:35": [
            257
        ]
    },
    "1714": {
        "25/03/2020 15:30:27": [
            -10
        ],
        "25/03/2020 18:15:30": [
            -11,
            -23
        ],
        "25/03/2020 20:31:58": [
            272
        ],
        "25/03/2020 21:58:35": [
            275
        ]
    },
    "1715": {
        "25/03/2020 15:30:27": [
            -14
        ],
        "25/03/2020 18:15:30": [
            3,
            -9
        ],
        "25/03/2020 20:31:59": [
            273
        ],
        "25/03/2020 21:58:36": [
            251
        ]
    },
    "7453": {
        "25/03/2020 15:30:28": [
            -9
        ],
        "25/03/2020 18:15:30": [
            29,
            17
        ],
        "25/03/2020 20:31:59": [
            283
        ],
        "25/03/2020 21:58:36": [
            232
        ]
    },
    "1478": {
        "25/03/2020 15:30:28": [
            -2
        ],
        "25/03/2020 18:15:31": [
            7,
            -5
        ],
        "25/03/2020 20:31:59": [
            270
        ],
        "25/03/2020 21:58:36": [
            232
        ]
    },
    "1479": {
        "25/03/2020 15:30:28": [
            -15
        ],
        "25/03/2020 18:15:31": [
            -5,
            -17
        ],
        "25/03/2020 20:32:00": [
            284
        ],
        "25/03/2020 21:58:37": [
            273
        ]
    },
    "315": {
        "25/03/2020 15:30:29": [
            20
        ],
        "25/03/2020 18:15:31": [
            36,
            24
        ],
        "25/03/2020 20:32:00": [
            255
        ],
        "25/03/2020 21:58:37": [
            237
        ]
    },
    "404": {
        "25/03/2020 15:30:29": [
            28
        ],
        "25/03/2020 18:15:32": [
            -7,
            -19
        ],
        "25/03/2020 20:32:00": [
            248
        ],
        "25/03/2020 21:58:37": [
            224
        ]
    },
    "747": {
        "25/03/2020 15:30:29": [
            -19
        ],
        "25/03/2020 18:15:32": [
            -17,
            -29
        ],
        "25/03/2020 20:32:00": [
            245
        ],
        "25/03/2020 21:58:37": [
            271
        ]
    },
    "748": {
        "25/03/2020 15:30:30": [
            16
        ],
        "25/03/2020 18:15:33": [
            16,
            4
        ],
        "25/03/2020 20:32:01": [
            274
        ],
        "25/03/2020 21:58:38": [
            234
        ]
    },
    "749": {
        "25/03/2020 15:30:30": [
            -1
        ],
        "25/03/2020 18:15:33": [
            -2,
            -14
        ],
        "25/03/2020 20:32:01": [
            251
        ],
        "25/03/2020 21:58:38": [
            264
        ]
    },
    "750": {
        "25/03/2020 15:30:31": [
            -22
        ],
        "25/03/2020 18:15:33": [
            31,
            19
        ],
        "25/03/2020 20:32:01": [
            277
        ],
        "25/03/2020 21:58:38": [
            281
        ]
    },
    "751": {
        "25/03/2020 15:30:31": [
            17
        ],
        "25/03/2020 18:15:34": [
            5,
            -7
        ],
        "25/03/2020 20:32:02": [
            243
        ],
        "25/03/2020 21:58:39": [
            238
        ]
    },
    "752": {
        "25/03/2020 15:30:31": [
            6
        ],
        "25/03/2020 18:15:34": [
            -13,
            -25
        ],
        "25/03/2020 20:32:02": [
            275
        ],
        "25/03/2020 21:58:39": [
            260
        ]
    },
    "753": {
        "25/03/2020 15:30:32": [
            -27
        ],
        "25/03/2020 18:15:34": [
            25,
            13
        ],
        "25/03/2020 20:32:02": [
            258
        ],
        "25/03/2020 21:58:39": [
            227
        ]
    },
    "7370": {
        "25/03/2020 15:30:32": [
            14
        ],
        "25/03/2020 18:15:34": [
            21,
            9
        ],
        "25/03/2020 20:32:02": [
            260
        ],
        "25/03/2020 21:58:40": [
            268
        ]
    },
    "7339": {
        "25/03/2020 15:30:32": [],
        "25/03/2020 18:15:35": [],
        "25/03/2020 20:32:03": [],
        "25/03/2020 21:58:40": []
    }
}