{
    "5034": {
        "24/03/2020 15:06:11": [],
        "24/03/2020 17:18:36": [],
        "24/03/2020 20:00:05": [],
        "24/03/2020 22:16:08": []
    },
    "2893": {
        "24/03/2020 15:06:11": [
            28
        ],
        "24/03/2020 17:18:36": [
            21
        ],
        "24/03/2020 20:00:05": [
            -5,
            -5
        ],
        "24/03/2020 22:16:09": [
            -5
        ]
    },
    "2894": {
        "24/03/2020 15:06:12": [
            4
        ],
        "24/03/2020 17:18:37": [
            1
        ],
        "24/03/2020 20:00:06": [
            25,
            25
        ],
        "24/03/2020 22:16:09": [
            25
        ]
    },
    "2895": {
        "24/03/2020 15:06:12": [
            -22
        ],
        "24/03/2020 17:18:37": [
            -24
        ],
        "24/03/2020 20:00:06": [
            -10,
            -10
        ],
        "24/03/2020 22:16:09": [
            -10
        ]
    },
    "2896": {
        "24/03/2020 15:06:13": [
            24
        ],
        "24/03/2020 17:18:38": [
            25
        ],
        "24/03/2020 20:00:07": [
            25,
            25
        ],
        "24/03/2020 22:16:10": [
            25
        ]
    },
    "2897": {
        "24/03/2020 15:06:13": [
            -5
        ],
        "24/03/2020 17:18:38": [
            4
        ],
        "24/03/2020 20:00:07": [
            -9,
            -9
        ],
        "24/03/2020 22:16:10": [
            -9
        ]
    },
    "2898": {
        "24/03/2020 15:06:14": [
            -17
        ],
        "24/03/2020 17:18:39": [
            4
        ],
        "24/03/2020 20:00:08": [
            -27,
            -27
        ],
        "24/03/2020 22:16:11": [
            -27
        ]
    },
    "3562": {
        "24/03/2020 15:06:14": [
            -16
        ],
        "24/03/2020 17:18:39": [
            9
        ],
        "24/03/2020 20:00:08": [
            20,
            20
        ],
        "24/03/2020 22:16:11": [
            20
        ]
    },
    "2899": {
        "24/03/2020 15:06:15": [],
        "24/03/2020 17:18:40": [
            -16
        ],
        "24/03/2020 20:00:09": [
            -14,
            -14
        ],
        "24/03/2020 22:16:12": [
            -14
        ]
    },
    "884": {
        "24/03/2020 15:06:15": [],
        "24/03/2020 17:18:40": [
            19
        ],
        "24/03/2020 20:00:09": [
            -15,
            -15
        ],
        "24/03/2020 22:16:12": [
            -15
        ]
    },
    "885": {
        "24/03/2020 15:06:16": [],
        "24/03/2020 17:18:40": [
            -5
        ],
        "24/03/2020 20:00:10": [
            8
        ],
        "24/03/2020 22:16:13": [
            8
        ]
    },
    "886": {
        "24/03/2020 15:06:16": [],
        "24/03/2020 17:18:41": [
            -1
        ],
        "24/03/2020 20:00:10": [
            -13
        ],
        "24/03/2020 22:16:13": [
            -13
        ]
    },
    "887": {
        "24/03/2020 15:06:17": [
            -438
        ],
        "24/03/2020 17:18:41": [
            -29
        ],
        "24/03/2020 20:00:10": [
            -16
        ],
        "24/03/2020 22:16:13": [
            -16
        ]
    },
    "2900": {
        "24/03/2020 15:06:17": [
            -417
        ],
        "24/03/2020 17:18:42": [
            19
        ],
        "24/03/2020 20:00:11": [
            -15
        ],
        "24/03/2020 22:16:14": [
            -15
        ]
    },
    "2901": {
        "24/03/2020 15:06:18": [
            -430
        ],
        "24/03/2020 17:18:42": [
            -15
        ],
        "24/03/2020 20:00:11": [
            -26
        ],
        "24/03/2020 22:16:14": [
            -26
        ]
    },
    "2902": {
        "24/03/2020 15:06:18": [
            -397
        ],
        "24/03/2020 17:18:43": [
            27
        ],
        "24/03/2020 20:00:12": [
            -1
        ],
        "24/03/2020 22:16:15": [
            -1
        ]
    },
    "2903": {
        "24/03/2020 15:06:19": [
            -459
        ],
        "24/03/2020 17:18:43": [
            8
        ],
        "24/03/2020 20:00:13": [
            0
        ],
        "24/03/2020 22:16:15": [
            0
        ]
    },
    "1074": {
        "24/03/2020 15:06:19": [
            -402
        ],
        "24/03/2020 17:18:44": [],
        "24/03/2020 20:00:13": [
            -22
        ],
        "24/03/2020 22:16:16": [
            -22
        ]
    },
    "6074": {
        "24/03/2020 15:06:20": [
            -388
        ],
        "24/03/2020 17:18:45": [],
        "24/03/2020 20:00:14": [
            17
        ],
        "24/03/2020 22:16:16": [
            17
        ]
    },
    "793": {
        "24/03/2020 15:06:20": [
            -393
        ],
        "24/03/2020 17:18:45": [],
        "24/03/2020 20:00:14": [
            25
        ],
        "24/03/2020 22:16:17": [
            25
        ]
    },
    "495": {
        "24/03/2020 15:06:21": [
            -384
        ],
        "24/03/2020 17:18:45": [
            -633
        ],
        "24/03/2020 20:00:15": [
            1
        ],
        "24/03/2020 22:16:17": []
    },
    "400": {
        "24/03/2020 15:06:21": [
            -398
        ],
        "24/03/2020 17:18:46": [
            -639
        ],
        "24/03/2020 20:00:15": [
            -24
        ],
        "24/03/2020 22:16:18": []
    },
    "319": {
        "24/03/2020 15:06:22": [
            -363
        ],
        "24/03/2020 17:18:46": [
            -529
        ],
        "24/03/2020 20:00:16": [
            -5
        ],
        "24/03/2020 22:16:18": []
    },
    "278": {
        "24/03/2020 15:06:22": [
            -394
        ],
        "24/03/2020 17:18:47": [
            -543
        ],
        "24/03/2020 20:00:16": [
            1
        ],
        "24/03/2020 22:16:18": [
            -367
        ]
    },
    "10": {
        "24/03/2020 15:06:23": [
            -368
        ],
        "24/03/2020 17:18:47": [
            -499
        ],
        "24/03/2020 20:00:16": [
            3
        ],
        "24/03/2020 22:16:19": [
            -365
        ]
    },
    "12": {
        "24/03/2020 15:06:23": [
            -375
        ],
        "24/03/2020 17:18:48": [
            -513
        ],
        "24/03/2020 20:00:17": [
            -24
        ],
        "24/03/2020 22:16:19": [
            -392
        ]
    },
    "14": {
        "24/03/2020 15:06:24": [
            -407
        ],
        "24/03/2020 17:18:48": [
            -504
        ],
        "24/03/2020 20:00:17": [
            26
        ],
        "24/03/2020 22:16:20": [
            -342
        ]
    },
    "15": {
        "24/03/2020 15:06:25": [
            -381
        ],
        "24/03/2020 17:18:49": [
            -497
        ],
        "24/03/2020 20:00:18": [
            16
        ],
        "24/03/2020 22:16:20": [
            -352
        ]
    },
    "17": {
        "24/03/2020 15:06:25": [
            -361
        ],
        "24/03/2020 17:18:49": [
            -488
        ],
        "24/03/2020 20:00:18": [
            25
        ],
        "24/03/2020 22:16:21": [
            -343
        ]
    },
    "18": {
        "24/03/2020 15:06:25": [
            -396
        ],
        "24/03/2020 17:18:50": [
            -513
        ],
        "24/03/2020 20:00:19": [
            21
        ],
        "24/03/2020 22:16:21": [
            -347
        ]
    },
    "19": {
        "24/03/2020 15:06:26": [
            -360
        ],
        "24/03/2020 17:18:50": [
            -533
        ],
        "24/03/2020 20:00:19": [
            -15
        ],
        "24/03/2020 22:16:22": [
            -383
        ]
    },
    "21": {
        "24/03/2020 15:06:26": [
            -397
        ],
        "24/03/2020 17:18:51": [
            -499
        ],
        "24/03/2020 20:00:20": [
            -20
        ],
        "24/03/2020 22:16:22": [
            -388
        ]
    },
    "7602": {
        "24/03/2020 15:06:27": [
            -396
        ],
        "24/03/2020 17:18:51": [
            -489
        ],
        "24/03/2020 20:00:20": [
            14
        ],
        "24/03/2020 22:16:23": [
            -354
        ]
    },
    "85": {
        "24/03/2020 15:06:27": [
            -377
        ],
        "24/03/2020 17:18:52": [
            -682
        ],
        "24/03/2020 20:00:20": [
            -1
        ],
        "24/03/2020 22:16:23": [
            -369
        ]
    },
    "203": {
        "24/03/2020 15:06:28": [
            -365
        ],
        "24/03/2020 17:18:52": [
            -518
        ],
        "24/03/2020 20:00:21": [
            -16
        ],
        "24/03/2020 22:16:23": [
            -384
        ]
    },
    "204": {
        "24/03/2020 15:06:28": [
            -385
        ],
        "24/03/2020 17:18:53": [
            -495
        ],
        "24/03/2020 20:00:22": [
            -13
        ],
        "24/03/2020 22:16:24": [
            -381
        ]
    },
    "205": {
        "24/03/2020 15:06:29": [
            -393
        ],
        "24/03/2020 17:18:53": [
            -512
        ],
        "24/03/2020 20:00:22": [
            20
        ],
        "24/03/2020 22:16:24": [
            -348
        ]
    },
    "206": {
        "24/03/2020 15:06:29": [
            -367
        ],
        "24/03/2020 17:18:53": [
            -500
        ],
        "24/03/2020 20:00:23": [
            14
        ],
        "24/03/2020 22:16:25": [
            -354
        ]
    },
    "1643": {
        "24/03/2020 15:06:30": [
            887,
            -412
        ],
        "24/03/2020 17:18:54": [
            -521
        ],
        "24/03/2020 20:00:23": [
            423,
            -15
        ],
        "24/03/2020 22:16:25": [
            -383
        ]
    },
    "4114": {
        "24/03/2020 15:06:30": [
            20
        ],
        "24/03/2020 17:18:54": [
            19
        ],
        "24/03/2020 20:00:24": [
            19
        ],
        "24/03/2020 22:16:26": [
            19
        ]
    },
    "4115": {
        "24/03/2020 15:06:31": [
            -27
        ],
        "24/03/2020 17:18:55": [
            -29
        ],
        "24/03/2020 20:00:24": [
            -28
        ],
        "24/03/2020 22:16:26": [
            -28
        ]
    },
    "4116": {
        "24/03/2020 15:06:31": [
            -25
        ],
        "24/03/2020 17:18:55": [
            -30
        ],
        "24/03/2020 20:00:24": [
            -27
        ],
        "24/03/2020 22:16:27": [
            -27
        ]
    },
    "4117": {
        "24/03/2020 15:06:32": [
            1
        ],
        "24/03/2020 17:18:56": [
            -5
        ],
        "24/03/2020 20:00:25": [
            -2
        ],
        "24/03/2020 22:16:27": [
            -2
        ]
    },
    "4118": {
        "24/03/2020 15:06:32": [
            -20
        ],
        "24/03/2020 17:18:56": [
            -28
        ],
        "24/03/2020 20:00:25": [
            -24
        ],
        "24/03/2020 22:16:28": [
            -24
        ]
    },
    "4119": {
        "24/03/2020 15:06:33": [
            -18
        ],
        "24/03/2020 17:18:57": [
            23
        ],
        "24/03/2020 20:00:26": [
            21
        ],
        "24/03/2020 22:16:28": [
            21
        ]
    },
    "4120": {
        "24/03/2020 15:06:33": [
            9
        ],
        "24/03/2020 17:18:57": [
            -15
        ],
        "24/03/2020 20:00:26": [
            -20
        ],
        "24/03/2020 22:16:29": [
            -20
        ]
    },
    "4121": {
        "24/03/2020 15:06:33": [
            8
        ],
        "24/03/2020 17:18:58": [
            -15
        ],
        "24/03/2020 20:00:27": [
            -27
        ],
        "24/03/2020 22:16:29": [
            -27
        ]
    },
    "4122": {
        "24/03/2020 15:06:34": [
            -28
        ],
        "24/03/2020 17:18:58": [
            10
        ],
        "24/03/2020 20:00:27": [
            -5
        ],
        "24/03/2020 22:16:30": [
            -5
        ]
    },
    "4123": {
        "24/03/2020 15:06:35": [
            9
        ],
        "24/03/2020 17:18:59": [
            -12
        ],
        "24/03/2020 20:00:28": [
            -28
        ],
        "24/03/2020 22:16:30": [
            -28
        ]
    },
    "3283": {
        "24/03/2020 15:06:35": [
            14
        ],
        "24/03/2020 17:18:59": [
            -3
        ],
        "24/03/2020 20:00:28": [
            -8
        ],
        "24/03/2020 22:16:31": [
            -8
        ]
    },
    "3284": {
        "24/03/2020 15:06:35": [
            26
        ],
        "24/03/2020 17:18:59": [
            3
        ],
        "24/03/2020 20:00:29": [
            -25
        ],
        "24/03/2020 22:16:31": [
            -25
        ]
    },
    "3310": {
        "24/03/2020 15:06:36": [
            7
        ],
        "24/03/2020 17:19:00": [
            -15
        ],
        "24/03/2020 20:00:29": [
            7
        ],
        "24/03/2020 22:16:32": [
            7
        ]
    },
    "3481": {
        "24/03/2020 15:06:36": [
            23
        ],
        "24/03/2020 17:19:00": [
            1
        ],
        "24/03/2020 20:00:30": [
            19
        ],
        "24/03/2020 22:16:32": [
            19
        ]
    },
    "3482": {
        "24/03/2020 15:06:37": [
            -7
        ],
        "24/03/2020 17:19:01": [
            -28
        ],
        "24/03/2020 20:00:30": [
            -17
        ],
        "24/03/2020 22:16:32": [
            -17
        ]
    },
    "3483": {
        "24/03/2020 15:06:37": [
            -15
        ],
        "24/03/2020 17:19:06": [
            21
        ],
        "24/03/2020 20:00:31": [
            27
        ],
        "24/03/2020 22:16:33": [
            27
        ]
    },
    "3484": {
        "24/03/2020 15:06:38": [
            -4
        ],
        "24/03/2020 17:19:11": [
            -29
        ],
        "24/03/2020 20:00:31": [
            -29
        ],
        "24/03/2020 22:16:33": [
            -29
        ]
    },
    "3485": {
        "24/03/2020 15:06:38": [
            -20
        ],
        "24/03/2020 17:19:18": [
            8
        ],
        "24/03/2020 20:00:32": [
            4
        ],
        "24/03/2020 22:16:34": [
            4
        ]
    },
    "3486": {
        "24/03/2020 15:06:39": [
            -1
        ],
        "24/03/2020 17:19:24": [
            15
        ],
        "24/03/2020 20:00:32": [
            4
        ],
        "24/03/2020 22:16:34": [
            4
        ]
    },
    "3487": {
        "24/03/2020 15:06:39": [
            -12
        ],
        "24/03/2020 17:19:30": [
            -2
        ],
        "24/03/2020 20:00:32": [
            -20
        ],
        "24/03/2020 22:16:35": [
            -20
        ]
    },
    "3488": {
        "24/03/2020 15:06:40": [
            19
        ],
        "24/03/2020 17:19:36": [
            -30
        ],
        "24/03/2020 20:00:33": [
            4
        ],
        "24/03/2020 22:16:35": [
            4
        ]
    },
    "3489": {
        "24/03/2020 15:06:40": [
            15
        ],
        "24/03/2020 17:19:42": [
            27
        ],
        "24/03/2020 20:00:33": [
            -13
        ],
        "24/03/2020 22:16:35": [
            -13
        ]
    },
    "3492": {
        "24/03/2020 15:06:41": [
            -28
        ],
        "24/03/2020 17:19:47": [
            -12
        ],
        "24/03/2020 20:00:34": [
            60,
            -6
        ],
        "24/03/2020 22:16:36": [
            -6
        ]
    },
    "2835": {
        "24/03/2020 15:06:41": [
            2
        ],
        "24/03/2020 17:19:53": [
            20
        ],
        "24/03/2020 20:00:34": [
            44,
            21
        ],
        "24/03/2020 22:16:36": [
            21
        ]
    },
    "7176": {
        "24/03/2020 15:06:42": [
            -20
        ],
        "24/03/2020 17:19:58": [
            0
        ],
        "24/03/2020 20:00:35": [
            -7,
            -30
        ],
        "24/03/2020 22:16:37": [
            -30
        ]
    },
    "2836": {
        "24/03/2020 15:06:42": [
            26
        ],
        "24/03/2020 17:20:03": [
            -13
        ],
        "24/03/2020 20:00:35": [
            25,
            2
        ],
        "24/03/2020 22:16:37": [
            2
        ]
    },
    "2837": {
        "24/03/2020 15:06:43": [
            17
        ],
        "24/03/2020 17:20:09": [
            -21
        ],
        "24/03/2020 20:00:36": [
            1,
            -22
        ],
        "24/03/2020 22:16:38": [
            -22
        ]
    },
    "2838": {
        "24/03/2020 15:06:43": [
            -2
        ],
        "24/03/2020 17:20:14": [
            26
        ],
        "24/03/2020 20:00:37": [
            37,
            14
        ],
        "24/03/2020 22:16:38": [
            14
        ]
    },
    "2839": {
        "24/03/2020 15:06:44": [
            -6
        ],
        "24/03/2020 17:20:20": [],
        "24/03/2020 20:00:37": [
            27,
            4
        ],
        "24/03/2020 22:16:39": [
            4
        ]
    },
    "2840": {
        "24/03/2020 15:06:45": [
            -25
        ],
        "24/03/2020 17:20:26": [
            15
        ],
        "24/03/2020 20:00:38": [
            2,
            -21
        ],
        "24/03/2020 22:16:39": [
            -21
        ]
    },
    "2841": {
        "24/03/2020 15:06:45": [
            -28
        ],
        "24/03/2020 17:20:31": [
            20
        ],
        "24/03/2020 20:00:38": [
            36,
            -30
        ],
        "24/03/2020 22:16:40": [
            -30
        ]
    },
    "2865": {
        "24/03/2020 15:06:46": [
            20
        ],
        "24/03/2020 17:20:37": [
            8
        ],
        "24/03/2020 20:00:39": [
            -3,
            -3
        ],
        "24/03/2020 22:16:40": [
            -3
        ]
    },
    "2866": {
        "24/03/2020 15:06:46": [
            -25
        ],
        "24/03/2020 17:20:42": [
            24
        ],
        "24/03/2020 20:00:39": [
            -10,
            -10
        ],
        "24/03/2020 22:16:41": [
            -10
        ]
    },
    "2892": {
        "24/03/2020 15:06:47": [
            2
        ],
        "24/03/2020 17:20:48": [
            -8
        ],
        "24/03/2020 20:00:40": [
            -27,
            -27
        ],
        "24/03/2020 22:16:41": [
            -27
        ]
    },
    "119": {
        "24/03/2020 15:06:47": [],
        "24/03/2020 17:20:53": [
            -19
        ],
        "24/03/2020 20:00:40": [],
        "24/03/2020 22:16:42": [
            15
        ]
    },
    "213": {
        "24/03/2020 15:06:48": [
            -25
        ],
        "24/03/2020 17:20:59": [
            9
        ],
        "24/03/2020 20:00:41": [],
        "24/03/2020 22:16:42": [
            17
        ]
    },
    "210": {
        "24/03/2020 15:06:48": [
            912,
            13,
            -365
        ],
        "24/03/2020 17:21:08": [
            -25,
            -540
        ],
        "24/03/2020 20:00:41": [
            423,
            -15
        ],
        "24/03/2020 22:16:43": [
            -383,
            2
        ]
    },
    "214": {
        "24/03/2020 15:06:49": [
            -15
        ],
        "24/03/2020 17:21:09": [
            17
        ],
        "24/03/2020 20:00:42": [],
        "24/03/2020 22:16:43": [
            -5
        ]
    },
    "272": {
        "24/03/2020 15:06:49": [],
        "24/03/2020 17:21:09": [],
        "24/03/2020 20:00:42": [],
        "24/03/2020 22:16:44": []
    },
    "211": {
        "24/03/2020 15:06:50": [
            24
        ],
        "24/03/2020 17:21:10": [
            1
        ],
        "24/03/2020 20:00:43": [],
        "24/03/2020 22:16:44": [
            6
        ]
    },
    "212": {
        "24/03/2020 15:06:50": [
            24
        ],
        "24/03/2020 17:21:10": [
            0
        ],
        "24/03/2020 20:00:43": [],
        "24/03/2020 22:16:45": [
            -22
        ]
    },
    "4432": {
        "24/03/2020 15:06:51": [
            -4
        ],
        "24/03/2020 17:21:11": [
            26
        ],
        "24/03/2020 20:00:44": [],
        "24/03/2020 22:16:45": [
            -27
        ]
    },
    "46": {
        "24/03/2020 15:06:51": [
            4
        ],
        "24/03/2020 17:21:11": [
            4
        ],
        "24/03/2020 20:00:44": [],
        "24/03/2020 22:16:46": [
            -20
        ]
    },
    "49": {
        "24/03/2020 15:06:51": [
            -5
        ],
        "24/03/2020 17:21:12": [
            24
        ],
        "24/03/2020 20:00:45": [
            202
        ],
        "24/03/2020 22:16:46": [
            20
        ]
    },
    "52": {
        "24/03/2020 15:06:52": [
            -23
        ],
        "24/03/2020 17:21:12": [
            -21
        ],
        "24/03/2020 20:00:45": [
            189
        ],
        "24/03/2020 22:16:47": [
            147,
            7
        ]
    },
    "44": {
        "24/03/2020 15:06:52": [
            -4
        ],
        "24/03/2020 17:21:13": [
            -19
        ],
        "24/03/2020 20:00:45": [],
        "24/03/2020 22:16:47": [
            -7
        ]
    },
    "48": {
        "24/03/2020 15:06:53": [
            22
        ],
        "24/03/2020 17:21:13": [
            0
        ],
        "24/03/2020 20:00:46": [],
        "24/03/2020 22:16:48": [
            19
        ]
    },
    "51": {
        "24/03/2020 15:06:54": [
            -20
        ],
        "24/03/2020 17:21:14": [
            -9
        ],
        "24/03/2020 20:00:46": [
            211
        ],
        "24/03/2020 22:16:48": [
            169,
            29
        ]
    },
    "7571": {
        "24/03/2020 15:06:54": [
            0
        ],
        "24/03/2020 17:21:14": [
            0
        ],
        "24/03/2020 20:00:47": [],
        "24/03/2020 22:16:49": [
            0
        ]
    },
    "45": {
        "24/03/2020 15:06:54": [
            4
        ],
        "24/03/2020 17:21:14": [
            16
        ],
        "24/03/2020 20:00:47": [],
        "24/03/2020 22:16:49": [
            -6
        ]
    },
    "47": {
        "24/03/2020 15:06:55": [
            18
        ],
        "24/03/2020 17:21:15": [
            2
        ],
        "24/03/2020 20:00:48": [],
        "24/03/2020 22:16:49": [
            -23
        ]
    },
    "7603": {
        "24/03/2020 15:06:56": [
            27
        ],
        "24/03/2020 17:21:15": [
            25
        ],
        "24/03/2020 20:00:48": [],
        "24/03/2020 22:16:50": [
            21
        ]
    },
    "207": {
        "24/03/2020 15:06:56": [
            9,
            -379
        ],
        "24/03/2020 17:21:16": [
            12,
            -669
        ],
        "24/03/2020 20:00:49": [
            -6
        ],
        "24/03/2020 22:16:50": [
            -374,
            8
        ]
    },
    "208": {
        "24/03/2020 15:06:57": [
            -14,
            -389
        ],
        "24/03/2020 17:21:16": [
            -10,
            -675
        ],
        "24/03/2020 20:00:49": [
            -25
        ],
        "24/03/2020 22:16:51": [
            -393,
            -15
        ]
    },
    "209": {
        "24/03/2020 15:06:57": [
            939,
            -21,
            -398
        ],
        "24/03/2020 17:21:17": [
            -6,
            -679
        ],
        "24/03/2020 20:00:50": [
            18
        ],
        "24/03/2020 22:16:51": [
            -350,
            -28
        ]
    },
    "265": {
        "24/03/2020 15:06:58": [
            -3
        ],
        "24/03/2020 17:21:17": [
            23
        ],
        "24/03/2020 20:00:50": [
            125
        ],
        "24/03/2020 22:16:52": [
            121
        ]
    },
    "271": {
        "24/03/2020 15:06:58": [
            0
        ],
        "24/03/2020 17:21:18": [
            27
        ],
        "24/03/2020 20:00:50": [
            148
        ],
        "24/03/2020 22:16:52": [
            -65
        ]
    },
    "340": {
        "24/03/2020 15:06:58": [
            -7
        ],
        "24/03/2020 17:21:18": [
            -19
        ],
        "24/03/2020 20:00:51": [
            101
        ],
        "24/03/2020 22:16:53": [
            -112
        ]
    },
    "350": {
        "24/03/2020 15:06:59": [
            3
        ],
        "24/03/2020 17:21:19": [
            8
        ],
        "24/03/2020 20:00:51": [
            149
        ],
        "24/03/2020 22:16:53": [
            145
        ]
    },
    "2809": {
        "24/03/2020 15:07:00": [],
        "24/03/2020 17:21:19": [
            9
        ],
        "24/03/2020 20:00:52": [
            125
        ],
        "24/03/2020 22:16:54": [
            121
        ]
    },
    "2810": {
        "24/03/2020 15:07:00": [],
        "24/03/2020 17:21:20": [
            21
        ],
        "24/03/2020 20:00:52": [
            134
        ],
        "24/03/2020 22:16:54": [
            130
        ]
    },
    "2811": {
        "24/03/2020 15:07:01": [],
        "24/03/2020 17:21:20": [
            15
        ],
        "24/03/2020 20:00:53": [
            112
        ],
        "24/03/2020 22:16:54": [
            128
        ]
    },
    "843": {
        "24/03/2020 15:07:01": [],
        "24/03/2020 17:21:21": [
            -22
        ],
        "24/03/2020 20:00:53": [],
        "24/03/2020 22:16:55": []
    },
    "1013": {
        "24/03/2020 15:07:02": [],
        "24/03/2020 17:21:21": [
            -22
        ],
        "24/03/2020 20:00:54": [
            135
        ],
        "24/03/2020 22:16:56": [
            131
        ]
    },
    "1015": {
        "24/03/2020 15:07:02": [],
        "24/03/2020 17:21:21": [
            -4
        ],
        "24/03/2020 20:00:54": [
            99
        ],
        "24/03/2020 22:16:56": [
            95
        ]
    },
    "2812": {
        "24/03/2020 15:07:02": [],
        "24/03/2020 17:21:22": [
            -16
        ],
        "24/03/2020 20:00:55": [
            105
        ],
        "24/03/2020 22:16:57": [
            121
        ]
    },
    "2813": {
        "24/03/2020 15:07:03": [],
        "24/03/2020 17:21:22": [
            13
        ],
        "24/03/2020 20:00:55": [
            123
        ],
        "24/03/2020 22:16:57": [
            139
        ]
    },
    "2814": {
        "24/03/2020 15:07:03": [],
        "24/03/2020 17:21:23": [],
        "24/03/2020 20:00:56": [
            135
        ],
        "24/03/2020 22:16:58": [
            131
        ]
    },
    "852": {
        "24/03/2020 15:07:04": [],
        "24/03/2020 17:21:23": [],
        "24/03/2020 20:00:56": [
            125
        ],
        "24/03/2020 22:16:58": [
            121
        ]
    },
    "853": {
        "24/03/2020 15:07:04": [],
        "24/03/2020 17:21:29": [],
        "24/03/2020 20:00:57": [
            121
        ],
        "24/03/2020 22:16:59": [
            137
        ]
    },
    "854": {
        "24/03/2020 15:07:05": [],
        "24/03/2020 17:21:29": [],
        "24/03/2020 20:00:57": [
            146
        ],
        "24/03/2020 22:16:59": [
            142
        ]
    },
    "855": {
        "24/03/2020 15:07:05": [],
        "24/03/2020 17:21:30": [],
        "24/03/2020 20:00:58": [
            135
        ],
        "24/03/2020 22:17:00": [
            131
        ]
    },
    "2815": {
        "24/03/2020 15:07:06": [],
        "24/03/2020 17:21:30": [],
        "24/03/2020 20:00:59": [
            141
        ],
        "24/03/2020 22:17:00": [
            137
        ]
    },
    "2816": {
        "24/03/2020 15:07:06": [
            -1011
        ],
        "24/03/2020 17:21:30": [],
        "24/03/2020 20:01:00": [
            102
        ],
        "24/03/2020 22:17:01": [
            98
        ]
    },
    "2817": {
        "24/03/2020 15:07:07": [
            -1015
        ],
        "24/03/2020 17:21:31": [],
        "24/03/2020 20:01:00": [
            144
        ],
        "24/03/2020 22:17:01": [
            140
        ]
    },
    "2818": {
        "24/03/2020 15:07:07": [
            -963
        ],
        "24/03/2020 17:21:31": [],
        "24/03/2020 20:01:01": [
            123
        ],
        "24/03/2020 22:17:02": [
            139
        ]
    },
    "2819": {
        "24/03/2020 15:07:08": [
            -987
        ],
        "24/03/2020 17:21:32": [],
        "24/03/2020 20:01:01": [
            150
        ],
        "24/03/2020 22:17:02": [
            146
        ]
    },
    "2820": {
        "24/03/2020 15:07:08": [
            -1006
        ],
        "24/03/2020 17:21:32": [
            -925
        ],
        "24/03/2020 20:01:02": [
            115
        ],
        "24/03/2020 22:17:03": [
            131
        ]
    },
    "2822": {
        "24/03/2020 15:07:09": [
            -968
        ],
        "24/03/2020 17:21:33": [
            -921
        ],
        "24/03/2020 20:01:02": [
            139
        ],
        "24/03/2020 22:17:03": [
            135
        ]
    },
    "2823": {
        "24/03/2020 15:07:09": [
            -965
        ],
        "24/03/2020 17:21:33": [
            -915
        ],
        "24/03/2020 20:01:03": [
            118
        ],
        "24/03/2020 22:17:03": [
            134
        ]
    },
    "5032": {
        "24/03/2020 15:07:10": [
            -979
        ],
        "24/03/2020 17:21:33": [
            -910
        ],
        "24/03/2020 20:01:03": [
            138
        ],
        "24/03/2020 22:17:04": [
            134
        ]
    },
    "2824": {
        "24/03/2020 15:07:10": [
            -982
        ],
        "24/03/2020 17:21:34": [
            -928
        ],
        "24/03/2020 20:01:03": [
            117
        ],
        "24/03/2020 22:17:04": [
            133
        ]
    },
    "2825": {
        "24/03/2020 15:07:11": [
            -934
        ],
        "24/03/2020 17:21:34": [
            -933
        ],
        "24/03/2020 20:01:04": [
            150
        ],
        "24/03/2020 22:17:05": [
            146
        ]
    },
    "2826": {
        "24/03/2020 15:07:11": [
            -987
        ],
        "24/03/2020 17:21:35": [
            -864
        ],
        "24/03/2020 20:01:04": [
            98
        ],
        "24/03/2020 22:17:05": [
            94
        ]
    },
    "2827": {
        "24/03/2020 15:07:12": [
            -870
        ],
        "24/03/2020 17:21:35": [
            -841
        ],
        "24/03/2020 20:01:05": [
            152
        ],
        "24/03/2020 22:17:06": [
            148
        ]
    },
    "2828": {
        "24/03/2020 15:07:12": [
            -904
        ],
        "24/03/2020 17:21:35": [
            -866
        ],
        "24/03/2020 20:01:05": [
            94
        ],
        "24/03/2020 22:17:06": [
            90
        ]
    },
    "2829": {
        "24/03/2020 15:07:13": [
            -887
        ],
        "24/03/2020 17:21:36": [
            -841
        ],
        "24/03/2020 20:01:06": [
            149
        ],
        "24/03/2020 22:17:07": [
            145
        ]
    },
    "2830": {
        "24/03/2020 15:07:13": [
            -900
        ],
        "24/03/2020 17:21:36": [
            -854
        ],
        "24/03/2020 20:01:06": [
            122
        ],
        "24/03/2020 22:17:07": [
            138
        ]
    },
    "2831": {
        "24/03/2020 15:07:14": [
            -903
        ],
        "24/03/2020 17:21:37": [
            -856
        ],
        "24/03/2020 20:01:07": [
            103
        ],
        "24/03/2020 22:17:08": [
            99
        ]
    },
    "2832": {
        "24/03/2020 15:07:14": [
            -871
        ],
        "24/03/2020 17:21:37": [
            -884
        ],
        "24/03/2020 20:01:07": [
            126
        ],
        "24/03/2020 22:17:08": [
            122
        ]
    },
    "2833": {
        "24/03/2020 15:07:15": [
            -919
        ],
        "24/03/2020 17:21:38": [
            -844
        ],
        "24/03/2020 20:01:08": [
            117
        ],
        "24/03/2020 22:17:08": [
            133
        ]
    },
    "7375": {
        "24/03/2020 15:07:15": [
            -880
        ],
        "24/03/2020 17:21:39": [
            -850
        ],
        "24/03/2020 20:01:08": [
            145
        ],
        "24/03/2020 22:17:09": [
            14
        ]
    },
    "3466": {
        "24/03/2020 15:07:16": [
            -920
        ],
        "24/03/2020 17:21:39": [
            -859
        ],
        "24/03/2020 20:01:09": [
            142
        ],
        "24/03/2020 22:17:09": [
            138
        ]
    },
    "3467": {
        "24/03/2020 15:07:16": [
            -876
        ],
        "24/03/2020 17:21:40": [
            -875
        ],
        "24/03/2020 20:01:09": [
            119
        ],
        "24/03/2020 22:17:10": [
            135
        ]
    },
    "3469": {
        "24/03/2020 15:07:17": [
            -864
        ],
        "24/03/2020 17:21:40": [
            -861
        ],
        "24/03/2020 20:01:10": [
            111
        ],
        "24/03/2020 22:17:10": [
            127
        ]
    },
    "3470": {
        "24/03/2020 15:07:17": [
            -868
        ],
        "24/03/2020 17:21:40": [
            -849
        ],
        "24/03/2020 20:01:10": [
            103
        ],
        "24/03/2020 22:17:11": [
            99
        ]
    },
    "3471": {
        "24/03/2020 15:07:18": [
            -902
        ],
        "24/03/2020 17:21:41": [
            -882
        ],
        "24/03/2020 20:01:11": [
            121
        ],
        "24/03/2020 22:17:11": [
            137
        ]
    },
    "3472": {
        "24/03/2020 15:07:18": [
            -909
        ],
        "24/03/2020 17:21:41": [
            -886
        ],
        "24/03/2020 20:01:11": [
            97
        ],
        "24/03/2020 22:17:12": [
            93
        ]
    },
    "3473": {
        "24/03/2020 15:07:19": [
            -884
        ],
        "24/03/2020 17:21:42": [
            -852
        ],
        "24/03/2020 20:01:12": [
            123
        ],
        "24/03/2020 22:17:12": [
            139
        ]
    },
    "3474": {
        "24/03/2020 15:07:19": [
            -915
        ],
        "24/03/2020 17:21:42": [
            -861
        ],
        "24/03/2020 20:01:12": [
            152
        ],
        "24/03/2020 22:17:13": [
            148
        ]
    },
    "3475": {
        "24/03/2020 15:07:20": [
            -920
        ],
        "24/03/2020 17:21:43": [
            -860
        ],
        "24/03/2020 20:01:12": [
            146
        ],
        "24/03/2020 22:17:13": [
            142
        ]
    },
    "3476": {
        "24/03/2020 15:07:20": [
            -878
        ],
        "24/03/2020 17:21:43": [
            -880
        ],
        "24/03/2020 20:01:14": [
            127
        ],
        "24/03/2020 22:17:14": [
            123
        ]
    },
    "3477": {
        "24/03/2020 15:07:21": [
            -897
        ],
        "24/03/2020 17:21:43": [
            -831
        ],
        "24/03/2020 20:01:14": [
            102
        ],
        "24/03/2020 22:17:14": [
            98
        ]
    },
    "3478": {
        "24/03/2020 15:07:21": [
            -905
        ],
        "24/03/2020 17:21:44": [
            -830
        ],
        "24/03/2020 20:01:15": [
            146
        ],
        "24/03/2020 22:17:14": [
            142
        ]
    },
    "3280": {
        "24/03/2020 15:07:22": [
            -887
        ],
        "24/03/2020 17:21:44": [
            -871
        ],
        "24/03/2020 20:01:15": [
            101
        ],
        "24/03/2020 22:17:15": [
            97
        ]
    },
    "3282": {
        "24/03/2020 15:07:22": [
            -915
        ],
        "24/03/2020 17:21:45": [
            -838
        ],
        "24/03/2020 20:01:16": [
            128
        ],
        "24/03/2020 22:17:15": [
            124
        ]
    },
    "3479": {
        "24/03/2020 15:07:23": [
            -887
        ],
        "24/03/2020 17:21:45": [
            -864
        ],
        "24/03/2020 20:01:16": [
            94
        ],
        "24/03/2020 22:17:16": [
            90
        ]
    },
    "4086": {
        "24/03/2020 15:07:23": [
            -910
        ],
        "24/03/2020 17:21:46": [
            -878
        ],
        "24/03/2020 20:01:18": [
            129
        ],
        "24/03/2020 22:17:16": [
            -2
        ]
    },
    "4087": {
        "24/03/2020 15:07:24": [
            -868
        ],
        "24/03/2020 17:21:46": [
            -887
        ],
        "24/03/2020 20:01:18": [
            109
        ],
        "24/03/2020 22:17:17": [
            125
        ]
    },
    "4088": {
        "24/03/2020 15:07:24": [
            -910
        ],
        "24/03/2020 17:21:47": [
            -867
        ],
        "24/03/2020 20:01:19": [
            128
        ],
        "24/03/2020 22:17:17": [
            124
        ]
    },
    "4089": {
        "24/03/2020 15:07:24": [
            -918
        ],
        "24/03/2020 17:21:47": [
            -873
        ],
        "24/03/2020 20:01:19": [
            124
        ],
        "24/03/2020 22:17:18": [
            140
        ]
    },
    "4090": {
        "24/03/2020 15:07:25": [
            -904
        ],
        "24/03/2020 17:21:47": [
            -859
        ],
        "24/03/2020 20:01:20": [
            139
        ],
        "24/03/2020 22:17:18": [
            135
        ]
    },
    "4091": {
        "24/03/2020 15:07:25": [
            -902
        ],
        "24/03/2020 17:21:48": [
            -858
        ],
        "24/03/2020 20:01:20": [
            132
        ],
        "24/03/2020 22:17:19": [
            128
        ]
    },
    "6097": {
        "24/03/2020 15:07:26": [
            -918
        ],
        "24/03/2020 17:21:48": [
            -877
        ],
        "24/03/2020 20:01:21": [
            111
        ],
        "24/03/2020 22:17:19": [
            -20
        ]
    },
    "4093": {
        "24/03/2020 15:07:26": [
            -890
        ],
        "24/03/2020 17:21:49": [
            -851
        ],
        "24/03/2020 20:01:21": [
            136
        ],
        "24/03/2020 22:17:20": [
            5
        ]
    },
    "4094": {
        "24/03/2020 15:07:27": [
            -880
        ],
        "24/03/2020 17:21:49": [
            -846
        ],
        "24/03/2020 20:01:22": [
            138
        ],
        "24/03/2020 22:17:20": [
            7
        ]
    },
    "4096": {
        "24/03/2020 15:07:27": [
            0
        ],
        "24/03/2020 17:21:50": [
            0
        ],
        "24/03/2020 20:01:23": [
            0
        ],
        "24/03/2020 22:17:21": [
            0
        ]
    }
}