{
    "7132": {
        "20/03/2020 19:08:52": [],
        "20/03/2020 23:29:50": [],
        "20/03/2020 23:29:59": [],
        "20/03/2020 23:30:45": []
    },
    "6230": {
        "20/03/2020 19:08:56": [
            110,
            -10
        ],
        "20/03/2020 23:29:50": [],
        "20/03/2020 23:29:59": [],
        "20/03/2020 23:30:18": [],
        "20/03/2020 23:30:44": [],
        "20/03/2020 23:30:49": []
    },
    "6228": {
        "20/03/2020 19:08:57": [
            96,
            -24
        ],
        "20/03/2020 23:29:50": [],
        "20/03/2020 23:29:59": [],
        "20/03/2020 23:30:18": [],
        "20/03/2020 23:30:44": [],
        "20/03/2020 23:30:49": []
    },
    "4788": {
        "20/03/2020 19:08:57": [
            96,
            -24
        ],
        "20/03/2020 23:29:51": [],
        "20/03/2020 23:30:00": [],
        "20/03/2020 23:30:18": [],
        "20/03/2020 23:30:39": [],
        "20/03/2020 23:30:49": []
    },
    "6273": {
        "20/03/2020 19:08:57": [
            146,
            26
        ],
        "20/03/2020 23:29:51": [],
        "20/03/2020 23:30:00": [],
        "20/03/2020 23:30:19": [],
        "20/03/2020 23:30:44": [],
        "20/03/2020 23:30:49": []
    },
    "4891": {
        "20/03/2020 19:08:58": [
            92,
            -28
        ],
        "20/03/2020 23:29:51": [],
        "20/03/2020 23:30:00": [],
        "20/03/2020 23:30:19": [],
        "20/03/2020 23:30:47": [],
        "20/03/2020 23:30:50": []
    },
    "7458": {
        "20/03/2020 19:08:58": [
            103,
            -17
        ],
        "20/03/2020 23:29:52": [],
        "20/03/2020 23:30:00": [],
        "20/03/2020 23:30:19": [],
        "20/03/2020 23:30:45": [],
        "20/03/2020 23:30:50": []
    },
    "7425": {
        "20/03/2020 19:08:58": [
            148,
            28
        ],
        "20/03/2020 23:29:52": [
            -48
        ],
        "20/03/2020 23:30:01": [
            -48
        ],
        "20/03/2020 23:30:20": [],
        "20/03/2020 23:30:40": [],
        "20/03/2020 23:30:50": []
    },
    "7424": {
        "20/03/2020 19:08:59": [
            104,
            -16
        ],
        "20/03/2020 23:29:52": [
            -38
        ],
        "20/03/2020 23:30:01": [
            -38
        ],
        "20/03/2020 23:30:20": [
            -38
        ],
        "20/03/2020 23:30:39": [],
        "20/03/2020 23:30:50": []
    },
    "7423": {
        "20/03/2020 19:08:59": [
            97,
            -23
        ],
        "20/03/2020 23:29:52": [
            -65
        ],
        "20/03/2020 23:30:01": [
            -65
        ],
        "20/03/2020 23:30:20": [
            -65
        ],
        "20/03/2020 23:30:39": [
            -65
        ],
        "20/03/2020 23:30:51": [
            -65
        ]
    },
    "1566": {
        "20/03/2020 19:08:59": [
            147,
            27
        ],
        "20/03/2020 23:29:53": [
            -27
        ],
        "20/03/2020 23:30:02": [
            -27
        ],
        "20/03/2020 23:30:20": [
            -27
        ],
        "20/03/2020 23:30:42": [
            -27
        ],
        "20/03/2020 23:30:51": [
            -27
        ]
    },
    "1567": {
        "20/03/2020 19:09:00": [
            123,
            3
        ],
        "20/03/2020 23:29:53": [
            -59
        ],
        "20/03/2020 23:30:02": [
            -59
        ],
        "20/03/2020 23:30:21": [
            -59
        ],
        "20/03/2020 23:30:42": [
            -59
        ],
        "20/03/2020 23:30:51": [
            -59
        ]
    },
    "4372": {
        "20/03/2020 19:09:00": [
            121,
            1
        ],
        "20/03/2020 23:29:53": [
            -74
        ],
        "20/03/2020 23:30:02": [
            -74
        ],
        "20/03/2020 23:30:21": [
            -74
        ],
        "20/03/2020 23:30:38": [
            -74
        ],
        "20/03/2020 23:30:52": [
            -74
        ]
    },
    "179": {
        "20/03/2020 19:09:00": [
            91,
            -29
        ],
        "20/03/2020 23:29:54": [
            -6
        ],
        "20/03/2020 23:30:03": [
            -6
        ],
        "20/03/2020 23:30:21": [
            -51
        ],
        "20/03/2020 23:30:46": [
            -51
        ],
        "20/03/2020 23:30:52": [
            -51
        ]
    },
    "7431": {
        "20/03/2020 19:09:00": [
            133,
            13
        ],
        "20/03/2020 23:29:54": [
            -21
        ],
        "20/03/2020 23:30:03": [
            -21
        ],
        "20/03/2020 23:30:21": [
            -21
        ],
        "20/03/2020 23:30:52": [
            -21
        ]
    },
    "175": {
        "20/03/2020 19:09:01": [
            120,
            0
        ],
        "20/03/2020 23:29:54": [
            -2
        ],
        "20/03/2020 23:30:03": [
            -2
        ],
        "20/03/2020 23:30:22": [
            -47
        ],
        "20/03/2020 23:30:45": [
            -47
        ],
        "20/03/2020 23:30:52": [
            -47
        ]
    },
    "176": {
        "20/03/2020 19:09:01": [
            91,
            -29
        ],
        "20/03/2020 23:29:54": [
            20
        ],
        "20/03/2020 23:30:03": [
            20
        ],
        "20/03/2020 23:30:22": [
            -40
        ],
        "20/03/2020 23:30:46": [
            -40
        ],
        "20/03/2020 23:30:53": [
            -40
        ]
    },
    "181": {
        "20/03/2020 19:09:01": [
            146,
            26
        ],
        "20/03/2020 23:29:55": [
            0
        ],
        "20/03/2020 23:30:04": [
            0
        ],
        "20/03/2020 23:30:22": [
            -60
        ],
        "20/03/2020 23:30:43": [
            -60
        ],
        "20/03/2020 23:30:53": [
            -60
        ]
    },
    "182": {
        "20/03/2020 19:09:01": [
            136,
            16
        ],
        "20/03/2020 23:29:55": [
            -27
        ],
        "20/03/2020 23:30:04": [
            -27
        ],
        "20/03/2020 23:30:23": [
            -87
        ],
        "20/03/2020 23:30:43": [
            -87
        ],
        "20/03/2020 23:30:53": [
            -87
        ]
    },
    "183": {
        "20/03/2020 19:09:02": [
            137,
            17
        ],
        "20/03/2020 23:29:55": [
            14
        ],
        "20/03/2020 23:30:04": [
            14
        ],
        "20/03/2020 23:30:23": [
            -46
        ],
        "20/03/2020 23:30:43": [
            -46
        ],
        "20/03/2020 23:30:53": [
            -46
        ]
    },
    "184": {
        "20/03/2020 19:09:02": [
            127,
            7
        ],
        "20/03/2020 23:29:55": [
            -12
        ],
        "20/03/2020 23:30:04": [
            -12
        ],
        "20/03/2020 23:30:23": [
            -72
        ],
        "20/03/2020 23:30:44": [
            -72
        ],
        "20/03/2020 23:30:54": [
            -72
        ]
    },
    "185": {
        "20/03/2020 19:09:02": [
            101,
            -19
        ],
        "20/03/2020 23:29:56": [
            9
        ],
        "20/03/2020 23:30:05": [
            9
        ],
        "20/03/2020 23:30:24": [
            -51
        ],
        "20/03/2020 23:30:40": [
            -51
        ],
        "20/03/2020 23:30:54": [
            -51
        ]
    },
    "186": {
        "20/03/2020 19:09:03": [
            100,
            -20
        ],
        "20/03/2020 23:29:56": [
            -14
        ],
        "20/03/2020 23:30:05": [
            -14
        ],
        "20/03/2020 23:30:24": [
            -74
        ],
        "20/03/2020 23:30:41": [
            -74
        ],
        "20/03/2020 23:30:54": [
            -74
        ]
    },
    "187": {
        "20/03/2020 19:09:03": [
            112,
            -8
        ],
        "20/03/2020 23:29:56": [
            24
        ],
        "20/03/2020 23:30:05": [
            24
        ],
        "20/03/2020 23:30:25": [
            -36
        ],
        "20/03/2020 23:30:41": [
            -36
        ],
        "20/03/2020 23:30:54": [
            -36
        ]
    },
    "188": {
        "20/03/2020 19:09:03": [
            114,
            -6
        ],
        "20/03/2020 23:29:57": [
            -2
        ],
        "20/03/2020 23:30:06": [
            -2
        ],
        "20/03/2020 23:30:25": [
            -62
        ],
        "20/03/2020 23:30:41": [
            -62
        ],
        "20/03/2020 23:30:55": [
            -62
        ]
    },
    "189": {
        "20/03/2020 19:09:04": [
            124,
            4
        ],
        "20/03/2020 23:29:57": [
            -24
        ],
        "20/03/2020 23:30:06": [
            -24
        ],
        "20/03/2020 23:30:26": [
            -84
        ],
        "20/03/2020 23:30:46": [
            -84
        ],
        "20/03/2020 23:30:55": [
            -84
        ]
    },
    "190": {
        "20/03/2020 19:09:06": [
            112,
            -8
        ],
        "20/03/2020 23:29:57": [
            3
        ],
        "20/03/2020 23:30:06": [
            3
        ],
        "20/03/2020 23:30:26": [
            3
        ],
        "20/03/2020 23:30:46": [
            3
        ],
        "20/03/2020 23:30:55": [
            3
        ]
    },
    "1614": {
        "20/03/2020 19:09:11": [
            144,
            24
        ],
        "20/03/2020 23:29:57": [
            -6
        ],
        "20/03/2020 23:30:06": [
            -6
        ],
        "20/03/2020 23:30:26": [
            -6
        ],
        "20/03/2020 23:30:40": [
            -6
        ],
        "20/03/2020 23:30:56": [
            -6
        ]
    },
    "1615": {
        "20/03/2020 19:09:15": [
            130,
            10
        ],
        "20/03/2020 23:29:58": [
            2
        ],
        "20/03/2020 23:30:07": [
            2
        ],
        "20/03/2020 23:30:26": [
            2
        ],
        "20/03/2020 23:30:40": [
            2
        ],
        "20/03/2020 23:30:56": [
            2
        ]
    },
    "1478": {
        "20/03/2020 19:09:18": [
            118,
            -2
        ],
        "20/03/2020 23:29:58": [
            11
        ],
        "20/03/2020 23:30:07": [
            11
        ],
        "20/03/2020 23:30:27": [
            11
        ],
        "20/03/2020 23:30:42": [
            11
        ],
        "20/03/2020 23:30:56": [
            11
        ]
    },
    "1479": {
        "20/03/2020 19:09:22": [
            126,
            6
        ],
        "20/03/2020 23:29:58": [
            -5
        ],
        "20/03/2020 23:30:07": [
            -5
        ],
        "20/03/2020 23:30:27": [
            -5
        ],
        "20/03/2020 23:30:42": [
            -5
        ],
        "20/03/2020 23:30:56": [
            -5
        ]
    },
    "315": {
        "20/03/2020 19:09:27": [
            148,
            28
        ],
        "20/03/2020 23:29:59": [],
        "20/03/2020 23:30:07": [],
        "20/03/2020 23:30:27": [],
        "20/03/2020 23:30:38": [],
        "20/03/2020 23:30:57": []
    },
    "336": {
        "20/03/2020 19:09:31": [
            115,
            -5
        ],
        "20/03/2020 23:30:08": [],
        "20/03/2020 23:30:38": [],
        "20/03/2020 23:30:57": []
    },
    "1279": {
        "20/03/2020 19:09:36": [
            -35,
            134,
            14
        ],
        "20/03/2020 23:30:08": [
            -231
        ],
        "20/03/2020 23:30:30": [
            -231
        ],
        "20/03/2020 23:30:58": [
            -231
        ]
    },
    "1283": {
        "20/03/2020 19:09:40": [
            -40,
            104,
            -16
        ],
        "20/03/2020 23:30:08": [
            -350
        ],
        "20/03/2020 23:30:31": [
            -350
        ],
        "20/03/2020 23:30:59": [
            -291
        ]
    },
    "4456": {
        "20/03/2020 19:09:44": [
            -34,
            109,
            -11
        ],
        "20/03/2020 23:30:09": [
            -238
        ],
        "20/03/2020 23:30:37": [
            -238
        ],
        "20/03/2020 23:30:59": [
            -238
        ]
    },
    "1284": {
        "20/03/2020 19:09:47": [
            -32,
            109
        ],
        "20/03/2020 23:30:09": [
            -264
        ],
        "20/03/2020 23:30:31": [
            -264
        ],
        "20/03/2020 23:30:59": [
            -264
        ]
    },
    "1285": {
        "20/03/2020 19:09:50": [
            -70,
            96
        ],
        "20/03/2020 23:30:09": [
            -311
        ],
        "20/03/2020 23:30:31": [
            -311
        ],
        "20/03/2020 23:30:59": [
            -232
        ]
    },
    "1016": {
        "20/03/2020 19:09:53": [
            -88,
            136
        ],
        "20/03/2020 23:30:09": [
            -350
        ],
        "20/03/2020 23:30:36": [
            -271
        ],
        "20/03/2020 23:31:00": [
            -271
        ]
    },
    "1017": {
        "20/03/2020 19:09:58": [
            -61,
            130
        ],
        "20/03/2020 23:30:10": [
            -328
        ],
        "20/03/2020 23:30:37": [
            -268
        ],
        "20/03/2020 23:31:00": [
            -268
        ]
    },
    "1018": {
        "20/03/2020 19:10:02": [
            -33,
            125
        ],
        "20/03/2020 23:30:10": [
            -254
        ],
        "20/03/2020 23:30:30": [
            -254
        ],
        "20/03/2020 23:31:00": [
            -254
        ]
    },
    "1019": {
        "20/03/2020 19:10:04": [
            -51,
            102
        ],
        "20/03/2020 23:30:10": [
            -226
        ],
        "20/03/2020 23:30:30": [
            -226
        ],
        "20/03/2020 23:31:01": [
            -226
        ]
    },
    "1020": {
        "20/03/2020 19:10:07": [
            -57,
            90
        ],
        "20/03/2020 23:30:11": [
            -251
        ],
        "20/03/2020 23:30:32": [
            -251
        ],
        "20/03/2020 23:31:01": [
            -251
        ]
    },
    "1076": {
        "20/03/2020 19:10:10": [
            -43,
            95
        ],
        "20/03/2020 23:30:11": [
            -263
        ],
        "20/03/2020 23:30:29": [
            -263
        ],
        "20/03/2020 23:31:01": [
            -263
        ]
    },
    "1077": {
        "20/03/2020 19:10:15": [
            -34,
            96
        ],
        "20/03/2020 23:30:11": [
            -277
        ],
        "20/03/2020 23:30:30": [
            -277
        ],
        "20/03/2020 23:31:01": [
            -277
        ]
    },
    "2479": {
        "20/03/2020 19:10:19": [
            -86,
            98
        ],
        "20/03/2020 23:30:11": [
            -227
        ],
        "20/03/2020 23:30:32": [
            -227
        ],
        "20/03/2020 23:31:02": [
            -227
        ]
    },
    "2480": {
        "20/03/2020 19:10:23": [
            -66,
            112
        ],
        "20/03/2020 23:30:12": [
            -227
        ],
        "20/03/2020 23:30:32": [
            -227
        ],
        "20/03/2020 23:31:02": [
            -227
        ]
    },
    "2481": {
        "20/03/2020 19:10:27": [
            -63,
            110
        ],
        "20/03/2020 23:30:12": [
            -240
        ],
        "20/03/2020 23:30:33": [
            -240
        ],
        "20/03/2020 23:31:02": [
            -240
        ]
    },
    "2482": {
        "20/03/2020 19:10:31": [
            -63,
            106
        ],
        "20/03/2020 23:30:12": [
            -255
        ],
        "20/03/2020 23:30:33": [
            -255
        ],
        "20/03/2020 23:31:03": [
            -255
        ]
    },
    "2483": {
        "20/03/2020 19:10:35": [
            -85,
            148
        ],
        "20/03/2020 23:30:13": [
            -279
        ],
        "20/03/2020 23:30:33": [
            -279
        ],
        "20/03/2020 23:31:03": [
            -279
        ]
    },
    "2484": {
        "20/03/2020 19:10:39": [
            -45,
            132
        ],
        "20/03/2020 23:30:13": [
            -241
        ],
        "20/03/2020 23:30:34": [
            -241
        ],
        "20/03/2020 23:31:03": [
            -241
        ]
    },
    "2485": {
        "20/03/2020 19:10:43": [
            -57,
            114
        ],
        "20/03/2020 23:30:13": [
            -265
        ],
        "20/03/2020 23:30:34": [
            -265
        ],
        "20/03/2020 23:31:04": [
            -265
        ]
    },
    "2486": {
        "20/03/2020 19:10:45": [
            -72,
            94
        ],
        "20/03/2020 23:30:13": [
            -232
        ],
        "20/03/2020 23:30:34": [
            -232
        ],
        "20/03/2020 23:31:04": [
            -232
        ]
    },
    "2487": {
        "20/03/2020 19:10:48": [
            -73,
            146
        ],
        "20/03/2020 23:30:14": [
            -247
        ],
        "20/03/2020 23:30:34": [
            -247
        ],
        "20/03/2020 23:31:04": [
            -247
        ]
    },
    "2488": {
        "20/03/2020 19:10:50": [
            -79,
            134
        ],
        "20/03/2020 23:30:14": [
            -265
        ],
        "20/03/2020 23:30:35": [
            -265
        ],
        "20/03/2020 23:31:04": [
            -265
        ]
    },
    "2489": {
        "20/03/2020 19:10:53": [
            -50,
            100
        ],
        "20/03/2020 23:30:14": [
            -243
        ],
        "20/03/2020 23:30:35": [
            -243
        ],
        "20/03/2020 23:31:05": [
            -243
        ]
    },
    "2448": {
        "20/03/2020 19:10:56": [
            -42
        ],
        "20/03/2020 23:30:14": [
            -250
        ],
        "20/03/2020 23:30:32": [
            -250
        ],
        "20/03/2020 23:31:05": [
            -250
        ]
    },
    "5026": {
        "20/03/2020 19:10:58": [
            -77
        ],
        "20/03/2020 23:30:15": [
            -231
        ],
        "20/03/2020 23:30:36": [
            -231
        ],
        "20/03/2020 23:31:05": [
            -231
        ]
    },
    "2450": {
        "20/03/2020 19:11:01": [
            -40
        ],
        "20/03/2020 23:30:15": [
            -256
        ],
        "20/03/2020 23:30:35": [
            -256
        ],
        "20/03/2020 23:31:06": [
            -256
        ]
    },
    "2490": {
        "20/03/2020 19:11:07": [
            -72
        ],
        "20/03/2020 23:30:15": [
            -230
        ],
        "20/03/2020 23:30:36": [
            -230
        ],
        "20/03/2020 23:31:06": [
            -230
        ]
    },
    "2491": {
        "20/03/2020 19:11:13": [
            -41
        ],
        "20/03/2020 23:30:16": [
            -261
        ],
        "20/03/2020 23:30:36": [
            -261
        ],
        "20/03/2020 23:31:06": [
            -261
        ]
    },
    "2492": {
        "20/03/2020 19:12:19": [
            0,
            0
        ],
        "20/03/2020 23:30:16": [],
        "20/03/2020 23:30:36": [],
        "20/03/2020 23:31:06": [],
        "20/03/2020 23:31:11": [],
        "20/03/2020 23:31:25": [],
        "20/03/2020 23:31:44": [],
        "20/03/2020 23:32:03": []
    },
    "324": {
        "20/03/2020 19:08:55": [
            0,
            0
        ],
        "20/03/2020 23:30:16": [],
        "20/03/2020 23:30:28": [],
        "20/03/2020 23:30:47": []
    },
    "1555": {
        "20/03/2020 19:08:55": [
            -16,
            -16
        ],
        "20/03/2020 23:30:16": [],
        "20/03/2020 23:30:28": [],
        "20/03/2020 23:30:47": []
    },
    "1556": {
        "20/03/2020 19:08:55": [
            0,
            0
        ],
        "20/03/2020 23:30:17": [],
        "20/03/2020 23:30:29": [],
        "20/03/2020 23:30:47": []
    },
    "1557": {
        "20/03/2020 19:08:56": [
            25,
            25
        ],
        "20/03/2020 23:30:17": [],
        "20/03/2020 23:30:29": [],
        "20/03/2020 23:30:48": []
    },
    "1181": {
        "20/03/2020 19:08:56": [
            123,
            3,
            3
        ],
        "20/03/2020 23:30:17": [],
        "20/03/2020 23:30:28": [],
        "20/03/2020 23:30:48": []
    },
    "7350": {
        "20/03/2020 19:08:56": [
            92,
            -28,
            -28
        ],
        "20/03/2020 23:30:18": [],
        "20/03/2020 23:30:28": [],
        "20/03/2020 23:30:48": []
    },
    "1070": {
        "20/03/2020 19:12:25": [
            -49,
            26
        ],
        "20/03/2020 23:31:07": [],
        "20/03/2020 23:31:31": [],
        "20/03/2020 23:31:49": [],
        "20/03/2020 23:32:08": []
    },
    "1071": {
        "20/03/2020 19:12:25": [
            -104,
            -29
        ],
        "20/03/2020 23:31:07": [
            75
        ],
        "20/03/2020 23:31:31": [],
        "20/03/2020 23:31:50": [],
        "20/03/2020 23:32:09": []
    },
    "1072": {
        "20/03/2020 19:12:26": [
            -94,
            18
        ],
        "20/03/2020 23:31:07": [
            39
        ],
        "20/03/2020 23:31:31": [
            39
        ],
        "20/03/2020 23:31:50": [
            39
        ],
        "20/03/2020 23:32:09": [
            39
        ]
    },
    "1352": {
        "20/03/2020 19:12:26": [
            -4,
            -4
        ],
        "20/03/2020 23:31:08": [
            55
        ],
        "20/03/2020 23:31:32": [
            55
        ],
        "20/03/2020 23:31:50": [
            55
        ],
        "20/03/2020 23:32:09": [
            55
        ]
    },
    "1353": {
        "20/03/2020 19:12:27": [
            -18,
            -18
        ],
        "20/03/2020 23:31:08": [
            31
        ],
        "20/03/2020 23:31:32": [
            31
        ],
        "20/03/2020 23:31:51": [
            31
        ],
        "20/03/2020 23:32:10": [
            31
        ]
    },
    "1170": {
        "20/03/2020 19:12:24": [
            -86,
            -11
        ],
        "20/03/2020 23:31:08": [],
        "20/03/2020 23:31:30": [],
        "20/03/2020 23:31:49": [],
        "20/03/2020 23:32:08": []
    },
    "1355": {
        "20/03/2020 19:12:27": [
            -2,
            -2
        ],
        "20/03/2020 23:31:08": [
            78
        ],
        "20/03/2020 23:31:32": [
            78
        ],
        "20/03/2020 23:31:51": [
            78
        ],
        "20/03/2020 23:32:10": [
            78
        ]
    },
    "1357": {
        "20/03/2020 19:12:27": [
            -17,
            -17
        ],
        "20/03/2020 23:31:08": [
            51
        ],
        "20/03/2020 23:31:33": [
            51
        ],
        "20/03/2020 23:31:51": [
            51
        ],
        "20/03/2020 23:32:10": [
            51
        ]
    },
    "1359": {
        "20/03/2020 19:12:28": [
            -113,
            2,
            2
        ],
        "20/03/2020 23:31:09": [
            64
        ],
        "20/03/2020 23:31:33": [
            64
        ],
        "20/03/2020 23:31:51": [
            64
        ],
        "20/03/2020 23:32:11": [
            64
        ]
    },
    "1069": {
        "20/03/2020 19:12:25": [
            -95,
            -20
        ],
        "20/03/2020 23:31:09": [],
        "20/03/2020 23:31:30": [],
        "20/03/2020 23:31:49": [],
        "20/03/2020 23:32:08": []
    },
    "2471": {
        "20/03/2020 19:12:22": [
            3,
            3
        ],
        "20/03/2020 23:31:09": [],
        "20/03/2020 23:31:28": [],
        "20/03/2020 23:31:47": [],
        "20/03/2020 23:32:05": []
    },
    "2472": {
        "20/03/2020 19:12:22": [
            -11,
            -11
        ],
        "20/03/2020 23:31:10": [],
        "20/03/2020 23:31:28": [],
        "20/03/2020 23:31:47": [],
        "20/03/2020 23:32:06": []
    },
    "2473": {
        "20/03/2020 19:12:23": [
            14,
            14
        ],
        "20/03/2020 23:31:10": [],
        "20/03/2020 23:31:28": [],
        "20/03/2020 23:31:47": [],
        "20/03/2020 23:32:06": []
    },
    "2474": {
        "20/03/2020 19:12:23": [
            -23,
            -23
        ],
        "20/03/2020 23:31:10": [],
        "20/03/2020 23:31:29": [],
        "20/03/2020 23:31:47": [],
        "20/03/2020 23:32:06": []
    },
    "2475": {
        "20/03/2020 19:12:23": [
            3,
            3
        ],
        "20/03/2020 23:31:10": [],
        "20/03/2020 23:31:29": [],
        "20/03/2020 23:31:48": [],
        "20/03/2020 23:32:07": []
    },
    "2476": {
        "20/03/2020 19:12:24": [
            -130,
            -18,
            -18
        ],
        "20/03/2020 23:31:11": [],
        "20/03/2020 23:31:29": [],
        "20/03/2020 23:31:48": [],
        "20/03/2020 23:32:07": []
    },
    "2477": {
        "20/03/2020 19:12:24": [
            -138,
            -26,
            -26
        ],
        "20/03/2020 23:31:11": [],
        "20/03/2020 23:31:29": [],
        "20/03/2020 23:31:48": [],
        "20/03/2020 23:32:07": []
    },
    "2478": {
        "20/03/2020 19:12:24": [
            -81,
            -6
        ],
        "20/03/2020 23:31:11": [],
        "20/03/2020 23:31:30": [],
        "20/03/2020 23:31:48": [],
        "20/03/2020 23:32:07": []
    },
    "2493": {
        "20/03/2020 19:12:20": [
            -7,
            -7
        ],
        "20/03/2020 23:31:12": [],
        "20/03/2020 23:31:26": [],
        "20/03/2020 23:31:44": [],
        "20/03/2020 23:32:03": []
    },
    "2494": {
        "20/03/2020 19:12:21": [
            -20,
            -20
        ],
        "20/03/2020 23:31:12": [],
        "20/03/2020 23:31:27": [],
        "20/03/2020 23:31:45": [],
        "20/03/2020 23:32:04": []
    },
    "7131": {
        "20/03/2020 19:11:54": [],
        "20/03/2020 23:31:12": [],
        "20/03/2020 23:31:43": []
    },
    "2465": {
        "20/03/2020 19:12:20": [
            28,
            28
        ],
        "20/03/2020 23:31:13": [],
        "20/03/2020 23:31:26": [],
        "20/03/2020 23:31:45": [],
        "20/03/2020 23:32:03": []
    },
    "2466": {
        "20/03/2020 19:12:20": [
            -4,
            -4
        ],
        "20/03/2020 23:31:13": [],
        "20/03/2020 23:31:26": [],
        "20/03/2020 23:31:45": [],
        "20/03/2020 23:32:04": []
    },
    "2467": {
        "20/03/2020 19:12:21": [
            -22,
            -22
        ],
        "20/03/2020 23:31:13": [],
        "20/03/2020 23:31:26": [],
        "20/03/2020 23:31:45": [],
        "20/03/2020 23:32:04": []
    },
    "4528": {
        "20/03/2020 19:12:26": [
            -155,
            16
        ],
        "20/03/2020 23:31:13": [
            50
        ],
        "20/03/2020 23:31:31": [
            50
        ],
        "20/03/2020 23:31:50": [],
        "20/03/2020 23:32:09": []
    },
    "2495": {
        "20/03/2020 19:12:21": [
            -23,
            -23
        ],
        "20/03/2020 23:31:14": [],
        "20/03/2020 23:31:27": [],
        "20/03/2020 23:31:46": [],
        "20/03/2020 23:32:05": []
    },
    "2496": {
        "20/03/2020 19:12:21": [
            23,
            23
        ],
        "20/03/2020 23:31:14": [],
        "20/03/2020 23:31:27": [],
        "20/03/2020 23:31:46": [],
        "20/03/2020 23:32:05": []
    },
    "2497": {
        "20/03/2020 19:12:22": [
            10,
            10
        ],
        "20/03/2020 23:31:14": [],
        "20/03/2020 23:31:28": [],
        "20/03/2020 23:31:46": [],
        "20/03/2020 23:32:05": []
    },
    "1182": {
        "20/03/2020 19:12:38": [
            -662,
            -93,
            22
        ],
        "20/03/2020 23:31:15": [
            326
        ],
        "20/03/2020 23:32:01": [
            326
        ],
        "20/03/2020 23:32:20": [
            326
        ]
    },
    "133": {
        "20/03/2020 19:12:36": [
            -673,
            -98,
            17
        ],
        "20/03/2020 23:31:15": [
            306
        ],
        "20/03/2020 23:31:41": [
            306
        ],
        "20/03/2020 23:31:59": [
            306
        ],
        "20/03/2020 23:32:18": [
            306
        ]
    },
    "138": {
        "20/03/2020 19:12:36": [
            -107,
            8
        ],
        "20/03/2020 23:31:15": [
            307
        ],
        "20/03/2020 23:31:41": [
            307
        ],
        "20/03/2020 23:31:59": [
            307
        ],
        "20/03/2020 23:32:18": [
            307
        ]
    },
    "177": {
        "20/03/2020 19:12:34": [
            -145,
            -30
        ],
        "20/03/2020 23:31:15": [
            303
        ],
        "20/03/2020 23:31:39": [
            303
        ],
        "20/03/2020 23:31:57": [
            303
        ],
        "20/03/2020 23:32:16": [
            303
        ]
    },
    "178": {
        "20/03/2020 19:12:34": [
            -121,
            -6
        ],
        "20/03/2020 23:31:16": [
            324
        ],
        "20/03/2020 23:31:39": [
            324
        ],
        "20/03/2020 23:31:58": [
            324
        ],
        "20/03/2020 23:32:16": [
            324
        ]
    },
    "200": {
        "20/03/2020 19:12:31": [
            -130,
            -15,
            -15
        ],
        "20/03/2020 23:31:16": [
            321
        ],
        "20/03/2020 23:31:36": [
            321
        ],
        "20/03/2020 23:31:55": [
            321
        ],
        "20/03/2020 23:32:14": [
            321
        ]
    },
    "201": {
        "20/03/2020 19:12:32": [
            -97,
            18,
            18
        ],
        "20/03/2020 23:31:16": [
            346
        ],
        "20/03/2020 23:31:37": [
            346
        ],
        "20/03/2020 23:31:55": [
            346
        ],
        "20/03/2020 23:32:14": [
            346
        ]
    },
    "134": {
        "20/03/2020 19:12:37": [
            -680,
            -113,
            2
        ],
        "20/03/2020 23:31:16": [
            346
        ],
        "20/03/2020 23:31:41": [
            346
        ],
        "20/03/2020 23:32:00": [
            346
        ],
        "20/03/2020 23:32:19": [
            346
        ]
    },
    "156": {
        "20/03/2020 19:12:33": [
            -120,
            -5,
            -5
        ],
        "20/03/2020 23:31:17": [
            340
        ],
        "20/03/2020 23:31:38": [
            340
        ],
        "20/03/2020 23:31:57": [
            340
        ],
        "20/03/2020 23:32:16": [
            340
        ]
    },
    "202": {
        "20/03/2020 19:12:32": [
            -127,
            -12,
            -12
        ],
        "20/03/2020 23:31:17": [
            310
        ],
        "20/03/2020 23:31:37": [
            310
        ],
        "20/03/2020 23:31:55": [
            310
        ],
        "20/03/2020 23:32:14": [
            310
        ]
    },
    "319": {
        "20/03/2020 19:12:28": [
            -140,
            -25,
            -25
        ],
        "20/03/2020 23:31:17": [],
        "20/03/2020 23:31:33": [],
        "20/03/2020 23:31:52": [],
        "20/03/2020 23:32:11": []
    },
    "1443": {
        "20/03/2020 19:12:28": [
            -122,
            -7,
            -7
        ],
        "20/03/2020 23:31:18": [
            325
        ],
        "20/03/2020 23:31:33": [
            325
        ],
        "20/03/2020 23:31:52": [
            325
        ],
        "20/03/2020 23:32:11": [
            325
        ]
    },
    "151": {
        "20/03/2020 19:12:32": [
            -93,
            22,
            22
        ],
        "20/03/2020 23:31:18": [
            338
        ],
        "20/03/2020 23:31:37": [
            338
        ],
        "20/03/2020 23:31:56": [
            338
        ],
        "20/03/2020 23:32:14": [
            338
        ]
    },
    "1616": {
        "20/03/2020 19:12:29": [
            -117,
            -2,
            -2
        ],
        "20/03/2020 23:31:18": [
            300
        ],
        "20/03/2020 23:31:34": [
            300
        ],
        "20/03/2020 23:31:52": [
            300
        ],
        "20/03/2020 23:32:11": [
            300
        ]
    },
    "1617": {
        "20/03/2020 19:12:29": [
            -116,
            -1,
            -1
        ],
        "20/03/2020 23:31:18": [
            283
        ],
        "20/03/2020 23:31:34": [
            283
        ],
        "20/03/2020 23:31:52": [
            283
        ],
        "20/03/2020 23:32:12": [
            283
        ]
    },
    "1618": {
        "20/03/2020 19:12:29": [
            -134,
            -19,
            -19
        ],
        "20/03/2020 23:31:19": [
            317
        ],
        "20/03/2020 23:31:34": [
            317
        ],
        "20/03/2020 23:31:53": [
            317
        ],
        "20/03/2020 23:32:12": [
            317
        ]
    },
    "1619": {
        "20/03/2020 19:12:30": [
            -141,
            -26,
            -26
        ],
        "20/03/2020 23:31:19": [
            318
        ],
        "20/03/2020 23:31:35": [
            318
        ],
        "20/03/2020 23:31:53": [
            318
        ],
        "20/03/2020 23:32:12": [
            318
        ]
    },
    "195": {
        "20/03/2020 19:12:30": [
            -89,
            26,
            26
        ],
        "20/03/2020 23:31:19": [
            300
        ],
        "20/03/2020 23:31:35": [
            300
        ],
        "20/03/2020 23:31:53": [
            300
        ],
        "20/03/2020 23:32:12": [
            300
        ]
    },
    "196": {
        "20/03/2020 19:12:30": [
            -103,
            12,
            12
        ],
        "20/03/2020 23:31:20": [
            337
        ],
        "20/03/2020 23:31:35": [
            337
        ],
        "20/03/2020 23:31:54": [
            337
        ],
        "20/03/2020 23:32:13": [
            337
        ]
    },
    "332": {
        "20/03/2020 19:12:40": [],
        "20/03/2020 23:31:20": [],
        "20/03/2020 23:32:03": [],
        "20/03/2020 23:32:21": []
    },
    "4369": {
        "20/03/2020 19:12:37": [
            -660,
            -116,
            -132
        ],
        "20/03/2020 23:31:20": [
            330
        ],
        "20/03/2020 23:31:42": [
            330
        ],
        "20/03/2020 23:32:00": [
            330
        ],
        "20/03/2020 23:32:19": [
            330
        ]
    },
    "4890": {
        "20/03/2020 19:12:37": [
            -665,
            -110,
            5
        ],
        "20/03/2020 23:31:20": [
            342
        ],
        "20/03/2020 23:31:41": [
            342
        ],
        "20/03/2020 23:32:00": [
            342
        ],
        "20/03/2020 23:32:19": [
            342
        ]
    },
    "6348": {
        "20/03/2020 19:12:38": [
            -704,
            -129,
            -14
        ],
        "20/03/2020 23:31:21": [
            295
        ],
        "20/03/2020 23:32:01": [
            295
        ],
        "20/03/2020 23:32:20": [
            295
        ]
    },
    "153": {
        "20/03/2020 19:12:32": [
            -145,
            -30,
            -30
        ],
        "20/03/2020 23:31:21": [
            334
        ],
        "20/03/2020 23:31:37": [
            334
        ],
        "20/03/2020 23:31:56": [
            334
        ],
        "20/03/2020 23:32:15": [
            334
        ]
    },
    "1539": {
        "20/03/2020 19:12:34": [
            -136,
            -21
        ],
        "20/03/2020 23:31:21": [
            304
        ],
        "20/03/2020 23:31:39": [
            304
        ],
        "20/03/2020 23:31:58": [
            304
        ],
        "20/03/2020 23:32:17": [
            304
        ]
    },
    "154": {
        "20/03/2020 19:12:33": [
            -139,
            -24,
            -24
        ],
        "20/03/2020 23:31:21": [
            331
        ],
        "20/03/2020 23:31:38": [
            331
        ],
        "20/03/2020 23:31:56": [
            331
        ],
        "20/03/2020 23:32:15": [
            331
        ]
    },
    "1540": {
        "20/03/2020 19:12:35": [
            -137,
            -22
        ],
        "20/03/2020 23:31:22": [
            296
        ],
        "20/03/2020 23:31:40": [
            296
        ],
        "20/03/2020 23:31:58": [
            296
        ],
        "20/03/2020 23:32:17": [
            296
        ]
    },
    "155": {
        "20/03/2020 19:12:33": [
            -93,
            22,
            22
        ],
        "20/03/2020 23:31:22": [
            312
        ],
        "20/03/2020 23:31:38": [
            312
        ],
        "20/03/2020 23:31:56": [
            312
        ],
        "20/03/2020 23:32:15": [
            312
        ]
    },
    "1550": {
        "20/03/2020 19:12:39": [
            -693,
            -123,
            -8
        ],
        "20/03/2020 23:31:22": [
            295
        ],
        "20/03/2020 23:32:02": [
            295
        ],
        "20/03/2020 23:32:21": [
            295
        ]
    },
    "1551": {
        "20/03/2020 19:12:39": [
            -663,
            -94,
            21
        ],
        "20/03/2020 23:31:22": [
            320
        ],
        "20/03/2020 23:32:02": [
            320
        ],
        "20/03/2020 23:32:21": [
            320
        ]
    },
    "1552": {
        "20/03/2020 19:12:39": [
            -690,
            -124,
            -9
        ],
        "20/03/2020 23:31:23": [
            340
        ],
        "20/03/2020 23:32:02": [
            340
        ],
        "20/03/2020 23:32:21": [
            340
        ]
    },
    "197": {
        "20/03/2020 19:12:31": [
            -112,
            3,
            3
        ],
        "20/03/2020 23:31:23": [
            318
        ],
        "20/03/2020 23:31:35": [
            318
        ],
        "20/03/2020 23:31:54": [
            318
        ],
        "20/03/2020 23:32:13": [
            318
        ]
    },
    "198": {
        "20/03/2020 19:12:31": [
            -104,
            11,
            11
        ],
        "20/03/2020 23:31:23": [
            312
        ],
        "20/03/2020 23:31:36": [
            312
        ],
        "20/03/2020 23:31:54": [
            312
        ],
        "20/03/2020 23:32:13": [
            312
        ]
    },
    "199": {
        "20/03/2020 19:12:31": [
            -118,
            -3,
            -3
        ],
        "20/03/2020 23:31:24": [
            351
        ],
        "20/03/2020 23:31:36": [
            351
        ],
        "20/03/2020 23:31:55": [
            351
        ],
        "20/03/2020 23:32:13": [
            351
        ]
    },
    "6219": {
        "20/03/2020 19:12:37": [
            -651,
            -117,
            -2
        ],
        "20/03/2020 23:31:24": [
            321
        ],
        "20/03/2020 23:31:42": [
            321
        ],
        "20/03/2020 23:32:01": [
            321
        ],
        "20/03/2020 23:32:19": [
            321
        ]
    },
    "6229": {
        "20/03/2020 19:12:38": [
            -701,
            -117,
            -2
        ],
        "20/03/2020 23:31:24": [
            313
        ],
        "20/03/2020 23:31:42": [
            313
        ],
        "20/03/2020 23:32:01": [
            313
        ],
        "20/03/2020 23:32:20": [
            313
        ]
    },
    "6234": {
        "20/03/2020 19:11:34": [],
        "20/03/2020 23:31:24": []
    },
    "7426": {
        "20/03/2020 19:12:35": [
            -92,
            -108
        ],
        "20/03/2020 23:31:25": [
            337
        ],
        "20/03/2020 23:31:40": [
            337
        ],
        "20/03/2020 23:31:58": [
            337
        ],
        "20/03/2020 23:32:17": [
            337
        ]
    },
    "7427": {
        "20/03/2020 19:12:35": [
            -96,
            -112
        ],
        "20/03/2020 23:31:25": [
            325
        ],
        "20/03/2020 23:31:40": [
            325
        ],
        "20/03/2020 23:31:59": [
            325
        ],
        "20/03/2020 23:32:18": [
            325
        ]
    },
    "7428": {
        "20/03/2020 19:12:36": [
            -131,
            -147
        ],
        "20/03/2020 23:31:25": [
            346
        ],
        "20/03/2020 23:31:40": [
            346
        ],
        "20/03/2020 23:31:59": [
            346
        ],
        "20/03/2020 23:32:18": [
            346
        ]
    },
    "7430": {
        "20/03/2020 19:12:34": [
            -144,
            -160,
            -29
        ],
        "20/03/2020 23:31:38": [
            312
        ],
        "20/03/2020 23:31:57": [
            312
        ],
        "20/03/2020 23:32:16": [
            312
        ]
    }
}