{
    "6251": {
        "26/03/2020 13:58:58": [],
        "26/03/2020 16:24:48": [],
        "26/03/2020 19:00:49": []
    },
    "7706": {
        "26/03/2020 13:58:58": [],
        "26/03/2020 16:24:48": [],
        "26/03/2020 19:00:50": []
    },
    "7707": {
        "26/03/2020 13:58:59": [],
        "26/03/2020 16:24:49": [],
        "26/03/2020 19:00:50": []
    },
    "512": {
        "26/03/2020 13:59:00": [],
        "26/03/2020 16:24:50": [],
        "26/03/2020 19:00:50": []
    },
    "513": {
        "26/03/2020 13:59:00": [],
        "26/03/2020 16:24:50": [],
        "26/03/2020 19:00:51": []
    },
    "7402": {
        "26/03/2020 13:59:00": [],
        "26/03/2020 16:24:51": [],
        "26/03/2020 19:00:51": []
    },
    "4380": {
        "26/03/2020 13:59:01": [],
        "26/03/2020 16:24:51": [],
        "26/03/2020 19:00:52": []
    },
    "1172": {
        "26/03/2020 13:59:01": [],
        "26/03/2020 16:24:52": [],
        "26/03/2020 19:00:53": []
    },
    "4509": {
        "26/03/2020 13:59:02": [],
        "26/03/2020 16:24:52": [],
        "26/03/2020 19:00:53": []
    },
    "7708": {
        "26/03/2020 13:59:02": [],
        "26/03/2020 16:24:53": [],
        "26/03/2020 19:00:54": []
    },
    "7709": {
        "26/03/2020 13:59:03": [],
        "26/03/2020 16:24:53": [],
        "26/03/2020 19:00:54": []
    },
    "7710": {
        "26/03/2020 13:59:03": [],
        "26/03/2020 16:24:54": [],
        "26/03/2020 19:00:55": []
    },
    "7711": {
        "26/03/2020 13:59:04": [],
        "26/03/2020 16:24:59": [],
        "26/03/2020 19:00:55": []
    },
    "7705": {
        "26/03/2020 13:59:04": [],
        "26/03/2020 16:25:00": [],
        "26/03/2020 19:00:56": []
    }
}