{
    "6251": {
        "24/03/2020 15:15:33": [],
        "24/03/2020 17:27:23": [],
        "24/03/2020 20:09:18": [],
        "24/03/2020 22:25:06": []
    },
    "7706": {
        "24/03/2020 15:15:34": [],
        "24/03/2020 17:27:24": [],
        "24/03/2020 20:09:18": [],
        "24/03/2020 22:25:07": []
    },
    "7707": {
        "24/03/2020 15:15:34": [],
        "24/03/2020 17:27:24": [],
        "24/03/2020 20:09:19": [],
        "24/03/2020 22:25:07": []
    },
    "512": {
        "24/03/2020 15:15:35": [],
        "24/03/2020 17:27:25": [],
        "24/03/2020 20:09:19": [],
        "24/03/2020 22:25:08": []
    },
    "513": {
        "24/03/2020 15:15:35": [],
        "24/03/2020 17:27:25": [],
        "24/03/2020 20:09:20": [],
        "24/03/2020 22:25:08": []
    },
    "7402": {
        "24/03/2020 15:15:36": [],
        "24/03/2020 17:27:25": [],
        "24/03/2020 20:09:20": [],
        "24/03/2020 22:25:09": []
    },
    "4380": {
        "24/03/2020 15:15:36": [],
        "24/03/2020 17:27:26": [],
        "24/03/2020 20:09:21": [],
        "24/03/2020 22:25:09": []
    },
    "1172": {
        "24/03/2020 15:15:37": [],
        "24/03/2020 17:27:26": [],
        "24/03/2020 20:09:21": [],
        "24/03/2020 22:25:10": []
    },
    "4509": {
        "24/03/2020 15:15:37": [],
        "24/03/2020 17:27:27": [],
        "24/03/2020 20:09:22": [],
        "24/03/2020 22:25:10": []
    },
    "7708": {
        "24/03/2020 15:15:38": [],
        "24/03/2020 17:27:27": [],
        "24/03/2020 20:09:22": [],
        "24/03/2020 22:25:11": []
    },
    "7709": {
        "24/03/2020 15:15:38": [],
        "24/03/2020 17:27:28": [],
        "24/03/2020 20:09:22": [],
        "24/03/2020 22:25:11": []
    },
    "7710": {
        "24/03/2020 15:15:39": [],
        "24/03/2020 17:27:28": [],
        "24/03/2020 20:09:23": [],
        "24/03/2020 22:25:12": []
    },
    "7711": {
        "24/03/2020 15:15:39": [],
        "24/03/2020 17:27:28": [],
        "24/03/2020 20:09:23": [],
        "24/03/2020 22:25:12": []
    },
    "7705": {
        "24/03/2020 15:15:40": [],
        "24/03/2020 17:27:29": [],
        "24/03/2020 20:09:24": [],
        "24/03/2020 22:25:13": []
    }
}