{
    "route": "104",
    "stops": [
        {
            "stopid": "232",
            "fullname": "Shantalla Road",
            "latitude": "53.38798444",
            "longitude": "-6.236980556"
        },
        {
            "stopid": "243",
            "fullname": "Beaumont Road",
            "latitude": "53.38578",
            "longitude": "-6.229539722"
        },
        {
            "stopid": "245",
            "fullname": "Skelly's Lane",
            "latitude": "53.38447222",
            "longitude": "-6.219566667"
        },
        {
            "stopid": "253",
            "fullname": "Beaumont Hospital",
            "latitude": "53.38994583",
            "longitude": "-6.22439"
        },
        {
            "stopid": "4474",
            "fullname": "Artane Castle SC",
            "latitude": "53.38413722",
            "longitude": "-6.215190833"
        },
        {
            "stopid": "674",
            "fullname": "Collins Ave",
            "latitude": "53.37468611",
            "longitude": "-6.216082222"
        },
        {
            "stopid": "1605",
            "fullname": "Collins Avenue",
            "latitude": "53.38825306",
            "longitude": "-6.260799722"
        },
        {
            "stopid": "227",
            "fullname": "Shanliss Rd",
            "latitude": "53.39114389",
            "longitude": "-6.251344444"
        },
        {
            "stopid": "228",
            "fullname": "Shanliss Rd",
            "latitude": "53.3918775",
            "longitude": "-6.259719444"
        },
        {
            "stopid": "229",
            "fullname": "Shanliss Rd",
            "latitude": "53.39139944",
            "longitude": "-6.256536389"
        },
        {
            "stopid": "4785",
            "fullname": "CRC",
            "latitude": "53.37024611",
            "longitude": "-6.20172"
        },
        {
            "stopid": "4790",
            "fullname": "Pinebrook Drive",
            "latitude": "53.38139",
            "longitude": "-6.211788056"
        },
        {
            "stopid": "1220",
            "fullname": "Malahide Road",
            "latitude": "53.3787625",
            "longitude": "-6.212198889"
        },
        {
            "stopid": "1221",
            "fullname": "Malahide Road",
            "latitude": "53.37681639",
            "longitude": "-6.216098333"
        },
        {
            "stopid": "1644",
            "fullname": "Collins Avenue Extension",
            "latitude": "53.38687",
            "longitude": "-6.256571111"
        },
        {
            "stopid": "230",
            "fullname": "Shanliss Rd",
            "latitude": "53.38988806",
            "longitude": "-6.249065556"
        },
        {
            "stopid": "231",
            "fullname": "Swords Road",
            "latitude": "53.38924",
            "longitude": "-6.245949722"
        },
        {
            "stopid": "233",
            "fullname": "Shantalla Road",
            "latitude": "53.38582139",
            "longitude": "-6.233536944"
        },
        {
            "stopid": "530",
            "fullname": "Howth Road",
            "latitude": "53.37122444",
            "longitude": "-6.204023333"
        },
        {
            "stopid": "7129",
            "fullname": "Victoria Road",
            "latitude": "53.36209833",
            "longitude": "-6.208584444"
        },
        {
            "stopid": "1744",
            "fullname": "Clontarf Rd",
            "latitude": "53.36032889",
            "longitude": "-6.208773889"
        },
        {
            "stopid": "1745",
            "fullname": "Clontarf Rd",
            "latitude": "53.36032306",
            "longitude": "-6.205691944"
        },
        {
            "stopid": "1746",
            "fullname": "Clontarf Rd",
            "latitude": "53.36025389",
            "longitude": "-6.202736111"
        },
        {
            "stopid": "1747",
            "fullname": "Clontarf Rd",
            "latitude": "53.35931",
            "longitude": "-6.196816111"
        },
        {
            "stopid": "1748",
            "fullname": "Clontarf Rd",
            "latitude": "53.35824806",
            "longitude": "-6.193451111"
        },
        {
            "stopid": "1749",
            "fullname": "Clontarf Rd",
            "latitude": "53.35856389",
            "longitude": "-6.190543889"
        },
        {
            "stopid": "1764",
            "fullname": "Blackheath Pk",
            "latitude": "53.36589306",
            "longitude": "-6.195576944"
        },
        {
            "stopid": "1765",
            "fullname": "Blackheath Drive",
            "latitude": "53.36655139",
            "longitude": "-6.202281389"
        },
        {
            "stopid": "1766",
            "fullname": "Seafield Road West",
            "latitude": "53.36511611",
            "longitude": "-6.204851389"
        },
        {
            "stopid": "1767",
            "fullname": "Castle Ave",
            "latitude": "53.36382722",
            "longitude": "-6.205221111"
        },
        {
            "stopid": "242",
            "fullname": "Beaumont Road",
            "latitude": "53.385655",
            "longitude": "-6.232010556"
        },
        {
            "stopid": "244",
            "fullname": "Skelly's Lane",
            "latitude": "53.38499833",
            "longitude": "-6.223498611"
        },
        {
            "stopid": "4389",
            "fullname": "Collins Ave",
            "latitude": "53.37346389",
            "longitude": "-6.2106925"
        },
        {
            "stopid": "4390",
            "fullname": "Collins Ave",
            "latitude": "53.37189056",
            "longitude": "-6.2076625"
        },
        {
            "stopid": "220",
            "fullname": "Swords Road",
            "latitude": "53.38794056",
            "longitude": "-6.244980833"
        },
        {
            "stopid": "221",
            "fullname": "Shanowen Rd",
            "latitude": "53.38972139",
            "longitude": "-6.246892222"
        },
        {
            "stopid": "222",
            "fullname": "Shanliss Rd",
            "latitude": "53.38994556",
            "longitude": "-6.249303611"
        },
        {
            "stopid": "223",
            "fullname": "Shanliss Rd",
            "latitude": "53.39106222",
            "longitude": "-6.251919167"
        },
        {
            "stopid": "255",
            "fullname": "Beaumont Road",
            "latitude": "53.38559389",
            "longitude": "-6.231531944"
        },
        {
            "stopid": "4784",
            "fullname": "CRC",
            "latitude": "53.37008417",
            "longitude": "-6.201110833"
        },
        {
            "stopid": "4791",
            "fullname": "Collins Ave",
            "latitude": "53.37161167",
            "longitude": "-6.207659167"
        },
        {
            "stopid": "4792",
            "fullname": "Collins Ave",
            "latitude": "53.37279889",
            "longitude": "-6.209503056"
        },
        {
            "stopid": "7571",
            "fullname": "DCU",
            "latitude": "53.38677556",
            "longitude": "-6.258725"
        },
        {
            "stopid": "114",
            "fullname": "Ballymun Road",
            "latitude": "53.39133333",
            "longitude": "-6.263711111"
        },
        {
            "stopid": "1730",
            "fullname": "Clontarf Rd",
            "latitude": "53.358225",
            "longitude": "-6.194126944"
        },
        {
            "stopid": "1731",
            "fullname": "Clontarf Rd",
            "latitude": "53.359095",
            "longitude": "-6.196673056"
        },
        {
            "stopid": "1732",
            "fullname": "Clontarf Rd",
            "latitude": "53.36009611",
            "longitude": "-6.20239"
        },
        {
            "stopid": "1733",
            "fullname": "Clontarf Rd",
            "latitude": "53.36021111",
            "longitude": "-6.206311944"
        },
        {
            "stopid": "218",
            "fullname": "Shantalla Road",
            "latitude": "53.38592389",
            "longitude": "-6.233788333"
        },
        {
            "stopid": "219",
            "fullname": "Shantalla Road",
            "latitude": "53.3878275",
            "longitude": "-6.238535556"
        },
        {
            "stopid": "250",
            "fullname": "Skelly's Lane",
            "latitude": "53.38441944",
            "longitude": "-6.220245278"
        },
        {
            "stopid": "251",
            "fullname": "Skelly's Lane",
            "latitude": "53.38483222",
            "longitude": "-6.223219722"
        },
        {
            "stopid": "5141",
            "fullname": "Seafield Road West",
            "latitude": "53.36474389",
            "longitude": "-6.2052125"
        },
        {
            "stopid": "608",
            "fullname": "Howth Road",
            "latitude": "53.37107833",
            "longitude": "-6.204465278"
        },
        {
            "stopid": "662",
            "fullname": "Clanmoyle Road",
            "latitude": "53.37387028",
            "longitude": "-6.212629167"
        },
        {
            "stopid": "663",
            "fullname": "Saint Peters School",
            "latitude": "53.37476361",
            "longitude": "-6.217055833"
        },
        {
            "stopid": "1196",
            "fullname": "Malahide Road",
            "latitude": "53.37804111",
            "longitude": "-6.214438611"
        },
        {
            "stopid": "1197",
            "fullname": "Malahide Road",
            "latitude": "53.37923222",
            "longitude": "-6.211758333"
        },
        {
            "stopid": "1646",
            "fullname": "Collins Avenue Extension",
            "latitude": "53.38715472",
            "longitude": "-6.256980556"
        },
        {
            "stopid": "1650",
            "fullname": "Castle Avenue",
            "latitude": "53.36117444",
            "longitude": "-6.209314167"
        },
        {
            "stopid": "1651",
            "fullname": "Vernon Avenue",
            "latitude": "53.36794028",
            "longitude": "-6.194859444"
        },
        {
            "stopid": "1652",
            "fullname": "Clontarf Castle",
            "latitude": "53.36335556",
            "longitude": "-6.2061275"
        },
        {
            "stopid": "224",
            "fullname": "Shanard Road",
            "latitude": "53.39083472",
            "longitude": "-6.254183889"
        },
        {
            "stopid": "225",
            "fullname": "Shanard Road",
            "latitude": "53.39066667",
            "longitude": "-6.257438333"
        },
        {
            "stopid": "226",
            "fullname": "Shanard Road",
            "latitude": "53.39114056",
            "longitude": "-6.262200556"
        },
        {
            "stopid": "4473",
            "fullname": "Artane Castle SC",
            "latitude": "53.38391417",
            "longitude": "-6.214704167"
        },
        {
            "stopid": "1773",
            "fullname": "Blackheath Pk",
            "latitude": "53.36681083",
            "longitude": "-6.2033975"
        },
        {
            "stopid": "1774",
            "fullname": "Blackheath Pk",
            "latitude": "53.36613611",
            "longitude": "-6.1974"
        },
        {
            "stopid": "4597",
            "fullname": "Beaumont Hospital",
            "latitude": "53.39025056",
            "longitude": "-6.224317222"
        }
    ]
}