{
    "route": "25a",
    "stops": [
        {
            "stopid": "2237",
            "fullname": "Footbridge",
            "latitude": "53.3585",
            "longitude": "-6.408861"
        },
        {
            "stopid": "347",
            "fullname": "D'Olier Street",
            "latitude": "53.345481",
            "longitude": "-6.257689"
        },
        {
            "stopid": "7588",
            "fullname": "Pearse Street",
            "latitude": "53.34497111",
            "longitude": "-6.253933889"
        },
        {
            "stopid": "7391",
            "fullname": "Merrion Square",
            "latitude": "53.33909694",
            "longitude": "-6.250013056",
            "direction": "Outbound"
        },
        {
            "stopid": "493",
            "fullname": "Merrion Sq",
            "latitude": "53.33988889",
            "longitude": "-6.24736",
            "direction": "Outbound"
        },
        {
            "stopid": "494",
            "fullname": "Clare Street",
            "latitude": "53.34141694",
            "longitude": "-6.251671111",
            "direction": "Outbound"
        },
        {
            "stopid": "495",
            "fullname": "Westland Row",
            "latitude": "53.34358611",
            "longitude": "-6.249726111",
            "direction": "Outbound"
        },
        {
            "stopid": "400",
            "fullname": "Pearse Street",
            "latitude": "53.34482694",
            "longitude": "-6.25323",
            "direction": "Outbound"
        },
        {
            "stopid": "7392",
            "fullname": "Aston Quay",
            "latitude": "53.34646194",
            "longitude": "-6.260913889",
            "direction": "Outbound"
        },
        {
            "stopid": "312",
            "fullname": "Wellington Quay",
            "latitude": "53.34547",
            "longitude": "-6.266191944",
            "direction": "Outbound"
        },
        {
            "stopid": "1444",
            "fullname": "Merchant's Quay",
            "latitude": "53.34511889",
            "longitude": "-6.273738889",
            "direction": "Outbound"
        },
        {
            "stopid": "1445",
            "fullname": "Ushers Quay",
            "latitude": "53.345675",
            "longitude": "-6.278283889",
            "direction": "Outbound"
        },
        {
            "stopid": "4407",
            "fullname": "Victoria Quay",
            "latitude": "53.34660389",
            "longitude": "-6.286196111",
            "direction": "Outbound"
        },
        {
            "stopid": "2637",
            "fullname": "St. John's Road",
            "latitude": "53.34588611",
            "longitude": "-6.293838056",
            "direction": "Outbound"
        },
        {
            "stopid": "2721",
            "fullname": "Con Colbert Rd",
            "latitude": "53.34327306",
            "longitude": "-6.310488056",
            "direction": "Outbound"
        },
        {
            "stopid": "7012",
            "fullname": "Con Colbert Rd",
            "latitude": "53.34295611",
            "longitude": "-6.315351944",
            "direction": "Outbound"
        },
        {
            "stopid": "2201",
            "fullname": "Lucan Road",
            "latitude": "53.35327389",
            "longitude": "-6.364571111",
            "direction": "Outbound"
        },
        {
            "stopid": "7239",
            "fullname": "Lucan Road",
            "latitude": "53.35405806",
            "longitude": "-6.368911111",
            "direction": "Outbound"
        },
        {
            "stopid": "4401",
            "fullname": "Lucan Road",
            "latitude": "53.35475556",
            "longitude": "-6.371710278",
            "direction": "Outbound"
        },
        {
            "stopid": "2213",
            "fullname": "Lucan Road",
            "latitude": "53.35571111",
            "longitude": "-6.39203",
            "direction": "Outbound"
        },
        {
            "stopid": "2214",
            "fullname": "Lucan Road",
            "latitude": "53.35608889",
            "longitude": "-6.399918056",
            "direction": "Outbound"
        },
        {
            "stopid": "2215",
            "fullname": "Lucan Road",
            "latitude": "53.35830306",
            "longitude": "-6.409276944",
            "direction": "Outbound"
        },
        {
            "stopid": "2216",
            "fullname": "Lucan Road",
            "latitude": "53.35885694",
            "longitude": "-6.415933056",
            "direction": "Outbound"
        },
        {
            "stopid": "4599",
            "fullname": "Lucan Road",
            "latitude": "53.35754694",
            "longitude": "-6.42383",
            "direction": "Outbound"
        },
        {
            "stopid": "4601",
            "fullname": "Ballyowen Rd",
            "latitude": "53.35575389",
            "longitude": "-6.422081944",
            "direction": "Outbound"
        },
        {
            "stopid": "5058",
            "fullname": "Ballyowen Rd",
            "latitude": "53.35089306",
            "longitude": "-6.422483056",
            "direction": "Outbound"
        },
        {
            "stopid": "4602",
            "fullname": "Ballyowen Rd",
            "latitude": "53.34762389",
            "longitude": "-6.424463056",
            "direction": "Outbound"
        },
        {
            "stopid": "4603",
            "fullname": "Castle Rd",
            "latitude": "53.34609611",
            "longitude": "-6.420223333",
            "direction": "Outbound"
        },
        {
            "stopid": "4604",
            "fullname": "Castle Rd",
            "latitude": "53.34440333",
            "longitude": "-6.418618611",
            "direction": "Outbound"
        },
        {
            "stopid": "4605",
            "fullname": "Newlands Rd",
            "latitude": "53.34333694",
            "longitude": "-6.421976111",
            "direction": "Outbound"
        },
        {
            "stopid": "4562",
            "fullname": "Foxborough Rd",
            "latitude": "53.34065889",
            "longitude": "-6.424251111",
            "direction": "Outbound"
        },
        {
            "stopid": "7386",
            "fullname": "Foxborough Rd",
            "latitude": "53.33999111",
            "longitude": "-6.427293056",
            "direction": "Outbound"
        },
        {
            "stopid": "4607",
            "fullname": "Griffeen Avenue",
            "latitude": "53.34033806",
            "longitude": "-6.430208056",
            "direction": "Outbound"
        },
        {
            "stopid": "4608",
            "fullname": "Griffeen Road",
            "latitude": "53.34241111",
            "longitude": "-6.432308889",
            "direction": "Outbound"
        },
        {
            "stopid": "4609",
            "fullname": "Griffeen Road",
            "latitude": "53.345935",
            "longitude": "-6.432858056",
            "direction": "Outbound"
        },
        {
            "stopid": "4610",
            "fullname": "Griffeen Road",
            "latitude": "53.34759389",
            "longitude": "-6.435996944",
            "direction": "Outbound"
        },
        {
            "stopid": "4611",
            "fullname": "Esker Road",
            "latitude": "53.34892389",
            "longitude": "-6.439765556",
            "direction": "Outbound"
        },
        {
            "stopid": "4612",
            "fullname": "Esker Road",
            "latitude": "53.34744917",
            "longitude": "-6.442462778",
            "direction": "Outbound"
        },
        {
            "stopid": "4613",
            "fullname": "Esker Road",
            "latitude": "53.345085",
            "longitude": "-6.444501667",
            "direction": "Outbound"
        },
        {
            "stopid": "3370",
            "fullname": "Esker Road",
            "latitude": "53.34447056",
            "longitude": "-6.447692778",
            "direction": "Outbound"
        },
        {
            "stopid": "7168",
            "fullname": "Newcastle Rd",
            "latitude": "53.34521472",
            "longitude": "-6.451721111",
            "direction": "Outbound"
        },
        {
            "stopid": "4616",
            "fullname": "Newcastle Rd",
            "latitude": "53.34769639",
            "longitude": "-6.451105278"
        },
        {
            "stopid": "4620",
            "fullname": "Newcastle Rd",
            "latitude": "53.34723639",
            "longitude": "-6.450971944",
            "direction": "Inbound"
        },
        {
            "stopid": "7563",
            "fullname": "Newcastle Rd",
            "latitude": "53.34557",
            "longitude": "-6.451392778",
            "direction": "Inbound"
        },
        {
            "stopid": "3368",
            "fullname": "Esker Road",
            "latitude": "53.34455778",
            "longitude": "-6.449582222",
            "direction": "Inbound"
        },
        {
            "stopid": "4626",
            "fullname": "Esker Road",
            "latitude": "53.34731",
            "longitude": "-6.442813333",
            "direction": "Inbound"
        },
        {
            "stopid": "4627",
            "fullname": "Esker Road",
            "latitude": "53.34919889",
            "longitude": "-6.439485",
            "direction": "Inbound"
        },
        {
            "stopid": "4624",
            "fullname": "Griffeen Road",
            "latitude": "53.34791",
            "longitude": "-6.436646944",
            "direction": "Inbound"
        },
        {
            "stopid": "4625",
            "fullname": "Griffeen Road",
            "latitude": "53.34543694",
            "longitude": "-6.431856111",
            "direction": "Inbound"
        },
        {
            "stopid": "4628",
            "fullname": "Griffeen Road",
            "latitude": "53.34335889",
            "longitude": "-6.432153889",
            "direction": "Inbound"
        },
        {
            "stopid": "4623",
            "fullname": "Griffeen Avenue",
            "latitude": "53.34042194",
            "longitude": "-6.430613056",
            "direction": "Inbound"
        },
        {
            "stopid": "4619",
            "fullname": "Foxborough Rd",
            "latitude": "53.33990389",
            "longitude": "-6.426381944",
            "direction": "Inbound"
        },
        {
            "stopid": "4561",
            "fullname": "Foxborough Rd",
            "latitude": "53.34176306",
            "longitude": "-6.423718889",
            "direction": "Inbound"
        },
        {
            "stopid": "4629",
            "fullname": "Newlands Rd",
            "latitude": "53.34349111",
            "longitude": "-6.422196111",
            "direction": "Inbound"
        },
        {
            "stopid": "4630",
            "fullname": "Castle Rd",
            "latitude": "53.34465694",
            "longitude": "-6.418774444",
            "direction": "Inbound"
        },
        {
            "stopid": "4631",
            "fullname": "Castle Rd",
            "latitude": "53.34662278",
            "longitude": "-6.422651944",
            "direction": "Inbound"
        },
        {
            "stopid": "4632",
            "fullname": "Ballyowen Rd",
            "latitude": "53.347585",
            "longitude": "-6.424776944",
            "direction": "Inbound"
        },
        {
            "stopid": "5164",
            "fullname": "Ballyowen Rd",
            "latitude": "53.350375",
            "longitude": "-6.423108056",
            "direction": "Inbound"
        },
        {
            "stopid": "4633",
            "fullname": "Ballyowen Rd",
            "latitude": "53.35497806",
            "longitude": "-6.421871111",
            "direction": "Inbound"
        },
        {
            "stopid": "2234",
            "fullname": "Lucan Road",
            "latitude": "53.359335",
            "longitude": "-6.424381944",
            "direction": "Inbound"
        },
        {
            "stopid": "2235",
            "fullname": "Lucan Road",
            "latitude": "53.35901611",
            "longitude": "-6.420723056",
            "direction": "Inbound"
        },
        {
            "stopid": "2236",
            "fullname": "Lucan Road",
            "latitude": "53.35884694",
            "longitude": "-6.410863056",
            "direction": "Inbound"
        },
        {
            "stopid": "2238",
            "fullname": "Lucan Road",
            "latitude": "53.35775389",
            "longitude": "-6.4052",
            "direction": "Inbound"
        },
        {
            "stopid": "5056",
            "fullname": "Lucan Road",
            "latitude": "53.35751389",
            "longitude": "-6.402778889",
            "direction": "Inbound"
        },
        {
            "stopid": "2239",
            "fullname": "Lucan Road",
            "latitude": "53.356",
            "longitude": "-6.3919",
            "direction": "Inbound"
        },
        {
            "stopid": "2241",
            "fullname": "Lucan Road",
            "latitude": "53.35492917",
            "longitude": "-6.371268056",
            "direction": "Inbound"
        },
        {
            "stopid": "2242",
            "fullname": "Lucan Road",
            "latitude": "53.35392722",
            "longitude": "-6.367009722",
            "direction": "Inbound"
        },
        {
            "stopid": "7435",
            "fullname": "Con Colbert Rd",
            "latitude": "53.34318111",
            "longitude": "-6.315365",
            "direction": "Inbound"
        },
        {
            "stopid": "2722",
            "fullname": "Con Colbert Rd",
            "latitude": "53.34343889",
            "longitude": "-6.31138",
            "direction": "Inbound"
        },
        {
            "stopid": "4413",
            "fullname": "St. John's Road",
            "latitude": "53.34616194",
            "longitude": "-6.292698889",
            "direction": "Inbound"
        },
        {
            "stopid": "1476",
            "fullname": "Wolfe Tone Quay",
            "latitude": "53.34700306",
            "longitude": "-6.284663889",
            "direction": "Inbound"
        },
        {
            "stopid": "7453",
            "fullname": "Arran Quay",
            "latitude": "53.34633806",
            "longitude": "-6.278378056",
            "direction": "Inbound"
        },
        {
            "stopid": "1478",
            "fullname": "Inns Quay",
            "latitude": "53.34564806",
            "longitude": "-6.272935",
            "direction": "Inbound"
        },
        {
            "stopid": "1479",
            "fullname": "Ormond Quay",
            "latitude": "53.34591306",
            "longitude": "-6.269233056",
            "direction": "Inbound"
        },
        {
            "stopid": "315",
            "fullname": "Bachelors Walk",
            "latitude": "53.34699389",
            "longitude": "-6.261816111",
            "direction": "Inbound"
        },
        {
            "stopid": "406",
            "fullname": "Nassau Street",
            "latitude": "53.34258111",
            "longitude": "-6.256093056",
            "direction": "Inbound"
        },
        {
            "stopid": "4530",
            "fullname": "Kildare Street",
            "latitude": "53.340325",
            "longitude": "-6.255453889",
            "direction": "Inbound"
        },
        {
            "stopid": "748",
            "fullname": "Merrion Row",
            "latitude": "53.33851306",
            "longitude": "-6.255003889",
            "direction": "Inbound"
        },
        {
            "stopid": "7390",
            "fullname": "Merrion Square",
            "latitude": "53.33955611",
            "longitude": "-6.251181944"
        }
    ]
}