{
    "route": "25x",
    "stops": [
        {
            "stopid": "4495",
            "fullname": "Hawkins Street",
            "latitude": "53.34618306",
            "longitude": "-6.256966111"
        },
        {
            "stopid": "2809",
            "fullname": "Westland Row",
            "latitude": "53.34303",
            "longitude": "-6.249845"
        },
        {
            "stopid": "2810",
            "fullname": "Merrion Square",
            "latitude": "53.34079",
            "longitude": "-6.250983056"
        },
        {
            "stopid": "3949",
            "fullname": "Leixlip Rd",
            "latitude": "53.35543194",
            "longitude": "-6.460231944"
        },
        {
            "stopid": "3950",
            "fullname": "Leixlip Rd",
            "latitude": "53.35553611",
            "longitude": "-6.454945"
        },
        {
            "stopid": "7187",
            "fullname": "Leixlip Rd",
            "latitude": "53.35756194",
            "longitude": "-6.467616111"
        },
        {
            "stopid": "751",
            "fullname": "Baggot St",
            "latitude": "53.33532",
            "longitude": "-6.246555"
        },
        {
            "stopid": "752",
            "fullname": "Baggot St",
            "latitude": "53.33366889",
            "longitude": "-6.24444"
        },
        {
            "stopid": "753",
            "fullname": "Waterloo Road",
            "latitude": "53.33245333",
            "longitude": "-6.243521111"
        },
        {
            "stopid": "754",
            "fullname": "Waterloo Road",
            "latitude": "53.33078389",
            "longitude": "-6.244280278"
        },
        {
            "stopid": "755",
            "fullname": "Waterloo Road",
            "latitude": "53.32882806",
            "longitude": "-6.245141389"
        },
        {
            "stopid": "756",
            "fullname": "Morehampton Road",
            "latitude": "53.32639",
            "longitude": "-6.242576111"
        },
        {
            "stopid": "757",
            "fullname": "Morehampton Road",
            "latitude": "53.324075",
            "longitude": "-6.239573889"
        },
        {
            "stopid": "758",
            "fullname": "Morehampton Road",
            "latitude": "53.32267806",
            "longitude": "-6.237663889"
        },
        {
            "stopid": "1478",
            "fullname": "Inns Quay",
            "latitude": "53.34564806",
            "longitude": "-6.272935"
        },
        {
            "stopid": "1479",
            "fullname": "Ormond Quay",
            "latitude": "53.34591306",
            "longitude": "-6.269233056"
        },
        {
            "stopid": "2239",
            "fullname": "Lucan Road",
            "latitude": "53.356",
            "longitude": "-6.3919"
        },
        {
            "stopid": "2241",
            "fullname": "Lucan Road",
            "latitude": "53.35492917",
            "longitude": "-6.371268056"
        },
        {
            "stopid": "2242",
            "fullname": "Lucan Road",
            "latitude": "53.35392722",
            "longitude": "-6.367009722"
        },
        {
            "stopid": "3372",
            "fullname": "Lucan Road",
            "latitude": "53.35654806",
            "longitude": "-6.447918056"
        },
        {
            "stopid": "3373",
            "fullname": "Lucan Road",
            "latitude": "53.35808",
            "longitude": "-6.441831944"
        },
        {
            "stopid": "3374",
            "fullname": "Lucan Road",
            "latitude": "53.35963389",
            "longitude": "-6.439501944"
        },
        {
            "stopid": "3891",
            "fullname": "Dodsboro Rd",
            "latitude": "53.35194306",
            "longitude": "-6.463136944"
        },
        {
            "stopid": "7453",
            "fullname": "Arran Quay",
            "latitude": "53.34633806",
            "longitude": "-6.278378056"
        },
        {
            "stopid": "747",
            "fullname": "Kildare Street",
            "latitude": "53.33992806",
            "longitude": "-6.255696944"
        },
        {
            "stopid": "748",
            "fullname": "Merrion Row",
            "latitude": "53.33851306",
            "longitude": "-6.255003889"
        },
        {
            "stopid": "749",
            "fullname": "Baggot St",
            "latitude": "53.33755889",
            "longitude": "-6.250828889"
        },
        {
            "stopid": "750",
            "fullname": "Baggot St",
            "latitude": "53.33657306",
            "longitude": "-6.24847"
        },
        {
            "stopid": "1476",
            "fullname": "Wolfe Tone Quay",
            "latitude": "53.34700306",
            "longitude": "-6.284663889"
        },
        {
            "stopid": "315",
            "fullname": "Bachelors Walk",
            "latitude": "53.34699389",
            "longitude": "-6.261816111"
        },
        {
            "stopid": "336",
            "fullname": "D'Olier Street",
            "latitude": "53.34624694",
            "longitude": "-6.257703056"
        },
        {
            "stopid": "4001",
            "fullname": "Leixlip Rd",
            "latitude": "53.35918194",
            "longitude": "-6.473211111"
        },
        {
            "stopid": "406",
            "fullname": "Nassau Street",
            "latitude": "53.34258111",
            "longitude": "-6.256093056"
        },
        {
            "stopid": "759",
            "fullname": "Donnybrook",
            "latitude": "53.32034306",
            "longitude": "-6.233323889"
        },
        {
            "stopid": "760",
            "fullname": "Stillorgan Road",
            "latitude": "53.31832389",
            "longitude": "-6.23055"
        },
        {
            "stopid": "2232",
            "fullname": "Lucan Road",
            "latitude": "53.35973306",
            "longitude": "-6.430948889"
        },
        {
            "stopid": "2233",
            "fullname": "Lucan Road",
            "latitude": "53.36008806",
            "longitude": "-6.435156944"
        },
        {
            "stopid": "2234",
            "fullname": "Lucan Road",
            "latitude": "53.359335",
            "longitude": "-6.424381944"
        },
        {
            "stopid": "2235",
            "fullname": "Lucan Road",
            "latitude": "53.35901611",
            "longitude": "-6.420723056"
        },
        {
            "stopid": "2722",
            "fullname": "Con Colbert Rd",
            "latitude": "53.34343889",
            "longitude": "-6.31138"
        },
        {
            "stopid": "4413",
            "fullname": "St. John's Road",
            "latitude": "53.34616194",
            "longitude": "-6.292698889"
        },
        {
            "stopid": "7435",
            "fullname": "Con Colbert Rd",
            "latitude": "53.34318111",
            "longitude": "-6.315365"
        },
        {
            "stopid": "761",
            "fullname": "Stillorgan Road",
            "latitude": "53.31609111",
            "longitude": "-6.227471944"
        },
        {
            "stopid": "762",
            "fullname": "RTE",
            "latitude": "53.31451611",
            "longitude": "-6.224361944"
        },
        {
            "stopid": "763",
            "fullname": "Stillorgan Road",
            "latitude": "53.31232111",
            "longitude": "-6.221138056"
        },
        {
            "stopid": "7012",
            "fullname": "Con Colbert Rd",
            "latitude": "53.34295611",
            "longitude": "-6.315351944"
        },
        {
            "stopid": "768",
            "fullname": "Stillorgan Road",
            "latitude": "53.30946611",
            "longitude": "-6.21888",
            "direction": "Outbound"
        },
        {
            "stopid": "769",
            "fullname": "Stillorgan Road",
            "latitude": "53.31189389",
            "longitude": "-6.221316944",
            "direction": "Outbound"
        },
        {
            "stopid": "770",
            "fullname": "Stillorgan Road",
            "latitude": "53.314675",
            "longitude": "-6.225783056",
            "direction": "Outbound"
        },
        {
            "stopid": "771",
            "fullname": "Stillorgan Road",
            "latitude": "53.31587694",
            "longitude": "-6.227763056",
            "direction": "Outbound"
        },
        {
            "stopid": "772",
            "fullname": "Stillorgan Road",
            "latitude": "53.31849806",
            "longitude": "-6.231315",
            "direction": "Outbound"
        },
        {
            "stopid": "773",
            "fullname": "Donnybrook Rd",
            "latitude": "53.31991194",
            "longitude": "-6.233256944",
            "direction": "Outbound"
        },
        {
            "stopid": "774",
            "fullname": "Donnybrook",
            "latitude": "53.32160389",
            "longitude": "-6.235483889",
            "direction": "Outbound"
        },
        {
            "stopid": "775",
            "fullname": "Morehampton Road",
            "latitude": "53.32348111",
            "longitude": "-6.239063889"
        },
        {
            "stopid": "776",
            "fullname": "Morehampton Road",
            "latitude": "53.32549",
            "longitude": "-6.241803889"
        },
        {
            "stopid": "777",
            "fullname": "Morehampton Road",
            "latitude": "53.32694389",
            "longitude": "-6.243658889"
        },
        {
            "stopid": "779",
            "fullname": "Waterloo Road",
            "latitude": "53.32868861",
            "longitude": "-6.2454475"
        },
        {
            "stopid": "2637",
            "fullname": "St. John's Road",
            "latitude": "53.34588611",
            "longitude": "-6.293838056"
        },
        {
            "stopid": "312",
            "fullname": "Wellington Quay",
            "latitude": "53.34547",
            "longitude": "-6.266191944"
        },
        {
            "stopid": "780",
            "fullname": "Waterloo Road",
            "latitude": "53.33106333",
            "longitude": "-6.244343889"
        },
        {
            "stopid": "781",
            "fullname": "Waterloo Road",
            "latitude": "53.33262639",
            "longitude": "-6.243664167"
        },
        {
            "stopid": "782",
            "fullname": "Baggot St",
            "latitude": "53.33358",
            "longitude": "-6.24458"
        },
        {
            "stopid": "783",
            "fullname": "Baggot St",
            "latitude": "53.33531194",
            "longitude": "-6.246965"
        },
        {
            "stopid": "784",
            "fullname": "Baggot St",
            "latitude": "53.33641389",
            "longitude": "-6.248618056"
        },
        {
            "stopid": "785",
            "fullname": "Pembroke St",
            "latitude": "53.33709694",
            "longitude": "-6.251733889"
        },
        {
            "stopid": "786",
            "fullname": "Leeson Street",
            "latitude": "53.33519806",
            "longitude": "-6.256116944"
        },
        {
            "stopid": "791",
            "fullname": "St. Stephen's Green",
            "latitude": "53.339",
            "longitude": "-6.2571"
        },
        {
            "stopid": "2201",
            "fullname": "Lucan Road",
            "latitude": "53.35327389",
            "longitude": "-6.364571111"
        },
        {
            "stopid": "2213",
            "fullname": "Lucan Road",
            "latitude": "53.35571111",
            "longitude": "-6.39203"
        },
        {
            "stopid": "2214",
            "fullname": "Lucan Road",
            "latitude": "53.35608889",
            "longitude": "-6.399918056"
        },
        {
            "stopid": "2215",
            "fullname": "Lucan Road",
            "latitude": "53.35830306",
            "longitude": "-6.409276944"
        },
        {
            "stopid": "2216",
            "fullname": "Lucan Road",
            "latitude": "53.35885694",
            "longitude": "-6.415933056"
        },
        {
            "stopid": "2217",
            "fullname": "Lucan Road",
            "latitude": "53.359595",
            "longitude": "-6.427033056"
        },
        {
            "stopid": "2218",
            "fullname": "Lucan Road",
            "latitude": "53.359675",
            "longitude": "-6.432443056"
        },
        {
            "stopid": "2219",
            "fullname": "Lucan Road",
            "latitude": "53.360055",
            "longitude": "-6.436683056"
        },
        {
            "stopid": "2721",
            "fullname": "Con Colbert Rd",
            "latitude": "53.34327306",
            "longitude": "-6.310488056"
        },
        {
            "stopid": "3367",
            "fullname": "Lucan Road",
            "latitude": "53.35645306",
            "longitude": "-6.448838889"
        },
        {
            "stopid": "3886",
            "fullname": "Leixlip Rd",
            "latitude": "53.35568389",
            "longitude": "-6.454145"
        },
        {
            "stopid": "3888",
            "fullname": "Celbridge Rd",
            "latitude": "53.35512194",
            "longitude": "-6.462618056"
        },
        {
            "stopid": "3890",
            "fullname": "Dodsboro Rd",
            "latitude": "53.35072611",
            "longitude": "-6.464256944"
        },
        {
            "stopid": "4599",
            "fullname": "Lucan Road",
            "latitude": "53.35754694",
            "longitude": "-6.42383"
        },
        {
            "stopid": "4953",
            "fullname": "UCD",
            "latitude": "53.30499389",
            "longitude": "-6.216948056",
            "direction": "Outbound"
        },
        {
            "stopid": "7585",
            "fullname": "Leinster Street South",
            "latitude": "53.34201694",
            "longitude": "-6.253423889"
        },
        {
            "stopid": "7587",
            "fullname": "Pearse Street",
            "latitude": "53.34453611",
            "longitude": "-6.251646111"
        },
        {
            "stopid": "1444",
            "fullname": "Merchant's Quay",
            "latitude": "53.34511889",
            "longitude": "-6.273738889"
        },
        {
            "stopid": "1445",
            "fullname": "Ushers Quay",
            "latitude": "53.345675",
            "longitude": "-6.278283889"
        },
        {
            "stopid": "318",
            "fullname": "Westmoreland Street",
            "latitude": "53.34630111",
            "longitude": "-6.259078889"
        },
        {
            "stopid": "3365",
            "fullname": "Lucan Road",
            "latitude": "53.35965194",
            "longitude": "-6.439171944"
        },
        {
            "stopid": "3366",
            "fullname": "Lucan Road",
            "latitude": "53.35816806",
            "longitude": "-6.441385"
        },
        {
            "stopid": "345",
            "fullname": "Pearse Street",
            "latitude": "53.345485",
            "longitude": "-6.256266111"
        },
        {
            "stopid": "4401",
            "fullname": "Lucan Road",
            "latitude": "53.35475556",
            "longitude": "-6.371710278"
        },
        {
            "stopid": "4407",
            "fullname": "Victoria Quay",
            "latitude": "53.34660389",
            "longitude": "-6.286196111"
        },
        {
            "stopid": "7576",
            "fullname": "Virtual Stop",
            "latitude": "53.340604",
            "longitude": "-6.258494"
        }
    ]
}