{
    "route": "27x",
    "stops": [
        {
            "stopid": "4494",
            "fullname": "Hawkins Street",
            "latitude": "53.347135",
            "longitude": "-6.257138056"
        },
        {
            "stopid": "405",
            "fullname": "Nassau Street",
            "latitude": "53.34247694",
            "longitude": "-6.255596111"
        },
        {
            "stopid": "4595",
            "fullname": "Clare Hall Ave",
            "latitude": "53.40213",
            "longitude": "-6.173066111"
        },
        {
            "stopid": "4596",
            "fullname": "Clare Hall Ave",
            "latitude": "53.40231889",
            "longitude": "-6.177136111"
        },
        {
            "stopid": "4563",
            "fullname": "Malahide Road",
            "latitude": "53.401595",
            "longitude": "-6.181025"
        },
        {
            "stopid": "1218",
            "fullname": "Malahide Road",
            "latitude": "53.39967389",
            "longitude": "-6.18422"
        },
        {
            "stopid": "1258",
            "fullname": "Priorswood Rd",
            "latitude": "53.39819806",
            "longitude": "-6.190818056"
        },
        {
            "stopid": "1259",
            "fullname": "Priorswood Rd",
            "latitude": "53.39858306",
            "longitude": "-6.194873889"
        },
        {
            "stopid": "1260",
            "fullname": "Priorswood Rd",
            "latitude": "53.40017694",
            "longitude": "-6.198811111"
        },
        {
            "stopid": "6130",
            "fullname": "Priorswood Rd",
            "latitude": "53.40086806",
            "longitude": "-6.200648056"
        },
        {
            "stopid": "1262",
            "fullname": "Priorswood Rd",
            "latitude": "53.40199889",
            "longitude": "-6.204891944"
        },
        {
            "stopid": "4692",
            "fullname": "Glin Road",
            "latitude": "53.40024306",
            "longitude": "-6.205306111"
        },
        {
            "stopid": "1245",
            "fullname": "Glin Road",
            "latitude": "53.39799194",
            "longitude": "-6.206213056"
        },
        {
            "stopid": "4693",
            "fullname": "Barryscourt Rd",
            "latitude": "53.39747",
            "longitude": "-6.208498889"
        },
        {
            "stopid": "1254",
            "fullname": "Bunratty Road",
            "latitude": "53.39511111",
            "longitude": "-6.211351111"
        },
        {
            "stopid": "1255",
            "fullname": "Bunratty Road",
            "latitude": "53.39435111",
            "longitude": "-6.208966111"
        },
        {
            "stopid": "1256",
            "fullname": "Bunratty Road",
            "latitude": "53.393625",
            "longitude": "-6.206926111"
        },
        {
            "stopid": "4694",
            "fullname": "Coolock Drive",
            "latitude": "53.39340694",
            "longitude": "-6.203563056"
        },
        {
            "stopid": "1249",
            "fullname": "Coolock Drive",
            "latitude": "53.39517694",
            "longitude": "-6.201233889"
        },
        {
            "stopid": "1247",
            "fullname": "Greencastle Rd",
            "latitude": "53.39507806",
            "longitude": "-6.199968889"
        },
        {
            "stopid": "1248",
            "fullname": "Greencastle Rd",
            "latitude": "53.39298694",
            "longitude": "-6.197158889"
        },
        {
            "stopid": "1273",
            "fullname": "Malahide Road",
            "latitude": "53.39112194",
            "longitude": "-6.195286944"
        },
        {
            "stopid": "1274",
            "fullname": "Malahide Road",
            "latitude": "53.38893194",
            "longitude": "-6.197961944"
        },
        {
            "stopid": "1275",
            "fullname": "Malahide Road",
            "latitude": "53.38557389",
            "longitude": "-6.202065"
        },
        {
            "stopid": "1276",
            "fullname": "Malahide Road",
            "latitude": "53.38424806",
            "longitude": "-6.202958056"
        },
        {
            "stopid": "1277",
            "fullname": "Malahide Road",
            "latitude": "53.38263694",
            "longitude": "-6.206181111"
        },
        {
            "stopid": "1219",
            "fullname": "Malahide Road",
            "latitude": "53.38125889",
            "longitude": "-6.208343056"
        },
        {
            "stopid": "1220",
            "fullname": "Malahide Road",
            "latitude": "53.3787625",
            "longitude": "-6.212198889"
        },
        {
            "stopid": "1221",
            "fullname": "Malahide Road",
            "latitude": "53.37681639",
            "longitude": "-6.216098333"
        },
        {
            "stopid": "664",
            "fullname": "Malahide Road",
            "latitude": "53.37466",
            "longitude": "-6.219551111"
        },
        {
            "stopid": "614",
            "fullname": "Fairview",
            "latitude": "53.36360611",
            "longitude": "-6.233541111"
        },
        {
            "stopid": "4415",
            "fullname": "Amiens Street",
            "latitude": "53.35055694",
            "longitude": "-6.250421944"
        },
        {
            "stopid": "302",
            "fullname": "Eden Quay",
            "latitude": "53.34810889",
            "longitude": "-6.256278889"
        },
        {
            "stopid": "4495",
            "fullname": "Hawkins Street",
            "latitude": "53.34618306",
            "longitude": "-6.256966111"
        },
        {
            "stopid": "2809",
            "fullname": "Westland Row",
            "latitude": "53.34303",
            "longitude": "-6.249845"
        },
        {
            "stopid": "408",
            "fullname": "Merrion Sq",
            "latitude": "53.34096694",
            "longitude": "-6.250013889"
        },
        {
            "stopid": "409",
            "fullname": "Merrion Sq",
            "latitude": "53.34013611",
            "longitude": "-6.247656111"
        },
        {
            "stopid": "411",
            "fullname": "Mount St",
            "latitude": "53.33811306",
            "longitude": "-6.241758889"
        },
        {
            "stopid": "414",
            "fullname": "Pembroke Road",
            "latitude": "53.33157389",
            "longitude": "-6.234473333"
        },
        {
            "stopid": "416",
            "fullname": "Ballsbridge",
            "latitude": "53.32864",
            "longitude": "-6.229369444"
        },
        {
            "stopid": "417",
            "fullname": "Merrion Road",
            "latitude": "53.32769972",
            "longitude": "-6.225970556"
        },
        {
            "stopid": "418",
            "fullname": "Merrion Road",
            "latitude": "53.32571111",
            "longitude": "-6.223386944"
        },
        {
            "stopid": "419",
            "fullname": "Merrion Road",
            "latitude": "53.32399",
            "longitude": "-6.220433889"
        },
        {
            "stopid": "420",
            "fullname": "Merrion Road",
            "latitude": "53.32190389",
            "longitude": "-6.217486111"
        },
        {
            "stopid": "2088",
            "fullname": "Nutley Lane",
            "latitude": "53.31729306",
            "longitude": "-6.216073889"
        },
        {
            "stopid": "2089",
            "fullname": "Nutley Lane",
            "latitude": "53.315295",
            "longitude": "-6.219733056"
        },
        {
            "stopid": "763",
            "fullname": "Stillorgan Road",
            "latitude": "53.31232111",
            "longitude": "-6.221138056"
        },
        {
            "stopid": "4700",
            "fullname": "Glin Road",
            "latitude": "53.40010389",
            "longitude": "-6.205476944"
        },
        {
            "stopid": "1196",
            "fullname": "Malahide Road",
            "latitude": "53.37804111",
            "longitude": "-6.214438611"
        },
        {
            "stopid": "1197",
            "fullname": "Malahide Road",
            "latitude": "53.37923222",
            "longitude": "-6.211758333"
        },
        {
            "stopid": "2085",
            "fullname": "Nutley Lane",
            "latitude": "53.31517111",
            "longitude": "-6.220176944"
        },
        {
            "stopid": "2086",
            "fullname": "Nutley Lane",
            "latitude": "53.31811194",
            "longitude": "-6.21474"
        },
        {
            "stopid": "488",
            "fullname": "Northumberland Rd",
            "latitude": "53.33309611",
            "longitude": "-6.236063056"
        },
        {
            "stopid": "491",
            "fullname": "Mount St",
            "latitude": "53.33780889",
            "longitude": "-6.241311111"
        },
        {
            "stopid": "1243",
            "fullname": "Greencastle Rd",
            "latitude": "53.394895",
            "longitude": "-6.199906944"
        },
        {
            "stopid": "1250",
            "fullname": "Bunratty Road",
            "latitude": "53.39373389",
            "longitude": "-6.207538056"
        },
        {
            "stopid": "1265",
            "fullname": "Priorswood Rd",
            "latitude": "53.39821611",
            "longitude": "-6.190691944"
        },
        {
            "stopid": "1266",
            "fullname": "Priorswood Rd",
            "latitude": "53.40204889",
            "longitude": "-6.204718056"
        },
        {
            "stopid": "1267",
            "fullname": "Priorswood Rd",
            "latitude": "53.40087111",
            "longitude": "-6.200278889"
        },
        {
            "stopid": "1268",
            "fullname": "Priorswood Rd",
            "latitude": "53.399885",
            "longitude": "-6.197883889"
        },
        {
            "stopid": "1269",
            "fullname": "Priorswood Rd",
            "latitude": "53.39842611",
            "longitude": "-6.193706111"
        },
        {
            "stopid": "4695",
            "fullname": "Greencastle Rd",
            "latitude": "53.39297611",
            "longitude": "-6.197345"
        },
        {
            "stopid": "4696",
            "fullname": "Coolock Drive",
            "latitude": "53.39430194",
            "longitude": "-6.202326944"
        },
        {
            "stopid": "4697",
            "fullname": "Coolock Drive",
            "latitude": "53.39308389",
            "longitude": "-6.20378"
        },
        {
            "stopid": "4698",
            "fullname": "Bunratty Road",
            "latitude": "53.394935",
            "longitude": "-6.211093889"
        },
        {
            "stopid": "4699",
            "fullname": "Barryscourt Rd",
            "latitude": "53.39753694",
            "longitude": "-6.208531944"
        },
        {
            "stopid": "493",
            "fullname": "Merrion Sq",
            "latitude": "53.33988889",
            "longitude": "-6.24736"
        },
        {
            "stopid": "494",
            "fullname": "Clare Street",
            "latitude": "53.34141694",
            "longitude": "-6.251671111"
        },
        {
            "stopid": "495",
            "fullname": "Westland Row",
            "latitude": "53.34358611",
            "longitude": "-6.249726111"
        },
        {
            "stopid": "4952",
            "fullname": "UCD",
            "latitude": "53.30494889",
            "longitude": "-6.216826944"
        },
        {
            "stopid": "496",
            "fullname": "Beresford Place",
            "latitude": "53.34945694",
            "longitude": "-6.252165"
        },
        {
            "stopid": "497",
            "fullname": "Amiens Street",
            "latitude": "53.35050306",
            "longitude": "-6.250701111"
        },
        {
            "stopid": "768",
            "fullname": "Stillorgan Road",
            "latitude": "53.30946611",
            "longitude": "-6.21888"
        },
        {
            "stopid": "1198",
            "fullname": "Malahide Road",
            "latitude": "53.38250889",
            "longitude": "-6.206905"
        },
        {
            "stopid": "1199",
            "fullname": "Malahide Road",
            "latitude": "53.38498306",
            "longitude": "-6.202756944"
        },
        {
            "stopid": "1200",
            "fullname": "Malahide Road",
            "latitude": "53.38695889",
            "longitude": "-6.201041944"
        },
        {
            "stopid": "1201",
            "fullname": "Malahide Road",
            "latitude": "53.39087806",
            "longitude": "-6.196048889"
        },
        {
            "stopid": "1205",
            "fullname": "Malahide Road",
            "latitude": "53.40149306",
            "longitude": "-6.18184"
        },
        {
            "stopid": "4382",
            "fullname": "Malahide Road",
            "latitude": "53.3749",
            "longitude": "-6.2196"
        },
        {
            "stopid": "4383",
            "fullname": "Barryscourt Rd",
            "latitude": "53.39631194",
            "longitude": "-6.211116111"
        },
        {
            "stopid": "4385",
            "fullname": "Malahide Road",
            "latitude": "53.38853",
            "longitude": "-6.198951944"
        },
        {
            "stopid": "4388",
            "fullname": "Glin Road",
            "latitude": "53.39872389",
            "longitude": "-6.205995"
        },
        {
            "stopid": "4593",
            "fullname": "Clare Hall Ave",
            "latitude": "53.402495",
            "longitude": "-6.176781944"
        },
        {
            "stopid": "4594",
            "fullname": "Donaghmede Roundabout",
            "latitude": "53.39924111",
            "longitude": "-6.163536111"
        },
        {
            "stopid": "479",
            "fullname": "Merrion Road",
            "latitude": "53.31913611",
            "longitude": "-6.213388889"
        },
        {
            "stopid": "480",
            "fullname": "Merrion Road",
            "latitude": "53.320845",
            "longitude": "-6.216276111"
        },
        {
            "stopid": "481",
            "fullname": "Merrion Road",
            "latitude": "53.32233806",
            "longitude": "-6.218253056"
        },
        {
            "stopid": "482",
            "fullname": "Merrion Road",
            "latitude": "53.32468",
            "longitude": "-6.222015"
        },
        {
            "stopid": "483",
            "fullname": "Merrion Road",
            "latitude": "53.32592694",
            "longitude": "-6.223956944"
        },
        {
            "stopid": "485",
            "fullname": "Ballsbridge",
            "latitude": "53.32826111",
            "longitude": "-6.228638889"
        },
        {
            "stopid": "523",
            "fullname": "Marino Mart",
            "latitude": "53.36428111",
            "longitude": "-6.231608056"
        },
        {
            "stopid": "6115",
            "fullname": "Malahide Road",
            "latitude": "53.400125",
            "longitude": "-6.184196111"
        }
    ]
}