{
    "route": "32x",
    "stops": [
        {
            "stopid": "747",
            "fullname": "Kildare Street",
            "latitude": "53.33992806",
            "longitude": "-6.255696944"
        },
        {
            "stopid": "333",
            "fullname": "D'Olier Street",
            "latitude": "53.34666694",
            "longitude": "-6.258325"
        },
        {
            "stopid": "403",
            "fullname": "Nassau Street",
            "latitude": "53.34271194",
            "longitude": "-6.256688889"
        },
        {
            "stopid": "6207",
            "fullname": "Virtual Stop",
            "latitude": "53.34849",
            "longitude": "-6.257532"
        },
        {
            "stopid": "3640",
            "fullname": "Swords Road",
            "latitude": "53.44629111",
            "longitude": "-6.174116944"
        },
        {
            "stopid": "3574",
            "fullname": "Swords Road",
            "latitude": "53.44877194",
            "longitude": "-6.181491944"
        },
        {
            "stopid": "3641",
            "fullname": "Estuary Road",
            "latitude": "53.45272528",
            "longitude": "-6.183585556"
        },
        {
            "stopid": "3642",
            "fullname": "Estuary Road",
            "latitude": "53.45512611",
            "longitude": "-6.181299722"
        },
        {
            "stopid": "3643",
            "fullname": "Yellow Walls Rd",
            "latitude": "53.45123778",
            "longitude": "-6.169179167"
        },
        {
            "stopid": "3583",
            "fullname": "Dublin Rd",
            "latitude": "53.44934778",
            "longitude": "-6.1631625"
        },
        {
            "stopid": "3584",
            "fullname": "Dublin Rd",
            "latitude": "53.44985444",
            "longitude": "-6.159873333"
        },
        {
            "stopid": "3585",
            "fullname": "Malahide",
            "latitude": "53.45063306",
            "longitude": "-6.154991389"
        },
        {
            "stopid": "3587",
            "fullname": "Coast Road",
            "latitude": "53.45112722",
            "longitude": "-6.1451075"
        },
        {
            "stopid": "3588",
            "fullname": "Coast Road",
            "latitude": "53.44990889",
            "longitude": "-6.140748889"
        },
        {
            "stopid": "3589",
            "fullname": "Coast Road",
            "latitude": "53.44608361",
            "longitude": "-6.132349444"
        },
        {
            "stopid": "3605",
            "fullname": "Wendell Avenue",
            "latitude": "53.43396806",
            "longitude": "-6.124918611"
        },
        {
            "stopid": "3606",
            "fullname": "Wendell Avenue",
            "latitude": "53.43492917",
            "longitude": "-6.130039167"
        },
        {
            "stopid": "3607",
            "fullname": "Redfern Ave",
            "latitude": "53.43490111",
            "longitude": "-6.136286667"
        },
        {
            "stopid": "3608",
            "fullname": "Carrickhill Rd",
            "latitude": "53.43108583",
            "longitude": "-6.134286389"
        },
        {
            "stopid": "3609",
            "fullname": "Carrickhill Rd",
            "latitude": "53.42608528",
            "longitude": "-6.134084167"
        },
        {
            "stopid": "3598",
            "fullname": "Strand Road",
            "latitude": "53.42173944",
            "longitude": "-6.136095"
        },
        {
            "stopid": "4465",
            "fullname": "Strand Road",
            "latitude": "53.41947167",
            "longitude": "-6.139955833"
        },
        {
            "stopid": "944",
            "fullname": "Coast Road",
            "latitude": "53.41724194",
            "longitude": "-6.142234722"
        },
        {
            "stopid": "945",
            "fullname": "Coast Road",
            "latitude": "53.41530944",
            "longitude": "-6.138768333"
        },
        {
            "stopid": "947",
            "fullname": "Coast Road",
            "latitude": "53.40918639",
            "longitude": "-6.136328056"
        },
        {
            "stopid": "948",
            "fullname": "Coast Road",
            "latitude": "53.40614333",
            "longitude": "-6.134280278"
        },
        {
            "stopid": "949",
            "fullname": "Coast Road",
            "latitude": "53.40317167",
            "longitude": "-6.131612778"
        },
        {
            "stopid": "928",
            "fullname": "Baldoyle",
            "latitude": "53.39780167",
            "longitude": "-6.12678"
        },
        {
            "stopid": "588",
            "fullname": "Dublin Rd",
            "latitude": "53.38805111",
            "longitude": "-6.127578889"
        },
        {
            "stopid": "590",
            "fullname": "Dublin Rd",
            "latitude": "53.386205",
            "longitude": "-6.137238056"
        },
        {
            "stopid": "1729",
            "fullname": "Clontarf Rd",
            "latitude": "53.35847889",
            "longitude": "-6.190451111"
        },
        {
            "stopid": "1731",
            "fullname": "Clontarf Rd",
            "latitude": "53.359095",
            "longitude": "-6.196673056"
        },
        {
            "stopid": "1738",
            "fullname": "Clontarf Rd",
            "latitude": "53.36345083",
            "longitude": "-6.223914444"
        },
        {
            "stopid": "614",
            "fullname": "Fairview",
            "latitude": "53.36360611",
            "longitude": "-6.233541111"
        },
        {
            "stopid": "675",
            "fullname": "Amiens Street",
            "latitude": "53.352855",
            "longitude": "-6.248531944"
        },
        {
            "stopid": "621",
            "fullname": "Talbot Street",
            "latitude": "53.35038889",
            "longitude": "-6.25626"
        },
        {
            "stopid": "4495",
            "fullname": "Hawkins Street",
            "latitude": "53.34618306",
            "longitude": "-6.256966111"
        },
        {
            "stopid": "2809",
            "fullname": "Westland Row",
            "latitude": "53.34303",
            "longitude": "-6.249845"
        },
        {
            "stopid": "2810",
            "fullname": "Merrion Square",
            "latitude": "53.34079",
            "longitude": "-6.250983056"
        },
        {
            "stopid": "842",
            "fullname": "St. Stephen's Green",
            "latitude": "53.33724",
            "longitude": "-6.256318889"
        },
        {
            "stopid": "846",
            "fullname": "Leeson Street",
            "latitude": "53.33345694",
            "longitude": "-6.254086111"
        },
        {
            "stopid": "848",
            "fullname": "Sussex Road",
            "latitude": "53.32976194",
            "longitude": "-6.249026111"
        },
        {
            "stopid": "759",
            "fullname": "Donnybrook",
            "latitude": "53.32034306",
            "longitude": "-6.233323889"
        },
        {
            "stopid": "760",
            "fullname": "Stillorgan Road",
            "latitude": "53.31832389",
            "longitude": "-6.23055"
        },
        {
            "stopid": "761",
            "fullname": "Stillorgan Road",
            "latitude": "53.31609111",
            "longitude": "-6.227471944"
        },
        {
            "stopid": "762",
            "fullname": "RTE",
            "latitude": "53.31451611",
            "longitude": "-6.224361944"
        },
        {
            "stopid": "763",
            "fullname": "Stillorgan Road",
            "latitude": "53.31232111",
            "longitude": "-6.221138056"
        },
        {
            "stopid": "496",
            "fullname": "Beresford Place",
            "latitude": "53.34945694",
            "longitude": "-6.252165"
        },
        {
            "stopid": "522",
            "fullname": "Marino Mart",
            "latitude": "53.36327194",
            "longitude": "-6.235341111"
        },
        {
            "stopid": "544",
            "fullname": "Dublin Rd",
            "latitude": "53.386105",
            "longitude": "-6.138003056"
        },
        {
            "stopid": "546",
            "fullname": "Dublin Rd",
            "latitude": "53.38802111",
            "longitude": "-6.128341944"
        },
        {
            "stopid": "940",
            "fullname": "Coast Road",
            "latitude": "53.406555",
            "longitude": "-6.134728611"
        },
        {
            "stopid": "7616",
            "fullname": "Swords Road",
            "latitude": "53.44956806",
            "longitude": "-6.183551944"
        },
        {
            "stopid": "297",
            "fullname": "Eden Quay",
            "latitude": "53.34811611",
            "longitude": "-6.256768889"
        },
        {
            "stopid": "4387",
            "fullname": "Malahide Village",
            "latitude": "53.45086528",
            "longitude": "-6.152572222"
        },
        {
            "stopid": "7585",
            "fullname": "Leinster Street South",
            "latitude": "53.34201694",
            "longitude": "-6.253423889"
        },
        {
            "stopid": "7587",
            "fullname": "Pearse Street",
            "latitude": "53.34453611",
            "longitude": "-6.251646111"
        },
        {
            "stopid": "905",
            "fullname": "Yellow Walls Rd",
            "latitude": "53.45156167",
            "longitude": "-6.170369722"
        },
        {
            "stopid": "906",
            "fullname": "Leeson Street",
            "latitude": "53.328815",
            "longitude": "-6.247601944",
            "direction": "Inbound"
        },
        {
            "stopid": "6135",
            "fullname": "Carrickhill Rd",
            "latitude": "53.43124556",
            "longitude": "-6.134730833"
        },
        {
            "stopid": "786",
            "fullname": "Leeson Street",
            "latitude": "53.33519806",
            "longitude": "-6.256116944"
        },
        {
            "stopid": "790",
            "fullname": "St. Stephen's Green",
            "latitude": "53.33939194",
            "longitude": "-6.258545"
        },
        {
            "stopid": "791",
            "fullname": "St. Stephen's Green",
            "latitude": "53.339",
            "longitude": "-6.2571"
        },
        {
            "stopid": "909",
            "fullname": "Leeson Street",
            "latitude": "53.333165",
            "longitude": "-6.254066944"
        },
        {
            "stopid": "914",
            "fullname": "Baldoyle",
            "latitude": "53.39875694",
            "longitude": "-6.127505"
        },
        {
            "stopid": "938",
            "fullname": "Coast Road",
            "latitude": "53.40154306",
            "longitude": "-6.130360556"
        },
        {
            "stopid": "941",
            "fullname": "Coast Road",
            "latitude": "53.41007611",
            "longitude": "-6.136891111"
        },
        {
            "stopid": "942",
            "fullname": "Coast Road",
            "latitude": "53.41503806",
            "longitude": "-6.138645"
        },
        {
            "stopid": "943",
            "fullname": "Strand Road",
            "latitude": "53.41824778",
            "longitude": "-6.142175833"
        },
        {
            "stopid": "1741",
            "fullname": "Clontarf Rd",
            "latitude": "53.36311694",
            "longitude": "-6.220802778"
        },
        {
            "stopid": "1747",
            "fullname": "Clontarf Rd",
            "latitude": "53.35931",
            "longitude": "-6.196816111"
        },
        {
            "stopid": "1749",
            "fullname": "Clontarf Rd",
            "latitude": "53.35856389",
            "longitude": "-6.190543889"
        },
        {
            "stopid": "345",
            "fullname": "Pearse Street",
            "latitude": "53.345485",
            "longitude": "-6.256266111"
        },
        {
            "stopid": "3599",
            "fullname": "Strand Road",
            "latitude": "53.42164639",
            "longitude": "-6.136475278"
        },
        {
            "stopid": "3610",
            "fullname": "Carrickhill Rd",
            "latitude": "53.42574778",
            "longitude": "-6.134354722"
        },
        {
            "stopid": "3611",
            "fullname": "Carrickhill Rd",
            "latitude": "53.42884639",
            "longitude": "-6.133631944"
        },
        {
            "stopid": "3612",
            "fullname": "Carrickhill Rd",
            "latitude": "53.43336889",
            "longitude": "-6.136594444"
        },
        {
            "stopid": "3613",
            "fullname": "Redfern Ave",
            "latitude": "53.43509972",
            "longitude": "-6.134622222"
        },
        {
            "stopid": "3615",
            "fullname": "Wendell Avenue",
            "latitude": "53.43531333",
            "longitude": "-6.1316025"
        },
        {
            "stopid": "3616",
            "fullname": "Coast Road",
            "latitude": "53.43427611",
            "longitude": "-6.123926944"
        },
        {
            "stopid": "3618",
            "fullname": "Coast Road",
            "latitude": "53.43869389",
            "longitude": "-6.123085"
        },
        {
            "stopid": "3619",
            "fullname": "Coast Road",
            "latitude": "53.44470417",
            "longitude": "-6.128059167"
        },
        {
            "stopid": "3620",
            "fullname": "Coast Road",
            "latitude": "53.4464725",
            "longitude": "-6.134214167"
        },
        {
            "stopid": "3621",
            "fullname": "Coast Road",
            "latitude": "53.44837889",
            "longitude": "-6.13678"
        },
        {
            "stopid": "3622",
            "fullname": "Coast Rd Malahide",
            "latitude": "53.44946444",
            "longitude": "-6.13991"
        },
        {
            "stopid": "3623",
            "fullname": "Coast Road",
            "latitude": "53.45065667",
            "longitude": "-6.143742778"
        },
        {
            "stopid": "3634",
            "fullname": "Malahide",
            "latitude": "53.45045528",
            "longitude": "-6.155119444"
        },
        {
            "stopid": "3635",
            "fullname": "Dublin Rd",
            "latitude": "53.44964",
            "longitude": "-6.16053"
        },
        {
            "stopid": "3636",
            "fullname": "Dublin Rd",
            "latitude": "53.4494225",
            "longitude": "-6.162165556"
        },
        {
            "stopid": "4331",
            "fullname": "Estuary Road",
            "latitude": "53.4554",
            "longitude": "-6.179209722"
        },
        {
            "stopid": "4339",
            "fullname": "Estuary Road",
            "latitude": "53.45268722",
            "longitude": "-6.183451667"
        },
        {
            "stopid": "5081",
            "fullname": "Swords Road",
            "latitude": "53.44833",
            "longitude": "-6.179883889"
        },
        {
            "stopid": "5082",
            "fullname": "Swords Road",
            "latitude": "53.44718889",
            "longitude": "-6.176488889"
        },
        {
            "stopid": "523",
            "fullname": "Marino Mart",
            "latitude": "53.36428111",
            "longitude": "-6.231608056"
        },
        {
            "stopid": "7576",
            "fullname": "Virtual Stop",
            "latitude": "53.340604",
            "longitude": "-6.258494"
        },
        {
            "stopid": "4952",
            "fullname": "UCD",
            "latitude": "53.30494889",
            "longitude": "-6.216826944",
            "direction": "Inbound"
        },
        {
            "stopid": "497",
            "fullname": "Amiens Street",
            "latitude": "53.35050306",
            "longitude": "-6.250701111"
        },
        {
            "stopid": "6087",
            "fullname": "Coast Road",
            "latitude": "53.44609611",
            "longitude": "-6.132323889"
        },
        {
            "stopid": "768",
            "fullname": "Stillorgan Road",
            "latitude": "53.30946611",
            "longitude": "-6.21888",
            "direction": "Inbound"
        },
        {
            "stopid": "770",
            "fullname": "Stillorgan Road",
            "latitude": "53.314675",
            "longitude": "-6.225783056",
            "direction": "Inbound"
        },
        {
            "stopid": "773",
            "fullname": "Donnybrook Rd",
            "latitude": "53.31991194",
            "longitude": "-6.233256944",
            "direction": "Inbound"
        },
        {
            "stopid": "774",
            "fullname": "Donnybrook",
            "latitude": "53.32160389",
            "longitude": "-6.235483889",
            "direction": "Inbound"
        }
    ]
}