{
    "route": "43",
    "stops": [
        {
            "stopid": "4917",
            "fullname": "New Road",
            "latitude": "53.46809194",
            "longitude": "-6.221803056"
        },
        {
            "stopid": "4918",
            "fullname": "Glen Ellan Road",
            "latitude": "53.46870306",
            "longitude": "-6.22888"
        },
        {
            "stopid": "4919",
            "fullname": "New Road",
            "latitude": "53.46960111",
            "longitude": "-6.23198"
        },
        {
            "stopid": "4923",
            "fullname": "Glen Ellan Road",
            "latitude": "53.46866694",
            "longitude": "-6.227846111"
        },
        {
            "stopid": "4924",
            "fullname": "Glen Ellen Est",
            "latitude": "53.46825806",
            "longitude": "-6.220546944"
        },
        {
            "stopid": "4958",
            "fullname": "Balheary Road",
            "latitude": "53.464995",
            "longitude": "-6.217188056"
        },
        {
            "stopid": "1212",
            "fullname": "Malahide Road",
            "latitude": "53.42055694",
            "longitude": "-6.176726111",
            "direction": "Inbound"
        },
        {
            "stopid": "1213",
            "fullname": "Malahide Road",
            "latitude": "53.41749889",
            "longitude": "-6.177698889",
            "direction": "Inbound"
        },
        {
            "stopid": "1214",
            "fullname": "Malahide Road",
            "latitude": "53.41530889",
            "longitude": "-6.178026944",
            "direction": "Inbound"
        },
        {
            "stopid": "1215",
            "fullname": "Malahide Road",
            "latitude": "53.41339611",
            "longitude": "-6.178926944",
            "direction": "Inbound"
        },
        {
            "stopid": "1216",
            "fullname": "Malahide Road",
            "latitude": "53.41032111",
            "longitude": "-6.178633056",
            "direction": "Inbound"
        },
        {
            "stopid": "1217",
            "fullname": "Malahide Road",
            "latitude": "53.40819111",
            "longitude": "-6.177928889",
            "direction": "Inbound"
        },
        {
            "stopid": "1218",
            "fullname": "Malahide Road",
            "latitude": "53.39967389",
            "longitude": "-6.18422",
            "direction": "Inbound"
        },
        {
            "stopid": "1219",
            "fullname": "Malahide Road",
            "latitude": "53.38125889",
            "longitude": "-6.208343056",
            "direction": "Inbound"
        },
        {
            "stopid": "1220",
            "fullname": "Malahide Road",
            "latitude": "53.3787625",
            "longitude": "-6.212198889",
            "direction": "Inbound"
        },
        {
            "stopid": "1221",
            "fullname": "Malahide Road",
            "latitude": "53.37681639",
            "longitude": "-6.216098333",
            "direction": "Inbound"
        },
        {
            "stopid": "3647",
            "fullname": "Malahide Road",
            "latitude": "53.43271306",
            "longitude": "-6.176736944",
            "direction": "Inbound"
        },
        {
            "stopid": "1272",
            "fullname": "Malahide Road",
            "latitude": "53.39287111",
            "longitude": "-6.191838056",
            "direction": "Inbound"
        },
        {
            "stopid": "1273",
            "fullname": "Malahide Road",
            "latitude": "53.39112194",
            "longitude": "-6.195286944",
            "direction": "Inbound"
        },
        {
            "stopid": "1274",
            "fullname": "Malahide Road",
            "latitude": "53.38893194",
            "longitude": "-6.197961944",
            "direction": "Inbound"
        },
        {
            "stopid": "1275",
            "fullname": "Malahide Road",
            "latitude": "53.38557389",
            "longitude": "-6.202065",
            "direction": "Inbound"
        },
        {
            "stopid": "1276",
            "fullname": "Malahide Road",
            "latitude": "53.38424806",
            "longitude": "-6.202958056",
            "direction": "Inbound"
        },
        {
            "stopid": "1277",
            "fullname": "Malahide Road",
            "latitude": "53.38263694",
            "longitude": "-6.206181111",
            "direction": "Inbound"
        },
        {
            "stopid": "3751",
            "fullname": "North Street",
            "latitude": "53.46089306",
            "longitude": "-6.218644167",
            "direction": "Inbound"
        },
        {
            "stopid": "3752",
            "fullname": "North Street",
            "latitude": "53.46241361",
            "longitude": "-6.218143889",
            "direction": "Inbound"
        },
        {
            "stopid": "4433",
            "fullname": "Swords Bypass",
            "latitude": "53.461655",
            "longitude": "-6.213493889",
            "direction": "Inbound"
        },
        {
            "stopid": "3656",
            "fullname": "Mountgorry Way",
            "latitude": "53.44854583",
            "longitude": "-6.204406111",
            "direction": "Inbound"
        },
        {
            "stopid": "3657",
            "fullname": "Feltrim Road",
            "latitude": "53.44618",
            "longitude": "-6.200216111",
            "direction": "Inbound"
        },
        {
            "stopid": "3658",
            "fullname": "Feltrim Road",
            "latitude": "53.44474611",
            "longitude": "-6.197186944",
            "direction": "Inbound"
        },
        {
            "stopid": "3659",
            "fullname": "Feltrim Road",
            "latitude": "53.43878306",
            "longitude": "-6.191143056",
            "direction": "Inbound"
        },
        {
            "stopid": "3660",
            "fullname": "Feltrim Road",
            "latitude": "53.43548194",
            "longitude": "-6.184226111",
            "direction": "Inbound"
        },
        {
            "stopid": "3661",
            "fullname": "Malahide Road",
            "latitude": "53.42913306",
            "longitude": "-6.177826111",
            "direction": "Inbound"
        },
        {
            "stopid": "3662",
            "fullname": "Malahide Road",
            "latitude": "53.42323306",
            "longitude": "-6.176306111",
            "direction": "Inbound"
        },
        {
            "stopid": "3689",
            "fullname": "Main Street Swords",
            "latitude": "53.45893583",
            "longitude": "-6.220006389",
            "direction": "Inbound"
        },
        {
            "stopid": "3690",
            "fullname": "Main Street Swords",
            "latitude": "53.45695639",
            "longitude": "-6.221068056",
            "direction": "Inbound"
        },
        {
            "stopid": "6117",
            "fullname": "Malahide Road",
            "latitude": "53.45438028",
            "longitude": "-6.215875",
            "direction": "Inbound"
        },
        {
            "stopid": "3655",
            "fullname": "Drynam Road",
            "latitude": "53.452875",
            "longitude": "-6.213055",
            "direction": "Inbound"
        },
        {
            "stopid": "4563",
            "fullname": "Malahide Road",
            "latitude": "53.401595",
            "longitude": "-6.181025",
            "direction": "Inbound"
        },
        {
            "stopid": "5086",
            "fullname": "Drynam Road",
            "latitude": "53.45048306",
            "longitude": "-6.204921944",
            "direction": "Inbound"
        },
        {
            "stopid": "615",
            "fullname": "Annesley Brg Rd.",
            "latitude": "53.36189806",
            "longitude": "-6.237338056",
            "direction": "Inbound"
        },
        {
            "stopid": "616",
            "fullname": "North Strand Rd",
            "latitude": "53.35983194",
            "longitude": "-6.239618056",
            "direction": "Inbound"
        },
        {
            "stopid": "617",
            "fullname": "North Strand Rd",
            "latitude": "53.3579",
            "longitude": "-6.2421",
            "direction": "Inbound"
        },
        {
            "stopid": "618",
            "fullname": "North Strand Rd",
            "latitude": "53.35608",
            "longitude": "-6.24478",
            "direction": "Inbound"
        },
        {
            "stopid": "619",
            "fullname": "Amiens Street",
            "latitude": "53.35400306",
            "longitude": "-6.247281111",
            "direction": "Inbound"
        },
        {
            "stopid": "675",
            "fullname": "Amiens Street",
            "latitude": "53.352855",
            "longitude": "-6.248531944",
            "direction": "Inbound"
        },
        {
            "stopid": "614",
            "fullname": "Fairview",
            "latitude": "53.36360611",
            "longitude": "-6.233541111",
            "direction": "Inbound"
        },
        {
            "stopid": "664",
            "fullname": "Malahide Road",
            "latitude": "53.37466",
            "longitude": "-6.219551111",
            "direction": "Inbound"
        },
        {
            "stopid": "665",
            "fullname": "Malahide Road",
            "latitude": "53.37247889",
            "longitude": "-6.222061111",
            "direction": "Inbound"
        },
        {
            "stopid": "666",
            "fullname": "Malahide Road",
            "latitude": "53.37016694",
            "longitude": "-6.22429",
            "direction": "Inbound"
        },
        {
            "stopid": "667",
            "fullname": "Malahide Road",
            "latitude": "53.36797389",
            "longitude": "-6.226978056",
            "direction": "Inbound"
        },
        {
            "stopid": "668",
            "fullname": "Malahide Road",
            "latitude": "53.36457611",
            "longitude": "-6.229335",
            "direction": "Inbound"
        },
        {
            "stopid": "7329",
            "fullname": "Feltrim Lane",
            "latitude": "53.44054194",
            "longitude": "-6.192991944",
            "direction": "Inbound"
        },
        {
            "stopid": "7594",
            "fullname": "Virtual Stop Tracking",
            "latitude": "53.458085",
            "longitude": "-6.220553"
        },
        {
            "stopid": "1270",
            "fullname": "Malahide Road",
            "latitude": "53.39648389",
            "longitude": "-6.187183056",
            "direction": "Inbound"
        },
        {
            "stopid": "3573",
            "fullname": "Malahide Road",
            "latitude": "53.42546806",
            "longitude": "-6.17639",
            "direction": "Inbound"
        },
        {
            "stopid": "5044",
            "fullname": "Seatown",
            "latitude": "53.46078389",
            "longitude": "-6.209778889",
            "direction": "Inbound"
        },
        {
            "stopid": "1184",
            "fullname": "Talbot Street",
            "latitude": "53.35078",
            "longitude": "-6.253905",
            "direction": "Outbound"
        },
        {
            "stopid": "497",
            "fullname": "Amiens Street",
            "latitude": "53.35050306",
            "longitude": "-6.250701111",
            "direction": "Outbound"
        },
        {
            "stopid": "515",
            "fullname": "Amiens Street",
            "latitude": "53.35350389",
            "longitude": "-6.248088889",
            "direction": "Outbound"
        },
        {
            "stopid": "516",
            "fullname": "North Strand Rd",
            "latitude": "53.35568",
            "longitude": "-6.245661944",
            "direction": "Outbound"
        },
        {
            "stopid": "4384",
            "fullname": "North Strand Rd",
            "latitude": "53.35767111",
            "longitude": "-6.242686111",
            "direction": "Outbound"
        },
        {
            "stopid": "519",
            "fullname": "North Strand Rd",
            "latitude": "53.36030194",
            "longitude": "-6.239553056",
            "direction": "Outbound"
        },
        {
            "stopid": "521",
            "fullname": "Annesley Bridge",
            "latitude": "53.361625",
            "longitude": "-6.237988889",
            "direction": "Outbound"
        },
        {
            "stopid": "522",
            "fullname": "Marino Mart",
            "latitude": "53.36327194",
            "longitude": "-6.235341111",
            "direction": "Outbound"
        },
        {
            "stopid": "523",
            "fullname": "Marino Mart",
            "latitude": "53.36428111",
            "longitude": "-6.231608056",
            "direction": "Outbound"
        },
        {
            "stopid": "669",
            "fullname": "Malahide Road",
            "latitude": "53.36631111",
            "longitude": "-6.228656944",
            "direction": "Outbound"
        },
        {
            "stopid": "670",
            "fullname": "Malahide Road",
            "latitude": "53.36895",
            "longitude": "-6.226008889",
            "direction": "Outbound"
        },
        {
            "stopid": "671",
            "fullname": "Malahide Road",
            "latitude": "53.37071889",
            "longitude": "-6.224138056",
            "direction": "Outbound"
        },
        {
            "stopid": "672",
            "fullname": "Malahide Road",
            "latitude": "53.373465",
            "longitude": "-6.221061111",
            "direction": "Outbound"
        },
        {
            "stopid": "4382",
            "fullname": "Malahide Road",
            "latitude": "53.3749",
            "longitude": "-6.2196",
            "direction": "Outbound"
        },
        {
            "stopid": "1196",
            "fullname": "Malahide Road",
            "latitude": "53.37804111",
            "longitude": "-6.214438611",
            "direction": "Outbound"
        },
        {
            "stopid": "1197",
            "fullname": "Malahide Road",
            "latitude": "53.37923222",
            "longitude": "-6.211758333",
            "direction": "Outbound"
        },
        {
            "stopid": "1198",
            "fullname": "Malahide Road",
            "latitude": "53.38250889",
            "longitude": "-6.206905",
            "direction": "Outbound"
        },
        {
            "stopid": "1199",
            "fullname": "Malahide Road",
            "latitude": "53.38498306",
            "longitude": "-6.202756944",
            "direction": "Outbound"
        },
        {
            "stopid": "1200",
            "fullname": "Malahide Road",
            "latitude": "53.38695889",
            "longitude": "-6.201041944",
            "direction": "Outbound"
        },
        {
            "stopid": "4385",
            "fullname": "Malahide Road",
            "latitude": "53.38853",
            "longitude": "-6.198951944",
            "direction": "Outbound"
        },
        {
            "stopid": "1201",
            "fullname": "Malahide Road",
            "latitude": "53.39087806",
            "longitude": "-6.196048889",
            "direction": "Outbound"
        },
        {
            "stopid": "1202",
            "fullname": "Malahide Road",
            "latitude": "53.39249694",
            "longitude": "-6.193415",
            "direction": "Outbound"
        },
        {
            "stopid": "1203",
            "fullname": "Malahide Road",
            "latitude": "53.39671806",
            "longitude": "-6.187518889",
            "direction": "Outbound"
        },
        {
            "stopid": "6115",
            "fullname": "Malahide Road",
            "latitude": "53.400125",
            "longitude": "-6.184196111",
            "direction": "Outbound"
        },
        {
            "stopid": "1205",
            "fullname": "Malahide Road",
            "latitude": "53.40149306",
            "longitude": "-6.18184",
            "direction": "Outbound"
        },
        {
            "stopid": "1206",
            "fullname": "Malahide Road",
            "latitude": "53.40809611",
            "longitude": "-6.178085",
            "direction": "Outbound"
        },
        {
            "stopid": "1207",
            "fullname": "Malahide Road",
            "latitude": "53.41071389",
            "longitude": "-6.178991944",
            "direction": "Outbound"
        },
        {
            "stopid": "1208",
            "fullname": "Malahide Road",
            "latitude": "53.41429806",
            "longitude": "-6.178656944",
            "direction": "Outbound"
        },
        {
            "stopid": "1209",
            "fullname": "Malahide Road",
            "latitude": "53.41696",
            "longitude": "-6.17796",
            "direction": "Outbound"
        },
        {
            "stopid": "1210",
            "fullname": "Malahide Road",
            "latitude": "53.41903194",
            "longitude": "-6.177341944",
            "direction": "Outbound"
        },
        {
            "stopid": "3575",
            "fullname": "Malahide Road",
            "latitude": "53.42432194",
            "longitude": "-6.176441944",
            "direction": "Outbound"
        },
        {
            "stopid": "3576",
            "fullname": "Malahide Road",
            "latitude": "53.42931389",
            "longitude": "-6.177926944",
            "direction": "Outbound"
        },
        {
            "stopid": "3648",
            "fullname": "Feltrim Road",
            "latitude": "53.43330611",
            "longitude": "-6.178003889",
            "direction": "Outbound"
        },
        {
            "stopid": "3649",
            "fullname": "Feltrim Road",
            "latitude": "53.43595889",
            "longitude": "-6.185345",
            "direction": "Outbound"
        },
        {
            "stopid": "3650",
            "fullname": "Feltrim Road",
            "latitude": "53.43848306",
            "longitude": "-6.190991111",
            "direction": "Outbound"
        },
        {
            "stopid": "7328",
            "fullname": "Feltrim Lane",
            "latitude": "53.440565",
            "longitude": "-6.193168889",
            "direction": "Outbound"
        },
        {
            "stopid": "3651",
            "fullname": "Feltrim Road",
            "latitude": "53.44475194",
            "longitude": "-6.197308889",
            "direction": "Outbound"
        },
        {
            "stopid": "3652",
            "fullname": "Feltrim Road",
            "latitude": "53.44613111",
            "longitude": "-6.20048",
            "direction": "Outbound"
        },
        {
            "stopid": "3653",
            "fullname": "Mountgorry Way",
            "latitude": "53.44866444",
            "longitude": "-6.204506389",
            "direction": "Outbound"
        },
        {
            "stopid": "3654",
            "fullname": "Drynam Road",
            "latitude": "53.45103806",
            "longitude": "-6.206488889",
            "direction": "Outbound"
        },
        {
            "stopid": "5084",
            "fullname": "Drynam Road",
            "latitude": "53.45198889",
            "longitude": "-6.210846111",
            "direction": "Outbound"
        },
        {
            "stopid": "6054",
            "fullname": "Malahide Road",
            "latitude": "53.45423694",
            "longitude": "-6.215896111",
            "direction": "Outbound"
        },
        {
            "stopid": "4330",
            "fullname": "Malahide Road",
            "latitude": "53.45478583",
            "longitude": "-6.218357778",
            "direction": "Outbound"
        },
        {
            "stopid": "3679",
            "fullname": "Main Street Swords",
            "latitude": "53.45908167",
            "longitude": "-6.220135833",
            "direction": "Outbound"
        },
        {
            "stopid": "3711",
            "fullname": "North Street",
            "latitude": "53.46119028",
            "longitude": "-6.218691944",
            "direction": "Outbound"
        },
        {
            "stopid": "3712",
            "fullname": "North Street",
            "latitude": "53.46364917",
            "longitude": "-6.217218611",
            "direction": "Outbound"
        },
        {
            "stopid": "6359",
            "fullname": "Swords Road",
            "latitude": "53.462225",
            "longitude": "-6.213275",
            "direction": "Outbound"
        },
        {
            "stopid": "7189",
            "fullname": "Seatown",
            "latitude": "53.46085194",
            "longitude": "-6.210101111"
        }
    ]
}