{
    "route": "46e",
    "stops": [
        {
            "stopid": "2068",
            "fullname": "Stillorgan Road",
            "latitude": "53.29809583",
            "longitude": "-6.204573056"
        },
        {
            "stopid": "2069",
            "fullname": "Stillorgan Road",
            "latitude": "53.29977472",
            "longitude": "-6.205642778"
        },
        {
            "stopid": "2070",
            "fullname": "Stillorgan Road",
            "latitude": "53.30306611",
            "longitude": "-6.208145833"
        },
        {
            "stopid": "2084",
            "fullname": "Stillorgan Road",
            "latitude": "53.30552667",
            "longitude": "-6.211598889"
        },
        {
            "stopid": "3196",
            "fullname": "Newtown Park",
            "latitude": "53.28738028",
            "longitude": "-6.177228333"
        },
        {
            "stopid": "320",
            "fullname": "Westmoreland Street",
            "latitude": "53.34564694",
            "longitude": "-6.259275"
        },
        {
            "stopid": "461",
            "fullname": "Stillorgan Road",
            "latitude": "53.29478306",
            "longitude": "-6.203461111"
        },
        {
            "stopid": "7586",
            "fullname": "Leinster Street South",
            "latitude": "53.34197",
            "longitude": "-6.253201111"
        },
        {
            "stopid": "7587",
            "fullname": "Pearse Street",
            "latitude": "53.34453611",
            "longitude": "-6.251646111"
        },
        {
            "stopid": "3114",
            "fullname": "Stradbrook Rd",
            "latitude": "53.2958",
            "longitude": "-6.169753889"
        },
        {
            "stopid": "3345",
            "fullname": "Stillorgan Park",
            "latitude": "53.28940111",
            "longitude": "-6.185423889"
        },
        {
            "stopid": "4726",
            "fullname": "Parnell Square",
            "latitude": "53.35425806",
            "longitude": "-6.264076111"
        },
        {
            "stopid": "4727",
            "fullname": "Stillorgan Road",
            "latitude": "53.29050694",
            "longitude": "-6.19723"
        },
        {
            "stopid": "4728",
            "fullname": "Stillorgan Road",
            "latitude": "53.29333389",
            "longitude": "-6.201973056"
        },
        {
            "stopid": "4962",
            "fullname": "Mountjoy Square",
            "latitude": "53.35701194",
            "longitude": "-6.258423056"
        },
        {
            "stopid": "7555",
            "fullname": "Mountjoy Square",
            "latitude": "53.35714389",
            "longitude": "-6.258028056"
        },
        {
            "stopid": "786",
            "fullname": "Leeson Street",
            "latitude": "53.33519806",
            "longitude": "-6.256116944"
        },
        {
            "stopid": "792",
            "fullname": "Dawson Street",
            "latitude": "53.34005",
            "longitude": "-6.258663889"
        },
        {
            "stopid": "2",
            "fullname": "Parnell Square",
            "latitude": "53.35224111",
            "longitude": "-6.263695"
        },
        {
            "stopid": "3034",
            "fullname": "Temple Road",
            "latitude": "53.29962694",
            "longitude": "-6.174688889"
        },
        {
            "stopid": "3085",
            "fullname": "Blackrock",
            "latitude": "53.30248",
            "longitude": "-6.178370833"
        },
        {
            "stopid": "4353",
            "fullname": "Newtownpark Ave",
            "latitude": "53.29241111",
            "longitude": "-6.170371944"
        },
        {
            "stopid": "4354",
            "fullname": "Newtownpark Ave",
            "latitude": "53.28747306",
            "longitude": "-6.175823889"
        },
        {
            "stopid": "4355",
            "fullname": "Newtownpark Ave",
            "latitude": "53.29118694",
            "longitude": "-6.171766111"
        },
        {
            "stopid": "906",
            "fullname": "Leeson Street",
            "latitude": "53.328815",
            "longitude": "-6.247601944"
        },
        {
            "stopid": "907",
            "fullname": "Leeson Street",
            "latitude": "53.32972694",
            "longitude": "-6.25072"
        },
        {
            "stopid": "278",
            "fullname": "O'Connell St",
            "latitude": "53.35162806",
            "longitude": "-6.261236944"
        },
        {
            "stopid": "345",
            "fullname": "Pearse Street",
            "latitude": "53.345485",
            "longitude": "-6.256266111"
        },
        {
            "stopid": "768",
            "fullname": "Stillorgan Road",
            "latitude": "53.30946611",
            "longitude": "-6.21888"
        },
        {
            "stopid": "769",
            "fullname": "Stillorgan Road",
            "latitude": "53.31189389",
            "longitude": "-6.221316944"
        },
        {
            "stopid": "770",
            "fullname": "Stillorgan Road",
            "latitude": "53.314675",
            "longitude": "-6.225783056"
        },
        {
            "stopid": "771",
            "fullname": "Stillorgan Road",
            "latitude": "53.31587694",
            "longitude": "-6.227763056"
        },
        {
            "stopid": "772",
            "fullname": "Stillorgan Road",
            "latitude": "53.31849806",
            "longitude": "-6.231315"
        },
        {
            "stopid": "773",
            "fullname": "Donnybrook Rd",
            "latitude": "53.31991194",
            "longitude": "-6.233256944"
        },
        {
            "stopid": "774",
            "fullname": "Donnybrook",
            "latitude": "53.32160389",
            "longitude": "-6.235483889"
        },
        {
            "stopid": "775",
            "fullname": "Morehampton Road",
            "latitude": "53.32348111",
            "longitude": "-6.239063889"
        },
        {
            "stopid": "776",
            "fullname": "Morehampton Road",
            "latitude": "53.32549",
            "longitude": "-6.241803889"
        },
        {
            "stopid": "777",
            "fullname": "Morehampton Road",
            "latitude": "53.32694389",
            "longitude": "-6.243658889"
        },
        {
            "stopid": "908",
            "fullname": "Leeson Street",
            "latitude": "53.33115889",
            "longitude": "-6.252351111"
        },
        {
            "stopid": "909",
            "fullname": "Leeson Street",
            "latitude": "53.333165",
            "longitude": "-6.254066944"
        }
    ]
}