{
    "route": "53",
    "stops": [
        {
            "stopid": "2278",
            "fullname": "East Road",
            "latitude": "53.35448611",
            "longitude": "-6.229741111",
            "direction": "Inbound"
        },
        {
            "stopid": "2279",
            "fullname": "East Road",
            "latitude": "53.352955",
            "longitude": "-6.231606111",
            "direction": "Inbound"
        },
        {
            "stopid": "2720",
            "fullname": "Church Road",
            "latitude": "53.35205194",
            "longitude": "-6.233093056",
            "direction": "Inbound"
        },
        {
            "stopid": "2280",
            "fullname": "Church Road",
            "latitude": "53.35231194",
            "longitude": "-6.237038056",
            "direction": "Inbound"
        },
        {
            "stopid": "2281",
            "fullname": "Church Road",
            "latitude": "53.35365889",
            "longitude": "-6.236713056",
            "direction": "Inbound"
        },
        {
            "stopid": "2274",
            "fullname": "Alexandra Road",
            "latitude": "53.35018389",
            "longitude": "-6.203616111",
            "direction": "Inbound"
        },
        {
            "stopid": "2277",
            "fullname": "East Wall Rd",
            "latitude": "53.35412194",
            "longitude": "-6.227886111"
        },
        {
            "stopid": "2282",
            "fullname": "St. Mary's Road",
            "latitude": "53.35483806",
            "longitude": "-6.238508889",
            "direction": "Inbound"
        },
        {
            "stopid": "2283",
            "fullname": "West Road",
            "latitude": "53.358325",
            "longitude": "-6.235923889",
            "direction": "Inbound"
        },
        {
            "stopid": "2508",
            "fullname": "East Wall Rd",
            "latitude": "53.35285889",
            "longitude": "-6.225801944",
            "direction": "Inbound"
        },
        {
            "stopid": "7601",
            "fullname": "Bond Drive Extension",
            "latitude": "53.35269611",
            "longitude": "-6.214051944",
            "direction": "Inbound"
        },
        {
            "stopid": "4468",
            "fullname": "West Road",
            "latitude": "53.35678389",
            "longitude": "-6.238018056",
            "direction": "Inbound"
        },
        {
            "stopid": "616",
            "fullname": "North Strand Rd",
            "latitude": "53.35983194",
            "longitude": "-6.239618056",
            "direction": "Inbound"
        },
        {
            "stopid": "617",
            "fullname": "North Strand Rd",
            "latitude": "53.3579",
            "longitude": "-6.2421",
            "direction": "Inbound"
        },
        {
            "stopid": "618",
            "fullname": "North Strand Rd",
            "latitude": "53.35608",
            "longitude": "-6.24478",
            "direction": "Inbound"
        },
        {
            "stopid": "619",
            "fullname": "Amiens Street",
            "latitude": "53.35400306",
            "longitude": "-6.247281111",
            "direction": "Inbound"
        },
        {
            "stopid": "675",
            "fullname": "Amiens Street",
            "latitude": "53.352855",
            "longitude": "-6.248531944",
            "direction": "Inbound"
        },
        {
            "stopid": "2266",
            "fullname": "Promenade Road",
            "latitude": "53.35364111",
            "longitude": "-6.212788056"
        },
        {
            "stopid": "1184",
            "fullname": "Talbot Street",
            "latitude": "53.35078",
            "longitude": "-6.253905"
        },
        {
            "stopid": "1172",
            "fullname": "Gardiner Street",
            "latitude": "53.35174",
            "longitude": "-6.255243056",
            "direction": "Outbound"
        },
        {
            "stopid": "7671",
            "fullname": "Sean Macdermott Street lower",
            "latitude": "53.35378306",
            "longitude": "-6.252691944",
            "direction": "Outbound"
        },
        {
            "stopid": "513",
            "fullname": "Summerhill Rd",
            "latitude": "53.35519694",
            "longitude": "-6.254068889",
            "direction": "Outbound"
        },
        {
            "stopid": "4513",
            "fullname": "Parnell Street",
            "latitude": "53.35393306",
            "longitude": "-6.257776111",
            "direction": "Outbound"
        },
        {
            "stopid": "286",
            "fullname": "Cathal Brugha St",
            "latitude": "53.35199806",
            "longitude": "-6.260531111",
            "direction": "Outbound"
        },
        {
            "stopid": "271",
            "fullname": "O'Connell St",
            "latitude": "53.34858389",
            "longitude": "-6.259538889",
            "direction": "Outbound"
        },
        {
            "stopid": "4380",
            "fullname": "Talbot Street",
            "latitude": "53.350845",
            "longitude": "-6.253531111",
            "direction": "Outbound"
        },
        {
            "stopid": "496",
            "fullname": "Beresford Place",
            "latitude": "53.34945694",
            "longitude": "-6.252165",
            "direction": "Outbound"
        },
        {
            "stopid": "497",
            "fullname": "Amiens Street",
            "latitude": "53.35050306",
            "longitude": "-6.250701111",
            "direction": "Outbound"
        },
        {
            "stopid": "515",
            "fullname": "Amiens Street",
            "latitude": "53.35350389",
            "longitude": "-6.248088889",
            "direction": "Outbound"
        },
        {
            "stopid": "516",
            "fullname": "North Strand Rd",
            "latitude": "53.35568",
            "longitude": "-6.245661944",
            "direction": "Outbound"
        },
        {
            "stopid": "4384",
            "fullname": "North Strand Rd",
            "latitude": "53.35767111",
            "longitude": "-6.242686111",
            "direction": "Outbound"
        },
        {
            "stopid": "518",
            "fullname": "North Strand Rd",
            "latitude": "53.35893111",
            "longitude": "-6.240913056",
            "direction": "Outbound"
        },
        {
            "stopid": "2255",
            "fullname": "East Wall Rd",
            "latitude": "53.36022889",
            "longitude": "-6.238251111",
            "direction": "Outbound"
        },
        {
            "stopid": "2256",
            "fullname": "West Road",
            "latitude": "53.35834611",
            "longitude": "-6.235628056",
            "direction": "Outbound"
        },
        {
            "stopid": "2717",
            "fullname": "West Road",
            "latitude": "53.35723389",
            "longitude": "-6.237453056",
            "direction": "Outbound"
        },
        {
            "stopid": "2257",
            "fullname": "West Road",
            "latitude": "53.35638194",
            "longitude": "-6.238186944",
            "direction": "Outbound"
        },
        {
            "stopid": "2258",
            "fullname": "St. Mary's Road",
            "latitude": "53.35464889",
            "longitude": "-6.237986944",
            "direction": "Outbound"
        },
        {
            "stopid": "2259",
            "fullname": "Church Road",
            "latitude": "53.35353306",
            "longitude": "-6.236706944",
            "direction": "Outbound"
        },
        {
            "stopid": "2260",
            "fullname": "Church Road",
            "latitude": "53.35177889",
            "longitude": "-6.235023889",
            "direction": "Outbound"
        },
        {
            "stopid": "2261",
            "fullname": "Church Road",
            "latitude": "53.35263889",
            "longitude": "-6.232396111",
            "direction": "Outbound"
        },
        {
            "stopid": "4469",
            "fullname": "East Road",
            "latitude": "53.35420389",
            "longitude": "-6.230281944",
            "direction": "Outbound"
        },
        {
            "stopid": "2262",
            "fullname": "East Wall Rd",
            "latitude": "53.35352306",
            "longitude": "-6.226581944",
            "direction": "Outbound"
        },
        {
            "stopid": "2264",
            "fullname": "Alexandra Road",
            "latitude": "53.35111",
            "longitude": "-6.221933056",
            "direction": "Outbound"
        },
        {
            "stopid": "2265",
            "fullname": "Tolka Quay Road",
            "latitude": "53.35218",
            "longitude": "-6.217893889",
            "direction": "Outbound"
        },
        {
            "stopid": "2269",
            "fullname": "Alexandra Road",
            "latitude": "53.35030694",
            "longitude": "-6.203328056",
            "direction": "Outbound"
        },
        {
            "stopid": "2270",
            "fullname": "Alexandra Road",
            "latitude": "53.34569194",
            "longitude": "-6.195598056",
            "direction": "Inbound"
        }
    ]
}