{
    "route": "53a",
    "stops": [
        {
            "stopid": "6251",
            "fullname": "Sheriff Street",
            "latitude": "53.35043889",
            "longitude": "-6.238763056"
        },
        {
            "stopid": "7706",
            "fullname": "Seville Place",
            "latitude": "53.35162111",
            "longitude": "-6.242596111"
        },
        {
            "stopid": "7707",
            "fullname": "Portland Row",
            "latitude": "53.35642806",
            "longitude": "-6.249028056"
        },
        {
            "stopid": "512",
            "fullname": "Summerhill Rd",
            "latitude": "53.35594611",
            "longitude": "-6.252051111"
        },
        {
            "stopid": "513",
            "fullname": "Summerhill Rd",
            "latitude": "53.35519694",
            "longitude": "-6.254068889"
        },
        {
            "stopid": "7402",
            "fullname": "Gardiner Street",
            "latitude": "53.35137694",
            "longitude": "-6.254771944"
        },
        {
            "stopid": "4380",
            "fullname": "Talbot Street",
            "latitude": "53.350845",
            "longitude": "-6.253531111"
        },
        {
            "stopid": "1172",
            "fullname": "Gardiner Street",
            "latitude": "53.35174",
            "longitude": "-6.255243056"
        },
        {
            "stopid": "4509",
            "fullname": "Summerhill",
            "latitude": "53.35596306",
            "longitude": "-6.252433889"
        },
        {
            "stopid": "7708",
            "fullname": "Portland Row",
            "latitude": "53.35562194",
            "longitude": "-6.247746111"
        },
        {
            "stopid": "7709",
            "fullname": "Seville Place",
            "latitude": "53.35205889",
            "longitude": "-6.243001944"
        },
        {
            "stopid": "7710",
            "fullname": "Sheriff Street Upper",
            "latitude": "53.35056194",
            "longitude": "-6.238698889"
        },
        {
            "stopid": "7711",
            "fullname": "Sheriff Street Upper",
            "latitude": "53.35009306",
            "longitude": "-6.232238056"
        },
        {
            "stopid": "7705",
            "fullname": "Sheriff Street Upper",
            "latitude": "53.34999889",
            "longitude": "-6.232215"
        }
    ]
}