{
    "route": "63",
    "stops": [
        {
            "stopid": "3346",
            "fullname": "Westminster Road",
            "latitude": "53.26972972",
            "longitude": "-6.173286667"
        },
        {
            "stopid": "3256",
            "fullname": "Cornelscourt Village",
            "latitude": "53.26881889",
            "longitude": "-6.166638611"
        },
        {
            "stopid": "3265",
            "fullname": "Mart Lane",
            "latitude": "53.26950083",
            "longitude": "-6.167733889"
        },
        {
            "stopid": "3266",
            "fullname": "St Brigid's School",
            "latitude": "53.26932278",
            "longitude": "-6.170185278"
        },
        {
            "stopid": "3267",
            "fullname": "Gordon Avenue",
            "latitude": "53.26886444",
            "longitude": "-6.1754675"
        },
        {
            "stopid": "3268",
            "fullname": "Plunkett Avenue",
            "latitude": "53.26775472",
            "longitude": "-6.178723056"
        },
        {
            "stopid": "3269",
            "fullname": "Hainault Road",
            "latitude": "53.26723361",
            "longitude": "-6.181099167"
        },
        {
            "stopid": "3270",
            "fullname": "Foxrock Village",
            "latitude": "53.26658306",
            "longitude": "-6.183825278"
        },
        {
            "stopid": "3271",
            "fullname": "The Coppins",
            "latitude": "53.26369917",
            "longitude": "-6.181548889"
        },
        {
            "stopid": "3272",
            "fullname": "Tresillian",
            "latitude": "53.26214111",
            "longitude": "-6.180175833"
        },
        {
            "stopid": "3273",
            "fullname": "Kerrymount Avenue",
            "latitude": "53.26030833",
            "longitude": "-6.177870278"
        },
        {
            "stopid": "3274",
            "fullname": "Brighton Avenue",
            "latitude": "53.25849056",
            "longitude": "-6.174215278"
        },
        {
            "stopid": "3275",
            "fullname": "Mountsandel Park",
            "latitude": "53.25809806",
            "longitude": "-6.170889444"
        },
        {
            "stopid": "2044",
            "fullname": "York Road",
            "latitude": "53.29087222",
            "longitude": "-6.143733056"
        },
        {
            "stopid": "2045",
            "fullname": "York Road",
            "latitude": "53.28907694",
            "longitude": "-6.145040833"
        },
        {
            "stopid": "2046",
            "fullname": "Mounttown Rd",
            "latitude": "53.28586944",
            "longitude": "-6.14569"
        },
        {
            "stopid": "2047",
            "fullname": "Oliver Plunkett Road",
            "latitude": "53.28363944",
            "longitude": "-6.147376111"
        },
        {
            "stopid": "2048",
            "fullname": "St Patrick's Cres",
            "latitude": "53.28403806",
            "longitude": "-6.150463611"
        },
        {
            "stopid": "2049",
            "fullname": "Oliver Plunkett Ave",
            "latitude": "53.28559778",
            "longitude": "-6.154251111"
        },
        {
            "stopid": "2050",
            "fullname": "Monkstown Avenue",
            "latitude": "53.2868425",
            "longitude": "-6.156867222"
        },
        {
            "stopid": "2051",
            "fullname": "Monkstown Ave",
            "latitude": "53.28644889",
            "longitude": "-6.159898889"
        },
        {
            "stopid": "2053",
            "fullname": "Abbey Rd",
            "latitude": "53.28484611",
            "longitude": "-6.160297778"
        },
        {
            "stopid": "2054",
            "fullname": "Abbey Rd",
            "latitude": "53.28323861",
            "longitude": "-6.159211944"
        },
        {
            "stopid": "2055",
            "fullname": "Abbey Rd",
            "latitude": "53.28146",
            "longitude": "-6.158118611"
        },
        {
            "stopid": "2056",
            "fullname": "Kill Lane",
            "latitude": "53.27947083",
            "longitude": "-6.162028333"
        },
        {
            "stopid": "3120",
            "fullname": "Clonkeen Rd",
            "latitude": "53.27744194",
            "longitude": "-6.163273056"
        },
        {
            "stopid": "3122",
            "fullname": "Clonkeen Rd",
            "latitude": "53.27397889",
            "longitude": "-6.161635"
        },
        {
            "stopid": "3123",
            "fullname": "Clonkeen Rd",
            "latitude": "53.27175889",
            "longitude": "-6.160546944"
        },
        {
            "stopid": "3124",
            "fullname": "Clonkeen Rd",
            "latitude": "53.26944194",
            "longitude": "-6.159378056"
        },
        {
            "stopid": "3125",
            "fullname": "Clonkeen Rd",
            "latitude": "53.26727",
            "longitude": "-6.158385"
        },
        {
            "stopid": "3126",
            "fullname": "Clonkeen Rd",
            "latitude": "53.26541278",
            "longitude": "-6.159093333"
        },
        {
            "stopid": "2040",
            "fullname": "Marine Road",
            "latitude": "53.29279111",
            "longitude": "-6.135369167"
        },
        {
            "stopid": "2041",
            "fullname": "George's St",
            "latitude": "53.2935975",
            "longitude": "-6.139234444"
        },
        {
            "stopid": "2042",
            "fullname": "York Road",
            "latitude": "53.29365111",
            "longitude": "-6.1426675"
        },
        {
            "stopid": "2043",
            "fullname": "York Road",
            "latitude": "53.29247361",
            "longitude": "-6.142658611"
        },
        {
            "stopid": "3255",
            "fullname": "Cornelscourt SC",
            "latitude": "53.26648278",
            "longitude": "-6.163200278"
        },
        {
            "stopid": "3276",
            "fullname": "Glenamuck Rd North",
            "latitude": "53.25711",
            "longitude": "-6.170931667"
        },
        {
            "stopid": "3277",
            "fullname": "The View",
            "latitude": "53.24823694",
            "longitude": "-6.181995"
        },
        {
            "stopid": "3278",
            "fullname": "Rockville Drive",
            "latitude": "53.244905",
            "longitude": "-6.186886389"
        },
        {
            "stopid": "3279",
            "fullname": "Cromlech Close",
            "latitude": "53.23966139",
            "longitude": "-6.195558333"
        },
        {
            "stopid": "3280",
            "fullname": "Enniskerry Rd",
            "latitude": "53.23777139",
            "longitude": "-6.195383056"
        },
        {
            "stopid": "3282",
            "fullname": "Enniskerry Rd",
            "latitude": "53.23574667",
            "longitude": "-6.193445833"
        },
        {
            "stopid": "3306",
            "fullname": "Sycamore Drive",
            "latitude": "53.26335639",
            "longitude": "-6.168551111"
        },
        {
            "stopid": "3309",
            "fullname": "Kerrymount Green",
            "latitude": "53.26692889",
            "longitude": "-6.165894722"
        },
        {
            "stopid": "3478",
            "fullname": "Enniskerry Rd",
            "latitude": "53.23905056",
            "longitude": "-6.196168333"
        },
        {
            "stopid": "7372",
            "fullname": "Carrickmines Luas",
            "latitude": "53.25446028",
            "longitude": "-6.172228611"
        },
        {
            "stopid": "4772",
            "fullname": "Hainault Road",
            "latitude": "53.26168194",
            "longitude": "-6.170136944"
        },
        {
            "stopid": "3290",
            "fullname": "Brighton Road",
            "latitude": "53.25809306",
            "longitude": "-6.171144444"
        },
        {
            "stopid": "3291",
            "fullname": "Tresillian",
            "latitude": "53.26159167",
            "longitude": "-6.179509722"
        },
        {
            "stopid": "3292",
            "fullname": "The Coppins",
            "latitude": "53.26342",
            "longitude": "-6.181515833"
        },
        {
            "stopid": "3293",
            "fullname": "Foxrock Village",
            "latitude": "53.26624",
            "longitude": "-6.18372"
        },
        {
            "stopid": "3294",
            "fullname": "Westminster Road",
            "latitude": "53.26736472",
            "longitude": "-6.180853611"
        },
        {
            "stopid": "3295",
            "fullname": "Plunkett Avenue",
            "latitude": "53.26796306",
            "longitude": "-6.178249444"
        },
        {
            "stopid": "3296",
            "fullname": "Gordon Avenue",
            "latitude": "53.26920917",
            "longitude": "-6.175093056"
        },
        {
            "stopid": "3297",
            "fullname": "Mart Lane",
            "latitude": "53.26968",
            "longitude": "-6.172958889"
        },
        {
            "stopid": "3298",
            "fullname": "St Brigid's School",
            "latitude": "53.26939306",
            "longitude": "-6.1694925"
        },
        {
            "stopid": "3260",
            "fullname": "Cornelscourt Village",
            "latitude": "53.26969083",
            "longitude": "-6.166646111"
        },
        {
            "stopid": "3261",
            "fullname": "Willow Grove",
            "latitude": "53.26818056",
            "longitude": "-6.166051111"
        },
        {
            "stopid": "5168",
            "fullname": "Kerrymount Avenue",
            "latitude": "53.25963528",
            "longitude": "-6.177359444"
        },
        {
            "stopid": "2022",
            "fullname": "Kill Lane",
            "latitude": "53.28010278",
            "longitude": "-6.161611389"
        },
        {
            "stopid": "2023",
            "fullname": "Abbey Rd",
            "latitude": "53.28129194",
            "longitude": "-6.158290833"
        },
        {
            "stopid": "2024",
            "fullname": "Abbey Rd",
            "latitude": "53.28344917",
            "longitude": "-6.159473056"
        },
        {
            "stopid": "2025",
            "fullname": "Abbey Rd",
            "latitude": "53.28490389",
            "longitude": "-6.160535278"
        },
        {
            "stopid": "2026",
            "fullname": "Monkstown Ave",
            "latitude": "53.28664417",
            "longitude": "-6.159725556"
        },
        {
            "stopid": "2027",
            "fullname": "Monkstown Farm",
            "latitude": "53.28695917",
            "longitude": "-6.156847222"
        },
        {
            "stopid": "2028",
            "fullname": "Oliver Plunkett Ave",
            "latitude": "53.28532278",
            "longitude": "-6.153333056"
        },
        {
            "stopid": "2029",
            "fullname": "Oliver Plunkett Road",
            "latitude": "53.2838875",
            "longitude": "-6.149450278"
        },
        {
            "stopid": "2030",
            "fullname": "Oliver Plunkett Ct",
            "latitude": "53.2836775",
            "longitude": "-6.146939722"
        },
        {
            "stopid": "2031",
            "fullname": "Mounttown Rd",
            "latitude": "53.28611222",
            "longitude": "-6.145709444"
        },
        {
            "stopid": "2032",
            "fullname": "York Road",
            "latitude": "53.28952389",
            "longitude": "-6.144871667"
        },
        {
            "stopid": "2033",
            "fullname": "York Road",
            "latitude": "53.29147833",
            "longitude": "-6.143391667"
        },
        {
            "stopid": "2034",
            "fullname": "York Road",
            "latitude": "53.29273639",
            "longitude": "-6.142797222"
        },
        {
            "stopid": "2035",
            "fullname": "Clarence Street",
            "latitude": "53.29577222",
            "longitude": "-6.142665556"
        },
        {
            "stopid": "2036",
            "fullname": "Crofton Road",
            "latitude": "53.29579278",
            "longitude": "-6.138208889"
        },
        {
            "stopid": "2039",
            "fullname": "Crofton Road",
            "latitude": "53.29488722",
            "longitude": "-6.134902778"
        },
        {
            "stopid": "3262",
            "fullname": "Cornelscourt SC",
            "latitude": "53.26572639",
            "longitude": "-6.161358611"
        },
        {
            "stopid": "4393",
            "fullname": "Ballyogan Avenue",
            "latitude": "53.25938722",
            "longitude": "-6.193543611"
        },
        {
            "stopid": "2995",
            "fullname": "Clonkeen Rd",
            "latitude": "53.27018611",
            "longitude": "-6.15984"
        },
        {
            "stopid": "3152",
            "fullname": "Clonkeen Rd",
            "latitude": "53.26740694",
            "longitude": "-6.158536111"
        },
        {
            "stopid": "3153",
            "fullname": "Clonkeen Rd",
            "latitude": "53.26581639",
            "longitude": "-6.159031111"
        },
        {
            "stopid": "3154",
            "fullname": "Clonkeen Rd",
            "latitude": "53.27204111",
            "longitude": "-6.160768056"
        },
        {
            "stopid": "3155",
            "fullname": "Clonkeen Rd",
            "latitude": "53.27425",
            "longitude": "-6.16193"
        },
        {
            "stopid": "3156",
            "fullname": "Clonkeen Rd",
            "latitude": "53.27652889",
            "longitude": "-6.163003889"
        },
        {
            "stopid": "5106",
            "fullname": "Ballyogan Luas",
            "latitude": "53.25493333",
            "longitude": "-6.184948333"
        },
        {
            "stopid": "7373",
            "fullname": "Carrickmines Luas",
            "latitude": "53.25482917",
            "longitude": "-6.172243056"
        },
        {
            "stopid": "3283",
            "fullname": "Enniskerry Rd",
            "latitude": "53.23579722",
            "longitude": "-6.193833056"
        },
        {
            "stopid": "3284",
            "fullname": "Enniskerry Rd",
            "latitude": "53.23927944",
            "longitude": "-6.196443333"
        },
        {
            "stopid": "3285",
            "fullname": "Rockville Drive",
            "latitude": "53.24484611",
            "longitude": "-6.187158611"
        },
        {
            "stopid": "3289",
            "fullname": "Brennanstown Road",
            "latitude": "53.25711222",
            "longitude": "-6.171081389"
        },
        {
            "stopid": "3307",
            "fullname": "Kerrymount Green",
            "latitude": "53.26620111",
            "longitude": "-6.166495556"
        },
        {
            "stopid": "3312",
            "fullname": "Hainault Road",
            "latitude": "53.26187917",
            "longitude": "-6.170113333"
        },
        {
            "stopid": "4313",
            "fullname": "Ballyogan Luas",
            "latitude": "53.25492333",
            "longitude": "-6.184289444"
        },
        {
            "stopid": "7324",
            "fullname": "The View",
            "latitude": "53.24831778",
            "longitude": "-6.181991667"
        },
        {
            "stopid": "7360",
            "fullname": "The Park",
            "latitude": "53.25144639",
            "longitude": "-6.182038611"
        },
        {
            "stopid": "4395",
            "fullname": "Ballyogan Court",
            "latitude": "53.25722167",
            "longitude": "-6.189438056"
        },
        {
            "stopid": "4396",
            "fullname": "Ballyogan Road",
            "latitude": "53.25681278",
            "longitude": "-6.1932775"
        },
        {
            "stopid": "4771",
            "fullname": "Sycamore Drive",
            "latitude": "53.26392639",
            "longitude": "-6.168211944"
        },
        {
            "stopid": "4773",
            "fullname": "Leopardstown SC",
            "latitude": "53.25817778",
            "longitude": "-6.1967725"
        }
    ]
}