{
    "route": "66e",
    "stops": [
        {
            "stopid": "7391",
            "fullname": "Merrion Square",
            "latitude": "53.33909694",
            "longitude": "-6.250013056"
        },
        {
            "stopid": "493",
            "fullname": "Merrion Sq",
            "latitude": "53.33988889",
            "longitude": "-6.24736"
        },
        {
            "stopid": "494",
            "fullname": "Clare Street",
            "latitude": "53.34141694",
            "longitude": "-6.251671111"
        },
        {
            "stopid": "495",
            "fullname": "Westland Row",
            "latitude": "53.34358611",
            "longitude": "-6.249726111"
        },
        {
            "stopid": "400",
            "fullname": "Pearse Street",
            "latitude": "53.34482694",
            "longitude": "-6.25323"
        },
        {
            "stopid": "346",
            "fullname": "Pearse Street",
            "latitude": "53.34553806",
            "longitude": "-6.256576111"
        },
        {
            "stopid": "317",
            "fullname": "Westmoreland Street",
            "latitude": "53.34624194",
            "longitude": "-6.259073889"
        },
        {
            "stopid": "312",
            "fullname": "Wellington Quay",
            "latitude": "53.34547",
            "longitude": "-6.266191944"
        },
        {
            "stopid": "1444",
            "fullname": "Merchant's Quay",
            "latitude": "53.34511889",
            "longitude": "-6.273738889"
        },
        {
            "stopid": "1445",
            "fullname": "Ushers Quay",
            "latitude": "53.345675",
            "longitude": "-6.278283889"
        },
        {
            "stopid": "7078",
            "fullname": "Parkgate St",
            "latitude": "53.347905",
            "longitude": "-6.292866111"
        },
        {
            "stopid": "1449",
            "fullname": "Conyngham Road",
            "latitude": "53.34815194",
            "longitude": "-6.297883889"
        },
        {
            "stopid": "1450",
            "fullname": "Conyngham Road",
            "latitude": "53.34814889",
            "longitude": "-6.301851944"
        },
        {
            "stopid": "1451",
            "fullname": "Conyngham Road",
            "latitude": "53.34828",
            "longitude": "-6.305431944"
        },
        {
            "stopid": "2191",
            "fullname": "Chapelizod Rd",
            "latitude": "53.34802611",
            "longitude": "-6.310428889"
        },
        {
            "stopid": "2192",
            "fullname": "Chapelizod Rd",
            "latitude": "53.34724306",
            "longitude": "-6.315646111"
        },
        {
            "stopid": "2193",
            "fullname": "Chapelizod Rd",
            "latitude": "53.34637889",
            "longitude": "-6.323428889"
        },
        {
            "stopid": "2194",
            "fullname": "Chapelizod Rd",
            "latitude": "53.34618806",
            "longitude": "-6.328386944"
        },
        {
            "stopid": "2195",
            "fullname": "Chapelizod Rd",
            "latitude": "53.34674306",
            "longitude": "-6.337583889"
        },
        {
            "stopid": "2196",
            "fullname": "Chapelizod Main St",
            "latitude": "53.3479",
            "longitude": "-6.3416"
        },
        {
            "stopid": "2197",
            "fullname": "Lucan Road",
            "latitude": "53.348165",
            "longitude": "-6.346728889"
        },
        {
            "stopid": "2198",
            "fullname": "Lucan Road",
            "latitude": "53.35062389",
            "longitude": "-6.351056111"
        },
        {
            "stopid": "2200",
            "fullname": "Kylemore Rd",
            "latitude": "53.35028278",
            "longitude": "-6.352954167"
        },
        {
            "stopid": "2201",
            "fullname": "Lucan Road",
            "latitude": "53.35327389",
            "longitude": "-6.364571111"
        },
        {
            "stopid": "7239",
            "fullname": "Lucan Road",
            "latitude": "53.35405806",
            "longitude": "-6.368911111"
        },
        {
            "stopid": "4401",
            "fullname": "Lucan Road",
            "latitude": "53.35475556",
            "longitude": "-6.371710278"
        },
        {
            "stopid": "2213",
            "fullname": "Lucan Road",
            "latitude": "53.35571111",
            "longitude": "-6.39203"
        },
        {
            "stopid": "2214",
            "fullname": "Lucan Road",
            "latitude": "53.35608889",
            "longitude": "-6.399918056"
        },
        {
            "stopid": "2215",
            "fullname": "Lucan Road",
            "latitude": "53.35830306",
            "longitude": "-6.409276944"
        },
        {
            "stopid": "2216",
            "fullname": "Lucan Road",
            "latitude": "53.35885694",
            "longitude": "-6.415933056"
        },
        {
            "stopid": "4599",
            "fullname": "Lucan Road",
            "latitude": "53.35754694",
            "longitude": "-6.42383"
        },
        {
            "stopid": "2217",
            "fullname": "Lucan Road",
            "latitude": "53.359595",
            "longitude": "-6.427033056"
        },
        {
            "stopid": "2218",
            "fullname": "Lucan Road",
            "latitude": "53.359675",
            "longitude": "-6.432443056"
        },
        {
            "stopid": "2219",
            "fullname": "Lucan Road",
            "latitude": "53.360055",
            "longitude": "-6.436683056"
        },
        {
            "stopid": "3365",
            "fullname": "Lucan Road",
            "latitude": "53.35965194",
            "longitude": "-6.439171944"
        },
        {
            "stopid": "3366",
            "fullname": "Lucan Road",
            "latitude": "53.35816806",
            "longitude": "-6.441385"
        },
        {
            "stopid": "3367",
            "fullname": "Lucan Road",
            "latitude": "53.35645306",
            "longitude": "-6.448838889"
        },
        {
            "stopid": "3886",
            "fullname": "Leixlip Rd",
            "latitude": "53.35568389",
            "longitude": "-6.454145"
        },
        {
            "stopid": "3887",
            "fullname": "Leixlip Rd",
            "latitude": "53.35523",
            "longitude": "-6.458756944"
        },
        {
            "stopid": "3888",
            "fullname": "Celbridge Rd",
            "latitude": "53.35512194",
            "longitude": "-6.462618056"
        },
        {
            "stopid": "7186",
            "fullname": "Leixlip Rd",
            "latitude": "53.35672306",
            "longitude": "-6.465285"
        },
        {
            "stopid": "7187",
            "fullname": "Leixlip Rd",
            "latitude": "53.35756194",
            "longitude": "-6.467616111"
        },
        {
            "stopid": "3954",
            "fullname": "Leixlip Rd",
            "latitude": "53.36052806",
            "longitude": "-6.478681111"
        },
        {
            "stopid": "3955",
            "fullname": "Leixlip Rd",
            "latitude": "53.36167194",
            "longitude": "-6.482888056"
        },
        {
            "stopid": "3956",
            "fullname": "Leixlip Rd",
            "latitude": "53.36213111",
            "longitude": "-6.484916944"
        },
        {
            "stopid": "3957",
            "fullname": "Leixlip",
            "latitude": "53.36433694",
            "longitude": "-6.486653056"
        },
        {
            "stopid": "3958",
            "fullname": "Leixlip",
            "latitude": "53.36359611",
            "longitude": "-6.490798889"
        },
        {
            "stopid": "3959",
            "fullname": "Station Road",
            "latitude": "53.36566389",
            "longitude": "-6.492923889"
        },
        {
            "stopid": "3960",
            "fullname": "Station Road",
            "latitude": "53.36694",
            "longitude": "-6.497456944"
        },
        {
            "stopid": "6156",
            "fullname": "Green Lane",
            "latitude": "53.36590111",
            "longitude": "-6.503071111"
        },
        {
            "stopid": "6165",
            "fullname": "Green Lane",
            "latitude": "53.36521306",
            "longitude": "-6.505768056"
        },
        {
            "stopid": "6157",
            "fullname": "Easton Road",
            "latitude": "53.36492389",
            "longitude": "-6.509006111"
        },
        {
            "stopid": "6158",
            "fullname": "Easton Road",
            "latitude": "53.365015",
            "longitude": "-6.514893056"
        },
        {
            "stopid": "7314",
            "fullname": "Easton Road",
            "latitude": "53.36537611",
            "longitude": "-6.522453056"
        },
        {
            "stopid": "3964",
            "fullname": "Maynooth Road",
            "latitude": "53.37299",
            "longitude": "-6.52118"
        },
        {
            "stopid": "3965",
            "fullname": "Maynooth Road",
            "latitude": "53.37436611",
            "longitude": "-6.528388056"
        },
        {
            "stopid": "3968",
            "fullname": "Maynooth Road",
            "latitude": "53.37794694",
            "longitude": "-6.553968056"
        },
        {
            "stopid": "3966",
            "fullname": "Maynooth Road",
            "latitude": "53.38195611",
            "longitude": "-6.586086111"
        },
        {
            "stopid": "5113",
            "fullname": "Maynooth",
            "latitude": "53.38176306",
            "longitude": "-6.590058056"
        },
        {
            "stopid": "3918",
            "fullname": "Straffan Rd",
            "latitude": "53.37652889",
            "longitude": "-6.587183889"
        },
        {
            "stopid": "5114",
            "fullname": "Straffan Rd",
            "latitude": "53.37229889",
            "longitude": "-6.589465"
        },
        {
            "stopid": "3980",
            "fullname": "Straffan Rd",
            "latitude": "53.37297694",
            "longitude": "-6.58933"
        },
        {
            "stopid": "6089",
            "fullname": "Straffan Rd",
            "latitude": "53.376805",
            "longitude": "-6.587585"
        },
        {
            "stopid": "3981",
            "fullname": "Maynooth",
            "latitude": "53.38189889",
            "longitude": "-6.590023889"
        },
        {
            "stopid": "3982",
            "fullname": "Maynooth Road",
            "latitude": "53.38211306",
            "longitude": "-6.585515"
        },
        {
            "stopid": "3983",
            "fullname": "Maynooth Road",
            "latitude": "53.378015",
            "longitude": "-6.552681111"
        },
        {
            "stopid": "3985",
            "fullname": "Maynooth Road",
            "latitude": "53.37411194",
            "longitude": "-6.526526944"
        },
        {
            "stopid": "3986",
            "fullname": "Maynooth Road",
            "latitude": "53.37371889",
            "longitude": "-6.524766944"
        },
        {
            "stopid": "7313",
            "fullname": "Easton Road",
            "latitude": "53.36544",
            "longitude": "-6.522975"
        },
        {
            "stopid": "6164",
            "fullname": "Easton Road",
            "latitude": "53.36467389",
            "longitude": "-6.516983889"
        },
        {
            "stopid": "7712",
            "fullname": "Easton Road",
            "latitude": "53.36526889",
            "longitude": "-6.514231944"
        },
        {
            "stopid": "6159",
            "fullname": "Easton Road",
            "latitude": "53.36491111",
            "longitude": "-6.509276111"
        },
        {
            "stopid": "6160",
            "fullname": "Easton Road",
            "latitude": "53.36524806",
            "longitude": "-6.507668056"
        },
        {
            "stopid": "6161",
            "fullname": "Green Lane",
            "latitude": "53.36642806",
            "longitude": "-6.501383889"
        },
        {
            "stopid": "3991",
            "fullname": "Station Road",
            "latitude": "53.36574694",
            "longitude": "-6.492591944"
        },
        {
            "stopid": "3998",
            "fullname": "Leixlip",
            "latitude": "53.36448806",
            "longitude": "-6.487336944"
        },
        {
            "stopid": "3999",
            "fullname": "Leixlip Rd",
            "latitude": "53.36183111",
            "longitude": "-6.483476944"
        },
        {
            "stopid": "4000",
            "fullname": "Leixlip Rd",
            "latitude": "53.360535",
            "longitude": "-6.478311111"
        },
        {
            "stopid": "4001",
            "fullname": "Leixlip Rd",
            "latitude": "53.35918194",
            "longitude": "-6.473211111"
        },
        {
            "stopid": "3949",
            "fullname": "Leixlip Rd",
            "latitude": "53.35543194",
            "longitude": "-6.460231944"
        },
        {
            "stopid": "3950",
            "fullname": "Leixlip Rd",
            "latitude": "53.35553611",
            "longitude": "-6.454945"
        },
        {
            "stopid": "3372",
            "fullname": "Lucan Road",
            "latitude": "53.35654806",
            "longitude": "-6.447918056"
        },
        {
            "stopid": "3373",
            "fullname": "Lucan Road",
            "latitude": "53.35808",
            "longitude": "-6.441831944"
        },
        {
            "stopid": "3374",
            "fullname": "Lucan Road",
            "latitude": "53.35963389",
            "longitude": "-6.439501944"
        },
        {
            "stopid": "2233",
            "fullname": "Lucan Road",
            "latitude": "53.36008806",
            "longitude": "-6.435156944"
        },
        {
            "stopid": "2232",
            "fullname": "Lucan Road",
            "latitude": "53.35973306",
            "longitude": "-6.430948889"
        },
        {
            "stopid": "2234",
            "fullname": "Lucan Road",
            "latitude": "53.359335",
            "longitude": "-6.424381944"
        },
        {
            "stopid": "2235",
            "fullname": "Lucan Road",
            "latitude": "53.35901611",
            "longitude": "-6.420723056"
        },
        {
            "stopid": "2236",
            "fullname": "Lucan Road",
            "latitude": "53.35884694",
            "longitude": "-6.410863056"
        },
        {
            "stopid": "2238",
            "fullname": "Lucan Road",
            "latitude": "53.35775389",
            "longitude": "-6.4052"
        },
        {
            "stopid": "5056",
            "fullname": "Lucan Road",
            "latitude": "53.35751389",
            "longitude": "-6.402778889"
        },
        {
            "stopid": "2239",
            "fullname": "Lucan Road",
            "latitude": "53.356",
            "longitude": "-6.3919"
        },
        {
            "stopid": "2241",
            "fullname": "Lucan Road",
            "latitude": "53.35492917",
            "longitude": "-6.371268056"
        },
        {
            "stopid": "2242",
            "fullname": "Lucan Road",
            "latitude": "53.35392722",
            "longitude": "-6.367009722"
        },
        {
            "stopid": "2243",
            "fullname": "Lucan Road",
            "latitude": "53.35197444",
            "longitude": "-6.355698056"
        },
        {
            "stopid": "2244",
            "fullname": "Lucan Road",
            "latitude": "53.35088",
            "longitude": "-6.351591944"
        },
        {
            "stopid": "2245",
            "fullname": "Lucan Road",
            "latitude": "53.34946389",
            "longitude": "-6.348271944"
        },
        {
            "stopid": "2246",
            "fullname": "Chapelizod",
            "latitude": "53.34830611",
            "longitude": "-6.343636944"
        },
        {
            "stopid": "2247",
            "fullname": "Chapelizod Rd",
            "latitude": "53.34675111",
            "longitude": "-6.336281111"
        },
        {
            "stopid": "2248",
            "fullname": "Chapelizod Rd",
            "latitude": "53.34631806",
            "longitude": "-6.327863889"
        },
        {
            "stopid": "2249",
            "fullname": "Chapelizod Rd",
            "latitude": "53.34652806",
            "longitude": "-6.321123889"
        },
        {
            "stopid": "2250",
            "fullname": "Chapelizod Rd",
            "latitude": "53.347435",
            "longitude": "-6.315308056"
        },
        {
            "stopid": "2251",
            "fullname": "Chapelizod Rd",
            "latitude": "53.34812611",
            "longitude": "-6.310968056"
        },
        {
            "stopid": "1472",
            "fullname": "Conyngham Road",
            "latitude": "53.34842694",
            "longitude": "-6.305953056"
        },
        {
            "stopid": "4408",
            "fullname": "Conyngham Road",
            "latitude": "53.34832694",
            "longitude": "-6.301091111"
        },
        {
            "stopid": "1473",
            "fullname": "Conyngham Road",
            "latitude": "53.34829889",
            "longitude": "-6.29853"
        },
        {
            "stopid": "1474",
            "fullname": "Parkgate St",
            "latitude": "53.34794389",
            "longitude": "-6.292341111"
        },
        {
            "stopid": "1476",
            "fullname": "Wolfe Tone Quay",
            "latitude": "53.34700306",
            "longitude": "-6.284663889"
        },
        {
            "stopid": "7453",
            "fullname": "Arran Quay",
            "latitude": "53.34633806",
            "longitude": "-6.278378056"
        },
        {
            "stopid": "1478",
            "fullname": "Inns Quay",
            "latitude": "53.34564806",
            "longitude": "-6.272935"
        },
        {
            "stopid": "1479",
            "fullname": "Ormond Quay",
            "latitude": "53.34591306",
            "longitude": "-6.269233056"
        },
        {
            "stopid": "315",
            "fullname": "Bachelors Walk",
            "latitude": "53.34699389",
            "longitude": "-6.261816111"
        },
        {
            "stopid": "406",
            "fullname": "Nassau Street",
            "latitude": "53.34258111",
            "longitude": "-6.256093056"
        },
        {
            "stopid": "2810",
            "fullname": "Merrion Square",
            "latitude": "53.34079",
            "longitude": "-6.250983056"
        },
        {
            "stopid": "7387",
            "fullname": "Merrion Square",
            "latitude": "53.339435",
            "longitude": "-6.250915"
        }
    ]
}