{
    "route": "68a",
    "stops": [
        {
            "stopid": "5192",
            "fullname": "Fleet Street",
            "latitude": "53.34593889",
            "longitude": "-6.257805"
        },
        {
            "stopid": "7589",
            "fullname": "Peter Row",
            "latitude": "53.339525",
            "longitude": "-6.265948"
        },
        {
            "stopid": "1376",
            "fullname": "Bulfin Road",
            "latitude": "53.33949",
            "longitude": "-6.308768889"
        },
        {
            "stopid": "1377",
            "fullname": "South Circular Road",
            "latitude": "53.33918194",
            "longitude": "-6.30473"
        },
        {
            "stopid": "1378",
            "fullname": "South Circular Road",
            "latitude": "53.33884",
            "longitude": "-6.301366111"
        },
        {
            "stopid": "1379",
            "fullname": "South Circular Road",
            "latitude": "53.33734389",
            "longitude": "-6.29911"
        },
        {
            "stopid": "1380",
            "fullname": "South Circular Road",
            "latitude": "53.33564111",
            "longitude": "-6.295976667"
        },
        {
            "stopid": "1381",
            "fullname": "S Circular Road",
            "latitude": "53.33512361",
            "longitude": "-6.293745"
        },
        {
            "stopid": "1382",
            "fullname": "South Circular Road",
            "latitude": "53.33314611",
            "longitude": "-6.290648056"
        },
        {
            "stopid": "1383",
            "fullname": "South Circular Road",
            "latitude": "53.33226",
            "longitude": "-6.28657"
        },
        {
            "stopid": "1384",
            "fullname": "South Circular Road",
            "latitude": "53.33133389",
            "longitude": "-6.282388056"
        },
        {
            "stopid": "1385",
            "fullname": "South Circular Road",
            "latitude": "53.33174111",
            "longitude": "-6.278301944"
        },
        {
            "stopid": "1348",
            "fullname": "South Circular Road",
            "latitude": "53.33224806",
            "longitude": "-6.273878889"
        },
        {
            "stopid": "1349",
            "fullname": "South Circular Road",
            "latitude": "53.33239",
            "longitude": "-6.270873056"
        },
        {
            "stopid": "1350",
            "fullname": "Harrington Street",
            "latitude": "53.33255889",
            "longitude": "-6.267473889"
        },
        {
            "stopid": "1352",
            "fullname": "Camden Street",
            "latitude": "53.334445",
            "longitude": "-6.265386944"
        },
        {
            "stopid": "1353",
            "fullname": "Camden Street",
            "latitude": "53.33601",
            "longitude": "-6.265415"
        },
        {
            "stopid": "1355",
            "fullname": "Aungier Street",
            "latitude": "53.34009194",
            "longitude": "-6.265835"
        },
        {
            "stopid": "1357",
            "fullname": "George's St",
            "latitude": "53.34258611",
            "longitude": "-6.264568056"
        },
        {
            "stopid": "1358",
            "fullname": "Dame Street",
            "latitude": "53.34430611",
            "longitude": "-6.262861111"
        },
        {
            "stopid": "7665",
            "fullname": "Poolbeg Street",
            "latitude": "53.34682306",
            "longitude": "-6.256773889"
        },
        {
            "stopid": "337",
            "fullname": "Fleet Street",
            "latitude": "53.34593889",
            "longitude": "-6.257805"
        },
        {
            "stopid": "339",
            "fullname": "Burgh Quay",
            "latitude": "53.34731306",
            "longitude": "-6.256928056"
        },
        {
            "stopid": "4495",
            "fullname": "Hawkins Street",
            "latitude": "53.34618306",
            "longitude": "-6.256966111"
        },
        {
            "stopid": "1278",
            "fullname": "College Green",
            "latitude": "53.34422",
            "longitude": "-6.261286111",
            "direction": "Outbound"
        },
        {
            "stopid": "1282",
            "fullname": "George's St",
            "latitude": "53.34234389",
            "longitude": "-6.264485",
            "direction": "Outbound"
        },
        {
            "stopid": "4456",
            "fullname": "Aungier Street",
            "latitude": "53.33991194",
            "longitude": "-6.265693056",
            "direction": "Outbound"
        },
        {
            "stopid": "1284",
            "fullname": "Redmond's Hill",
            "latitude": "53.33810611",
            "longitude": "-6.265866111",
            "direction": "Outbound"
        },
        {
            "stopid": "1285",
            "fullname": "Camden St",
            "latitude": "53.33440194",
            "longitude": "-6.265153889",
            "direction": "Outbound"
        },
        {
            "stopid": "1286",
            "fullname": "Harrington Street",
            "latitude": "53.33250806",
            "longitude": "-6.265723056"
        },
        {
            "stopid": "1288",
            "fullname": "South Circular Road",
            "latitude": "53.33235111",
            "longitude": "-6.269676944",
            "direction": "Outbound"
        },
        {
            "stopid": "1289",
            "fullname": "South Circular Road",
            "latitude": "53.33212194",
            "longitude": "-6.273098889",
            "direction": "Outbound"
        },
        {
            "stopid": "1360",
            "fullname": "South Circular Road",
            "latitude": "53.33198",
            "longitude": "-6.276611944",
            "direction": "Outbound"
        },
        {
            "stopid": "1362",
            "fullname": "South Circular Road",
            "latitude": "53.331205",
            "longitude": "-6.279901944",
            "direction": "Outbound"
        },
        {
            "stopid": "1363",
            "fullname": "South Circular Road",
            "latitude": "53.33183889",
            "longitude": "-6.285226111",
            "direction": "Outbound"
        },
        {
            "stopid": "1364",
            "fullname": "South Circular Road",
            "latitude": "53.33232194",
            "longitude": "-6.28801",
            "direction": "Outbound"
        },
        {
            "stopid": "1365",
            "fullname": "South Circular Road",
            "latitude": "53.33289889",
            "longitude": "-6.290441111",
            "direction": "Outbound"
        },
        {
            "stopid": "1366",
            "fullname": "South Circular Road",
            "latitude": "53.33515",
            "longitude": "-6.294314722",
            "direction": "Outbound"
        },
        {
            "stopid": "1367",
            "fullname": "South Circular Road",
            "latitude": "53.33568528",
            "longitude": "-6.296560556",
            "direction": "Outbound"
        },
        {
            "stopid": "1369",
            "fullname": "South Circular Road",
            "latitude": "53.33886694",
            "longitude": "-6.302235",
            "direction": "Outbound"
        },
        {
            "stopid": "1370",
            "fullname": "South Circular Road",
            "latitude": "53.33919111",
            "longitude": "-6.305241944",
            "direction": "Outbound"
        },
        {
            "stopid": "1371",
            "fullname": "Suir Road",
            "latitude": "53.33887806",
            "longitude": "-6.307918056",
            "direction": "Outbound"
        },
        {
            "stopid": "1372",
            "fullname": "Goldenbridge Ave",
            "latitude": "53.33810389",
            "longitude": "-6.309861944",
            "direction": "Outbound"
        },
        {
            "stopid": "1373",
            "fullname": "Goldenbridge Ave",
            "latitude": "53.33777111",
            "longitude": "-6.312016944",
            "direction": "Outbound"
        },
        {
            "stopid": "1374",
            "fullname": "Southern Cross Ave",
            "latitude": "53.33922111",
            "longitude": "-6.312998889",
            "direction": "Outbound"
        },
        {
            "stopid": "1375",
            "fullname": "Bulfin Road",
            "latitude": "53.339585",
            "longitude": "-6.312081944"
        }
    ]
}