{
    "route": "76",
    "stops": [
        {
            "stopid": "2124",
            "fullname": "Neilstown Road",
            "latitude": "53.34695833",
            "longitude": "-6.397931944"
        },
        {
            "stopid": "2125",
            "fullname": "Neilstown Road",
            "latitude": "53.34558667",
            "longitude": "-6.398193611"
        },
        {
            "stopid": "2126",
            "fullname": "Neilstown Road",
            "latitude": "53.34393556",
            "longitude": "-6.398375556"
        },
        {
            "stopid": "2127",
            "fullname": "Neilstown Road",
            "latitude": "53.34157139",
            "longitude": "-6.399035"
        },
        {
            "stopid": "2128",
            "fullname": "Neilstown Road",
            "latitude": "53.33966667",
            "longitude": "-6.399751944"
        },
        {
            "stopid": "2129",
            "fullname": "Neilstown Road",
            "latitude": "53.33572833",
            "longitude": "-6.400305"
        },
        {
            "stopid": "2158",
            "fullname": "Ninth Lock Road",
            "latitude": "53.325485",
            "longitude": "-6.395163611"
        },
        {
            "stopid": "2159",
            "fullname": "Orchard Road",
            "latitude": "53.32322083",
            "longitude": "-6.3938825"
        },
        {
            "stopid": "2243",
            "fullname": "Lucan Road",
            "latitude": "53.35197444",
            "longitude": "-6.355698056"
        },
        {
            "stopid": "2345",
            "fullname": "Belgard Retail Park",
            "latitude": "53.29360889",
            "longitude": "-6.368981667"
        },
        {
            "stopid": "2763",
            "fullname": "Newlands Golf Club",
            "latitude": "53.30880944",
            "longitude": "-6.38629"
        },
        {
            "stopid": "2130",
            "fullname": "Station Road",
            "latitude": "53.32972361",
            "longitude": "-6.397571944"
        },
        {
            "stopid": "2619",
            "fullname": "Belgard Road",
            "latitude": "53.30267528",
            "longitude": "-6.376693611"
        },
        {
            "stopid": "2620",
            "fullname": "Belgard",
            "latitude": "53.29872139",
            "longitude": "-6.370842222"
        },
        {
            "stopid": "2173",
            "fullname": "New Road",
            "latitude": "53.31855194",
            "longitude": "-6.392241667"
        },
        {
            "stopid": "2174",
            "fullname": "New Road",
            "latitude": "53.31639889",
            "longitude": "-6.391226944"
        },
        {
            "stopid": "2655",
            "fullname": "Ballyfermot Rd",
            "latitude": "53.34213806",
            "longitude": "-6.3528475"
        },
        {
            "stopid": "2656",
            "fullname": "Ballyfermot Rd",
            "latitude": "53.34262361",
            "longitude": "-6.358716111"
        },
        {
            "stopid": "2668",
            "fullname": "Ballyfermot Rd",
            "latitude": "53.34298278",
            "longitude": "-6.363283056"
        },
        {
            "stopid": "5006",
            "fullname": "Le Fanu Road",
            "latitude": "53.34620278",
            "longitude": "-6.351699444"
        },
        {
            "stopid": "5007",
            "fullname": "Convent Lawns",
            "latitude": "53.34418833",
            "longitude": "-6.349659722"
        },
        {
            "stopid": "5008",
            "fullname": "Belgard Square",
            "latitude": "53.29045028",
            "longitude": "-6.369356944"
        },
        {
            "stopid": "3425",
            "fullname": "Fonthill Rd",
            "latitude": "53.31390167",
            "longitude": "-6.391996111"
        },
        {
            "stopid": "4409",
            "fullname": "Orchard Road",
            "latitude": "53.32234722",
            "longitude": "-6.393089722"
        },
        {
            "stopid": "4640",
            "fullname": "Old Blessington Rd",
            "latitude": "53.28939556",
            "longitude": "-6.373747222"
        },
        {
            "stopid": "2200",
            "fullname": "Kylemore Rd",
            "latitude": "53.35028278",
            "longitude": "-6.352954167"
        },
        {
            "stopid": "2206",
            "fullname": "Ballyfermot Rd",
            "latitude": "53.34418667",
            "longitude": "-6.375747778"
        },
        {
            "stopid": "2672",
            "fullname": "Ballyfermot Rd",
            "latitude": "53.34335889",
            "longitude": "-6.367774167"
        },
        {
            "stopid": "2673",
            "fullname": "Ballyfermot Rd",
            "latitude": "53.34377944",
            "longitude": "-6.372894444"
        },
        {
            "stopid": "2675",
            "fullname": "Coldcut Rd",
            "latitude": "53.34778889",
            "longitude": "-6.3955275"
        },
        {
            "stopid": "4347",
            "fullname": "Old Blessington Rd",
            "latitude": "53.28622194",
            "longitude": "-6.3750075"
        },
        {
            "stopid": "4798",
            "fullname": "Coldcut Rd",
            "latitude": "53.34561417",
            "longitude": "-6.380920278"
        },
        {
            "stopid": "2110",
            "fullname": "Newlands Cross",
            "latitude": "53.31464722",
            "longitude": "-6.391968056"
        },
        {
            "stopid": "2111",
            "fullname": "Clondalkin Church",
            "latitude": "53.31915889",
            "longitude": "-6.392594167"
        },
        {
            "stopid": "2112",
            "fullname": "Clondalkin Main St",
            "latitude": "53.32067028",
            "longitude": "-6.393377778"
        },
        {
            "stopid": "2114",
            "fullname": "Ninth Lock Road",
            "latitude": "53.32421444",
            "longitude": "-6.395601667"
        },
        {
            "stopid": "2115",
            "fullname": "Ninth Lock Road",
            "latitude": "53.32563",
            "longitude": "-6.395248333"
        },
        {
            "stopid": "2116",
            "fullname": "Michael Collins Pk",
            "latitude": "53.32825056",
            "longitude": "-6.396290833"
        },
        {
            "stopid": "2117",
            "fullname": "Station Road",
            "latitude": "53.32984583",
            "longitude": "-6.397957778"
        },
        {
            "stopid": "2118",
            "fullname": "Neilstown Road",
            "latitude": "53.33562389",
            "longitude": "-6.400564167"
        },
        {
            "stopid": "2119",
            "fullname": "Neilstown Road",
            "latitude": "53.33704806",
            "longitude": "-6.400180556"
        },
        {
            "stopid": "2120",
            "fullname": "Neilstown Road",
            "latitude": "53.34116333",
            "longitude": "-6.399425556"
        },
        {
            "stopid": "2121",
            "fullname": "Neilstown Road",
            "latitude": "53.34387556",
            "longitude": "-6.398603056"
        },
        {
            "stopid": "2123",
            "fullname": "Neilstown Road",
            "latitude": "53.34717611",
            "longitude": "-6.398073889"
        },
        {
            "stopid": "2685",
            "fullname": "Coldcut Rd",
            "latitude": "53.347955",
            "longitude": "-6.395851667"
        },
        {
            "stopid": "2686",
            "fullname": "Coldcut Rd",
            "latitude": "53.34765222",
            "longitude": "-6.388713611"
        },
        {
            "stopid": "2687",
            "fullname": "Ballyfermot Rd",
            "latitude": "53.34396111",
            "longitude": "-6.373037778"
        },
        {
            "stopid": "2688",
            "fullname": "Ballyfermot Rd",
            "latitude": "53.34346361",
            "longitude": "-6.368190833"
        },
        {
            "stopid": "2689",
            "fullname": "Ballyfermot Rd",
            "latitude": "53.34310611",
            "longitude": "-6.363743889"
        },
        {
            "stopid": "2696",
            "fullname": "Ballyfermot Rd",
            "latitude": "53.3426875",
            "longitude": "-6.358803889"
        },
        {
            "stopid": "2363",
            "fullname": "Belgard Road",
            "latitude": "53.28980583",
            "longitude": "-6.368256667"
        },
        {
            "stopid": "2364",
            "fullname": "Belgard Retail Park",
            "latitude": "53.29355083",
            "longitude": "-6.369343889"
        },
        {
            "stopid": "2618",
            "fullname": "Belgard",
            "latitude": "53.29875472",
            "longitude": "-6.371291111"
        },
        {
            "stopid": "2762",
            "fullname": "Newlands Golf Club",
            "latitude": "53.31118111",
            "longitude": "-6.389532222"
        },
        {
            "stopid": "2697",
            "fullname": "Ballyfermot Rd",
            "latitude": "53.3422775",
            "longitude": "-6.3531725"
        },
        {
            "stopid": "4341",
            "fullname": "The Square",
            "latitude": "53.28565583",
            "longitude": "-6.372374167"
        },
        {
            "stopid": "4646",
            "fullname": "Old Blessington Rd",
            "latitude": "53.28943861",
            "longitude": "-6.374270556"
        },
        {
            "stopid": "4647",
            "fullname": "Old Blessington Rd",
            "latitude": "53.2900575",
            "longitude": "-6.371531944"
        },
        {
            "stopid": "5009",
            "fullname": "Le Fanu Road",
            "latitude": "53.34621444",
            "longitude": "-6.351894444"
        },
        {
            "stopid": "5011",
            "fullname": "Belgard Road",
            "latitude": "53.30247111",
            "longitude": "-6.376881389"
        },
        {
            "stopid": "2199",
            "fullname": "Glenaulin",
            "latitude": "53.35196833",
            "longitude": "-6.355908611"
        },
        {
            "stopid": "2205",
            "fullname": "Ballyfermot Rd",
            "latitude": "53.34459056",
            "longitude": "-6.377023889"
        },
        {
            "stopid": "4348",
            "fullname": "Old Blessington Rd",
            "latitude": "53.28668167",
            "longitude": "-6.375095"
        },
        {
            "stopid": "4795",
            "fullname": "Fonthill Rd",
            "latitude": "53.35241806",
            "longitude": "-6.395548889"
        },
        {
            "stopid": "4799",
            "fullname": "Ballyfermot Rd",
            "latitude": "53.34519361",
            "longitude": "-6.379073611"
        },
        {
            "stopid": "4414",
            "fullname": "Convent Lawns",
            "latitude": "53.34433694",
            "longitude": "-6.350014444"
        },
        {
            "stopid": "7510",
            "fullname": "Coldcut Rd",
            "latitude": "53.34719056",
            "longitude": "-6.384495278"
        }
    ]
}