{
    "1041": {
        "25/03/2020 13:30:44": [],
        "25/03/2020 16:15:10": [],
        "25/03/2020 19:24:32": [],
        "25/03/2020 20:53:03": []
    },
    "1073": {
        "25/03/2020 13:30:44": [],
        "25/03/2020 16:15:10": [],
        "25/03/2020 19:24:32": [],
        "25/03/2020 20:53:04": []
    },
    "3583": {
        "25/03/2020 13:30:45": [],
        "25/03/2020 16:15:11": [],
        "25/03/2020 19:24:32": [],
        "25/03/2020 20:53:04": []
    },
    "3584": {
        "25/03/2020 13:30:46": [],
        "25/03/2020 16:15:12": [],
        "25/03/2020 19:24:32": [],
        "25/03/2020 20:53:04": []
    },
    "3585": {
        "25/03/2020 13:30:47": [],
        "25/03/2020 16:15:12": [],
        "25/03/2020 19:24:33": [],
        "25/03/2020 20:53:05": []
    },
    "3586": {
        "25/03/2020 13:30:47": [],
        "25/03/2020 16:15:13": [],
        "25/03/2020 19:24:33": [],
        "25/03/2020 20:53:05": []
    },
    "1050": {
        "25/03/2020 13:30:48": [],
        "25/03/2020 16:15:14": [],
        "25/03/2020 19:24:35": [],
        "25/03/2020 20:53:05": []
    },
    "3089": {
        "25/03/2020 13:30:48": [],
        "25/03/2020 16:15:14": [],
        "25/03/2020 19:24:35": [],
        "25/03/2020 20:53:06": []
    },
    "3090": {
        "25/03/2020 13:30:49": [],
        "25/03/2020 16:15:15": [],
        "25/03/2020 19:24:36": [],
        "25/03/2020 20:53:06": []
    },
    "3708": {
        "25/03/2020 13:30:49": [],
        "25/03/2020 16:15:16": [],
        "25/03/2020 19:24:36": [],
        "25/03/2020 20:53:06": []
    },
    "3709": {
        "25/03/2020 13:30:50": [],
        "25/03/2020 16:15:16": [],
        "25/03/2020 19:24:36": [],
        "25/03/2020 20:53:06": []
    },
    "3587": {
        "25/03/2020 13:30:51": [],
        "25/03/2020 16:15:17": [],
        "25/03/2020 19:24:37": [],
        "25/03/2020 20:53:07": []
    },
    "3588": {
        "25/03/2020 13:30:51": [],
        "25/03/2020 16:15:17": [],
        "25/03/2020 19:24:37": [],
        "25/03/2020 20:53:07": []
    },
    "3589": {
        "25/03/2020 13:30:52": [],
        "25/03/2020 16:15:18": [],
        "25/03/2020 19:24:37": [],
        "25/03/2020 20:53:07": []
    },
    "3590": {
        "25/03/2020 13:30:52": [],
        "25/03/2020 16:15:18": [],
        "25/03/2020 19:24:38": [],
        "25/03/2020 20:53:08": []
    },
    "3591": {
        "25/03/2020 13:30:53": [],
        "25/03/2020 16:15:19": [],
        "25/03/2020 19:24:38": [],
        "25/03/2020 20:53:08": []
    },
    "3592": {
        "25/03/2020 13:30:54": [],
        "25/03/2020 16:15:20": [],
        "25/03/2020 19:24:38": [],
        "25/03/2020 20:53:08": []
    },
    "3598": {
        "25/03/2020 13:30:54": [],
        "25/03/2020 16:15:20": [],
        "25/03/2020 19:24:39": [],
        "25/03/2020 20:53:09": []
    },
    "3605": {
        "25/03/2020 13:30:55": [],
        "25/03/2020 16:15:21": [],
        "25/03/2020 19:24:39": [],
        "25/03/2020 20:53:09": []
    },
    "3606": {
        "25/03/2020 13:30:55": [],
        "25/03/2020 16:15:22": [],
        "25/03/2020 19:24:39": [],
        "25/03/2020 20:53:09": []
    },
    "3607": {
        "25/03/2020 13:30:56": [],
        "25/03/2020 16:15:22": [],
        "25/03/2020 19:24:40": [],
        "25/03/2020 20:53:10": []
    },
    "3608": {
        "25/03/2020 13:30:56": [],
        "25/03/2020 16:15:23": [],
        "25/03/2020 19:24:40": [],
        "25/03/2020 20:53:10": []
    },
    "3609": {
        "25/03/2020 13:30:57": [],
        "25/03/2020 16:15:24": [],
        "25/03/2020 19:24:40": [],
        "25/03/2020 20:53:10": []
    },
    "3669": {
        "25/03/2020 13:30:58": [],
        "25/03/2020 16:15:24": [],
        "25/03/2020 19:24:41": [],
        "25/03/2020 20:53:11": []
    },
    "3671": {
        "25/03/2020 13:30:59": [],
        "25/03/2020 16:15:25": [],
        "25/03/2020 19:24:41": [],
        "25/03/2020 20:53:11": []
    },
    "3672": {
        "25/03/2020 13:31:00": [],
        "25/03/2020 16:15:26": [],
        "25/03/2020 19:24:41": [],
        "25/03/2020 20:53:11": []
    },
    "3678": {
        "25/03/2020 13:31:00": [],
        "25/03/2020 16:15:26": [],
        "25/03/2020 19:24:42": [],
        "25/03/2020 20:53:12": []
    },
    "3706": {
        "25/03/2020 13:31:01": [],
        "25/03/2020 16:15:27": [],
        "25/03/2020 19:24:42": [],
        "25/03/2020 20:53:12": []
    },
    "3707": {
        "25/03/2020 13:31:02": [],
        "25/03/2020 16:15:28": [],
        "25/03/2020 19:24:42": [],
        "25/03/2020 20:53:12": []
    },
    "3710": {
        "25/03/2020 13:31:02": [],
        "25/03/2020 16:15:28": [],
        "25/03/2020 19:24:43": [],
        "25/03/2020 20:53:13": []
    },
    "4925": {
        "25/03/2020 13:31:03": [],
        "25/03/2020 16:15:30": [],
        "25/03/2020 19:24:43": [],
        "25/03/2020 20:53:13": []
    },
    "4926": {
        "25/03/2020 13:31:04": [],
        "25/03/2020 16:15:30": [],
        "25/03/2020 19:24:43": [],
        "25/03/2020 20:53:13": []
    },
    "6033": {
        "25/03/2020 13:31:04": [],
        "25/03/2020 16:15:32": [],
        "25/03/2020 19:24:44": [],
        "25/03/2020 20:53:13": []
    },
    "6055": {
        "25/03/2020 13:31:05": [],
        "25/03/2020 16:15:33": [],
        "25/03/2020 19:24:44": [],
        "25/03/2020 20:53:14": []
    },
    "3642": {
        "25/03/2020 13:31:06": [],
        "25/03/2020 16:15:34": [],
        "25/03/2020 19:24:44": [],
        "25/03/2020 20:53:14": []
    },
    "3643": {
        "25/03/2020 13:31:06": [],
        "25/03/2020 16:15:34": [],
        "25/03/2020 19:24:45": [],
        "25/03/2020 20:53:14": []
    },
    "4465": {
        "25/03/2020 13:31:07": [],
        "25/03/2020 16:15:35": [],
        "25/03/2020 19:24:45": [],
        "25/03/2020 20:53:14": []
    },
    "3078": {
        "25/03/2020 13:31:08": [],
        "25/03/2020 16:15:36": [],
        "25/03/2020 19:24:45": [],
        "25/03/2020 20:53:15": []
    },
    "3087": {
        "25/03/2020 13:31:08": [],
        "25/03/2020 16:15:37": [],
        "25/03/2020 19:24:46": [],
        "25/03/2020 20:53:15": []
    },
    "928": {
        "25/03/2020 13:31:09": [],
        "25/03/2020 16:15:37": [],
        "25/03/2020 19:24:46": [],
        "25/03/2020 20:53:15": []
    },
    "944": {
        "25/03/2020 13:31:09": [],
        "25/03/2020 16:15:38": [],
        "25/03/2020 19:24:46": [],
        "25/03/2020 20:53:16": []
    },
    "945": {
        "25/03/2020 13:31:10": [],
        "25/03/2020 16:15:38": [],
        "25/03/2020 19:24:46": [],
        "25/03/2020 20:53:16": []
    },
    "947": {
        "25/03/2020 13:31:10": [],
        "25/03/2020 16:15:39": [],
        "25/03/2020 19:24:47": [],
        "25/03/2020 20:53:16": []
    },
    "948": {
        "25/03/2020 13:31:11": [],
        "25/03/2020 16:15:40": [],
        "25/03/2020 19:24:47": [],
        "25/03/2020 20:53:16": []
    },
    "949": {
        "25/03/2020 13:31:12": [],
        "25/03/2020 16:15:40": [],
        "25/03/2020 19:24:47": [],
        "25/03/2020 20:53:17": []
    },
    "951": {
        "25/03/2020 13:31:12": [],
        "25/03/2020 16:15:41": [],
        "25/03/2020 19:24:48": [],
        "25/03/2020 20:53:17": []
    },
    "952": {
        "25/03/2020 13:31:13": [],
        "25/03/2020 16:15:41": [],
        "25/03/2020 19:24:48": [],
        "25/03/2020 20:53:17": []
    },
    "953": {
        "25/03/2020 13:31:13": [],
        "25/03/2020 16:15:43": [],
        "25/03/2020 19:24:48": [],
        "25/03/2020 20:53:18": []
    },
    "6117": {
        "25/03/2020 13:31:14": [],
        "25/03/2020 16:15:43": [],
        "25/03/2020 19:24:49": [],
        "25/03/2020 20:53:18": []
    },
    "3599": {
        "25/03/2020 13:31:14": [],
        "25/03/2020 16:15:44": [],
        "25/03/2020 19:24:49": [],
        "25/03/2020 20:53:18": []
    },
    "3610": {
        "25/03/2020 13:31:15": [],
        "25/03/2020 16:15:44": [],
        "25/03/2020 19:24:49": [],
        "25/03/2020 20:53:19": []
    },
    "3611": {
        "25/03/2020 13:31:16": [],
        "25/03/2020 16:15:45": [],
        "25/03/2020 19:24:49": [],
        "25/03/2020 20:53:19": []
    },
    "3612": {
        "25/03/2020 13:31:16": [],
        "25/03/2020 16:15:46": [],
        "25/03/2020 19:24:50": [],
        "25/03/2020 20:53:19": []
    },
    "3613": {
        "25/03/2020 13:31:17": [],
        "25/03/2020 16:15:46": [],
        "25/03/2020 19:24:50": [],
        "25/03/2020 20:53:20": []
    },
    "3615": {
        "25/03/2020 13:31:17": [],
        "25/03/2020 16:15:47": [],
        "25/03/2020 19:24:50": [],
        "25/03/2020 20:53:20": []
    },
    "3616": {
        "25/03/2020 13:31:18": [],
        "25/03/2020 16:15:48": [],
        "25/03/2020 19:24:51": [],
        "25/03/2020 20:53:20": []
    },
    "3618": {
        "25/03/2020 13:31:19": [],
        "25/03/2020 16:15:49": [],
        "25/03/2020 19:24:51": [],
        "25/03/2020 20:53:20": []
    },
    "3619": {
        "25/03/2020 13:31:19": [],
        "25/03/2020 16:15:49": [],
        "25/03/2020 19:24:51": [],
        "25/03/2020 20:53:21": []
    },
    "3620": {
        "25/03/2020 13:31:20": [],
        "25/03/2020 16:15:50": [],
        "25/03/2020 19:24:52": [],
        "25/03/2020 20:53:21": []
    },
    "3622": {
        "25/03/2020 13:31:20": [],
        "25/03/2020 16:15:50": [],
        "25/03/2020 19:24:52": [],
        "25/03/2020 20:53:21": []
    },
    "3623": {
        "25/03/2020 13:31:21": [],
        "25/03/2020 16:15:51": [],
        "25/03/2020 19:24:52": [],
        "25/03/2020 20:53:22": []
    },
    "3656": {
        "25/03/2020 13:31:22": [],
        "25/03/2020 16:15:52": [],
        "25/03/2020 19:24:52": [],
        "25/03/2020 20:53:22": []
    },
    "3663": {
        "25/03/2020 13:31:22": [],
        "25/03/2020 16:16:03": [],
        "25/03/2020 19:24:53": [],
        "25/03/2020 20:53:22": []
    },
    "3691": {
        "25/03/2020 13:31:23": [],
        "25/03/2020 16:16:03": [],
        "25/03/2020 19:24:53": [],
        "25/03/2020 20:53:22": []
    },
    "3701": {
        "25/03/2020 13:31:24": [],
        "25/03/2020 16:16:04": [],
        "25/03/2020 19:24:54": [],
        "25/03/2020 20:53:23": []
    },
    "3702": {
        "25/03/2020 13:31:24": [],
        "25/03/2020 16:16:04": [],
        "25/03/2020 19:24:54": [],
        "25/03/2020 20:53:23": []
    },
    "3704": {
        "25/03/2020 13:31:25": [],
        "25/03/2020 16:16:05": [],
        "25/03/2020 19:24:54": [],
        "25/03/2020 20:53:23": []
    },
    "3634": {
        "25/03/2020 13:31:26": [],
        "25/03/2020 16:16:07": [],
        "25/03/2020 19:24:55": [],
        "25/03/2020 20:53:24": []
    },
    "3635": {
        "25/03/2020 13:31:26": [],
        "25/03/2020 16:16:07": [],
        "25/03/2020 19:24:55": [],
        "25/03/2020 20:53:24": []
    },
    "3636": {
        "25/03/2020 13:31:27": [],
        "25/03/2020 16:16:08": [],
        "25/03/2020 19:24:55": [],
        "25/03/2020 20:53:24": []
    },
    "3641": {
        "25/03/2020 13:31:27": [],
        "25/03/2020 16:16:09": [],
        "25/03/2020 19:24:55": [],
        "25/03/2020 20:53:25": []
    },
    "3653": {
        "25/03/2020 13:31:28": [],
        "25/03/2020 16:16:10": [],
        "25/03/2020 19:24:56": [],
        "25/03/2020 20:53:25": []
    },
    "4330": {
        "25/03/2020 13:31:29": [],
        "25/03/2020 16:16:10": [],
        "25/03/2020 19:24:56": [],
        "25/03/2020 20:53:25": []
    },
    "4331": {
        "25/03/2020 13:31:30": [],
        "25/03/2020 16:16:11": [],
        "25/03/2020 19:24:56": [],
        "25/03/2020 20:53:25": []
    },
    "1039": {
        "25/03/2020 13:31:31": [],
        "25/03/2020 16:16:12": [],
        "25/03/2020 19:24:57": [],
        "25/03/2020 20:53:26": []
    },
    "1040": {
        "25/03/2020 13:31:31": [],
        "25/03/2020 16:16:12": [],
        "25/03/2020 19:24:57": [],
        "25/03/2020 20:53:26": []
    },
    "3572": {
        "25/03/2020 13:31:32": [],
        "25/03/2020 16:16:13": [],
        "25/03/2020 19:24:57": [],
        "25/03/2020 20:53:26": []
    },
    "4503": {
        "25/03/2020 13:31:32": [],
        "25/03/2020 16:16:14": [],
        "25/03/2020 19:24:58": [],
        "25/03/2020 20:53:27": []
    },
    "733": {
        "25/03/2020 13:31:33": [],
        "25/03/2020 16:16:15": [],
        "25/03/2020 19:24:58": [],
        "25/03/2020 20:53:27": []
    },
    "3088": {
        "25/03/2020 13:31:34": [],
        "25/03/2020 16:16:15": [],
        "25/03/2020 19:24:58": [],
        "25/03/2020 20:53:27": []
    },
    "4381": {
        "25/03/2020 13:31:34": [],
        "25/03/2020 16:16:16": [],
        "25/03/2020 19:24:58": [],
        "25/03/2020 20:53:28": []
    },
    "4387": {
        "25/03/2020 13:31:35": [],
        "25/03/2020 16:16:17": [],
        "25/03/2020 19:24:59": [],
        "25/03/2020 20:53:28": []
    },
    "6010": {
        "25/03/2020 13:31:36": [],
        "25/03/2020 16:16:18": [],
        "25/03/2020 19:24:59": [],
        "25/03/2020 20:53:28": []
    },
    "6015": {
        "25/03/2020 13:31:36": [],
        "25/03/2020 16:16:18": [],
        "25/03/2020 19:24:59": [],
        "25/03/2020 20:53:29": []
    },
    "788": {
        "25/03/2020 13:31:38": [],
        "25/03/2020 16:16:19": [],
        "25/03/2020 19:25:00": [],
        "25/03/2020 20:53:29": []
    },
    "4339": {
        "25/03/2020 13:31:38": [],
        "25/03/2020 16:16:20": [],
        "25/03/2020 19:25:00": [],
        "25/03/2020 20:53:29": []
    },
    "6135": {
        "25/03/2020 13:31:39": [],
        "25/03/2020 16:16:21": [],
        "25/03/2020 19:25:00": [],
        "25/03/2020 20:53:30": []
    },
    "815": {
        "25/03/2020 13:31:40": [],
        "25/03/2020 16:16:21": [],
        "25/03/2020 19:25:01": [],
        "25/03/2020 20:53:30": []
    },
    "816": {
        "25/03/2020 13:31:41": [],
        "25/03/2020 16:16:22": [],
        "25/03/2020 19:25:01": [],
        "25/03/2020 20:53:30": []
    },
    "7348": {
        "25/03/2020 13:31:41": [],
        "25/03/2020 16:16:23": [],
        "25/03/2020 19:25:01": [],
        "25/03/2020 20:53:31": []
    },
    "913": {
        "25/03/2020 13:31:42": [],
        "25/03/2020 16:16:23": [],
        "25/03/2020 19:25:02": [],
        "25/03/2020 20:53:31": []
    },
    "914": {
        "25/03/2020 13:31:43": [],
        "25/03/2020 16:16:24": [],
        "25/03/2020 19:25:02": [],
        "25/03/2020 20:53:31": []
    },
    "935": {
        "25/03/2020 13:31:44": [],
        "25/03/2020 16:16:24": [],
        "25/03/2020 19:25:02": [],
        "25/03/2020 20:53:31": []
    },
    "936": {
        "25/03/2020 13:31:44": [],
        "25/03/2020 16:16:25": [],
        "25/03/2020 19:25:03": [],
        "25/03/2020 20:53:32": []
    },
    "938": {
        "25/03/2020 13:31:46": [],
        "25/03/2020 16:16:26": [],
        "25/03/2020 19:25:03": [],
        "25/03/2020 20:53:32": []
    },
    "940": {
        "25/03/2020 13:31:46": [],
        "25/03/2020 16:16:27": [],
        "25/03/2020 19:25:03": [],
        "25/03/2020 20:53:32": []
    },
    "941": {
        "25/03/2020 13:31:47": [],
        "25/03/2020 16:16:28": [],
        "25/03/2020 19:25:04": [],
        "25/03/2020 20:53:33": []
    },
    "942": {
        "25/03/2020 13:31:47": [],
        "25/03/2020 16:16:29": [],
        "25/03/2020 19:25:04": [],
        "25/03/2020 20:53:33": []
    },
    "943": {
        "25/03/2020 13:31:48": [],
        "25/03/2020 16:16:29": [],
        "25/03/2020 19:25:04": [],
        "25/03/2020 20:53:33": []
    },
    "3705": {
        "25/03/2020 13:31:49": [],
        "25/03/2020 16:16:30": [],
        "25/03/2020 19:25:05": [],
        "25/03/2020 20:53:34": []
    },
    "6054": {
        "25/03/2020 13:31:50": [],
        "25/03/2020 16:16:30": [],
        "25/03/2020 19:25:05": [],
        "25/03/2020 20:53:34": []
    },
    "905": {
        "25/03/2020 13:31:51": [],
        "25/03/2020 16:16:31": [],
        "25/03/2020 19:25:05": [],
        "25/03/2020 20:53:34": []
    }
}