{
    "747": {
        "27/03/2020 14:33:50": [],
        "27/03/2020 18:09:46": []
    },
    "748": {
        "27/03/2020 14:33:51": [],
        "27/03/2020 18:09:46": []
    },
    "336": {
        "27/03/2020 14:33:51": [],
        "27/03/2020 18:09:46": []
    },
    "404": {
        "27/03/2020 14:33:52": [],
        "27/03/2020 18:09:46": []
    },
    "2172": {
        "27/03/2020 14:33:52": [],
        "27/03/2020 18:09:47": [
            162
        ]
    },
    "2678": {
        "27/03/2020 14:33:53": [],
        "27/03/2020 18:09:47": []
    },
    "2679": {
        "27/03/2020 14:33:53": [],
        "27/03/2020 18:09:47": []
    },
    "2680": {
        "27/03/2020 14:33:54": [],
        "27/03/2020 18:09:47": []
    },
    "4401": {
        "27/03/2020 14:33:55": [],
        "27/03/2020 18:09:48": []
    },
    "4407": {
        "27/03/2020 14:33:55": [],
        "27/03/2020 18:09:48": []
    },
    "4409": {
        "27/03/2020 14:33:56": [],
        "27/03/2020 18:09:48": [
            118
        ]
    },
    "4410": {
        "27/03/2020 14:33:56": [],
        "27/03/2020 18:09:48": []
    },
    "7012": {
        "27/03/2020 14:33:57": [],
        "27/03/2020 18:09:49": []
    },
    "7392": {
        "27/03/2020 14:33:57": [],
        "27/03/2020 18:09:49": []
    },
    "1965": {
        "27/03/2020 14:33:58": [],
        "27/03/2020 18:09:49": [
            157
        ]
    },
    "1966": {
        "27/03/2020 14:33:59": [],
        "27/03/2020 18:09:50": []
    },
    "2136": {
        "27/03/2020 14:33:59": [],
        "27/03/2020 18:09:50": [
            98
        ]
    },
    "2137": {
        "27/03/2020 14:34:00": [],
        "27/03/2020 18:09:50": [
            57
        ]
    },
    "2138": {
        "27/03/2020 14:34:00": [],
        "27/03/2020 18:09:51": [
            107
        ]
    },
    "2139": {
        "27/03/2020 14:34:01": [],
        "27/03/2020 18:09:51": [
            128
        ]
    },
    "2140": {
        "27/03/2020 14:34:01": [],
        "27/03/2020 18:09:51": [
            110
        ]
    },
    "2141": {
        "27/03/2020 14:34:02": [],
        "27/03/2020 18:09:51": [
            136
        ]
    },
    "2142": {
        "27/03/2020 14:34:03": [],
        "27/03/2020 18:09:52": [
            152
        ]
    },
    "2143": {
        "27/03/2020 14:34:03": [],
        "27/03/2020 18:09:52": [
            121
        ]
    },
    "2145": {
        "27/03/2020 14:34:04": [],
        "27/03/2020 18:09:52": [
            151
        ]
    },
    "2201": {
        "27/03/2020 14:34:04": [],
        "27/03/2020 18:09:53": []
    },
    "2213": {
        "27/03/2020 14:34:05": [],
        "27/03/2020 18:09:53": []
    },
    "2637": {
        "27/03/2020 14:34:06": [],
        "27/03/2020 18:09:53": []
    },
    "2638": {
        "27/03/2020 14:34:06": [],
        "27/03/2020 18:09:53": []
    },
    "2721": {
        "27/03/2020 14:34:07": [],
        "27/03/2020 18:09:54": []
    },
    "1443": {
        "27/03/2020 14:34:07": [],
        "27/03/2020 18:09:54": []
    },
    "1444": {
        "27/03/2020 14:34:08": [],
        "27/03/2020 18:09:54": []
    },
    "1445": {
        "27/03/2020 14:34:09": [],
        "27/03/2020 18:09:55": []
    },
    "3420": {
        "27/03/2020 14:34:09": [],
        "27/03/2020 18:09:55": [
            75
        ]
    },
    "3421": {
        "27/03/2020 14:34:10": [],
        "27/03/2020 18:09:55": [
            73
        ]
    },
    "3422": {
        "27/03/2020 14:34:10": [],
        "27/03/2020 18:09:55": [
            43
        ]
    },
    "3465": {
        "27/03/2020 14:34:11": [],
        "27/03/2020 18:09:56": [
            119
        ]
    },
    "4670": {
        "27/03/2020 14:34:11": [],
        "27/03/2020 18:09:56": [
            51
        ]
    },
    "4671": {
        "27/03/2020 14:34:12": [],
        "27/03/2020 18:09:56": [
            40
        ]
    },
    "4672": {
        "27/03/2020 14:34:12": [],
        "27/03/2020 18:09:57": [
            19
        ]
    },
    "4673": {
        "27/03/2020 14:34:13": [],
        "27/03/2020 18:09:57": [
            139
        ]
    },
    "4677": {
        "27/03/2020 14:34:13": [],
        "27/03/2020 18:09:57": []
    },
    "4688": {
        "27/03/2020 14:34:14": [],
        "27/03/2020 18:09:58": []
    },
    "4689": {
        "27/03/2020 14:34:15": [],
        "27/03/2020 18:09:58": []
    },
    "4550": {
        "27/03/2020 14:34:15": [],
        "27/03/2020 18:09:58": [
            110
        ]
    },
    "4551": {
        "27/03/2020 14:34:16": [],
        "27/03/2020 18:09:58": [
            117
        ]
    },
    "7201": {
        "27/03/2020 14:34:16": [],
        "27/03/2020 18:09:59": [
            47
        ]
    },
    "4664": {
        "27/03/2020 14:34:17": [],
        "27/03/2020 18:09:59": []
    },
    "2160": {
        "27/03/2020 14:34:17": [],
        "27/03/2020 18:09:59": []
    },
    "4665": {
        "27/03/2020 14:34:18": [],
        "27/03/2020 18:09:59": []
    },
    "4666": {
        "27/03/2020 14:34:19": [],
        "27/03/2020 18:10:00": []
    },
    "4667": {
        "27/03/2020 14:34:19": [],
        "27/03/2020 18:10:00": []
    },
    "4668": {
        "27/03/2020 14:34:20": [],
        "27/03/2020 18:10:00": []
    },
    "3376": {
        "27/03/2020 14:34:20": [],
        "27/03/2020 18:10:01": []
    },
    "3377": {
        "27/03/2020 14:34:21": [],
        "27/03/2020 18:10:01": []
    },
    "3378": {
        "27/03/2020 14:34:22": [],
        "27/03/2020 18:10:01": []
    },
    "3379": {
        "27/03/2020 14:34:22": [],
        "27/03/2020 18:10:01": []
    },
    "4669": {
        "27/03/2020 14:34:23": [],
        "27/03/2020 18:10:02": []
    },
    "2146": {
        "27/03/2020 14:34:23": [],
        "27/03/2020 18:10:02": []
    },
    "2147": {
        "27/03/2020 14:34:24": [],
        "27/03/2020 18:10:02": []
    },
    "2148": {
        "27/03/2020 14:34:25": [],
        "27/03/2020 18:10:03": []
    },
    "2149": {
        "27/03/2020 14:34:25": [],
        "27/03/2020 18:10:03": []
    },
    "2150": {
        "27/03/2020 14:34:26": [],
        "27/03/2020 18:10:03": []
    },
    "2151": {
        "27/03/2020 14:34:26": [],
        "27/03/2020 18:10:03": []
    },
    "2152": {
        "27/03/2020 14:34:27": [],
        "27/03/2020 18:10:04": []
    },
    "2153": {
        "27/03/2020 14:34:27": [],
        "27/03/2020 18:10:04": []
    },
    "2154": {
        "27/03/2020 14:34:28": [],
        "27/03/2020 18:10:04": []
    },
    "6245": {
        "27/03/2020 14:34:29": [],
        "27/03/2020 18:10:05": []
    },
    "6013": {
        "27/03/2020 14:34:29": [],
        "27/03/2020 18:10:05": []
    },
    "6247": {
        "27/03/2020 14:34:30": [],
        "27/03/2020 18:10:05": []
    },
    "2681": {
        "27/03/2020 14:34:30": [],
        "27/03/2020 18:10:06": []
    },
    "4691": {
        "27/03/2020 14:34:31": [],
        "27/03/2020 18:10:06": []
    },
    "4796": {
        "27/03/2020 14:34:31": [],
        "27/03/2020 18:10:06": []
    },
    "4690": {
        "27/03/2020 14:34:32": [],
        "27/03/2020 18:10:07": []
    },
    "4411": {
        "27/03/2020 14:34:32": [],
        "27/03/2020 18:10:07": []
    },
    "2239": {
        "27/03/2020 14:34:33": [],
        "27/03/2020 18:10:07": []
    },
    "2241": {
        "27/03/2020 14:34:34": [],
        "27/03/2020 18:10:07": []
    },
    "2242": {
        "27/03/2020 14:34:34": [],
        "27/03/2020 18:10:08": []
    },
    "7435": {
        "27/03/2020 14:34:35": [],
        "27/03/2020 18:10:08": []
    },
    "2722": {
        "27/03/2020 14:34:36": [],
        "27/03/2020 18:10:08": []
    },
    "4413": {
        "27/03/2020 14:34:36": [],
        "27/03/2020 18:10:09": []
    },
    "1476": {
        "27/03/2020 14:34:37": [],
        "27/03/2020 18:10:09": []
    },
    "7453": {
        "27/03/2020 14:34:37": [],
        "27/03/2020 18:10:09": []
    },
    "1478": {
        "27/03/2020 14:34:38": [],
        "27/03/2020 18:10:09": []
    },
    "1479": {
        "27/03/2020 14:34:39": [],
        "27/03/2020 18:10:10": []
    },
    "315": {
        "27/03/2020 14:34:39": [],
        "27/03/2020 18:10:10": []
    },
    "4495": {
        "27/03/2020 14:34:40": [],
        "27/03/2020 18:10:10": []
    },
    "2809": {
        "27/03/2020 14:34:41": [],
        "27/03/2020 18:10:11": []
    },
    "2810": {
        "27/03/2020 14:34:41": [],
        "27/03/2020 18:10:11": []
    },
    "2811": {
        "27/03/2020 14:34:42": [],
        "27/03/2020 18:10:11": []
    },
    "749": {
        "27/03/2020 14:34:42": [],
        "27/03/2020 18:10:11": []
    },
    "750": {
        "27/03/2020 14:34:43": [],
        "27/03/2020 18:10:12": []
    },
    "751": {
        "27/03/2020 14:34:44": [],
        "27/03/2020 18:10:12": []
    },
    "752": {
        "27/03/2020 14:34:44": [],
        "27/03/2020 18:10:12": []
    },
    "753": {
        "27/03/2020 14:34:45": [],
        "27/03/2020 18:10:13": []
    },
    "754": {
        "27/03/2020 14:34:45": [],
        "27/03/2020 18:10:13": []
    },
    "755": {
        "27/03/2020 14:34:46": [],
        "27/03/2020 18:10:13": []
    }
}