{
    "7392": {
        "21/03/2020 14:59:53": [],
        "21/03/2020 15:00:24": [],
        "21/03/2020 17:17:48": [],
        "21/03/2020 20:00:54": [],
        "21/03/2020 22:03:09": []
    },
    "1443": {
        "21/03/2020 14:59:54": [],
        "21/03/2020 15:00:29": [],
        "21/03/2020 17:17:53": [],
        "21/03/2020 20:01:01": [],
        "21/03/2020 22:03:16": []
    },
    "1444": {
        "21/03/2020 14:59:54": [],
        "21/03/2020 15:00:29": [],
        "21/03/2020 17:17:54": [],
        "21/03/2020 20:01:02": [],
        "21/03/2020 22:03:17": []
    },
    "1445": {
        "21/03/2020 14:59:54": [],
        "21/03/2020 15:00:29": [],
        "21/03/2020 17:17:54": [],
        "21/03/2020 20:01:02": [],
        "21/03/2020 22:03:17": []
    },
    "4407": {
        "21/03/2020 14:59:55": [],
        "21/03/2020 15:00:23": [],
        "21/03/2020 17:17:47": [],
        "21/03/2020 20:00:52": [],
        "21/03/2020 22:03:07": []
    },
    "2637": {
        "21/03/2020 14:59:55": [],
        "21/03/2020 15:00:28": [],
        "21/03/2020 17:17:52": [],
        "21/03/2020 20:01:00": [],
        "21/03/2020 22:03:15": []
    },
    "2638": {
        "21/03/2020 14:59:55": [],
        "21/03/2020 15:00:28": [],
        "21/03/2020 17:17:53": [],
        "21/03/2020 20:01:00": [],
        "21/03/2020 22:03:16": []
    },
    "2721": {
        "21/03/2020 14:59:55": [],
        "21/03/2020 15:00:28": [],
        "21/03/2020 17:17:53": [],
        "21/03/2020 20:01:01": [],
        "21/03/2020 22:03:16": []
    },
    "7012": {
        "21/03/2020 14:59:56": [],
        "21/03/2020 15:00:24": [],
        "21/03/2020 17:17:48": [],
        "21/03/2020 20:00:53": [],
        "21/03/2020 22:03:08": []
    },
    "2201": {
        "21/03/2020 14:59:56": [],
        "21/03/2020 15:00:27": [],
        "21/03/2020 17:17:52": [],
        "21/03/2020 20:00:59": [],
        "21/03/2020 22:03:14": []
    },
    "4401": {
        "21/03/2020 14:59:56": [],
        "21/03/2020 15:00:22": [],
        "21/03/2020 17:17:47": [],
        "21/03/2020 20:00:52": [],
        "21/03/2020 22:03:07": []
    },
    "2213": {
        "21/03/2020 14:59:57": [],
        "21/03/2020 15:00:27": [],
        "21/03/2020 17:17:52": [],
        "21/03/2020 20:00:59": [],
        "21/03/2020 22:03:15": []
    },
    "4688": {
        "21/03/2020 14:59:57": [],
        "21/03/2020 15:00:32": [],
        "21/03/2020 17:17:57": [],
        "21/03/2020 20:01:06": [],
        "21/03/2020 22:03:22": []
    },
    "4689": {
        "21/03/2020 14:59:57": [],
        "21/03/2020 15:00:32": [],
        "21/03/2020 17:17:57": [],
        "21/03/2020 20:01:07": [],
        "21/03/2020 22:03:22": []
    },
    "4410": {
        "21/03/2020 14:59:57": [],
        "21/03/2020 15:00:23": [],
        "21/03/2020 17:17:48": [],
        "21/03/2020 20:00:53": [],
        "21/03/2020 22:03:08": []
    },
    "2678": {
        "21/03/2020 14:59:58": [],
        "21/03/2020 15:00:22": [],
        "21/03/2020 17:17:46": [],
        "21/03/2020 20:00:50": [],
        "21/03/2020 22:03:06": []
    },
    "2679": {
        "21/03/2020 14:59:58": [],
        "21/03/2020 15:00:22": [],
        "21/03/2020 17:17:46": [],
        "21/03/2020 20:00:51": [],
        "21/03/2020 22:03:06": []
    },
    "2680": {
        "21/03/2020 14:59:58": [],
        "21/03/2020 15:00:22": [],
        "21/03/2020 17:17:46": [],
        "21/03/2020 20:00:51": [],
        "21/03/2020 22:03:06": []
    },
    "4677": {
        "21/03/2020 14:59:59": [],
        "21/03/2020 15:00:32": [],
        "21/03/2020 17:17:56": [],
        "21/03/2020 20:01:06": [],
        "21/03/2020 22:03:21": []
    },
    "2136": {
        "21/03/2020 14:59:59": [],
        "21/03/2020 15:00:25": [],
        "21/03/2020 17:17:49": [],
        "21/03/2020 20:00:55": [],
        "21/03/2020 22:03:10": []
    },
    "2137": {
        "21/03/2020 14:59:59": [],
        "21/03/2020 15:00:25": [],
        "21/03/2020 17:17:49": [],
        "21/03/2020 20:00:56": [],
        "21/03/2020 22:03:11": []
    },
    "7201": {
        "21/03/2020 14:59:59": [],
        "21/03/2020 15:00:33": [],
        "21/03/2020 17:17:58": [],
        "21/03/2020 20:01:08": [],
        "21/03/2020 22:03:23": []
    },
    "2138": {
        "21/03/2020 15:00:00": [],
        "21/03/2020 15:00:25": [],
        "21/03/2020 17:17:50": [],
        "21/03/2020 20:00:56": [],
        "21/03/2020 22:03:11": []
    },
    "2139": {
        "21/03/2020 15:00:00": [],
        "21/03/2020 15:00:26": [],
        "21/03/2020 17:17:50": [],
        "21/03/2020 20:00:57": [],
        "21/03/2020 22:03:12": []
    },
    "2140": {
        "21/03/2020 15:00:01": [],
        "21/03/2020 15:00:26": [],
        "21/03/2020 17:17:50": [],
        "21/03/2020 20:00:57": [],
        "21/03/2020 22:03:12": []
    },
    "2141": {
        "21/03/2020 15:00:01": [],
        "21/03/2020 15:00:26": [],
        "21/03/2020 17:17:51": [],
        "21/03/2020 20:00:57": [],
        "21/03/2020 22:03:12": []
    },
    "2142": {
        "21/03/2020 15:00:01": [],
        "21/03/2020 15:00:26": [],
        "21/03/2020 17:17:51": [],
        "21/03/2020 20:00:58": [],
        "21/03/2020 22:03:13": []
    },
    "2143": {
        "21/03/2020 15:00:02": [],
        "21/03/2020 15:00:27": [],
        "21/03/2020 17:17:51": [],
        "21/03/2020 20:00:58": [],
        "21/03/2020 22:03:13": []
    },
    "2145": {
        "21/03/2020 15:00:02": [],
        "21/03/2020 15:00:27": [],
        "21/03/2020 17:17:51": [],
        "21/03/2020 20:00:59": [],
        "21/03/2020 22:03:14": []
    },
    "4670": {
        "21/03/2020 15:00:02": [],
        "21/03/2020 15:00:31": [],
        "21/03/2020 17:17:55": [],
        "21/03/2020 20:01:04": [],
        "21/03/2020 22:03:20": []
    },
    "3420": {
        "21/03/2020 15:00:03": [],
        "21/03/2020 15:00:29": [],
        "21/03/2020 17:17:54": [],
        "21/03/2020 20:01:02": [],
        "21/03/2020 22:03:18": []
    },
    "3421": {
        "21/03/2020 15:00:03": [],
        "21/03/2020 15:00:30": [],
        "21/03/2020 17:17:54": [],
        "21/03/2020 20:01:03": [],
        "21/03/2020 22:03:18": []
    },
    "3422": {
        "21/03/2020 15:00:03": [],
        "21/03/2020 15:00:30": [],
        "21/03/2020 17:17:55": [],
        "21/03/2020 20:01:03": [],
        "21/03/2020 22:03:19": []
    },
    "4671": {
        "21/03/2020 15:00:03": [],
        "21/03/2020 15:00:31": [],
        "21/03/2020 17:17:55": [],
        "21/03/2020 20:01:04": [],
        "21/03/2020 22:03:20": []
    },
    "4672": {
        "21/03/2020 15:00:04": [],
        "21/03/2020 15:00:31": [],
        "21/03/2020 17:17:56": [],
        "21/03/2020 20:01:05": [],
        "21/03/2020 22:03:20": []
    },
    "3465": {
        "21/03/2020 15:00:04": [],
        "21/03/2020 15:00:30": [],
        "21/03/2020 17:17:55": [],
        "21/03/2020 20:01:04": [],
        "21/03/2020 22:03:19": []
    },
    "4673": {
        "21/03/2020 15:00:04": [],
        "21/03/2020 15:00:31": [],
        "21/03/2020 17:17:56": [],
        "21/03/2020 20:01:05": [],
        "21/03/2020 22:03:21": []
    },
    "2172": {
        "21/03/2020 15:00:05": [],
        "21/03/2020 15:00:21": [],
        "21/03/2020 17:17:46": [],
        "21/03/2020 20:00:50": [],
        "21/03/2020 22:03:05": []
    },
    "4409": {
        "21/03/2020 15:00:05": [],
        "21/03/2020 15:00:23": [],
        "21/03/2020 17:17:47": [],
        "21/03/2020 20:00:53": [],
        "21/03/2020 22:03:08": []
    },
    "4550": {
        "21/03/2020 15:00:05": [],
        "21/03/2020 15:00:33": [],
        "21/03/2020 17:17:57": [],
        "21/03/2020 20:01:07": [],
        "21/03/2020 22:03:22": []
    },
    "4551": {
        "21/03/2020 15:00:06": [],
        "21/03/2020 15:00:33": [],
        "21/03/2020 17:17:58": [],
        "21/03/2020 20:01:07": [],
        "21/03/2020 22:03:23": []
    },
    "1965": {
        "21/03/2020 15:00:06": [],
        "21/03/2020 15:00:24": [],
        "21/03/2020 17:17:49": [],
        "21/03/2020 20:00:55": [],
        "21/03/2020 22:03:09": []
    },
    "1966": {
        "21/03/2020 15:00:06": [],
        "21/03/2020 15:00:24": [],
        "21/03/2020 17:17:49": [],
        "21/03/2020 20:00:55": [],
        "21/03/2020 22:03:10": []
    },
    "4411": {
        "21/03/2020 15:00:06": [],
        "21/03/2020 15:00:42": [],
        "21/03/2020 17:18:06": [],
        "21/03/2020 20:01:19": [],
        "21/03/2020 22:03:36": []
    },
    "4413": {
        "21/03/2020 15:00:07": [],
        "21/03/2020 15:00:43": [],
        "21/03/2020 17:18:08": [],
        "21/03/2020 20:01:22": [],
        "21/03/2020 22:03:39": []
    },
    "7453": {
        "21/03/2020 15:00:07": [],
        "21/03/2020 15:00:44": [],
        "21/03/2020 17:18:09": [],
        "21/03/2020 20:01:23": [],
        "21/03/2020 22:03:39": []
    },
    "747": {
        "21/03/2020 15:00:07": [],
        "21/03/2020 17:17:44": [],
        "21/03/2020 20:00:48": [],
        "21/03/2020 22:03:03": []
    },
    "748": {
        "21/03/2020 15:00:08": [],
        "21/03/2020 17:17:45": [],
        "21/03/2020 20:00:49": [],
        "21/03/2020 22:03:04": []
    },
    "749": {
        "21/03/2020 15:00:08": [],
        "21/03/2020 15:00:46": [],
        "21/03/2020 17:18:11": [],
        "21/03/2020 20:01:26": [],
        "21/03/2020 22:03:43": []
    },
    "750": {
        "21/03/2020 15:00:08": [],
        "21/03/2020 15:00:46": [],
        "21/03/2020 17:18:11": [],
        "21/03/2020 20:01:26": [],
        "21/03/2020 22:03:43": []
    },
    "1476": {
        "21/03/2020 15:00:09": [],
        "21/03/2020 15:00:44": [],
        "21/03/2020 17:18:08": [],
        "21/03/2020 20:01:22": [],
        "21/03/2020 22:03:39": []
    },
    "315": {
        "21/03/2020 15:00:09": [],
        "21/03/2020 15:00:45": [],
        "21/03/2020 17:18:10": [],
        "21/03/2020 20:01:24": [],
        "21/03/2020 22:03:41": []
    },
    "336": {
        "21/03/2020 15:00:09": [],
        "21/03/2020 17:17:45": [],
        "21/03/2020 20:00:49": [],
        "21/03/2020 22:03:04": []
    },
    "4664": {
        "21/03/2020 15:00:09": [],
        "21/03/2020 15:00:34": [],
        "21/03/2020 17:17:58": [],
        "21/03/2020 20:01:08": [],
        "21/03/2020 22:03:24": []
    },
    "4665": {
        "21/03/2020 15:00:10": [],
        "21/03/2020 15:00:35": [],
        "21/03/2020 17:17:59": [],
        "21/03/2020 20:01:09": [],
        "21/03/2020 22:03:25": []
    },
    "4666": {
        "21/03/2020 15:00:10": [],
        "21/03/2020 15:00:35": [],
        "21/03/2020 17:17:59": [],
        "21/03/2020 20:01:09": [],
        "21/03/2020 22:03:25": []
    },
    "4667": {
        "21/03/2020 15:00:10": [],
        "21/03/2020 15:00:35": [],
        "21/03/2020 17:17:59": [],
        "21/03/2020 20:01:10": [],
        "21/03/2020 22:03:25": []
    },
    "4668": {
        "21/03/2020 15:00:10": [],
        "21/03/2020 15:00:35": [],
        "21/03/2020 17:18:00": [],
        "21/03/2020 20:01:10": [],
        "21/03/2020 22:03:26": []
    },
    "4669": {
        "21/03/2020 15:00:11": [],
        "21/03/2020 15:00:37": [],
        "21/03/2020 17:18:01": [],
        "21/03/2020 20:01:12": [],
        "21/03/2020 22:03:28": []
    },
    "4690": {
        "21/03/2020 15:00:11": [],
        "21/03/2020 15:00:41": [],
        "21/03/2020 17:18:06": [],
        "21/03/2020 20:01:19": [],
        "21/03/2020 22:03:35": []
    },
    "4691": {
        "21/03/2020 15:00:11": [],
        "21/03/2020 15:00:41": [],
        "21/03/2020 17:18:05": [],
        "21/03/2020 20:01:18": [],
        "21/03/2020 22:03:35": []
    },
    "4796": {
        "21/03/2020 15:00:12": [],
        "21/03/2020 15:00:41": [],
        "21/03/2020 17:18:06": [],
        "21/03/2020 20:01:19": [],
        "21/03/2020 22:03:35": []
    },
    "7435": {
        "21/03/2020 15:00:12": [],
        "21/03/2020 15:00:43": [],
        "21/03/2020 17:18:07": [],
        "21/03/2020 20:01:21": [],
        "21/03/2020 22:03:38": []
    },
    "2149": {
        "21/03/2020 15:00:12": [],
        "21/03/2020 15:00:38": [],
        "21/03/2020 17:18:02": [],
        "21/03/2020 20:01:14": [],
        "21/03/2020 22:03:30": []
    },
    "2150": {
        "21/03/2020 15:00:12": [],
        "21/03/2020 15:00:38": [],
        "21/03/2020 17:18:03": [],
        "21/03/2020 20:01:15": [],
        "21/03/2020 22:03:30": []
    },
    "2151": {
        "21/03/2020 15:00:13": [],
        "21/03/2020 15:00:38": [],
        "21/03/2020 17:18:03": [],
        "21/03/2020 20:01:15": [],
        "21/03/2020 22:03:31": []
    },
    "2152": {
        "21/03/2020 15:00:13": [],
        "21/03/2020 15:00:39": [],
        "21/03/2020 17:18:03": [],
        "21/03/2020 20:01:15": [],
        "21/03/2020 22:03:31": []
    },
    "2153": {
        "21/03/2020 15:00:13": [],
        "21/03/2020 15:00:39": [],
        "21/03/2020 17:18:04": [],
        "21/03/2020 20:01:16": [],
        "21/03/2020 22:03:32": []
    },
    "2154": {
        "21/03/2020 15:00:14": [],
        "21/03/2020 15:00:39": [],
        "21/03/2020 17:18:04": [],
        "21/03/2020 20:01:16": [],
        "21/03/2020 22:03:32": []
    },
    "2160": {
        "21/03/2020 15:00:14": [],
        "21/03/2020 15:00:34": [],
        "21/03/2020 17:17:59": [],
        "21/03/2020 20:01:09": [],
        "21/03/2020 22:03:24": []
    },
    "2239": {
        "21/03/2020 15:00:14": [],
        "21/03/2020 15:00:42": [],
        "21/03/2020 17:18:07": [],
        "21/03/2020 20:01:20": [],
        "21/03/2020 22:03:36": []
    },
    "2241": {
        "21/03/2020 15:00:15": [],
        "21/03/2020 15:00:42": [],
        "21/03/2020 17:18:07": [],
        "21/03/2020 20:01:20": [],
        "21/03/2020 22:03:37": []
    },
    "2242": {
        "21/03/2020 15:00:15": [],
        "21/03/2020 15:00:42": [],
        "21/03/2020 17:18:07": [],
        "21/03/2020 20:01:21": [],
        "21/03/2020 22:03:37": []
    },
    "2681": {
        "21/03/2020 15:00:15": [],
        "21/03/2020 15:00:40": [],
        "21/03/2020 17:18:05": [],
        "21/03/2020 20:01:18": [],
        "21/03/2020 22:03:34": []
    },
    "3376": {
        "21/03/2020 15:00:15": [],
        "21/03/2020 15:00:36": [],
        "21/03/2020 17:18:00": [],
        "21/03/2020 20:01:11": [],
        "21/03/2020 22:03:26": []
    },
    "3377": {
        "21/03/2020 15:00:16": [],
        "21/03/2020 15:00:36": [],
        "21/03/2020 17:18:00": [],
        "21/03/2020 20:01:11": [],
        "21/03/2020 22:03:27": []
    },
    "3378": {
        "21/03/2020 15:00:16": [],
        "21/03/2020 15:00:36": [],
        "21/03/2020 17:18:01": [],
        "21/03/2020 20:01:12": [],
        "21/03/2020 22:03:27": []
    },
    "3379": {
        "21/03/2020 15:00:16": [],
        "21/03/2020 15:00:37": [],
        "21/03/2020 17:18:01": [],
        "21/03/2020 20:01:12": [],
        "21/03/2020 22:03:28": []
    },
    "404": {
        "21/03/2020 15:00:17": [],
        "21/03/2020 17:17:45": [],
        "21/03/2020 20:00:50": [],
        "21/03/2020 22:03:05": []
    },
    "6013": {
        "21/03/2020 15:00:17": [],
        "21/03/2020 15:00:40": [],
        "21/03/2020 17:18:05": [],
        "21/03/2020 20:01:17": [],
        "21/03/2020 22:03:33": []
    },
    "1478": {
        "21/03/2020 15:00:17": [],
        "21/03/2020 15:00:44": [],
        "21/03/2020 17:18:09": [],
        "21/03/2020 20:01:23": [],
        "21/03/2020 22:03:40": []
    },
    "1479": {
        "21/03/2020 15:00:18": [],
        "21/03/2020 15:00:44": [],
        "21/03/2020 17:18:09": [],
        "21/03/2020 20:01:24": [],
        "21/03/2020 22:03:40": []
    },
    "2146": {
        "21/03/2020 15:00:18": [],
        "21/03/2020 15:00:37": [],
        "21/03/2020 17:18:02": [],
        "21/03/2020 20:01:13": [],
        "21/03/2020 22:03:29": []
    },
    "2147": {
        "21/03/2020 15:00:18": [],
        "21/03/2020 15:00:37": [],
        "21/03/2020 17:18:02": [],
        "21/03/2020 20:01:13": [],
        "21/03/2020 22:03:29": []
    },
    "2148": {
        "21/03/2020 15:00:18": [],
        "21/03/2020 15:00:38": [],
        "21/03/2020 17:18:02": [],
        "21/03/2020 20:01:14": [],
        "21/03/2020 22:03:29": []
    },
    "2722": {
        "21/03/2020 15:00:19": [],
        "21/03/2020 15:00:43": [],
        "21/03/2020 17:18:08": [],
        "21/03/2020 20:01:22": [],
        "21/03/2020 22:03:38": []
    },
    "6245": {
        "21/03/2020 15:00:19": [],
        "21/03/2020 15:00:40": [],
        "21/03/2020 17:18:04": [],
        "21/03/2020 20:01:17": [],
        "21/03/2020 22:03:33": []
    },
    "6247": {
        "21/03/2020 15:00:19": [],
        "21/03/2020 15:00:40": [],
        "21/03/2020 17:18:05": [],
        "21/03/2020 20:01:17": [],
        "21/03/2020 22:03:34": []
    },
    "751": {
        "21/03/2020 15:00:20": [],
        "21/03/2020 15:00:47": [],
        "21/03/2020 17:18:12": [],
        "21/03/2020 20:01:27": [],
        "21/03/2020 22:03:44": []
    },
    "752": {
        "21/03/2020 15:00:20": [],
        "21/03/2020 15:00:47": [],
        "21/03/2020 17:18:12": [],
        "21/03/2020 20:01:27": [],
        "21/03/2020 22:03:44": []
    },
    "753": {
        "21/03/2020 15:00:20": [],
        "21/03/2020 15:00:47": [],
        "21/03/2020 17:18:12": [],
        "21/03/2020 20:01:28": [],
        "21/03/2020 22:03:45": []
    },
    "754": {
        "21/03/2020 15:00:21": [],
        "21/03/2020 15:00:48": [],
        "21/03/2020 17:18:13": [],
        "21/03/2020 20:01:28": [],
        "21/03/2020 22:03:45": []
    },
    "755": {
        "21/03/2020 15:00:21": [],
        "21/03/2020 15:00:48": [],
        "21/03/2020 17:18:13": [],
        "21/03/2020 20:01:29": [],
        "21/03/2020 22:03:46": []
    },
    "4495": {
        "21/03/2020 15:00:45": [],
        "21/03/2020 17:18:10": [],
        "21/03/2020 20:01:24": [],
        "21/03/2020 22:03:41": []
    },
    "2809": {
        "21/03/2020 15:00:45": [],
        "21/03/2020 17:18:10": [],
        "21/03/2020 20:01:25": [],
        "21/03/2020 22:03:41": []
    },
    "2810": {
        "21/03/2020 15:00:45": [],
        "21/03/2020 17:18:11": [],
        "21/03/2020 20:01:25": [],
        "21/03/2020 22:03:42": []
    },
    "2811": {
        "21/03/2020 15:00:46": [],
        "21/03/2020 17:18:11": [],
        "21/03/2020 20:01:26": [],
        "21/03/2020 22:03:42": []
    }
}