{
    "1644": {
        "25/03/2020 15:30:33": [],
        "25/03/2020 18:15:35": [],
        "25/03/2020 20:32:03": [],
        "25/03/2020 21:58:40": []
    },
    "1605": {
        "25/03/2020 15:30:33": [],
        "25/03/2020 18:15:35": [],
        "25/03/2020 20:32:03": [],
        "25/03/2020 21:58:41": []
    },
    "115": {
        "25/03/2020 15:30:33": [],
        "25/03/2020 18:15:36": [],
        "25/03/2020 20:32:04": [],
        "25/03/2020 21:58:41": []
    },
    "37": {
        "25/03/2020 15:30:34": [],
        "25/03/2020 18:15:36": [],
        "25/03/2020 20:32:04": [],
        "25/03/2020 21:58:41": []
    },
    "38": {
        "25/03/2020 15:30:34": [],
        "25/03/2020 18:15:36": [],
        "25/03/2020 20:32:04": [],
        "25/03/2020 21:58:41": []
    },
    "39": {
        "25/03/2020 15:30:34": [],
        "25/03/2020 18:15:37": [],
        "25/03/2020 20:32:05": [],
        "25/03/2020 21:58:42": []
    },
    "175": {
        "25/03/2020 15:30:35": [],
        "25/03/2020 18:15:37": [],
        "25/03/2020 20:32:05": [],
        "25/03/2020 21:58:42": []
    },
    "5147": {
        "25/03/2020 15:30:35": [],
        "25/03/2020 18:15:37": [],
        "25/03/2020 20:32:05": [],
        "25/03/2020 21:58:42": []
    },
    "4498": {
        "25/03/2020 15:30:35": [],
        "25/03/2020 18:15:38": [],
        "25/03/2020 20:32:05": [],
        "25/03/2020 21:58:43": []
    },
    "1660": {
        "25/03/2020 15:30:36": [],
        "25/03/2020 18:15:38": [],
        "25/03/2020 20:32:06": [],
        "25/03/2020 21:58:43": []
    },
    "1661": {
        "25/03/2020 15:30:36": [],
        "25/03/2020 18:15:38": [],
        "25/03/2020 20:32:06": [],
        "25/03/2020 21:58:43": []
    },
    "1662": {
        "25/03/2020 15:30:36": [],
        "25/03/2020 18:15:39": [],
        "25/03/2020 20:32:06": [],
        "25/03/2020 21:58:43": []
    },
    "1664": {
        "25/03/2020 15:30:37": [],
        "25/03/2020 18:15:39": [],
        "25/03/2020 20:32:07": [],
        "25/03/2020 21:58:44": []
    },
    "1665": {
        "25/03/2020 15:30:37": [],
        "25/03/2020 18:15:39": [],
        "25/03/2020 20:32:07": [],
        "25/03/2020 21:58:44": []
    },
    "1666": {
        "25/03/2020 15:30:37": [],
        "25/03/2020 18:15:40": [],
        "25/03/2020 20:32:07": [],
        "25/03/2020 21:58:44": []
    },
    "1667": {
        "25/03/2020 15:30:38": [],
        "25/03/2020 18:15:40": [],
        "25/03/2020 20:32:08": [],
        "25/03/2020 21:58:45": []
    },
    "1668": {
        "25/03/2020 15:30:38": [],
        "25/03/2020 18:15:40": [],
        "25/03/2020 20:32:08": [],
        "25/03/2020 21:58:45": []
    },
    "1669": {
        "25/03/2020 15:30:39": [],
        "25/03/2020 18:15:41": [],
        "25/03/2020 20:32:08": [],
        "25/03/2020 21:58:45": []
    },
    "1670": {
        "25/03/2020 15:30:39": [],
        "25/03/2020 18:15:41": [],
        "25/03/2020 20:32:09": [],
        "25/03/2020 21:58:45": []
    },
    "1671": {
        "25/03/2020 15:30:39": [],
        "25/03/2020 18:15:41": [],
        "25/03/2020 20:32:09": [],
        "25/03/2020 21:58:46": []
    },
    "1672": {
        "25/03/2020 15:30:40": [],
        "25/03/2020 18:15:42": [],
        "25/03/2020 20:32:09": [],
        "25/03/2020 21:58:46": []
    },
    "1673": {
        "25/03/2020 15:30:45": [],
        "25/03/2020 18:15:42": [],
        "25/03/2020 20:32:10": [],
        "25/03/2020 21:58:46": []
    },
    "1674": {
        "25/03/2020 15:30:45": [],
        "25/03/2020 18:15:42": [],
        "25/03/2020 20:32:10": [],
        "25/03/2020 21:58:47": []
    },
    "1675": {
        "25/03/2020 15:30:46": [],
        "25/03/2020 18:15:43": [],
        "25/03/2020 20:32:10": [],
        "25/03/2020 21:58:47": []
    },
    "1849": {
        "25/03/2020 15:30:46": [],
        "25/03/2020 18:15:43": [],
        "25/03/2020 20:32:11": [],
        "25/03/2020 21:58:47": []
    },
    "1813": {
        "25/03/2020 15:30:47": [],
        "25/03/2020 18:15:43": [],
        "25/03/2020 20:32:11": [],
        "25/03/2020 21:58:48": []
    },
    "1814": {
        "25/03/2020 15:30:47": [],
        "25/03/2020 18:15:44": [],
        "25/03/2020 20:32:11": [],
        "25/03/2020 21:58:48": []
    },
    "4325": {
        "25/03/2020 15:30:47": [],
        "25/03/2020 18:15:44": [],
        "25/03/2020 20:32:11": [],
        "25/03/2020 21:58:48": []
    },
    "3328": {
        "25/03/2020 15:30:48": [],
        "25/03/2020 18:15:44": [],
        "25/03/2020 20:32:12": [],
        "25/03/2020 21:58:48": []
    },
    "3329": {
        "25/03/2020 15:30:48": [],
        "25/03/2020 18:15:45": [],
        "25/03/2020 20:32:12": [],
        "25/03/2020 21:58:49": []
    },
    "3330": {
        "25/03/2020 15:30:48": [],
        "25/03/2020 18:15:45": [],
        "25/03/2020 20:32:12": [],
        "25/03/2020 21:58:49": []
    },
    "3331": {
        "25/03/2020 15:30:49": [],
        "25/03/2020 18:15:45": [],
        "25/03/2020 20:32:13": [],
        "25/03/2020 21:58:49": []
    },
    "3351": {
        "25/03/2020 15:30:49": [],
        "25/03/2020 18:15:46": [],
        "25/03/2020 20:32:13": [],
        "25/03/2020 21:58:50": []
    },
    "3332": {
        "25/03/2020 15:30:50": [],
        "25/03/2020 18:15:46": [],
        "25/03/2020 20:32:13": [],
        "25/03/2020 21:58:50": []
    },
    "3333": {
        "25/03/2020 15:30:50": [],
        "25/03/2020 18:15:46": [],
        "25/03/2020 20:32:13": [],
        "25/03/2020 21:58:50": []
    },
    "3334": {
        "25/03/2020 15:30:50": [],
        "25/03/2020 18:15:47": [],
        "25/03/2020 20:32:14": [],
        "25/03/2020 21:58:51": []
    },
    "3352": {
        "25/03/2020 15:30:51": [],
        "25/03/2020 18:15:47": [],
        "25/03/2020 20:32:14": [],
        "25/03/2020 21:58:51": []
    },
    "3335": {
        "25/03/2020 15:30:51": [],
        "25/03/2020 18:15:47": [],
        "25/03/2020 20:32:14": [],
        "25/03/2020 21:58:51": []
    },
    "3336": {
        "25/03/2020 15:30:51": [],
        "25/03/2020 18:15:48": [],
        "25/03/2020 20:32:15": [],
        "25/03/2020 21:58:51": []
    },
    "3337": {
        "25/03/2020 15:30:52": [],
        "25/03/2020 18:15:48": [],
        "25/03/2020 20:32:15": [],
        "25/03/2020 21:58:52": []
    },
    "3338": {
        "25/03/2020 15:30:52": [],
        "25/03/2020 18:15:48": [],
        "25/03/2020 20:32:15": [],
        "25/03/2020 21:58:52": []
    },
    "3339": {
        "25/03/2020 15:30:53": [],
        "25/03/2020 18:15:49": [],
        "25/03/2020 20:32:16": [],
        "25/03/2020 21:58:52": []
    },
    "3340": {
        "25/03/2020 15:30:53": [],
        "25/03/2020 18:15:49": [],
        "25/03/2020 20:32:16": [],
        "25/03/2020 21:58:53": []
    },
    "1545": {
        "25/03/2020 15:30:53": [],
        "25/03/2020 18:15:50": [],
        "25/03/2020 20:32:16": [],
        "25/03/2020 21:58:53": []
    },
    "1840": {
        "25/03/2020 15:30:54": [],
        "25/03/2020 18:15:50": [],
        "25/03/2020 20:32:16": [],
        "25/03/2020 21:58:53": []
    },
    "1841": {
        "25/03/2020 15:30:54": [],
        "25/03/2020 18:15:50": [],
        "25/03/2020 20:32:17": [],
        "25/03/2020 21:58:54": []
    },
    "4314": {
        "25/03/2020 15:30:54": [],
        "25/03/2020 18:15:50": [],
        "25/03/2020 20:32:17": [],
        "25/03/2020 21:58:54": []
    },
    "1687": {
        "25/03/2020 15:30:55": [],
        "25/03/2020 18:15:51": [],
        "25/03/2020 20:32:17": [],
        "25/03/2020 21:58:54": []
    },
    "1688": {
        "25/03/2020 15:30:55": [],
        "25/03/2020 18:15:51": [],
        "25/03/2020 20:32:18": [],
        "25/03/2020 21:58:55": []
    },
    "1689": {
        "25/03/2020 15:30:56": [],
        "25/03/2020 18:15:52": [],
        "25/03/2020 20:32:18": [],
        "25/03/2020 21:58:55": []
    },
    "1690": {
        "25/03/2020 15:30:56": [],
        "25/03/2020 18:15:52": [],
        "25/03/2020 20:32:18": [],
        "25/03/2020 21:58:55": []
    },
    "1691": {
        "25/03/2020 15:30:56": [],
        "25/03/2020 18:15:52": [],
        "25/03/2020 20:32:19": [],
        "25/03/2020 21:58:55": []
    },
    "1692": {
        "25/03/2020 15:30:57": [],
        "25/03/2020 18:15:53": [],
        "25/03/2020 20:32:19": [],
        "25/03/2020 21:58:56": []
    },
    "1693": {
        "25/03/2020 15:30:57": [],
        "25/03/2020 18:15:53": [],
        "25/03/2020 20:32:19": [],
        "25/03/2020 21:58:56": []
    },
    "1694": {
        "25/03/2020 15:30:57": [],
        "25/03/2020 18:15:53": [],
        "25/03/2020 20:32:19": [],
        "25/03/2020 21:58:56": []
    },
    "1695": {
        "25/03/2020 15:30:58": [],
        "25/03/2020 18:15:54": [],
        "25/03/2020 20:32:20": [],
        "25/03/2020 21:58:57": []
    },
    "1696": {
        "25/03/2020 15:30:58": [],
        "25/03/2020 18:15:54": [],
        "25/03/2020 20:32:20": [],
        "25/03/2020 21:58:57": []
    },
    "1697": {
        "25/03/2020 15:30:58": [],
        "25/03/2020 18:15:54": [],
        "25/03/2020 20:32:20": [],
        "25/03/2020 21:58:57": []
    },
    "1698": {
        "25/03/2020 15:30:59": [],
        "25/03/2020 18:15:54": [],
        "25/03/2020 20:32:21": [],
        "25/03/2020 21:58:58": []
    },
    "1699": {
        "25/03/2020 15:30:59": [],
        "25/03/2020 18:15:55": [],
        "25/03/2020 20:32:21": [],
        "25/03/2020 21:58:58": []
    },
    "1700": {
        "25/03/2020 15:30:59": [],
        "25/03/2020 18:15:55": [],
        "25/03/2020 20:32:21": [],
        "25/03/2020 21:58:58": []
    },
    "1701": {
        "25/03/2020 15:31:00": [],
        "25/03/2020 18:15:55": [],
        "25/03/2020 20:32:22": [],
        "25/03/2020 21:58:58": []
    },
    "1702": {
        "25/03/2020 15:31:00": [],
        "25/03/2020 18:15:56": [],
        "25/03/2020 20:32:22": [],
        "25/03/2020 21:58:59": []
    },
    "16": {
        "25/03/2020 15:31:01": [],
        "25/03/2020 18:15:56": [],
        "25/03/2020 20:32:22": [],
        "25/03/2020 21:58:59": []
    },
    "5144": {
        "25/03/2020 15:31:01": [],
        "25/03/2020 18:15:56": [],
        "25/03/2020 20:32:23": [],
        "25/03/2020 21:58:59": []
    },
    "1510": {
        "25/03/2020 15:31:01": [],
        "25/03/2020 18:15:57": [],
        "25/03/2020 20:32:23": [],
        "25/03/2020 21:59:00": []
    },
    "156": {
        "25/03/2020 15:31:02": [],
        "25/03/2020 18:15:57": [],
        "25/03/2020 20:32:23": [],
        "25/03/2020 21:59:00": []
    },
    "27": {
        "25/03/2020 15:31:02": [],
        "25/03/2020 18:15:57": [],
        "25/03/2020 20:32:23": [],
        "25/03/2020 21:59:00": []
    },
    "28": {
        "25/03/2020 15:31:02": [],
        "25/03/2020 18:15:57": [],
        "25/03/2020 20:32:24": [],
        "25/03/2020 21:59:00": []
    },
    "29": {
        "25/03/2020 15:31:03": [],
        "25/03/2020 18:15:58": [],
        "25/03/2020 20:32:24": [],
        "25/03/2020 21:59:01": []
    },
    "4680": {
        "25/03/2020 15:31:03": [],
        "25/03/2020 18:15:58": [],
        "25/03/2020 20:32:24": [],
        "25/03/2020 21:59:01": []
    },
    "90": {
        "25/03/2020 15:31:04": [],
        "25/03/2020 18:15:58": [],
        "25/03/2020 20:32:25": [],
        "25/03/2020 21:59:01": []
    },
    "91": {
        "25/03/2020 15:31:04": [],
        "25/03/2020 18:15:59": [],
        "25/03/2020 20:32:25": [],
        "25/03/2020 21:59:02": []
    },
    "7571": {
        "25/03/2020 15:31:04": [],
        "25/03/2020 18:15:59": [],
        "25/03/2020 20:32:25": [],
        "25/03/2020 21:59:02": []
    }
}