{
    "overall_punctuality": 11709,
    "overall_num": 689,
    "overall_avg": 17,
    "daily_punctuality": {
        "Sunday": {
            "num_results": 144,
            "total": -247,
            "avg:": 0,
            "avg": -1
        },
        "Monday": {
            "num_results": 68,
            "total": -2711,
            "avg:": 0,
            "avg": -39
        },
        "Tuesday": {
            "num_results": 91,
            "total": -1350,
            "avg:": 0,
            "avg": -14
        },
        "Wednesday": {
            "num_results": 103,
            "total": 4301,
            "avg:": 0,
            "avg": 42
        },
        "Thursday": {
            "num_results": 96,
            "total": 5685,
            "avg:": 0,
            "avg": 60
        },
        "Friday": {
            "num_results": 73,
            "total": 6310,
            "avg:": 0,
            "avg": 87
        },
        "Saturday": {
            "num_results": 114,
            "total": -279,
            "avg:": 0,
            "avg": -2
        }
    }
}