{
    "4207": {
        "23/03/2020 12:41:51": [],
        "23/03/2020 14:59:14": [],
        "23/03/2020 18:07:35": []
    },
    "4208": {
        "23/03/2020 12:41:52": [],
        "23/03/2020 14:59:14": [],
        "23/03/2020 18:07:36": []
    },
    "4209": {
        "23/03/2020 12:41:53": [],
        "23/03/2020 14:59:14": [],
        "23/03/2020 18:07:36": []
    },
    "4210": {
        "23/03/2020 12:41:53": [],
        "23/03/2020 14:59:15": [],
        "23/03/2020 18:07:36": []
    },
    "4211": {
        "23/03/2020 12:41:54": [],
        "23/03/2020 14:59:15": [],
        "23/03/2020 18:07:36": []
    },
    "4212": {
        "23/03/2020 12:41:54": [],
        "23/03/2020 14:59:15": [],
        "23/03/2020 18:07:37": []
    },
    "4213": {
        "23/03/2020 12:41:55": [],
        "23/03/2020 14:59:16": [],
        "23/03/2020 18:07:37": []
    },
    "4214": {
        "23/03/2020 12:41:55": [],
        "23/03/2020 14:59:16": [],
        "23/03/2020 18:07:37": []
    },
    "4215": {
        "23/03/2020 12:41:56": [],
        "23/03/2020 14:59:16": [],
        "23/03/2020 18:07:38": []
    },
    "4216": {
        "23/03/2020 12:41:56": [],
        "23/03/2020 14:59:16": [],
        "23/03/2020 18:07:38": []
    },
    "4222": {
        "23/03/2020 12:41:57": [],
        "23/03/2020 14:59:17": [],
        "23/03/2020 18:07:38": []
    },
    "4224": {
        "23/03/2020 12:41:57": [],
        "23/03/2020 14:59:17": [],
        "23/03/2020 18:07:38": []
    },
    "6019": {
        "23/03/2020 12:41:58": [],
        "23/03/2020 14:59:18": [],
        "23/03/2020 18:07:39": []
    },
    "4132": {
        "23/03/2020 12:41:59": [],
        "23/03/2020 14:59:18": [],
        "23/03/2020 18:07:39": []
    },
    "4134": {
        "23/03/2020 12:41:59": [],
        "23/03/2020 14:59:18": [],
        "23/03/2020 18:07:39": []
    },
    "4135": {
        "23/03/2020 12:42:00": [],
        "23/03/2020 14:59:18": [],
        "23/03/2020 18:07:40": []
    },
    "4136": {
        "23/03/2020 12:42:00": [],
        "23/03/2020 14:59:19": [],
        "23/03/2020 18:07:40": []
    },
    "4170": {
        "23/03/2020 12:42:01": [],
        "23/03/2020 14:59:19": [],
        "23/03/2020 18:07:41": []
    },
    "4289": {
        "23/03/2020 12:42:02": [],
        "23/03/2020 14:59:19": [],
        "23/03/2020 18:07:41": []
    },
    "4290": {
        "23/03/2020 12:42:02": [],
        "23/03/2020 14:59:20": [],
        "23/03/2020 18:07:42": []
    },
    "4291": {
        "23/03/2020 12:42:03": [],
        "23/03/2020 14:59:20": [],
        "23/03/2020 18:07:42": []
    },
    "4650": {
        "23/03/2020 12:42:03": [],
        "23/03/2020 14:59:20": [],
        "23/03/2020 18:07:42": []
    },
    "4651": {
        "23/03/2020 12:42:04": [],
        "23/03/2020 14:59:21": [],
        "23/03/2020 18:07:42": []
    },
    "4652": {
        "23/03/2020 12:42:04": [],
        "23/03/2020 14:59:21": [],
        "23/03/2020 18:07:43": []
    },
    "4653": {
        "23/03/2020 12:42:05": [],
        "23/03/2020 14:59:21": [],
        "23/03/2020 18:07:43": []
    },
    "4654": {
        "23/03/2020 12:42:05": [],
        "23/03/2020 14:59:21": [],
        "23/03/2020 18:07:43": []
    },
    "4655": {
        "23/03/2020 12:42:06": [],
        "23/03/2020 14:59:22": [],
        "23/03/2020 18:07:44": []
    },
    "4656": {
        "23/03/2020 12:42:07": [],
        "23/03/2020 14:59:22": [],
        "23/03/2020 18:07:44": []
    },
    "4225": {
        "23/03/2020 12:42:07": [],
        "23/03/2020 14:59:22": [],
        "23/03/2020 18:07:44": []
    },
    "4226": {
        "23/03/2020 12:42:08": [],
        "23/03/2020 14:59:23": [],
        "23/03/2020 18:07:44": []
    },
    "4227": {
        "23/03/2020 12:42:09": [],
        "23/03/2020 14:59:23": [],
        "23/03/2020 18:07:45": []
    },
    "4228": {
        "23/03/2020 12:42:09": [],
        "23/03/2020 14:59:23": [],
        "23/03/2020 18:07:45": []
    },
    "4229": {
        "23/03/2020 12:42:10": [],
        "23/03/2020 14:59:24": [],
        "23/03/2020 18:07:45": []
    },
    "4230": {
        "23/03/2020 12:42:10": [],
        "23/03/2020 14:59:24": [],
        "23/03/2020 18:07:46": []
    },
    "4232": {
        "23/03/2020 12:42:11": [],
        "23/03/2020 14:59:24": [],
        "23/03/2020 18:07:46": []
    },
    "4234": {
        "23/03/2020 12:42:11": [],
        "23/03/2020 14:59:25": [],
        "23/03/2020 18:07:46": []
    },
    "4235": {
        "23/03/2020 12:42:12": [],
        "23/03/2020 14:59:25": [],
        "23/03/2020 18:07:46": []
    },
    "4236": {
        "23/03/2020 12:42:13": [],
        "23/03/2020 14:59:25": [],
        "23/03/2020 18:07:47": []
    },
    "5139": {
        "23/03/2020 12:42:13": [],
        "23/03/2020 14:59:25": [],
        "23/03/2020 18:07:47": []
    },
    "6138": {
        "23/03/2020 12:42:14": [],
        "23/03/2020 14:59:26": [],
        "23/03/2020 18:07:47": []
    },
    "7351": {
        "23/03/2020 12:42:14": [],
        "23/03/2020 14:59:26": [],
        "23/03/2020 18:07:48": []
    },
    "4277": {
        "23/03/2020 12:42:15": [],
        "23/03/2020 14:59:26": [],
        "23/03/2020 18:07:48": []
    },
    "4278": {
        "23/03/2020 12:42:15": [],
        "23/03/2020 14:59:27": [],
        "23/03/2020 18:07:48": []
    },
    "4279": {
        "23/03/2020 12:42:16": [],
        "23/03/2020 14:59:27": [],
        "23/03/2020 18:07:48": []
    },
    "4280": {
        "23/03/2020 12:42:16": [],
        "23/03/2020 14:59:27": [],
        "23/03/2020 18:07:49": []
    },
    "4281": {
        "23/03/2020 12:42:17": [],
        "23/03/2020 14:59:28": [],
        "23/03/2020 18:07:49": []
    },
    "4282": {
        "23/03/2020 12:42:18": [],
        "23/03/2020 14:59:28": [],
        "23/03/2020 18:07:49": []
    },
    "4283": {
        "23/03/2020 12:42:18": [],
        "23/03/2020 14:59:28": [],
        "23/03/2020 18:07:50": []
    },
    "4284": {
        "23/03/2020 12:42:19": [],
        "23/03/2020 14:59:29": [],
        "23/03/2020 18:07:50": []
    },
    "4292": {
        "23/03/2020 12:42:19": [],
        "23/03/2020 14:59:29": [],
        "23/03/2020 18:07:50": []
    },
    "4293": {
        "23/03/2020 12:42:20": [],
        "23/03/2020 14:59:29": [],
        "23/03/2020 18:07:51": []
    },
    "4294": {
        "23/03/2020 12:42:20": [],
        "23/03/2020 14:59:30": [],
        "23/03/2020 18:07:51": []
    },
    "4148": {
        "23/03/2020 12:42:21": [],
        "23/03/2020 14:59:30": [],
        "23/03/2020 18:07:51": []
    },
    "4149": {
        "23/03/2020 12:42:21": [],
        "23/03/2020 14:59:30": [],
        "23/03/2020 18:07:51": []
    },
    "4150": {
        "23/03/2020 12:42:22": [],
        "23/03/2020 14:59:31": [],
        "23/03/2020 18:07:52": []
    },
    "4151": {
        "23/03/2020 12:42:23": [],
        "23/03/2020 14:59:31": [],
        "23/03/2020 18:07:52": []
    },
    "4156": {
        "23/03/2020 12:42:23": [],
        "23/03/2020 14:59:31": [],
        "23/03/2020 18:07:52": []
    },
    "4168": {
        "23/03/2020 12:42:24": [],
        "23/03/2020 14:59:31": [],
        "23/03/2020 18:07:53": []
    },
    "4237": {
        "23/03/2020 12:42:24": [],
        "23/03/2020 14:59:32": [],
        "23/03/2020 18:07:53": []
    },
    "4238": {
        "23/03/2020 12:42:25": [],
        "23/03/2020 14:59:32": [],
        "23/03/2020 18:07:53": []
    },
    "4239": {
        "23/03/2020 12:42:25": [],
        "23/03/2020 14:59:32": [],
        "23/03/2020 18:07:53": []
    },
    "4240": {
        "23/03/2020 12:42:26": [],
        "23/03/2020 14:59:33": [],
        "23/03/2020 18:07:54": []
    },
    "4241": {
        "23/03/2020 12:42:27": [],
        "23/03/2020 14:59:33": [],
        "23/03/2020 18:07:54": []
    },
    "7461": {
        "23/03/2020 12:42:27": [],
        "23/03/2020 14:59:33": [],
        "23/03/2020 18:07:54": []
    },
    "7462": {
        "23/03/2020 12:42:28": [],
        "23/03/2020 14:59:33": [],
        "23/03/2020 18:07:55": []
    },
    "4242": {
        "23/03/2020 12:42:28": [],
        "23/03/2020 14:59:34": [],
        "23/03/2020 18:07:55": []
    },
    "4243": {
        "23/03/2020 12:42:29": [],
        "23/03/2020 14:59:34": [],
        "23/03/2020 18:07:55": []
    },
    "4244": {
        "23/03/2020 12:42:29": [],
        "23/03/2020 14:59:34": [],
        "23/03/2020 18:07:55": []
    },
    "5135": {
        "23/03/2020 12:42:30": [],
        "23/03/2020 14:59:35": [],
        "23/03/2020 18:07:56": []
    },
    "7279": {
        "23/03/2020 12:42:30": [],
        "23/03/2020 14:59:35": [],
        "23/03/2020 18:07:56": []
    },
    "4295": {
        "23/03/2020 12:42:31": [],
        "23/03/2020 14:59:35": [],
        "23/03/2020 18:07:56": []
    },
    "4296": {
        "23/03/2020 12:42:32": [],
        "23/03/2020 14:59:35": [],
        "23/03/2020 18:07:57": []
    },
    "4297": {
        "23/03/2020 12:42:32": [],
        "23/03/2020 14:59:36": [],
        "23/03/2020 18:07:57": []
    },
    "4299": {
        "23/03/2020 12:42:33": [],
        "23/03/2020 14:59:36": [],
        "23/03/2020 18:07:57": []
    },
    "4300": {
        "23/03/2020 12:42:33": [],
        "23/03/2020 14:59:36": [],
        "23/03/2020 18:07:58": []
    },
    "4301": {
        "23/03/2020 12:42:34": [],
        "23/03/2020 14:59:37": [],
        "23/03/2020 18:07:58": []
    },
    "4302": {
        "23/03/2020 12:42:34": [],
        "23/03/2020 14:59:37": [],
        "23/03/2020 18:07:58": []
    },
    "4303": {
        "23/03/2020 12:42:35": [],
        "23/03/2020 14:59:37": [],
        "23/03/2020 18:07:58": []
    },
    "4304": {
        "23/03/2020 12:42:35": [],
        "23/03/2020 14:59:37": [],
        "23/03/2020 18:07:59": []
    },
    "3045": {
        "23/03/2020 12:42:36": [],
        "23/03/2020 14:59:38": [],
        "23/03/2020 18:07:59": []
    },
    "3442": {
        "23/03/2020 12:42:37": [],
        "23/03/2020 14:59:38": [],
        "23/03/2020 18:07:59": []
    },
    "4657": {
        "23/03/2020 12:42:37": [],
        "23/03/2020 14:59:38": [],
        "23/03/2020 18:08:00": []
    },
    "4658": {
        "23/03/2020 12:42:38": [],
        "23/03/2020 14:59:39": [],
        "23/03/2020 18:08:00": []
    },
    "4659": {
        "23/03/2020 12:42:38": [],
        "23/03/2020 14:59:39": [],
        "23/03/2020 18:08:00": []
    },
    "4660": {
        "23/03/2020 12:42:39": [],
        "23/03/2020 14:59:39": [],
        "23/03/2020 18:08:00": []
    },
    "4661": {
        "23/03/2020 12:42:39": [],
        "23/03/2020 14:59:40": [],
        "23/03/2020 18:08:01": []
    }
}