{
    "3838": {
        "25/03/2020 14:38:17": [],
        "25/03/2020 17:20:44": [],
        "25/03/2020 19:56:26": [],
        "25/03/2020 21:24:44": []
    },
    "7173": {
        "25/03/2020 14:38:17": [],
        "25/03/2020 17:20:44": [],
        "25/03/2020 19:56:27": [],
        "25/03/2020 21:24:45": []
    },
    "3811": {
        "25/03/2020 14:38:18": [],
        "25/03/2020 17:20:45": [],
        "25/03/2020 19:56:27": [],
        "25/03/2020 21:24:45": []
    },
    "3812": {
        "25/03/2020 14:38:19": [],
        "25/03/2020 17:20:46": [],
        "25/03/2020 19:56:27": [],
        "25/03/2020 21:24:45": []
    },
    "3813": {
        "25/03/2020 14:38:19": [],
        "25/03/2020 17:20:46": [],
        "25/03/2020 19:56:28": [],
        "25/03/2020 21:24:46": []
    },
    "3814": {
        "25/03/2020 14:38:20": [],
        "25/03/2020 17:20:47": [],
        "25/03/2020 19:56:28": [],
        "25/03/2020 21:24:46": []
    },
    "3664": {
        "25/03/2020 14:38:20": [],
        "25/03/2020 17:20:48": [],
        "25/03/2020 19:56:28": [],
        "25/03/2020 21:24:46": []
    },
    "5064": {
        "25/03/2020 14:38:21": [],
        "25/03/2020 17:20:48": [],
        "25/03/2020 19:56:29": [],
        "25/03/2020 21:24:46": []
    },
    "6048": {
        "25/03/2020 14:38:22": [],
        "25/03/2020 17:20:49": [],
        "25/03/2020 19:56:29": [],
        "25/03/2020 21:24:47": []
    },
    "3565": {
        "25/03/2020 14:38:22": [],
        "25/03/2020 17:20:50": [],
        "25/03/2020 19:56:29": [],
        "25/03/2020 21:24:47": []
    },
    "3566": {
        "25/03/2020 14:38:23": [],
        "25/03/2020 17:20:50": [],
        "25/03/2020 19:56:30": [],
        "25/03/2020 21:24:47": []
    },
    "3567": {
        "25/03/2020 14:38:24": [],
        "25/03/2020 17:20:51": [],
        "25/03/2020 19:56:30": [],
        "25/03/2020 21:24:48": []
    },
    "3815": {
        "25/03/2020 14:38:24": [],
        "25/03/2020 17:20:52": [],
        "25/03/2020 19:56:30": [],
        "25/03/2020 21:24:48": []
    },
    "3816": {
        "25/03/2020 14:38:25": [],
        "25/03/2020 17:20:53": [],
        "25/03/2020 19:56:31": [],
        "25/03/2020 21:24:48": []
    },
    "3818": {
        "25/03/2020 14:38:26": [],
        "25/03/2020 17:20:53": [],
        "25/03/2020 19:56:31": [],
        "25/03/2020 21:24:48": []
    },
    "3819": {
        "25/03/2020 14:38:26": [],
        "25/03/2020 17:20:54": [],
        "25/03/2020 19:56:31": [],
        "25/03/2020 21:24:49": []
    },
    "3820": {
        "25/03/2020 14:38:27": [],
        "25/03/2020 17:20:54": [],
        "25/03/2020 19:56:31": [],
        "25/03/2020 21:24:49": []
    },
    "3822": {
        "25/03/2020 14:38:27": [],
        "25/03/2020 17:20:55": [],
        "25/03/2020 19:56:32": [],
        "25/03/2020 21:24:49": []
    },
    "3823": {
        "25/03/2020 14:38:28": [],
        "25/03/2020 17:20:55": [],
        "25/03/2020 19:56:32": [],
        "25/03/2020 21:24:49": []
    },
    "3824": {
        "25/03/2020 14:38:28": [],
        "25/03/2020 17:20:56": [],
        "25/03/2020 19:56:32": [],
        "25/03/2020 21:24:50": []
    },
    "3825": {
        "25/03/2020 14:38:29": [],
        "25/03/2020 17:20:56": [],
        "25/03/2020 19:56:33": [],
        "25/03/2020 21:24:50": []
    },
    "3826": {
        "25/03/2020 14:38:30": [],
        "25/03/2020 17:20:57": [],
        "25/03/2020 19:56:33": [],
        "25/03/2020 21:24:50": []
    },
    "3827": {
        "25/03/2020 14:38:30": [],
        "25/03/2020 17:20:57": [],
        "25/03/2020 19:56:33": [],
        "25/03/2020 21:24:50": []
    },
    "3828": {
        "25/03/2020 14:38:31": [],
        "25/03/2020 17:20:58": [],
        "25/03/2020 19:56:34": [],
        "25/03/2020 21:24:51": []
    },
    "3829": {
        "25/03/2020 14:38:32": [],
        "25/03/2020 17:20:58": [],
        "25/03/2020 19:56:34": [],
        "25/03/2020 21:24:51": []
    },
    "3831": {
        "25/03/2020 14:38:32": [],
        "25/03/2020 17:20:59": [],
        "25/03/2020 19:56:34": [],
        "25/03/2020 21:24:51": []
    },
    "3832": {
        "25/03/2020 14:38:33": [],
        "25/03/2020 17:21:00": [],
        "25/03/2020 19:56:34": [],
        "25/03/2020 21:24:52": []
    },
    "3833": {
        "25/03/2020 14:38:33": [],
        "25/03/2020 17:21:00": [],
        "25/03/2020 19:56:35": [],
        "25/03/2020 21:24:52": []
    },
    "3834": {
        "25/03/2020 14:38:34": [],
        "25/03/2020 17:21:01": [],
        "25/03/2020 19:56:35": [],
        "25/03/2020 21:24:52": []
    },
    "3835": {
        "25/03/2020 14:38:35": [],
        "25/03/2020 17:21:01": [],
        "25/03/2020 19:56:35": [],
        "25/03/2020 21:24:52": []
    },
    "3836": {
        "25/03/2020 14:38:36": [],
        "25/03/2020 17:21:02": [],
        "25/03/2020 19:56:36": [],
        "25/03/2020 21:24:53": []
    },
    "3837": {
        "25/03/2020 14:38:36": [],
        "25/03/2020 17:21:03": [],
        "25/03/2020 19:56:36": [],
        "25/03/2020 21:24:53": []
    },
    "3840": {
        "25/03/2020 14:38:37": [],
        "25/03/2020 17:21:04": [],
        "25/03/2020 19:56:36": [],
        "25/03/2020 21:24:53": []
    },
    "3842": {
        "25/03/2020 14:38:37": [],
        "25/03/2020 17:21:04": [],
        "25/03/2020 19:56:37": [],
        "25/03/2020 21:24:53": []
    },
    "3843": {
        "25/03/2020 14:38:38": [],
        "25/03/2020 17:21:05": [],
        "25/03/2020 19:56:37": [],
        "25/03/2020 21:24:54": []
    },
    "3844": {
        "25/03/2020 14:38:39": [],
        "25/03/2020 17:21:05": [],
        "25/03/2020 19:56:37": [],
        "25/03/2020 21:24:54": []
    },
    "3845": {
        "25/03/2020 14:38:39": [],
        "25/03/2020 17:21:06": [],
        "25/03/2020 19:56:37": [],
        "25/03/2020 21:24:54": []
    },
    "3846": {
        "25/03/2020 14:38:39": [],
        "25/03/2020 17:21:07": [],
        "25/03/2020 19:56:38": [],
        "25/03/2020 21:24:55": []
    },
    "3848": {
        "25/03/2020 14:38:40": [],
        "25/03/2020 17:21:08": [],
        "25/03/2020 19:56:38": [],
        "25/03/2020 21:24:55": []
    },
    "3849": {
        "25/03/2020 14:38:41": [],
        "25/03/2020 17:21:09": [],
        "25/03/2020 19:56:38": [],
        "25/03/2020 21:24:55": []
    },
    "3850": {
        "25/03/2020 14:38:41": [],
        "25/03/2020 17:21:09": [],
        "25/03/2020 19:56:39": [],
        "25/03/2020 21:24:55": []
    },
    "3851": {
        "25/03/2020 14:38:42": [],
        "25/03/2020 17:21:10": [],
        "25/03/2020 19:56:39": [],
        "25/03/2020 21:24:56": []
    },
    "3852": {
        "25/03/2020 14:38:42": [],
        "25/03/2020 17:21:10": [],
        "25/03/2020 19:56:39": [],
        "25/03/2020 21:24:56": []
    },
    "3853": {
        "25/03/2020 14:38:43": [],
        "25/03/2020 17:21:11": [],
        "25/03/2020 19:56:40": [],
        "25/03/2020 21:24:56": []
    },
    "3854": {
        "25/03/2020 14:38:44": [],
        "25/03/2020 17:21:11": [],
        "25/03/2020 19:56:40": [],
        "25/03/2020 21:24:57": []
    },
    "3855": {
        "25/03/2020 14:38:44": [],
        "25/03/2020 17:21:12": [],
        "25/03/2020 19:56:40": [],
        "25/03/2020 21:24:57": []
    },
    "3856": {
        "25/03/2020 14:38:45": [],
        "25/03/2020 17:21:12": [],
        "25/03/2020 19:56:41": [],
        "25/03/2020 21:24:57": []
    },
    "3857": {
        "25/03/2020 14:38:45": [],
        "25/03/2020 17:21:13": [],
        "25/03/2020 19:56:41": [],
        "25/03/2020 21:24:57": []
    },
    "3858": {
        "25/03/2020 14:38:46": [],
        "25/03/2020 17:21:13": [],
        "25/03/2020 19:56:41": [],
        "25/03/2020 21:24:58": []
    },
    "3859": {
        "25/03/2020 14:38:46": [],
        "25/03/2020 17:21:14": [],
        "25/03/2020 19:56:42": [],
        "25/03/2020 21:24:58": []
    },
    "3860": {
        "25/03/2020 14:38:47": [],
        "25/03/2020 17:21:14": [],
        "25/03/2020 19:56:42": [],
        "25/03/2020 21:24:58": []
    },
    "3861": {
        "25/03/2020 14:38:47": [],
        "25/03/2020 17:21:15": [],
        "25/03/2020 19:56:42": [],
        "25/03/2020 21:24:58": []
    },
    "3862": {
        "25/03/2020 14:38:48": [],
        "25/03/2020 17:21:16": [],
        "25/03/2020 19:56:42": [],
        "25/03/2020 21:24:59": []
    },
    "3863": {
        "25/03/2020 14:38:49": [],
        "25/03/2020 17:21:16": [],
        "25/03/2020 19:56:43": [],
        "25/03/2020 21:24:59": []
    },
    "7592": {
        "25/03/2020 14:38:49": [],
        "25/03/2020 17:21:17": [],
        "25/03/2020 19:56:43": [],
        "25/03/2020 21:24:59": []
    },
    "3748": {
        "25/03/2020 14:38:50": [],
        "25/03/2020 17:21:17": [],
        "25/03/2020 19:56:43": [],
        "25/03/2020 21:25:00": []
    },
    "3749": {
        "25/03/2020 14:38:50": [],
        "25/03/2020 17:21:18": [],
        "25/03/2020 19:56:44": [],
        "25/03/2020 21:25:00": []
    },
    "3750": {
        "25/03/2020 14:38:51": [],
        "25/03/2020 17:21:18": [],
        "25/03/2020 19:56:44": [],
        "25/03/2020 21:25:00": []
    },
    "3751": {
        "25/03/2020 14:38:52": [],
        "25/03/2020 17:21:19": [],
        "25/03/2020 19:56:44": [],
        "25/03/2020 21:25:01": []
    },
    "3752": {
        "25/03/2020 14:38:53": [],
        "25/03/2020 17:21:20": [],
        "25/03/2020 19:56:45": [],
        "25/03/2020 21:25:01": []
    },
    "3689": {
        "25/03/2020 14:38:53": [],
        "25/03/2020 17:21:20": [],
        "25/03/2020 19:56:45": [],
        "25/03/2020 21:25:01": []
    },
    "3692": {
        "25/03/2020 14:38:54": [],
        "25/03/2020 17:21:21": [],
        "25/03/2020 19:56:45": [],
        "25/03/2020 21:25:01": []
    },
    "7292": {
        "25/03/2020 14:38:54": [],
        "25/03/2020 17:21:21": [],
        "25/03/2020 19:56:46": [],
        "25/03/2020 21:25:02": []
    },
    "3569": {
        "25/03/2020 14:38:55": [],
        "25/03/2020 17:21:22": [],
        "25/03/2020 19:56:46": [],
        "25/03/2020 21:25:02": []
    },
    "3571": {
        "25/03/2020 14:38:56": [],
        "25/03/2020 17:21:22": [],
        "25/03/2020 19:56:46": [],
        "25/03/2020 21:25:02": []
    },
    "3711": {
        "25/03/2020 14:38:56": [],
        "25/03/2020 17:21:23": [],
        "25/03/2020 19:56:47": [],
        "25/03/2020 21:25:03": []
    },
    "3712": {
        "25/03/2020 14:38:57": [],
        "25/03/2020 17:21:23": [],
        "25/03/2020 19:56:47": [],
        "25/03/2020 21:25:03": []
    },
    "3713": {
        "25/03/2020 14:38:58": [],
        "25/03/2020 17:21:24": [],
        "25/03/2020 19:56:47": [],
        "25/03/2020 21:25:03": []
    },
    "3714": {
        "25/03/2020 14:38:59": [],
        "25/03/2020 17:21:24": [],
        "25/03/2020 19:56:48": [],
        "25/03/2020 21:25:03": []
    },
    "3715": {
        "25/03/2020 14:38:59": [],
        "25/03/2020 17:21:25": [],
        "25/03/2020 19:56:48": [],
        "25/03/2020 21:25:04": []
    },
    "3755": {
        "25/03/2020 14:39:00": [],
        "25/03/2020 17:21:25": [],
        "25/03/2020 19:56:48": [],
        "25/03/2020 21:25:04": []
    },
    "3756": {
        "25/03/2020 14:39:00": [],
        "25/03/2020 17:21:26": [],
        "25/03/2020 19:56:49": [],
        "25/03/2020 21:25:04": []
    },
    "3757": {
        "25/03/2020 14:39:01": [],
        "25/03/2020 17:21:27": [],
        "25/03/2020 19:56:49": [],
        "25/03/2020 21:25:05": []
    },
    "3758": {
        "25/03/2020 14:39:02": [],
        "25/03/2020 17:21:27": [],
        "25/03/2020 19:56:49": [],
        "25/03/2020 21:25:05": []
    },
    "3759": {
        "25/03/2020 14:39:03": [],
        "25/03/2020 17:21:28": [],
        "25/03/2020 19:56:49": [],
        "25/03/2020 21:25:05": []
    },
    "3760": {
        "25/03/2020 14:39:03": [],
        "25/03/2020 17:21:28": [],
        "25/03/2020 19:56:50": [],
        "25/03/2020 21:25:05": []
    },
    "3761": {
        "25/03/2020 14:39:04": [],
        "25/03/2020 17:21:29": [],
        "25/03/2020 19:56:50": [],
        "25/03/2020 21:25:06": []
    },
    "3762": {
        "25/03/2020 14:39:05": [],
        "25/03/2020 17:21:29": [],
        "25/03/2020 19:56:50": [],
        "25/03/2020 21:25:06": []
    },
    "3763": {
        "25/03/2020 14:39:05": [],
        "25/03/2020 17:21:30": [],
        "25/03/2020 19:56:51": [],
        "25/03/2020 21:25:06": []
    },
    "3764": {
        "25/03/2020 14:39:06": [],
        "25/03/2020 17:21:31": [],
        "25/03/2020 19:56:51": [],
        "25/03/2020 21:25:07": []
    },
    "3765": {
        "25/03/2020 14:39:06": [],
        "25/03/2020 17:21:31": [],
        "25/03/2020 19:56:51": [],
        "25/03/2020 21:25:07": []
    },
    "3766": {
        "25/03/2020 14:39:07": [],
        "25/03/2020 17:21:32": [],
        "25/03/2020 19:56:52": [],
        "25/03/2020 21:25:07": []
    },
    "3767": {
        "25/03/2020 14:39:08": [],
        "25/03/2020 17:21:33": [],
        "25/03/2020 19:56:52": [],
        "25/03/2020 21:25:07": []
    },
    "3768": {
        "25/03/2020 14:39:08": [],
        "25/03/2020 17:21:33": [],
        "25/03/2020 19:56:52": [],
        "25/03/2020 21:25:08": []
    },
    "3769": {
        "25/03/2020 14:39:09": [],
        "25/03/2020 17:21:34": [],
        "25/03/2020 19:56:52": [],
        "25/03/2020 21:25:08": []
    },
    "3770": {
        "25/03/2020 14:39:10": [],
        "25/03/2020 17:21:35": [],
        "25/03/2020 19:56:53": [],
        "25/03/2020 21:25:08": []
    },
    "3771": {
        "25/03/2020 14:39:10": [],
        "25/03/2020 17:21:35": [],
        "25/03/2020 19:56:53": [],
        "25/03/2020 21:25:08": []
    },
    "3772": {
        "25/03/2020 14:39:11": [],
        "25/03/2020 17:21:36": [],
        "25/03/2020 19:56:53": [],
        "25/03/2020 21:25:09": []
    },
    "3773": {
        "25/03/2020 14:39:11": [],
        "25/03/2020 17:21:37": [],
        "25/03/2020 19:56:54": [],
        "25/03/2020 21:25:09": []
    },
    "3774": {
        "25/03/2020 14:39:12": [],
        "25/03/2020 17:21:38": [],
        "25/03/2020 19:56:54": [],
        "25/03/2020 21:25:09": []
    },
    "3775": {
        "25/03/2020 14:39:13": [],
        "25/03/2020 17:21:38": [],
        "25/03/2020 19:56:54": [],
        "25/03/2020 21:25:10": []
    },
    "3777": {
        "25/03/2020 14:39:13": [],
        "25/03/2020 17:21:38": [],
        "25/03/2020 19:56:55": [],
        "25/03/2020 21:25:10": []
    },
    "3778": {
        "25/03/2020 14:39:14": [],
        "25/03/2020 17:21:39": [],
        "25/03/2020 19:56:55": [],
        "25/03/2020 21:25:10": []
    },
    "3781": {
        "25/03/2020 14:39:15": [],
        "25/03/2020 17:21:40": [],
        "25/03/2020 19:56:55": [],
        "25/03/2020 21:25:11": []
    },
    "3782": {
        "25/03/2020 14:39:15": [],
        "25/03/2020 17:21:41": [],
        "25/03/2020 19:56:56": [],
        "25/03/2020 21:25:11": []
    },
    "3783": {
        "25/03/2020 14:39:16": [],
        "25/03/2020 17:21:41": [],
        "25/03/2020 19:56:56": [],
        "25/03/2020 21:25:11": []
    },
    "3784": {
        "25/03/2020 14:39:17": [],
        "25/03/2020 17:21:42": [],
        "25/03/2020 19:56:56": [],
        "25/03/2020 21:25:11": []
    },
    "3785": {
        "25/03/2020 14:39:17": [],
        "25/03/2020 17:21:42": [],
        "25/03/2020 19:56:57": [],
        "25/03/2020 21:25:12": []
    },
    "3786": {
        "25/03/2020 14:39:18": [],
        "25/03/2020 17:21:43": [],
        "25/03/2020 19:56:57": [],
        "25/03/2020 21:25:12": []
    },
    "3787": {
        "25/03/2020 14:39:18": [],
        "25/03/2020 17:21:44": [],
        "25/03/2020 19:56:57": [],
        "25/03/2020 21:25:12": []
    },
    "3788": {
        "25/03/2020 14:39:19": [],
        "25/03/2020 17:21:44": [],
        "25/03/2020 19:56:57": [],
        "25/03/2020 21:25:13": []
    },
    "3789": {
        "25/03/2020 14:39:19": [],
        "25/03/2020 17:21:45": [],
        "25/03/2020 19:56:58": [],
        "25/03/2020 21:25:13": []
    },
    "3790": {
        "25/03/2020 14:39:20": [],
        "25/03/2020 17:21:45": [],
        "25/03/2020 19:56:58": [],
        "25/03/2020 21:25:13": []
    },
    "3791": {
        "25/03/2020 14:39:20": [],
        "25/03/2020 17:21:46": [],
        "25/03/2020 19:56:58": [],
        "25/03/2020 21:25:14": []
    },
    "3792": {
        "25/03/2020 14:39:21": [],
        "25/03/2020 17:21:47": [],
        "25/03/2020 19:56:59": [],
        "25/03/2020 21:25:14": []
    },
    "3793": {
        "25/03/2020 14:39:21": [],
        "25/03/2020 17:21:48": [],
        "25/03/2020 19:56:59": [],
        "25/03/2020 21:25:14": []
    },
    "3794": {
        "25/03/2020 14:39:22": [],
        "25/03/2020 17:21:49": [],
        "25/03/2020 19:56:59": [],
        "25/03/2020 21:25:15": []
    },
    "3795": {
        "25/03/2020 14:39:23": [],
        "25/03/2020 17:21:49": [],
        "25/03/2020 19:57:00": [],
        "25/03/2020 21:25:15": []
    },
    "3797": {
        "25/03/2020 14:39:23": [],
        "25/03/2020 17:21:50": [],
        "25/03/2020 19:57:00": [],
        "25/03/2020 21:25:15": []
    },
    "3798": {
        "25/03/2020 14:39:24": [],
        "25/03/2020 17:21:51": [],
        "25/03/2020 19:57:00": [],
        "25/03/2020 21:25:15": []
    },
    "3799": {
        "25/03/2020 14:39:24": [],
        "25/03/2020 17:21:51": [],
        "25/03/2020 19:57:01": [],
        "25/03/2020 21:25:16": []
    },
    "6076": {
        "25/03/2020 14:39:24": [],
        "25/03/2020 17:21:52": [],
        "25/03/2020 19:57:01": [],
        "25/03/2020 21:25:16": []
    },
    "7172": {
        "25/03/2020 14:39:25": [],
        "25/03/2020 17:21:53": [],
        "25/03/2020 19:57:01": [],
        "25/03/2020 21:25:16": []
    },
    "7174": {
        "25/03/2020 14:39:26": [],
        "25/03/2020 17:21:53": [],
        "25/03/2020 19:57:02": [],
        "25/03/2020 21:25:17": []
    },
    "7175": {
        "25/03/2020 14:39:26": [],
        "25/03/2020 17:21:54": [],
        "25/03/2020 19:57:02": [],
        "25/03/2020 21:25:17": []
    },
    "3677": {
        "25/03/2020 14:39:27": [],
        "25/03/2020 17:21:55": [],
        "25/03/2020 19:57:02": [],
        "25/03/2020 21:25:17": []
    },
    "3678": {
        "25/03/2020 14:39:27": [],
        "25/03/2020 17:21:55": [],
        "25/03/2020 19:57:03": [],
        "25/03/2020 21:25:18": []
    },
    "3679": {
        "25/03/2020 14:39:28": [],
        "25/03/2020 17:21:56": [],
        "25/03/2020 19:57:03": [],
        "25/03/2020 21:25:18": []
    },
    "5175": {
        "25/03/2020 14:39:28": [],
        "25/03/2020 17:21:57": [],
        "25/03/2020 19:57:03": [],
        "25/03/2020 21:25:18": []
    },
    "3801": {
        "25/03/2020 14:39:29": [],
        "25/03/2020 17:21:58": [],
        "25/03/2020 19:57:04": [],
        "25/03/2020 21:25:18": []
    },
    "3802": {
        "25/03/2020 14:39:29": [],
        "25/03/2020 17:21:58": [],
        "25/03/2020 19:57:04": [],
        "25/03/2020 21:25:19": []
    },
    "3805": {
        "25/03/2020 14:39:30": [],
        "25/03/2020 17:21:59": [],
        "25/03/2020 19:57:04": [],
        "25/03/2020 21:25:19": []
    },
    "3806": {
        "25/03/2020 14:39:30": [],
        "25/03/2020 17:21:59": [],
        "25/03/2020 19:57:05": [],
        "25/03/2020 21:25:19": []
    },
    "3807": {
        "25/03/2020 14:39:31": [],
        "25/03/2020 17:22:00": [],
        "25/03/2020 19:57:05": [],
        "25/03/2020 21:25:20": []
    },
    "3808": {
        "25/03/2020 14:39:32": [],
        "25/03/2020 17:22:01": [],
        "25/03/2020 19:57:05": [],
        "25/03/2020 21:25:20": []
    },
    "3809": {
        "25/03/2020 14:39:32": [],
        "25/03/2020 17:22:01": [],
        "25/03/2020 19:57:06": [],
        "25/03/2020 21:25:20": []
    },
    "6077": {
        "25/03/2020 14:39:33": [],
        "25/03/2020 17:22:03": [],
        "25/03/2020 19:57:06": [],
        "25/03/2020 21:25:21": []
    }
}