{
    "2237": {
        "27/03/2020 15:23:13": [],
        "27/03/2020 18:17:23": []
    },
    "2238": {
        "27/03/2020 15:23:13": [
            -2
        ],
        "27/03/2020 18:17:23": [
            11
        ]
    },
    "2239": {
        "27/03/2020 15:23:14": [
            -28
        ],
        "27/03/2020 18:17:24": [
            212,
            -17
        ]
    },
    "2241": {
        "27/03/2020 15:23:14": [
            26
        ],
        "27/03/2020 18:17:24": [
            213,
            -24
        ]
    },
    "2242": {
        "27/03/2020 15:23:15": [
            -2
        ],
        "27/03/2020 18:17:24": [
            184,
            7
        ]
    },
    "2243": {
        "27/03/2020 15:23:16": [
            20
        ],
        "27/03/2020 18:17:25": [
            204,
            25
        ]
    },
    "2244": {
        "27/03/2020 15:23:16": [
            -4
        ],
        "27/03/2020 18:17:25": [
            -2
        ]
    },
    "2245": {
        "27/03/2020 15:23:17": [
            24
        ],
        "27/03/2020 18:17:25": [
            206
        ]
    },
    "2246": {
        "27/03/2020 15:23:17": [
            -7
        ],
        "27/03/2020 18:17:26": [
            271
        ]
    },
    "2247": {
        "27/03/2020 15:23:18": [],
        "27/03/2020 18:17:26": [
            256
        ]
    },
    "2248": {
        "27/03/2020 15:23:18": [],
        "27/03/2020 18:17:26": [
            229
        ]
    },
    "1478": {
        "27/03/2020 15:23:19": [],
        "27/03/2020 18:17:26": [
            257
        ]
    },
    "1479": {
        "27/03/2020 15:23:19": [],
        "27/03/2020 18:17:27": [
            229
        ]
    },
    "2232": {
        "27/03/2020 15:23:20": [
            15
        ],
        "27/03/2020 18:17:27": [
            -1
        ]
    },
    "2233": {
        "27/03/2020 15:23:20": [
            -22
        ],
        "27/03/2020 18:17:27": [
            -24
        ]
    },
    "2234": {
        "27/03/2020 15:23:21": [
            -2
        ],
        "27/03/2020 18:17:28": [
            -26
        ]
    },
    "2235": {
        "27/03/2020 15:23:21": [
            23
        ],
        "27/03/2020 18:17:28": [
            -5
        ]
    },
    "2236": {
        "27/03/2020 15:23:22": [
            27
        ],
        "27/03/2020 18:17:28": [
            -12
        ]
    },
    "347": {
        "27/03/2020 15:23:22": [],
        "27/03/2020 18:17:28": []
    },
    "3995": {
        "27/03/2020 15:23:23": [
            -25
        ],
        "27/03/2020 18:17:29": [
            -24
        ]
    },
    "3996": {
        "27/03/2020 15:23:23": [
            11
        ],
        "27/03/2020 18:17:29": [
            13
        ]
    },
    "2249": {
        "27/03/2020 15:23:24": [],
        "27/03/2020 18:17:29": [
            254
        ]
    },
    "2250": {
        "27/03/2020 15:23:24": [],
        "27/03/2020 18:17:30": [
            218
        ]
    },
    "2251": {
        "27/03/2020 15:23:25": [],
        "27/03/2020 18:17:30": [
            255
        ]
    },
    "2810": {
        "27/03/2020 15:23:25": [
            161
        ],
        "27/03/2020 18:17:30": [
            230
        ]
    },
    "4408": {
        "27/03/2020 15:23:26": [],
        "27/03/2020 18:17:31": [
            262
        ]
    },
    "7453": {
        "27/03/2020 15:23:26": [],
        "27/03/2020 18:17:31": [
            271
        ]
    },
    "315": {
        "27/03/2020 15:23:27": [
            72
        ],
        "27/03/2020 18:17:31": [
            227
        ]
    },
    "7387": {
        "27/03/2020 15:23:27": [],
        "27/03/2020 18:17:31": []
    },
    "1472": {
        "27/03/2020 15:23:28": [],
        "27/03/2020 18:17:32": [
            238
        ]
    },
    "1473": {
        "27/03/2020 15:23:28": [],
        "27/03/2020 18:17:32": [
            216
        ]
    },
    "1474": {
        "27/03/2020 15:23:29": [],
        "27/03/2020 18:17:32": [
            217
        ]
    },
    "1476": {
        "27/03/2020 15:23:29": [],
        "27/03/2020 18:17:33": [
            217
        ]
    },
    "3372": {
        "27/03/2020 15:23:30": [
            -26
        ],
        "27/03/2020 18:17:33": [
            4
        ]
    },
    "3373": {
        "27/03/2020 15:23:30": [
            14
        ],
        "27/03/2020 18:17:33": [
            -20
        ]
    },
    "3374": {
        "27/03/2020 15:23:30": [
            -19
        ],
        "27/03/2020 18:17:33": [
            3
        ]
    },
    "3949": {
        "27/03/2020 15:23:31": [
            -2
        ],
        "27/03/2020 18:17:34": [
            -15
        ]
    },
    "3950": {
        "27/03/2020 15:23:31": [
            27
        ],
        "27/03/2020 18:17:34": [
            18
        ]
    },
    "5056": {
        "27/03/2020 15:23:32": [
            13
        ],
        "27/03/2020 18:17:34": [
            26
        ]
    },
    "3997": {
        "27/03/2020 15:23:32": [
            13
        ],
        "27/03/2020 18:17:35": [
            10
        ]
    },
    "3998": {
        "27/03/2020 15:23:33": [
            1
        ],
        "27/03/2020 18:17:35": [
            -7
        ]
    },
    "3999": {
        "27/03/2020 15:23:33": [
            -14
        ],
        "27/03/2020 18:17:35": [
            -22
        ]
    },
    "4000": {
        "27/03/2020 15:23:34": [
            15
        ],
        "27/03/2020 18:17:36": [
            3
        ]
    },
    "4001": {
        "27/03/2020 15:23:34": [
            -13
        ],
        "27/03/2020 18:17:36": [
            29
        ]
    },
    "406": {
        "27/03/2020 15:23:35": [
            89
        ],
        "27/03/2020 18:17:36": [
            244
        ]
    },
    "1444": {
        "27/03/2020 15:23:35": [
            -3
        ],
        "27/03/2020 18:17:37": [
            25
        ]
    },
    "1445": {
        "27/03/2020 15:23:36": [
            -9
        ],
        "27/03/2020 18:17:37": [
            8
        ]
    },
    "1449": {
        "27/03/2020 15:23:36": [
            -28
        ],
        "27/03/2020 18:17:37": [
            24
        ]
    },
    "1450": {
        "27/03/2020 15:23:37": [
            -2
        ],
        "27/03/2020 18:17:37": [
            -6
        ]
    },
    "1451": {
        "27/03/2020 15:23:38": [
            21
        ],
        "27/03/2020 18:17:38": [
            21
        ]
    },
    "2191": {
        "27/03/2020 15:23:38": [
            -21
        ],
        "27/03/2020 18:17:38": [
            24
        ]
    },
    "2192": {
        "27/03/2020 15:23:39": [
            12
        ],
        "27/03/2020 18:17:38": [
            -8
        ]
    },
    "2193": {
        "27/03/2020 15:23:39": [
            -14
        ],
        "27/03/2020 18:17:39": [
            27
        ]
    },
    "2194": {
        "27/03/2020 15:23:39": [
            8
        ],
        "27/03/2020 18:17:39": [
            -11
        ]
    },
    "2195": {
        "27/03/2020 15:23:40": [
            -11
        ],
        "27/03/2020 18:17:39": [
            -28
        ]
    },
    "2196": {
        "27/03/2020 15:23:40": [
            -26
        ],
        "27/03/2020 18:17:40": [
            8
        ]
    },
    "2200": {
        "27/03/2020 15:23:41": [
            6
        ],
        "27/03/2020 18:17:40": [
            11
        ]
    },
    "2201": {
        "27/03/2020 15:23:41": [
            26
        ],
        "27/03/2020 18:17:40": [
            -18
        ]
    },
    "2213": {
        "27/03/2020 15:23:42": [
            -9
        ],
        "27/03/2020 18:17:41": [
            -14
        ]
    },
    "2214": {
        "27/03/2020 15:23:42": [
            -25
        ],
        "27/03/2020 18:17:41": [
            -30
        ]
    },
    "2215": {
        "27/03/2020 15:23:43": [
            27
        ],
        "27/03/2020 18:17:41": [
            22
        ]
    },
    "2216": {
        "27/03/2020 15:23:43": [
            -2
        ],
        "27/03/2020 18:17:42": [
            -4
        ]
    },
    "2217": {
        "27/03/2020 15:23:44": [
            -6
        ],
        "27/03/2020 18:17:42": [
            -11
        ]
    },
    "2218": {
        "27/03/2020 15:23:44": [
            -30
        ],
        "27/03/2020 18:17:42": [
            21
        ]
    },
    "2219": {
        "27/03/2020 15:23:45": [
            -5
        ],
        "27/03/2020 18:17:43": [
            -12
        ]
    },
    "312": {
        "27/03/2020 15:23:45": [
            -30
        ],
        "27/03/2020 18:17:43": [
            16
        ]
    },
    "3365": {
        "27/03/2020 15:23:46": [
            10
        ],
        "27/03/2020 18:17:43": [
            5
        ]
    },
    "3367": {
        "27/03/2020 15:23:46": [
            27
        ],
        "27/03/2020 18:17:43": [
            29
        ]
    },
    "3954": {
        "27/03/2020 15:23:47": [
            -9
        ],
        "27/03/2020 18:17:44": [
            -5
        ]
    },
    "3955": {
        "27/03/2020 15:23:47": [
            7
        ],
        "27/03/2020 18:17:44": [
            16
        ]
    },
    "3956": {
        "27/03/2020 15:23:48": [
            22
        ],
        "27/03/2020 18:17:44": [
            -27
        ]
    },
    "3957": {
        "27/03/2020 15:23:48": [
            1
        ],
        "27/03/2020 18:17:45": [
            17
        ]
    },
    "7186": {
        "27/03/2020 15:23:49": [
            13
        ],
        "27/03/2020 18:17:45": [
            13
        ]
    },
    "7187": {
        "27/03/2020 15:23:49": [
            19
        ],
        "27/03/2020 18:17:45": [
            23
        ]
    },
    "3366": {
        "27/03/2020 15:23:50": [
            -30
        ],
        "27/03/2020 18:17:46": [
            27
        ]
    },
    "4401": {
        "27/03/2020 15:23:50": [
            27
        ],
        "27/03/2020 18:17:46": [
            -12
        ]
    },
    "4599": {
        "27/03/2020 15:23:51": [
            8
        ],
        "27/03/2020 18:17:46": [
            4
        ]
    },
    "7078": {
        "27/03/2020 15:23:51": [
            16
        ],
        "27/03/2020 18:17:47": [
            -6
        ]
    },
    "2197": {
        "27/03/2020 15:23:52": [
            -28
        ],
        "27/03/2020 18:17:47": [
            -5
        ]
    },
    "2198": {
        "27/03/2020 15:23:52": [
            -27
        ],
        "27/03/2020 18:17:47": [
            -16
        ]
    },
    "346": {
        "27/03/2020 15:23:53": [
            13
        ],
        "27/03/2020 18:17:47": [
            -13
        ]
    },
    "3886": {
        "27/03/2020 15:23:53": [
            14
        ],
        "27/03/2020 18:17:48": [
            5
        ]
    },
    "3887": {
        "27/03/2020 15:23:54": [
            -13
        ],
        "27/03/2020 18:17:48": [
            -20
        ]
    },
    "3888": {
        "27/03/2020 15:23:54": [
            14
        ],
        "27/03/2020 18:17:49": [
            10
        ]
    },
    "493": {
        "27/03/2020 15:23:55": [
            18
        ],
        "27/03/2020 18:17:49": [
            -4
        ]
    },
    "494": {
        "27/03/2020 15:23:55": [
            18
        ],
        "27/03/2020 18:17:49": [
            26
        ]
    },
    "495": {
        "27/03/2020 15:23:56": [
            -29
        ],
        "27/03/2020 18:17:49": [
            15
        ]
    },
    "7391": {
        "27/03/2020 15:23:56": [
            0
        ],
        "27/03/2020 18:17:50": [
            0
        ]
    },
    "317": {
        "27/03/2020 15:23:57": [
            -25
        ],
        "27/03/2020 18:17:50": [
            -7
        ]
    },
    "3993": {
        "27/03/2020 15:23:57": [
            -13
        ],
        "27/03/2020 18:17:50": [
            16
        ]
    },
    "3994": {
        "27/03/2020 15:23:58": [
            0
        ],
        "27/03/2020 18:17:51": [
            0
        ]
    },
    "400": {
        "27/03/2020 15:23:58": [
            -30
        ],
        "27/03/2020 18:17:51": [
            -17
        ]
    },
    "7239": {
        "27/03/2020 15:23:59": [
            1
        ],
        "27/03/2020 18:17:51": [
            20
        ]
    }
}