{
    "2637": {
        "23/03/2020 14:01:36": [
            1,
            5
        ],
        "23/03/2020 16:05:50": [
            25,
            5
        ],
        "23/03/2020 19:17:14": [
            -13
        ]
    },
    "2638": {
        "23/03/2020 14:01:37": [
            29,
            -24
        ],
        "23/03/2020 16:05:50": [
            10,
            -21
        ],
        "23/03/2020 19:17:14": [
            14
        ]
    },
    "2640": {
        "23/03/2020 14:01:37": [
            -12,
            17
        ],
        "23/03/2020 16:05:51": [
            -23,
            -10
        ],
        "23/03/2020 19:17:15": [
            13
        ]
    },
    "2641": {
        "23/03/2020 14:01:38": [
            -16,
            -25
        ],
        "23/03/2020 16:05:51": [
            -6,
            2
        ],
        "23/03/2020 19:17:15": [
            16
        ]
    },
    "2643": {
        "23/03/2020 14:01:38": [
            -15,
            -1
        ],
        "23/03/2020 16:05:51": [
            18,
            21
        ],
        "23/03/2020 19:17:15": [
            25
        ]
    },
    "2644": {
        "23/03/2020 14:01:38": [
            -6,
            6
        ],
        "23/03/2020 16:05:52": [
            23,
            -25
        ],
        "23/03/2020 19:17:15": [
            -27
        ]
    },
    "2645": {
        "23/03/2020 14:01:38": [
            -2,
            6
        ],
        "23/03/2020 16:05:52": [
            28,
            -11
        ],
        "23/03/2020 19:17:16": [
            -22
        ]
    },
    "2646": {
        "23/03/2020 14:01:39": [
            -29
        ],
        "23/03/2020 16:05:52": [
            2,
            27
        ],
        "23/03/2020 19:17:16": [
            12
        ]
    },
    "2647": {
        "23/03/2020 14:01:39": [
            -18
        ],
        "23/03/2020 16:05:52": [
            16
        ],
        "23/03/2020 19:17:16": [
            -169,
            13
        ]
    },
    "2648": {
        "23/03/2020 14:01:39": [
            -6
        ],
        "23/03/2020 16:05:53": [
            -29
        ],
        "23/03/2020 19:17:17": [
            -167,
            15
        ]
    },
    "2649": {
        "23/03/2020 14:01:40": [
            -17
        ],
        "23/03/2020 16:05:53": [
            22
        ],
        "23/03/2020 19:17:17": [
            -185,
            -3
        ]
    },
    "2650": {
        "23/03/2020 14:01:40": [
            -30
        ],
        "23/03/2020 16:05:53": [
            11
        ],
        "23/03/2020 19:17:17": [
            -159,
            -23
        ]
    },
    "2652": {
        "23/03/2020 14:01:40": [
            19
        ],
        "23/03/2020 16:05:54": [
            3
        ],
        "23/03/2020 19:17:18": [
            -116,
            20
        ]
    },
    "2653": {
        "23/03/2020 14:01:41": [
            -227,
            -5
        ],
        "23/03/2020 16:05:54": [
            -20
        ],
        "23/03/2020 19:17:18": [
            -146,
            -10
        ]
    },
    "2654": {
        "23/03/2020 14:01:41": [
            -202,
            20
        ],
        "23/03/2020 16:05:54": [
            6
        ],
        "23/03/2020 19:17:18": [
            -124,
            12
        ]
    },
    "2655": {
        "23/03/2020 14:01:41": [
            -236,
            -14
        ],
        "23/03/2020 16:05:54": [
            -195,
            6
        ],
        "23/03/2020 19:17:18": [
            -149,
            -13
        ]
    },
    "2656": {
        "23/03/2020 14:01:42": [
            -163,
            18
        ],
        "23/03/2020 16:05:55": [
            -181,
            10
        ],
        "23/03/2020 19:17:19": [
            -110,
            26
        ]
    },
    "2657": {
        "23/03/2020 14:01:42": [
            -229,
            -28
        ],
        "23/03/2020 16:05:55": [
            -241,
            -30
        ],
        "23/03/2020 19:17:19": [
            -163,
            -27
        ]
    },
    "2658": {
        "23/03/2020 14:01:42": [
            -215,
            7
        ],
        "23/03/2020 16:05:55": [
            -206,
            5
        ],
        "23/03/2020 19:17:19": [
            -128,
            8
        ]
    },
    "1444": {
        "23/03/2020 14:01:42": [
            2,
            6
        ],
        "23/03/2020 16:05:56": [
            5,
            -4
        ],
        "23/03/2020 19:17:20": [
            -8,
            -8
        ]
    },
    "1445": {
        "23/03/2020 14:01:43": [
            7,
            3
        ],
        "23/03/2020 16:05:56": [
            13,
            17
        ],
        "23/03/2020 19:17:20": [
            -3,
            -3
        ]
    },
    "2906": {
        "23/03/2020 14:01:43": [
            -128,
            -8
        ],
        "23/03/2020 16:05:56": [
            -222,
            -10
        ],
        "23/03/2020 19:17:21": [
            -146,
            -10
        ]
    },
    "2907": {
        "23/03/2020 14:01:43": [
            -104,
            16
        ],
        "23/03/2020 16:05:57": [
            -106,
            14
        ],
        "23/03/2020 19:17:24": [
            -122,
            14
        ]
    },
    "2908": {
        "23/03/2020 14:01:44": [],
        "23/03/2020 16:05:57": [],
        "23/03/2020 19:17:26": []
    },
    "2909": {
        "23/03/2020 14:01:44": [
            -99,
            21
        ],
        "23/03/2020 16:05:57": [
            -193,
            19
        ],
        "23/03/2020 19:17:29": [
            -116,
            20
        ]
    },
    "1443": {
        "23/03/2020 14:01:44": [
            5,
            16
        ],
        "23/03/2020 16:05:57": [
            5,
            -17
        ],
        "23/03/2020 19:17:32": [
            -5,
            -5
        ]
    },
    "4407": {
        "23/03/2020 14:01:45": [
            -28,
            -28
        ],
        "23/03/2020 16:05:58": [
            -13,
            8
        ],
        "23/03/2020 19:17:35": [
            20,
            20
        ]
    },
    "2659": {
        "23/03/2020 14:01:45": [
            -241,
            -19
        ],
        "23/03/2020 16:05:58": [
            -252,
            -21
        ],
        "23/03/2020 19:17:38": [
            -154,
            -18
        ]
    },
    "2660": {
        "23/03/2020 14:01:45": [
            -216,
            6
        ],
        "23/03/2020 16:05:58": [
            -227,
            4
        ],
        "23/03/2020 19:17:41": [
            -129,
            7
        ]
    },
    "2661": {
        "23/03/2020 14:01:46": [
            -130,
            -10
        ],
        "23/03/2020 16:05:59": [
            -222,
            -12
        ],
        "23/03/2020 19:17:44": [
            -146,
            -10
        ]
    },
    "2662": {
        "23/03/2020 14:01:46": [
            -136,
            -16
        ],
        "23/03/2020 16:05:59": [
            -202,
            -18
        ],
        "23/03/2020 19:17:46": [
            -152,
            -16
        ]
    },
    "2670": {
        "23/03/2020 14:01:46": [
            0,
            0
        ],
        "23/03/2020 16:05:59": [
            0,
            0
        ],
        "23/03/2020 19:17:49": [
            0
        ]
    },
    "2910": {
        "23/03/2020 14:01:47": [
            -25,
            -26
        ],
        "23/03/2020 16:06:00": [
            -25,
            -25
        ],
        "23/03/2020 19:17:51": [
            -28
        ]
    },
    "2911": {
        "23/03/2020 14:01:47": [
            15,
            13
        ],
        "23/03/2020 16:06:00": [
            14,
            15
        ],
        "23/03/2020 19:17:54": [
            10
        ]
    },
    "7507": {
        "23/03/2020 14:01:47": [
            -17,
            -19
        ],
        "23/03/2020 16:06:00": [
            -18,
            -16
        ],
        "23/03/2020 19:17:56": [
            -24
        ]
    },
    "2663": {
        "23/03/2020 14:01:48": [
            10,
            7
        ],
        "23/03/2020 16:06:01": [
            9,
            11
        ],
        "23/03/2020 19:17:57": [
            1
        ]
    },
    "2664": {
        "23/03/2020 14:01:48": [
            1,
            -4
        ],
        "23/03/2020 16:06:01": [
            -2,
            1
        ],
        "23/03/2020 19:18:01": [
            -12
        ]
    },
    "2665": {
        "23/03/2020 14:01:48": [
            -20,
            -25
        ],
        "23/03/2020 16:06:01": [
            -23,
            -19
        ],
        "23/03/2020 19:18:02": [
            24
        ]
    },
    "2666": {
        "23/03/2020 14:01:49": [
            11,
            5
        ],
        "23/03/2020 16:06:02": [
            7,
            12
        ],
        "23/03/2020 19:18:03": [
            -7
        ]
    },
    "2667": {
        "23/03/2020 14:01:49": [
            -7,
            -14
        ],
        "23/03/2020 16:06:02": [
            69,
            -11,
            -6
        ],
        "23/03/2020 19:18:05": [
            -28
        ]
    },
    "2696": {
        "23/03/2020 14:01:49": [
            9,
            -9
        ],
        "23/03/2020 16:06:02": [
            103,
            7,
            11
        ],
        "23/03/2020 19:18:07": [
            18
        ]
    },
    "2697": {
        "23/03/2020 14:01:49": [
            0,
            -16
        ],
        "23/03/2020 16:06:02": [
            51,
            -14,
            -19
        ],
        "23/03/2020 19:18:09": [
            -29
        ]
    },
    "2700": {
        "23/03/2020 14:01:50": [
            22,
            9
        ],
        "23/03/2020 16:06:03": [
            59,
            -6,
            -24
        ],
        "23/03/2020 19:18:10": [
            -8,
            4
        ]
    },
    "2701": {
        "23/03/2020 14:01:50": [
            -22,
            24
        ],
        "23/03/2020 16:06:03": [
            74,
            9,
            -8
        ],
        "23/03/2020 19:18:11": [
            7,
            19
        ]
    },
    "2702": {
        "23/03/2020 14:01:50": [
            9,
            -4
        ],
        "23/03/2020 16:06:03": [
            45,
            -20,
            24
        ],
        "23/03/2020 19:18:13": [
            -22,
            -10
        ]
    },
    "2703": {
        "23/03/2020 14:01:51": [
            -25,
            21
        ],
        "23/03/2020 16:06:04": [
            70,
            5,
            -10
        ],
        "23/03/2020 19:18:15": [
            3,
            15
        ]
    },
    "2704": {
        "23/03/2020 14:01:51": [
            -2,
            -16
        ],
        "23/03/2020 16:06:04": [
            93,
            28,
            13
        ],
        "23/03/2020 19:18:18": [
            -34,
            -22
        ]
    },
    "2706": {
        "23/03/2020 14:01:51": [
            -10,
            -25
        ],
        "23/03/2020 16:06:04": [
            83,
            18,
            3
        ],
        "23/03/2020 19:18:20": [
            -31,
            20
        ]
    },
    "6070": {
        "23/03/2020 14:01:52": [
            -5,
            -20
        ],
        "23/03/2020 16:06:05": [
            85,
            20,
            7
        ],
        "23/03/2020 19:18:22": [
            13,
            13
        ]
    },
    "2708": {
        "23/03/2020 14:01:52": [
            -4,
            -18
        ],
        "23/03/2020 16:06:05": [
            84,
            19,
            7
        ],
        "23/03/2020 19:18:23": [
            3,
            3
        ]
    },
    "5134": {
        "23/03/2020 14:01:52": [
            -25,
            20
        ],
        "23/03/2020 16:06:05": [
            62,
            -3,
            -15
        ],
        "23/03/2020 19:18:24": [
            -26,
            -26
        ]
    },
    "2718": {
        "23/03/2020 14:01:53": [
            19,
            4
        ],
        "23/03/2020 16:06:06": [
            44,
            -21,
            28
        ],
        "23/03/2020 19:18:27": [
            10,
            10
        ]
    },
    "2719": {
        "23/03/2020 14:01:53": [
            -18,
            11
        ],
        "23/03/2020 16:06:06": [
            5,
            5,
            -28
        ],
        "23/03/2020 19:18:29": [
            15,
            15
        ]
    },
    "7435": {
        "23/03/2020 14:01:53": [
            4,
            -22
        ],
        "23/03/2020 16:06:06": [
            -30,
            -30,
            -16
        ],
        "23/03/2020 19:18:30": [
            26,
            26
        ]
    },
    "2722": {
        "23/03/2020 14:01:54": [
            -7,
            -30
        ],
        "23/03/2020 16:06:07": [
            -4,
            -4,
            2
        ],
        "23/03/2020 19:18:32": [
            9,
            9
        ]
    },
    "4413": {
        "23/03/2020 14:01:54": [
            -25,
            -7
        ],
        "23/03/2020 16:06:07": [
            16,
            16
        ],
        "23/03/2020 19:18:33": [
            22,
            22
        ]
    },
    "1476": {
        "23/03/2020 14:01:54": [
            25,
            -12
        ],
        "23/03/2020 16:06:07": [
            3,
            3
        ],
        "23/03/2020 19:18:34": [
            3,
            3
        ]
    },
    "7453": {
        "23/03/2020 14:01:55": [
            4
        ],
        "23/03/2020 16:06:07": [
            -19,
            -19
        ],
        "23/03/2020 19:18:36": [
            -29,
            -29
        ]
    },
    "1480": {
        "23/03/2020 14:01:55": [
            4
        ],
        "23/03/2020 16:06:08": [
            -20,
            -20
        ],
        "23/03/2020 19:18:38": [
            18,
            18
        ]
    },
    "2912": {
        "23/03/2020 14:01:56": [
            28
        ],
        "23/03/2020 16:06:08": [
            -82,
            129,
            4
        ],
        "23/03/2020 19:18:39": [
            -18,
            -18
        ]
    },
    "1358": {
        "23/03/2020 14:01:56": [
            -8
        ],
        "23/03/2020 16:06:08": [
            -37,
            27,
            27
        ],
        "23/03/2020 19:18:40": [
            5,
            5
        ]
    },
    "326": {
        "23/03/2020 14:01:56": [
            0,
            0
        ],
        "23/03/2020 16:06:09": [
            0,
            0
        ],
        "23/03/2020 19:18:43": [
            0,
            0
        ]
    }
}