{
    "326": {
        "21/03/2020 15:38:44": [
            0,
            0
        ],
        "21/03/2020 15:39:01": [
            0,
            0
        ],
        "21/03/2020 15:39:08": [
            0,
            0
        ],
        "21/03/2020 15:39:22": [
            0,
            0
        ],
        "21/03/2020 17:35:17": [
            0,
            0
        ],
        "21/03/2020 20:26:59": [
            0
        ],
        "21/03/2020 22:29:52": [
            0
        ]
    },
    "1443": {
        "21/03/2020 15:38:44": [
            27,
            3
        ],
        "21/03/2020 15:39:01": [
            27,
            3
        ],
        "21/03/2020 17:35:07": [
            11,
            8
        ],
        "21/03/2020 20:26:44": [
            3
        ],
        "21/03/2020 22:29:36": [
            3
        ]
    },
    "1444": {
        "21/03/2020 15:38:45": [
            5,
            -6
        ],
        "21/03/2020 15:38:59": [
            5,
            -6
        ],
        "21/03/2020 17:35:06": [
            3,
            -6
        ],
        "21/03/2020 20:26:41": [
            -7
        ],
        "21/03/2020 22:29:34": [
            -7
        ]
    },
    "1445": {
        "21/03/2020 15:38:45": [
            -11,
            -8
        ],
        "21/03/2020 15:38:59": [
            -11,
            -8
        ],
        "21/03/2020 17:35:06": [
            2,
            -13
        ],
        "21/03/2020 20:26:42": [
            -11
        ],
        "21/03/2020 22:29:34": [
            -11
        ]
    },
    "4407": {
        "21/03/2020 15:38:45": [
            -26,
            24
        ],
        "21/03/2020 15:39:01": [
            -26,
            24
        ],
        "21/03/2020 17:35:07": [
            23
        ],
        "21/03/2020 20:26:44": [
            182,
            0
        ],
        "21/03/2020 22:29:37": [
            0
        ]
    },
    "2637": {
        "21/03/2020 15:38:45": [
            24,
            0
        ],
        "21/03/2020 15:38:53": [
            24,
            0
        ],
        "21/03/2020 17:35:01": [
            -88,
            -12
        ],
        "21/03/2020 20:26:33": [
            157,
            15
        ],
        "21/03/2020 22:29:26": [
            15
        ]
    },
    "2638": {
        "21/03/2020 15:38:46": [
            15,
            -23
        ],
        "21/03/2020 15:38:54": [
            15,
            -23
        ],
        "21/03/2020 17:35:01": [
            -106,
            -30
        ],
        "21/03/2020 20:26:33": [
            186,
            -23
        ],
        "21/03/2020 22:29:27": [
            -23
        ]
    },
    "2640": {
        "21/03/2020 15:38:46": [
            -17
        ],
        "21/03/2020 15:38:54": [
            -17
        ],
        "21/03/2020 17:35:01": [
            -72,
            -16
        ],
        "21/03/2020 20:26:34": [
            120,
            27
        ],
        "21/03/2020 22:29:27": [
            27
        ]
    },
    "2641": {
        "21/03/2020 15:38:46": [
            -22
        ],
        "21/03/2020 15:38:54": [
            -22
        ],
        "21/03/2020 17:35:01": [
            -93,
            -17
        ],
        "21/03/2020 20:26:34": [
            18
        ],
        "21/03/2020 22:29:27": [
            18
        ]
    },
    "2643": {
        "21/03/2020 15:38:47": [
            -21
        ],
        "21/03/2020 15:38:55": [
            -21
        ],
        "21/03/2020 17:35:02": [
            -89,
            -13
        ],
        "21/03/2020 20:26:35": [
            116,
            14
        ],
        "21/03/2020 22:29:28": [
            14
        ]
    },
    "2644": {
        "21/03/2020 15:38:47": [
            -282,
            -14
        ],
        "21/03/2020 15:38:55": [
            -282,
            -14
        ],
        "21/03/2020 17:35:02": [
            -74,
            2
        ],
        "21/03/2020 20:26:35": [
            119,
            14
        ],
        "21/03/2020 22:29:28": [
            14
        ]
    },
    "2645": {
        "21/03/2020 15:38:47": [
            -289,
            -10
        ],
        "21/03/2020 15:38:55": [
            -289,
            -10
        ],
        "21/03/2020 17:35:02": [
            -82,
            -6
        ],
        "21/03/2020 20:26:35": [
            143,
            12
        ],
        "21/03/2020 22:29:29": [
            -131,
            12
        ]
    },
    "2646": {
        "21/03/2020 15:38:47": [
            -256,
            23
        ],
        "21/03/2020 15:38:55": [
            -256,
            23
        ],
        "21/03/2020 17:35:03": [
            -54,
            22
        ],
        "21/03/2020 20:26:36": [
            177,
            -18
        ],
        "21/03/2020 22:29:29": [
            -161,
            -18
        ]
    },
    "2647": {
        "21/03/2020 15:38:48": [
            -254,
            25
        ],
        "21/03/2020 15:38:56": [
            -254,
            25
        ],
        "21/03/2020 17:35:03": [
            -51,
            25
        ],
        "21/03/2020 20:26:36": [
            178,
            -23
        ],
        "21/03/2020 22:29:29": [
            -166,
            -23
        ]
    },
    "2648": {
        "21/03/2020 15:38:48": [
            -276,
            28
        ],
        "21/03/2020 15:38:56": [
            -276,
            28
        ],
        "21/03/2020 17:35:03": [
            -30,
            -30
        ],
        "21/03/2020 20:26:37": [
            181,
            -26
        ],
        "21/03/2020 22:29:30": [
            -169,
            -26
        ]
    },
    "2649": {
        "21/03/2020 15:38:48": [
            -294,
            10
        ],
        "21/03/2020 15:38:56": [
            -294,
            10
        ],
        "21/03/2020 17:35:03": [
            14,
            14
        ],
        "21/03/2020 20:26:37": [
            163,
            12
        ],
        "21/03/2020 22:29:30": [
            -131,
            12
        ]
    },
    "2650": {
        "21/03/2020 15:38:49": [
            -312,
            -8
        ],
        "21/03/2020 15:38:57": [
            -312,
            -8
        ],
        "21/03/2020 17:35:04": [
            -4,
            -4
        ],
        "21/03/2020 20:26:37": [
            145,
            -11
        ],
        "21/03/2020 22:29:31": [
            -115,
            -11
        ]
    },
    "2652": {
        "21/03/2020 15:38:49": [
            -329,
            -25
        ],
        "21/03/2020 15:38:57": [
            -329,
            -25
        ],
        "21/03/2020 17:35:04": [
            -20,
            -20
        ],
        "21/03/2020 20:26:38": [
            187,
            27
        ],
        "21/03/2020 22:29:31": [
            -77,
            27
        ]
    },
    "2653": {
        "21/03/2020 15:38:49": [
            -234,
            6
        ],
        "21/03/2020 15:38:57": [
            -234,
            6
        ],
        "21/03/2020 17:35:04": [
            12,
            12
        ],
        "21/03/2020 20:26:39": [
            158,
            -5
        ],
        "21/03/2020 22:29:32": [
            -109,
            -5
        ]
    },
    "2654": {
        "21/03/2020 15:38:49": [
            -212,
            28
        ],
        "21/03/2020 15:38:57": [
            -212,
            28
        ],
        "21/03/2020 17:35:04": [
            -25,
            -25
        ],
        "21/03/2020 20:26:39": [
            180,
            15
        ],
        "21/03/2020 22:29:32": [
            -89,
            15
        ]
    },
    "2655": {
        "21/03/2020 15:38:50": [
            -260,
            -20
        ],
        "21/03/2020 15:38:58": [
            -260,
            -20
        ],
        "21/03/2020 17:35:05": [
            11,
            11
        ],
        "21/03/2020 20:26:39": [
            155,
            26
        ],
        "21/03/2020 22:29:32": [
            -117,
            26
        ]
    },
    "2656": {
        "21/03/2020 15:38:50": [
            -242,
            -2
        ],
        "21/03/2020 15:38:58": [
            -242,
            -2
        ],
        "21/03/2020 17:35:05": [
            -8,
            -8
        ],
        "21/03/2020 20:26:40": [
            193,
            -19
        ],
        "21/03/2020 22:29:33": [
            -162,
            -19
        ]
    },
    "2657": {
        "21/03/2020 15:38:50": [
            -239,
            1
        ],
        "21/03/2020 15:38:58": [
            -239,
            1
        ],
        "21/03/2020 17:35:05": [
            -2,
            -2
        ],
        "21/03/2020 20:26:40": [
            141,
            -24
        ],
        "21/03/2020 22:29:33": [
            -167,
            -24
        ]
    },
    "2658": {
        "21/03/2020 15:38:51": [
            -257,
            -17
        ],
        "21/03/2020 15:38:59": [
            -257,
            -17
        ],
        "21/03/2020 17:35:05": [
            -20,
            -20
        ],
        "21/03/2020 20:26:41": [
            184,
            15
        ],
        "21/03/2020 22:29:34": [
            -128,
            15
        ]
    },
    "2659": {
        "21/03/2020 15:38:51": [
            -215,
            25
        ],
        "21/03/2020 15:39:02": [
            -215,
            25
        ],
        "21/03/2020 17:35:08": [
            22,
            22
        ],
        "21/03/2020 20:26:44": [
            165,
            -8
        ],
        "21/03/2020 22:29:37": [
            -151,
            -8
        ]
    },
    "2660": {
        "21/03/2020 15:38:51": [
            -245,
            -5
        ],
        "21/03/2020 15:39:02": [
            -245,
            -5
        ],
        "21/03/2020 17:35:08": [
            -8,
            -8
        ],
        "21/03/2020 20:26:45": [
            117,
            20
        ],
        "21/03/2020 22:29:38": [
            -123,
            20
        ]
    },
    "2661": {
        "21/03/2020 15:38:52": [
            -253,
            -13
        ],
        "21/03/2020 15:39:02": [
            -253,
            -13
        ],
        "21/03/2020 17:35:08": [
            -16,
            -16
        ],
        "21/03/2020 20:26:45": [
            189,
            8
        ],
        "21/03/2020 22:29:38": [
            -135,
            8
        ]
    },
    "2662": {
        "21/03/2020 15:38:52": [
            -248,
            -8
        ],
        "21/03/2020 15:39:02": [
            -248,
            -8
        ],
        "21/03/2020 17:35:08": [
            -11,
            -11
        ],
        "21/03/2020 20:26:46": [
            116,
            8
        ],
        "21/03/2020 22:29:39": [
            -135,
            8
        ]
    },
    "2909": {
        "21/03/2020 15:38:52": [
            -263,
            -23
        ],
        "21/03/2020 15:39:00": [
            -263,
            -23
        ],
        "21/03/2020 17:35:07": [
            -26,
            -26
        ],
        "21/03/2020 20:26:43": [
            180,
            -12
        ],
        "21/03/2020 22:29:36": [
            -155,
            -12
        ]
    },
    "2906": {
        "21/03/2020 15:38:53": [
            -226,
            14
        ],
        "21/03/2020 15:39:00": [
            -226,
            14
        ],
        "21/03/2020 17:35:06": [
            11,
            11
        ],
        "21/03/2020 20:26:42": [
            157,
            22
        ],
        "21/03/2020 22:29:35": [
            -121,
            22
        ]
    },
    "2907": {
        "21/03/2020 15:38:53": [
            -257,
            -17
        ],
        "21/03/2020 15:39:00": [
            -257,
            -17
        ],
        "21/03/2020 17:35:06": [
            271,
            -20,
            -20
        ],
        "21/03/2020 20:26:42": [
            186
        ],
        "21/03/2020 22:29:35": [
            -155,
            -12
        ]
    },
    "2908": {
        "21/03/2020 15:38:53": [],
        "21/03/2020 15:39:00": [],
        "21/03/2020 17:35:07": [],
        "21/03/2020 20:26:43": [],
        "21/03/2020 22:29:36": []
    },
    "1358": {
        "21/03/2020 15:39:03": [
            -155,
            25
        ],
        "21/03/2020 15:39:22": [
            -155,
            25
        ],
        "21/03/2020 17:35:16": [
            -432,
            11
        ],
        "21/03/2020 20:26:59": [
            0
        ],
        "21/03/2020 22:29:52": [
            8
        ]
    },
    "1480": {
        "21/03/2020 15:39:03": [
            -141,
            18
        ],
        "21/03/2020 15:39:21": [
            -195,
            18
        ],
        "21/03/2020 17:35:16": [
            -387,
            -9
        ],
        "21/03/2020 20:26:58": [
            8,
            7
        ],
        "21/03/2020 22:29:51": [
            7,
            7
        ]
    },
    "2663": {
        "21/03/2020 15:39:03": [
            7,
            7
        ],
        "21/03/2020 15:39:13": [
            7,
            7
        ],
        "21/03/2020 17:35:10": [
            14,
            14
        ],
        "21/03/2020 20:26:48": [
            2
        ],
        "21/03/2020 22:29:41": [
            2
        ]
    },
    "2670": {
        "21/03/2020 15:39:04": [
            0,
            0
        ],
        "21/03/2020 15:39:12": [
            0,
            0
        ],
        "21/03/2020 17:35:09": [
            0,
            0
        ],
        "21/03/2020 20:26:46": [
            0
        ],
        "21/03/2020 22:29:39": [
            0
        ]
    },
    "2696": {
        "21/03/2020 15:39:04": [
            -19,
            -19
        ],
        "21/03/2020 15:39:15": [
            -19,
            -19
        ],
        "21/03/2020 17:35:11": [
            -17,
            -17
        ],
        "21/03/2020 20:26:50": [
            43,
            16
        ],
        "21/03/2020 22:29:43": [
            16
        ]
    },
    "2697": {
        "21/03/2020 15:39:04": [
            13,
            13
        ],
        "21/03/2020 15:39:16": [
            13,
            13
        ],
        "21/03/2020 17:35:11": [
            8,
            8
        ],
        "21/03/2020 20:26:51": [
            57,
            20
        ],
        "21/03/2020 22:29:43": [
            20
        ]
    },
    "2700": {
        "21/03/2020 15:39:04": [
            10,
            10
        ],
        "21/03/2020 15:39:16": [
            10,
            10
        ],
        "21/03/2020 17:35:11": [
            -3,
            -3
        ],
        "21/03/2020 20:26:51": [
            93,
            -18
        ],
        "21/03/2020 22:29:44": [
            83,
            -18
        ]
    },
    "2701": {
        "21/03/2020 15:39:05": [
            26,
            26
        ],
        "21/03/2020 15:39:17": [
            26,
            26
        ],
        "21/03/2020 17:35:12": [
            13,
            13
        ],
        "21/03/2020 20:26:51": [
            48,
            -3
        ],
        "21/03/2020 22:29:44": [
            98,
            -3
        ]
    },
    "2702": {
        "21/03/2020 15:39:05": [
            -2,
            -2
        ],
        "21/03/2020 15:39:17": [
            -2,
            -2
        ],
        "21/03/2020 17:35:12": [
            -14,
            -14
        ],
        "21/03/2020 20:26:52": [
            79,
            27
        ],
        "21/03/2020 22:29:45": [
            128,
            27
        ]
    },
    "2703": {
        "21/03/2020 15:39:05": [
            24,
            24
        ],
        "21/03/2020 15:39:17": [
            24,
            24
        ],
        "21/03/2020 17:35:12": [
            13,
            13
        ],
        "21/03/2020 20:26:52": [
            44,
            -8
        ],
        "21/03/2020 22:29:45": [
            93,
            -8
        ]
    },
    "2704": {
        "21/03/2020 15:39:06": [
            -12,
            -12
        ],
        "21/03/2020 15:39:18": [
            -12,
            -12
        ],
        "21/03/2020 17:35:12": [
            -23,
            -23
        ],
        "21/03/2020 20:26:53": [
            67,
            14
        ],
        "21/03/2020 22:29:46": [
            115,
            14
        ]
    },
    "2706": {
        "21/03/2020 15:39:06": [
            -29,
            -29
        ],
        "21/03/2020 15:39:18": [
            -29,
            -29
        ],
        "21/03/2020 17:35:13": [
            23,
            23
        ],
        "21/03/2020 20:26:53": [
            51,
            -3
        ],
        "21/03/2020 22:29:46": [
            98,
            -3
        ]
    },
    "1476": {
        "21/03/2020 15:39:06": [
            -28
        ],
        "21/03/2020 15:39:21": [
            -28,
            -28
        ],
        "21/03/2020 17:35:15": [
            9
        ],
        "21/03/2020 20:26:57": [
            0,
            -1
        ],
        "21/03/2020 22:29:50": [
            -1,
            -1
        ]
    },
    "2718": {
        "21/03/2020 15:39:06": [
            27,
            27
        ],
        "21/03/2020 15:39:19": [
            27,
            27
        ],
        "21/03/2020 17:35:14": [
            -30,
            -30
        ],
        "21/03/2020 20:26:55": [
            50,
            -9
        ],
        "21/03/2020 22:29:48": [
            52,
            -9
        ]
    },
    "2719": {
        "21/03/2020 15:39:07": [
            -14,
            -14
        ],
        "21/03/2020 15:39:19": [
            -14,
            -14
        ],
        "21/03/2020 17:35:14": [
            -20,
            -20
        ],
        "21/03/2020 20:26:55": [
            61,
            -3
        ],
        "21/03/2020 22:29:48": [
            58,
            -3
        ]
    },
    "2722": {
        "21/03/2020 15:39:07": [
            -27,
            -27
        ],
        "21/03/2020 15:39:20": [
            -27,
            -27
        ],
        "21/03/2020 17:35:15": [
            27,
            27
        ],
        "21/03/2020 20:26:56": [
            51,
            -20
        ],
        "21/03/2020 22:29:49": [
            81,
            -20
        ]
    },
    "4413": {
        "21/03/2020 15:39:07": [
            -6,
            -6
        ],
        "21/03/2020 15:39:20": [
            -6,
            -6
        ],
        "21/03/2020 17:35:15": [
            19
        ],
        "21/03/2020 20:26:57": [
            12,
            -19
        ],
        "21/03/2020 22:29:49": [
            -19,
            -19
        ]
    },
    "2910": {
        "21/03/2020 15:39:07": [
            -26,
            -26
        ],
        "21/03/2020 15:39:12": [
            -26,
            -26
        ],
        "21/03/2020 17:35:09": [
            -24,
            -24
        ],
        "21/03/2020 20:26:47": [
            -27
        ],
        "21/03/2020 22:29:39": [
            -27
        ]
    },
    "2911": {
        "21/03/2020 15:39:08": [
            13,
            13
        ],
        "21/03/2020 15:39:12": [
            13,
            13
        ],
        "21/03/2020 17:35:09": [
            17,
            17
        ],
        "21/03/2020 20:26:47": [
            10
        ],
        "21/03/2020 22:29:40": [
            10
        ]
    },
    "2912": {
        "21/03/2020 15:39:08": [
            -175,
            -8
        ],
        "21/03/2020 15:39:21": [
            -175,
            -8
        ],
        "21/03/2020 17:35:16": [
            -344,
            2
        ],
        "21/03/2020 20:26:58": [
            5
        ],
        "21/03/2020 22:29:51": [
            8,
            8
        ]
    },
    "2664": {
        "21/03/2020 15:39:09": [
            -4,
            -4
        ],
        "21/03/2020 15:39:13": [
            -4,
            -4
        ],
        "21/03/2020 17:35:10": [
            6,
            6
        ],
        "21/03/2020 20:26:48": [
            -11
        ],
        "21/03/2020 22:29:41": [
            -11
        ]
    },
    "2665": {
        "21/03/2020 15:39:09": [
            -25,
            -25
        ],
        "21/03/2020 15:39:14": [
            -25,
            -25
        ],
        "21/03/2020 17:35:10": [
            -13,
            -13
        ],
        "21/03/2020 20:26:49": [
            26
        ],
        "21/03/2020 22:29:42": [
            26
        ]
    },
    "2666": {
        "21/03/2020 15:39:09": [
            5,
            5
        ],
        "21/03/2020 15:39:14": [
            5,
            5
        ],
        "21/03/2020 17:35:10": [
            18,
            18
        ],
        "21/03/2020 20:26:49": [
            -6
        ],
        "21/03/2020 22:29:42": [
            -6
        ]
    },
    "2667": {
        "21/03/2020 15:39:10": [
            -14,
            -14
        ],
        "21/03/2020 15:39:15": [
            -14,
            -14
        ],
        "21/03/2020 17:35:11": [
            2,
            2
        ],
        "21/03/2020 20:26:50": [
            -26
        ],
        "21/03/2020 22:29:43": [
            -26
        ]
    },
    "5134": {
        "21/03/2020 15:39:10": [
            -10,
            -10
        ],
        "21/03/2020 15:39:19": [
            -10,
            -10
        ],
        "21/03/2020 17:35:14": [
            -9,
            -9
        ],
        "21/03/2020 20:26:54": [
            72,
            14
        ],
        "21/03/2020 22:29:47": [
            115,
            14
        ]
    },
    "7435": {
        "21/03/2020 15:39:10": [
            -7,
            -7
        ],
        "21/03/2020 15:39:20": [
            -7,
            -7
        ],
        "21/03/2020 17:35:14": [
            -13,
            -13
        ],
        "21/03/2020 20:26:56": [
            70,
            1
        ],
        "21/03/2020 22:29:48": [
            102,
            1
        ]
    },
    "7453": {
        "21/03/2020 15:39:10": [
            -153,
            14
        ],
        "21/03/2020 15:39:21": [
            -153,
            14
        ],
        "21/03/2020 17:35:16": [
            -11
        ],
        "21/03/2020 20:26:57": [
            25,
            24
        ],
        "21/03/2020 22:29:50": [
            24,
            24
        ]
    },
    "2708": {
        "21/03/2020 15:39:11": [
            18,
            18
        ],
        "21/03/2020 15:39:19": [
            18,
            18
        ],
        "21/03/2020 17:35:13": [
            16,
            16
        ],
        "21/03/2020 20:26:54": [
            99,
            -18
        ],
        "21/03/2020 22:29:47": [
            43,
            -18
        ]
    },
    "6070": {
        "21/03/2020 15:39:11": [
            26,
            26
        ],
        "21/03/2020 15:39:18": [
            26,
            26
        ],
        "21/03/2020 17:35:13": [
            21,
            21
        ],
        "21/03/2020 20:26:53": [
            47,
            -9
        ],
        "21/03/2020 22:29:46": [
            92,
            -9
        ]
    },
    "7507": {
        "21/03/2020 15:39:11": [
            -19,
            -19
        ],
        "21/03/2020 15:39:12": [
            -19,
            -19
        ],
        "21/03/2020 17:35:09": [
            -14,
            -14
        ],
        "21/03/2020 20:26:47": [
            -24
        ],
        "21/03/2020 22:29:40": [
            -24
        ]
    }
}