{
    "2637": {
        "22/03/2020 15:57:00": [
            -17
        ],
        "22/03/2020 18:21:57": [
            2,
            2
        ],
        "22/03/2020 20:36:27": [
            -15,
            -15
        ]
    },
    "2638": {
        "22/03/2020 15:57:00": [
            13
        ],
        "22/03/2020 18:21:57": [
            -24,
            -24
        ],
        "22/03/2020 20:36:28": [
            10,
            10
        ]
    },
    "2640": {
        "22/03/2020 15:57:01": [
            -18,
            8
        ],
        "22/03/2020 18:21:58": [
            -13,
            -13
        ],
        "22/03/2020 20:36:28": [
            -6,
            -6
        ]
    },
    "2641": {
        "22/03/2020 15:57:01": [
            -19,
            -1
        ],
        "22/03/2020 18:21:58": [
            -14,
            -14
        ],
        "22/03/2020 20:36:29": [
            -17,
            -17
        ]
    },
    "2643": {
        "22/03/2020 15:57:02": [
            -13,
            -6
        ],
        "22/03/2020 18:21:59": [
            -10,
            -10
        ],
        "22/03/2020 20:36:29": [
            -24,
            -24
        ]
    },
    "2644": {
        "22/03/2020 15:57:02": [
            -14,
            2
        ],
        "22/03/2020 18:21:59": [
            -3,
            -3
        ],
        "22/03/2020 20:36:29": [
            25
        ]
    },
    "2645": {
        "22/03/2020 15:57:02": [
            -8,
            3
        ],
        "22/03/2020 18:22:00": [
            7,
            7
        ],
        "22/03/2020 20:36:30": [
            15
        ]
    },
    "2646": {
        "22/03/2020 15:57:03": [
            27,
            -25
        ],
        "22/03/2020 18:22:00": [
            -16,
            -16
        ],
        "22/03/2020 20:36:30": [
            -19
        ]
    },
    "2647": {
        "22/03/2020 15:57:03": [
            28,
            -29
        ],
        "22/03/2020 18:22:00": [
            -19,
            -19
        ],
        "22/03/2020 20:36:31": [
            28
        ]
    },
    "2648": {
        "22/03/2020 15:57:04": [
            -30,
            28
        ],
        "22/03/2020 18:22:01": [
            -21,
            -21
        ],
        "22/03/2020 20:36:31": [
            17
        ]
    },
    "2649": {
        "22/03/2020 15:57:04": [
            12,
            6
        ],
        "22/03/2020 18:22:01": [
            18,
            18
        ],
        "22/03/2020 20:36:31": [
            -10
        ]
    },
    "2650": {
        "22/03/2020 15:57:05": [
            -8,
            -16
        ],
        "22/03/2020 18:22:02": [
            -4,
            -4
        ],
        "22/03/2020 20:36:32": [
            22
        ]
    },
    "2652": {
        "22/03/2020 15:57:05": [
            -25,
            23
        ],
        "22/03/2020 18:22:02": [
            -24,
            -24
        ],
        "22/03/2020 20:36:32": [
            -5
        ]
    },
    "2653": {
        "22/03/2020 15:57:06": [
            5,
            -9
        ],
        "22/03/2020 18:22:03": [
            5,
            5
        ],
        "22/03/2020 20:36:33": [
            19
        ]
    },
    "2654": {
        "22/03/2020 15:57:06": [
            27,
            11
        ],
        "22/03/2020 18:22:03": [
            25,
            25
        ],
        "22/03/2020 20:36:33": [
            -24
        ]
    },
    "2655": {
        "22/03/2020 15:57:07": [
            4,
            -11
        ],
        "22/03/2020 18:22:04": [
            -16,
            -16
        ],
        "22/03/2020 20:36:33": [
            -16
        ]
    },
    "2656": {
        "22/03/2020 15:57:07": [
            -14,
            -28
        ],
        "22/03/2020 18:22:04": [
            6,
            6
        ],
        "22/03/2020 20:36:34": [
            -4
        ]
    },
    "2657": {
        "22/03/2020 15:57:08": [
            -1,
            23
        ],
        "22/03/2020 18:22:04": [
            7,
            7
        ],
        "22/03/2020 20:36:34": [
            -8
        ]
    },
    "2658": {
        "22/03/2020 15:57:08": [
            -26,
            -1
        ],
        "22/03/2020 18:22:05": [
            -18,
            -18
        ],
        "22/03/2020 20:36:35": [
            25
        ]
    },
    "1444": {
        "22/03/2020 15:57:08": [
            -15
        ],
        "22/03/2020 18:22:05": [
            28,
            28
        ],
        "22/03/2020 20:36:35": [
            25,
            25
        ]
    },
    "1445": {
        "22/03/2020 15:57:09": [
            -22
        ],
        "22/03/2020 18:22:06": [
            15,
            15
        ],
        "22/03/2020 20:36:36": [
            18,
            18
        ]
    },
    "2906": {
        "22/03/2020 15:57:09": [
            21
        ],
        "22/03/2020 18:22:06": [
            286,
            27,
            27
        ],
        "22/03/2020 20:36:36": [
            -2
        ]
    },
    "2907": {
        "22/03/2020 15:57:10": [
            -15
        ],
        "22/03/2020 18:22:07": [
            310,
            -9,
            -9
        ],
        "22/03/2020 20:36:36": [
            21
        ]
    },
    "2908": {
        "22/03/2020 15:57:10": [],
        "22/03/2020 18:22:07": [],
        "22/03/2020 20:36:37": []
    },
    "2909": {
        "22/03/2020 15:57:11": [
            -10
        ],
        "22/03/2020 18:22:08": [
            316,
            -4
        ],
        "22/03/2020 20:36:37": [
            29
        ]
    },
    "1443": {
        "22/03/2020 15:57:11": [
            -1
        ],
        "22/03/2020 18:22:08": [
            -14,
            -14
        ],
        "22/03/2020 20:36:38": [
            -22,
            -22
        ]
    },
    "4407": {
        "22/03/2020 15:57:11": [
            8
        ],
        "22/03/2020 18:22:08": [
            -24,
            -24
        ],
        "22/03/2020 20:36:38": [
            -30,
            -30
        ]
    },
    "2659": {
        "22/03/2020 15:57:12": [
            9,
            -27
        ],
        "22/03/2020 18:22:09": [
            16,
            16
        ],
        "22/03/2020 20:36:39": [
            -2
        ]
    },
    "2660": {
        "22/03/2020 15:57:12": [
            -26,
            -1
        ],
        "22/03/2020 18:22:09": [
            -19,
            -19
        ],
        "22/03/2020 20:36:39": [
            21
        ]
    },
    "2661": {
        "22/03/2020 15:57:13": [
            18,
            -17
        ],
        "22/03/2020 18:22:10": [
            25,
            25
        ],
        "22/03/2020 20:36:40": [
            3
        ]
    },
    "2662": {
        "22/03/2020 15:57:13": [
            13
        ],
        "22/03/2020 18:22:10": [
            19,
            19
        ],
        "22/03/2020 20:36:40": [
            -6
        ]
    },
    "2670": {
        "22/03/2020 15:57:14": [
            0,
            0
        ],
        "22/03/2020 18:22:10": [
            0
        ],
        "22/03/2020 20:36:40": [
            0
        ]
    },
    "2910": {
        "22/03/2020 15:57:14": [
            -25,
            -26
        ],
        "22/03/2020 18:22:11": [
            -27
        ],
        "22/03/2020 20:36:41": [
            -28
        ]
    },
    "2911": {
        "22/03/2020 15:57:14": [
            15,
            13
        ],
        "22/03/2020 18:22:11": [
            10
        ],
        "22/03/2020 20:36:41": [
            9
        ]
    },
    "7507": {
        "22/03/2020 15:57:15": [
            -17,
            -19
        ],
        "22/03/2020 18:22:12": [
            -23
        ],
        "22/03/2020 20:36:42": [
            -25
        ]
    },
    "2663": {
        "22/03/2020 15:57:15": [
            10,
            7
        ],
        "22/03/2020 18:22:12": [
            2
        ],
        "22/03/2020 20:36:42": [
            0
        ]
    },
    "2664": {
        "22/03/2020 15:57:16": [
            0,
            -4
        ],
        "22/03/2020 18:22:13": [
            -10
        ],
        "22/03/2020 20:36:42": [
            -14
        ]
    },
    "2665": {
        "22/03/2020 15:57:16": [
            -21,
            -25
        ],
        "22/03/2020 18:22:13": [
            26
        ],
        "22/03/2020 20:36:43": [
            23
        ]
    },
    "2666": {
        "22/03/2020 15:57:17": [
            10,
            5
        ],
        "22/03/2020 18:22:13": [
            -5
        ],
        "22/03/2020 20:36:43": [
            -9
        ]
    },
    "2667": {
        "22/03/2020 15:57:17": [
            -8,
            -14
        ],
        "22/03/2020 18:22:14": [
            -25
        ],
        "22/03/2020 20:36:44": [
            -30
        ]
    },
    "2696": {
        "22/03/2020 15:57:17": [
            -21,
            8
        ],
        "22/03/2020 18:22:14": [
            16
        ],
        "22/03/2020 20:36:44": [
            2
        ]
    },
    "2697": {
        "22/03/2020 15:57:18": [
            7,
            21
        ],
        "22/03/2020 18:22:15": [
            20
        ],
        "22/03/2020 20:36:44": [
            -3
        ]
    },
    "2700": {
        "22/03/2020 15:57:18": [
            -1,
            -6
        ],
        "22/03/2020 18:22:15": [
            -17
        ],
        "22/03/2020 20:36:45": [
            9
        ]
    },
    "2701": {
        "22/03/2020 15:57:19": [
            15,
            8
        ],
        "22/03/2020 18:22:15": [
            -2
        ],
        "22/03/2020 20:36:45": [
            23
        ]
    },
    "2702": {
        "22/03/2020 15:57:19": [
            -13,
            -24
        ],
        "22/03/2020 18:22:16": [
            28
        ],
        "22/03/2020 20:36:46": [
            -7
        ]
    },
    "2703": {
        "22/03/2020 15:57:20": [
            13,
            -2
        ],
        "22/03/2020 18:22:16": [
            -8
        ],
        "22/03/2020 20:36:46": [
            17
        ]
    },
    "2704": {
        "22/03/2020 15:57:20": [
            -23,
            19
        ],
        "22/03/2020 18:22:17": [
            14
        ],
        "22/03/2020 20:36:47": [
            -22
        ]
    },
    "2706": {
        "22/03/2020 15:57:20": [
            24,
            9
        ],
        "22/03/2020 18:22:17": [
            -3
        ],
        "22/03/2020 20:36:47": [
            21
        ]
    },
    "6070": {
        "22/03/2020 15:57:21": [
            24,
            13
        ],
        "22/03/2020 18:22:18": [
            -8
        ],
        "22/03/2020 20:36:47": [
            15
        ]
    },
    "2708": {
        "22/03/2020 15:57:21": [
            20,
            12
        ],
        "22/03/2020 18:22:18": [
            -17
        ],
        "22/03/2020 20:36:48": [
            6
        ]
    },
    "5134": {
        "22/03/2020 15:57:22": [
            -4,
            -10
        ],
        "22/03/2020 18:22:19": [
            15
        ],
        "22/03/2020 20:36:48": [
            -22
        ]
    },
    "2718": {
        "22/03/2020 15:57:22": [
            -24,
            -27
        ],
        "22/03/2020 18:22:19": [
            -8
        ],
        "22/03/2020 20:36:49": [
            15
        ]
    },
    "2719": {
        "22/03/2020 15:57:23": [
            -10
        ],
        "22/03/2020 18:22:19": [
            -4
        ],
        "22/03/2020 20:36:49": [
            9
        ]
    },
    "7435": {
        "22/03/2020 15:57:23": [
            16
        ],
        "22/03/2020 18:22:20": [
            2
        ],
        "22/03/2020 20:36:49": [
            -4
        ]
    },
    "2722": {
        "22/03/2020 15:57:24": [
            7
        ],
        "22/03/2020 18:22:20": [
            -18
        ],
        "22/03/2020 20:36:50": [
            25
        ]
    },
    "4413": {
        "22/03/2020 15:57:24": [
            -8
        ],
        "22/03/2020 18:22:21": [
            3
        ],
        "22/03/2020 20:36:50": [
            3
        ]
    },
    "1476": {
        "22/03/2020 15:57:24": [
            19
        ],
        "22/03/2020 18:22:21": [
            -11
        ],
        "22/03/2020 20:36:50": [
            26
        ]
    },
    "7453": {
        "22/03/2020 15:57:25": [
            -14
        ],
        "22/03/2020 18:22:22": [
            23
        ],
        "22/03/2020 20:36:51": [
            -13
        ]
    },
    "1480": {
        "22/03/2020 15:57:25": [
            -29
        ],
        "22/03/2020 18:22:22": [
            -10,
            17
        ],
        "22/03/2020 20:36:51": [
            -84,
            25
        ]
    },
    "2912": {
        "22/03/2020 15:57:26": [
            -5
        ],
        "22/03/2020 18:22:23": [
            14,
            -19
        ],
        "22/03/2020 20:36:52": [
            -120,
            -14
        ]
    },
    "1358": {
        "22/03/2020 15:57:26": [
            20
        ],
        "22/03/2020 18:22:23": [
            -19,
            6
        ],
        "22/03/2020 20:36:52": [
            -71,
            7
        ]
    },
    "326": {
        "22/03/2020 15:57:27": [
            0
        ],
        "22/03/2020 18:22:23": [
            0,
            0
        ],
        "22/03/2020 20:36:53": [
            0,
            0
        ]
    }
}