{
    "overall_punctuality": -9053,
    "overall_num": 2463,
    "overall_avg": -3,
    "daily_punctuality": {
        "Sunday": {
            "num_results": 281,
            "total": 1420,
            "avg:": 0,
            "avg": 6
        },
        "Monday": {
            "num_results": 272,
            "total": -15090,
            "avg:": 0,
            "avg": -55
        },
        "Tuesday": {
            "num_results": 390,
            "total": -1502,
            "avg:": 0,
            "avg": -3
        },
        "Wednesday": {
            "num_results": 384,
            "total": 2738,
            "avg:": 0,
            "avg": 8
        },
        "Thursday": {
            "num_results": 281,
            "total": -262,
            "avg:": 0,
            "avg": 0
        },
        "Friday": {
            "num_results": 295,
            "total": 6723,
            "avg:": 0,
            "avg": 23
        },
        "Saturday": {
            "num_results": 560,
            "total": -3080,
            "avg:": 0,
            "avg": -5
        }
    }
}