{
    "405": {
        "26/03/2020 12:30:18": [],
        "26/03/2020 14:52:08": [],
        "26/03/2020 17:33:13": []
    },
    "273": {
        "26/03/2020 12:30:18": [],
        "26/03/2020 14:52:09": [],
        "26/03/2020 17:33:14": []
    },
    "485": {
        "26/03/2020 12:30:19": [],
        "26/03/2020 14:52:10": [],
        "26/03/2020 17:33:14": []
    },
    "493": {
        "26/03/2020 12:30:19": [],
        "26/03/2020 14:52:10": [],
        "26/03/2020 17:33:14": []
    },
    "494": {
        "26/03/2020 12:30:20": [],
        "26/03/2020 14:52:11": [],
        "26/03/2020 17:33:15": []
    },
    "495": {
        "26/03/2020 12:30:20": [],
        "26/03/2020 14:52:11": [],
        "26/03/2020 17:33:15": []
    },
    "400": {
        "26/03/2020 12:30:21": [],
        "26/03/2020 14:52:12": [],
        "26/03/2020 17:33:16": []
    },
    "279": {
        "26/03/2020 12:30:21": [],
        "26/03/2020 14:52:12": [],
        "26/03/2020 17:33:16": [
            197
        ]
    },
    "487": {
        "26/03/2020 12:30:22": [],
        "26/03/2020 14:52:13": [],
        "26/03/2020 17:33:17": []
    },
    "488": {
        "26/03/2020 12:30:22": [],
        "26/03/2020 14:52:13": [],
        "26/03/2020 17:33:17": []
    },
    "489": {
        "26/03/2020 12:30:23": [],
        "26/03/2020 14:52:14": [],
        "26/03/2020 17:33:17": []
    },
    "490": {
        "26/03/2020 12:30:23": [],
        "26/03/2020 14:52:14": [],
        "26/03/2020 17:33:18": []
    },
    "491": {
        "26/03/2020 12:30:24": [],
        "26/03/2020 14:52:15": [],
        "26/03/2020 17:33:18": []
    },
    "492": {
        "26/03/2020 12:30:24": [],
        "26/03/2020 14:52:15": [],
        "26/03/2020 17:33:19": []
    },
    "6004": {
        "26/03/2020 12:30:25": [
            0,
            0
        ],
        "26/03/2020 14:52:16": [
            0,
            0
        ],
        "26/03/2020 17:33:19": [
            0,
            0
        ]
    },
    "3": {
        "26/03/2020 12:30:25": [
            11,
            11
        ],
        "26/03/2020 14:52:16": [
            7,
            12
        ],
        "26/03/2020 17:33:20": [
            129,
            14,
            14
        ]
    },
    "192": {
        "26/03/2020 12:30:26": [
            8,
            8
        ],
        "26/03/2020 14:52:17": [
            -5,
            10
        ],
        "26/03/2020 17:33:20": [
            148,
            18,
            18
        ]
    },
    "795": {
        "26/03/2020 12:30:26": [
            -21,
            -21
        ],
        "26/03/2020 14:52:17": [
            24,
            -15
        ],
        "26/03/2020 17:33:21": [
            120,
            -15,
            -15
        ]
    },
    "796": {
        "26/03/2020 12:30:27": [
            10,
            10
        ],
        "26/03/2020 14:52:18": [
            0,
            -17
        ],
        "26/03/2020 17:33:21": [
            121,
            28,
            28
        ]
    },
    "56": {
        "26/03/2020 12:30:27": [
            11,
            11
        ],
        "26/03/2020 14:52:19": [
            19
        ],
        "26/03/2020 17:33:22": [
            119,
            16,
            16
        ]
    },
    "58": {
        "26/03/2020 12:30:27": [
            10,
            10
        ],
        "26/03/2020 14:52:19": [
            11
        ],
        "26/03/2020 17:33:22": [
            115,
            3,
            3
        ]
    },
    "4499": {
        "26/03/2020 12:30:28": [
            -12,
            -12
        ],
        "26/03/2020 14:52:20": [
            -68,
            -16
        ],
        "26/03/2020 17:33:23": [
            150,
            -27,
            -27
        ]
    },
    "4934": {
        "26/03/2020 12:30:28": [
            9,
            9
        ],
        "26/03/2020 14:52:20": [
            -47,
            5
        ],
        "26/03/2020 17:33:23": [
            -8,
            114,
            -8
        ]
    },
    "4500": {
        "26/03/2020 12:30:29": [
            -24,
            -24
        ],
        "26/03/2020 14:52:21": [
            -78,
            -26
        ],
        "26/03/2020 17:33:24": [
            18,
            145,
            18
        ]
    },
    "4481": {
        "26/03/2020 12:30:30": [
            9,
            9
        ],
        "26/03/2020 14:52:22": [
            -45,
            7
        ],
        "26/03/2020 17:33:24": [
            -11,
            122,
            -11
        ]
    },
    "4485": {
        "26/03/2020 12:30:30": [
            -13,
            -13
        ],
        "26/03/2020 14:52:23": [
            -74,
            -22
        ],
        "26/03/2020 17:33:25": [
            27,
            98,
            27
        ]
    },
    "822": {
        "26/03/2020 12:30:31": [
            -28,
            -28
        ],
        "26/03/2020 14:52:23": [
            -36,
            16
        ],
        "26/03/2020 17:33:25": [
            13,
            141,
            13
        ]
    },
    "823": {
        "26/03/2020 12:30:31": [
            -6,
            -6
        ],
        "26/03/2020 14:52:24": [
            -77,
            -25
        ],
        "26/03/2020 17:33:26": [
            -24,
            103,
            -24
        ]
    },
    "824": {
        "26/03/2020 12:30:32": [
            -24,
            -24
        ],
        "26/03/2020 14:52:24": [
            -41,
            11
        ],
        "26/03/2020 17:33:26": [
            19,
            143,
            19
        ]
    },
    "825": {
        "26/03/2020 12:30:32": [
            19,
            19
        ],
        "26/03/2020 14:52:25": [
            -84,
            -13
        ],
        "26/03/2020 17:33:27": [
            3,
            125,
            3
        ]
    },
    "826": {
        "26/03/2020 12:30:33": [
            9,
            9
        ],
        "26/03/2020 14:52:26": [
            -43,
            28
        ],
        "26/03/2020 17:33:27": [
            -75,
            112,
            -7,
            -7
        ]
    },
    "827": {
        "26/03/2020 12:30:33": [
            -24,
            -24
        ],
        "26/03/2020 14:52:26": [
            -80,
            -9
        ],
        "26/03/2020 17:33:28": [
            -52,
            138,
            21,
            21
        ]
    },
    "71": {
        "26/03/2020 12:30:34": [
            8,
            8
        ],
        "26/03/2020 14:52:27": [
            -53,
            18
        ],
        "26/03/2020 17:33:28": [
            -74,
            109,
            -7,
            -7
        ]
    },
    "72": {
        "26/03/2020 12:30:34": [
            -25
        ],
        "26/03/2020 14:52:27": [
            -90,
            -19
        ],
        "26/03/2020 17:33:29": [
            -51,
            135,
            21,
            21
        ]
    },
    "5144": {
        "26/03/2020 12:30:35": [
            8,
            8
        ],
        "26/03/2020 14:52:33": [
            -73,
            -2
        ],
        "26/03/2020 17:33:29": [
            -88,
            -24,
            97,
            -24
        ]
    },
    "7027": {
        "26/03/2020 12:30:35": [
            -71,
            -2
        ],
        "26/03/2020 14:52:39": [
            -17,
            -17
        ],
        "26/03/2020 17:33:30": [
            -200,
            -68,
            142,
            28,
            28
        ]
    },
    "4538": {
        "26/03/2020 12:30:36": [
            -3,
            -3
        ],
        "26/03/2020 14:52:45": [
            -20,
            -20
        ],
        "26/03/2020 17:33:30": [
            -227,
            -75,
            138,
            28,
            28
        ]
    },
    "7396": {
        "26/03/2020 12:30:37": [
            -13,
            -13
        ],
        "26/03/2020 14:52:52": [
            28,
            28
        ],
        "26/03/2020 17:33:31": [
            -203,
            -2,
            127,
            20,
            20
        ]
    },
    "5145": {
        "26/03/2020 12:30:37": [
            -77,
            -8
        ],
        "26/03/2020 14:52:58": [
            -29,
            -29
        ],
        "26/03/2020 17:33:31": [
            -236,
            -3,
            129,
            26,
            26
        ]
    },
    "276": {
        "26/03/2020 12:30:38": [],
        "26/03/2020 14:53:06": [],
        "26/03/2020 17:33:32": []
    },
    "6071": {
        "26/03/2020 12:30:38": [],
        "26/03/2020 14:53:12": [],
        "26/03/2020 17:33:32": []
    },
    "284": {
        "26/03/2020 12:30:39": [
            0
        ],
        "26/03/2020 14:53:18": [
            0,
            0
        ],
        "26/03/2020 17:33:33": [
            0,
            0,
            0
        ]
    },
    "4504": {
        "26/03/2020 12:30:39": [
            -8,
            -8
        ],
        "26/03/2020 14:53:24": [
            0,
            -19
        ],
        "26/03/2020 17:33:33": [
            -24,
            -24,
            -14
        ]
    },
    "7028": {
        "26/03/2020 12:30:40": [
            13,
            13
        ],
        "26/03/2020 14:53:26": [
            26,
            -6
        ],
        "26/03/2020 17:33:34": [
            -14,
            -14,
            3
        ]
    },
    "5147": {
        "26/03/2020 12:30:40": [
            -21,
            -21
        ],
        "26/03/2020 14:53:32": [
            -16,
            24
        ],
        "26/03/2020 17:33:34": [
            44,
            10,
            10
        ]
    },
    "68": {
        "26/03/2020 12:30:41": [
            -9,
            -9
        ],
        "26/03/2020 14:53:39": [
            -12,
            -21
        ],
        "26/03/2020 17:33:34": [
            20,
            20,
            20
        ]
    },
    "30": {
        "26/03/2020 12:30:41": [
            15,
            15
        ],
        "26/03/2020 14:53:44": [
            12,
            3
        ],
        "26/03/2020 17:33:35": [
            -19,
            -19,
            -19
        ]
    },
    "69": {
        "26/03/2020 12:30:42": [
            -15,
            -15
        ],
        "26/03/2020 14:53:51": [
            -17,
            -26
        ],
        "26/03/2020 17:33:36": [
            8,
            8,
            8
        ]
    },
    "828": {
        "26/03/2020 12:30:42": [
            23,
            23
        ],
        "26/03/2020 14:53:56": [
            22,
            12
        ],
        "26/03/2020 17:33:36": [
            -18,
            -18,
            -18
        ]
    },
    "829": {
        "26/03/2020 12:30:43": [
            5,
            5
        ],
        "26/03/2020 14:54:01": [
            5,
            -7
        ],
        "26/03/2020 17:33:37": [
            19,
            19,
            19
        ]
    },
    "830": {
        "26/03/2020 12:30:43": [
            -15,
            -15
        ],
        "26/03/2020 14:54:07": [
            -14,
            -26
        ],
        "26/03/2020 17:33:37": [
            -5,
            -5,
            -5
        ]
    },
    "831": {
        "26/03/2020 12:30:44": [
            23,
            23
        ],
        "26/03/2020 14:54:13": [
            25,
            12
        ],
        "26/03/2020 17:33:37": []
    },
    "75": {
        "26/03/2020 12:30:44": [
            -10,
            -10
        ],
        "26/03/2020 14:54:19": [
            -8,
            -22
        ],
        "26/03/2020 17:33:38": [
            -7,
            -7,
            -7
        ]
    },
    "4501": {
        "26/03/2020 12:30:45": [
            -14,
            -14
        ],
        "26/03/2020 14:54:27": [
            -11,
            -25
        ],
        "26/03/2020 17:33:38": [
            -17,
            -17,
            -17
        ]
    },
    "4935": {
        "26/03/2020 12:30:45": [],
        "26/03/2020 14:54:36": [
            -26,
            20
        ],
        "26/03/2020 17:33:39": [
            20,
            20,
            20
        ]
    },
    "4502": {
        "26/03/2020 12:30:46": [
            -13,
            -13
        ],
        "26/03/2020 14:54:38": [
            -7,
            -21
        ],
        "26/03/2020 17:33:39": [
            -25,
            -25,
            -25
        ]
    },
    "4936": {
        "26/03/2020 12:30:46": [
            24,
            24
        ],
        "26/03/2020 14:54:38": [
            -28,
            18
        ],
        "26/03/2020 17:33:40": [
            7,
            7,
            7
        ]
    },
    "79": {
        "26/03/2020 12:30:47": [
            1,
            1
        ],
        "26/03/2020 14:54:39": [
            4,
            -9
        ],
        "26/03/2020 17:33:40": [
            -23,
            -23,
            -23
        ]
    },
    "80": {
        "26/03/2020 12:30:47": [
            -2,
            -2
        ],
        "26/03/2020 14:54:39": [
            -6,
            -18
        ],
        "26/03/2020 17:33:41": [
            -4,
            -4,
            -4
        ]
    },
    "82": {
        "26/03/2020 12:30:48": [
            11,
            11
        ],
        "26/03/2020 14:54:40": [
            12,
            12
        ],
        "26/03/2020 17:33:42": [
            -19,
            -19,
            -19
        ]
    },
    "817": {
        "26/03/2020 12:30:49": [
            12,
            12
        ],
        "26/03/2020 14:54:40": [
            18,
            28
        ],
        "26/03/2020 17:33:42": [
            9,
            9,
            9
        ]
    },
    "818": {
        "26/03/2020 12:30:49": [
            -12,
            -12
        ],
        "26/03/2020 14:54:41": [
            -4,
            12
        ],
        "26/03/2020 17:33:42": [
            1,
            1,
            1
        ]
    },
    "819": {
        "26/03/2020 12:30:49": [
            15,
            15
        ],
        "26/03/2020 14:54:41": [
            -23,
            -16
        ],
        "26/03/2020 17:33:43": [
            -4,
            -4,
            -4
        ]
    },
    "263": {
        "26/03/2020 12:30:50": [
            -5,
            -5
        ],
        "26/03/2020 14:54:42": [
            24,
            -30
        ],
        "26/03/2020 17:33:44": [
            -26,
            -26,
            -26
        ]
    },
    "4725": {
        "26/03/2020 12:30:50": [],
        "26/03/2020 14:54:42": [],
        "26/03/2020 17:33:44": []
    },
    "4495": {
        "26/03/2020 12:30:51": [],
        "26/03/2020 14:54:43": [],
        "26/03/2020 17:33:44": []
    },
    "2809": {
        "26/03/2020 12:30:52": [],
        "26/03/2020 14:54:43": [],
        "26/03/2020 17:33:45": []
    },
    "408": {
        "26/03/2020 12:30:52": [],
        "26/03/2020 14:54:44": [],
        "26/03/2020 17:33:46": []
    },
    "409": {
        "26/03/2020 12:30:53": [],
        "26/03/2020 14:54:44": [],
        "26/03/2020 17:33:46": []
    },
    "410": {
        "26/03/2020 12:30:53": [],
        "26/03/2020 14:54:45": [],
        "26/03/2020 17:33:47": []
    },
    "411": {
        "26/03/2020 12:30:54": [],
        "26/03/2020 14:54:45": [],
        "26/03/2020 17:33:47": []
    },
    "412": {
        "26/03/2020 12:30:54": [],
        "26/03/2020 14:54:46": [],
        "26/03/2020 17:33:48": []
    },
    "413": {
        "26/03/2020 12:30:55": [],
        "26/03/2020 14:54:46": [],
        "26/03/2020 17:33:48": []
    },
    "414": {
        "26/03/2020 12:30:55": [],
        "26/03/2020 14:54:47": [],
        "26/03/2020 17:33:49": []
    },
    "415": {
        "26/03/2020 12:30:56": [],
        "26/03/2020 14:54:47": [],
        "26/03/2020 17:33:49": []
    }
}