{
    "3351": {
        "22/03/2020 14:44:54": [],
        "22/03/2020 17:11:22": [],
        "22/03/2020 19:30:16": []
    },
    "4323": {
        "22/03/2020 14:44:54": [],
        "22/03/2020 17:11:22": [],
        "22/03/2020 19:30:17": []
    },
    "4325": {
        "22/03/2020 14:44:55": [],
        "22/03/2020 17:11:23": [],
        "22/03/2020 19:30:17": []
    },
    "3328": {
        "22/03/2020 14:44:55": [],
        "22/03/2020 17:11:23": [],
        "22/03/2020 19:30:18": []
    },
    "3329": {
        "22/03/2020 14:44:56": [],
        "22/03/2020 17:11:24": [],
        "22/03/2020 19:30:18": []
    },
    "3330": {
        "22/03/2020 14:44:56": [],
        "22/03/2020 17:11:24": [],
        "22/03/2020 19:30:18": []
    },
    "3331": {
        "22/03/2020 14:44:57": [],
        "22/03/2020 17:11:24": [],
        "22/03/2020 19:30:19": []
    },
    "3332": {
        "22/03/2020 14:44:57": [],
        "22/03/2020 17:11:25": [],
        "22/03/2020 19:30:19": []
    },
    "3333": {
        "22/03/2020 14:44:58": [],
        "22/03/2020 17:11:25": [],
        "22/03/2020 19:30:20": []
    },
    "3334": {
        "22/03/2020 14:44:58": [],
        "22/03/2020 17:11:26": [],
        "22/03/2020 19:30:20": []
    },
    "3335": {
        "22/03/2020 14:44:59": [],
        "22/03/2020 17:11:26": [],
        "22/03/2020 19:30:21": []
    },
    "3336": {
        "22/03/2020 14:44:59": [],
        "22/03/2020 17:11:27": [],
        "22/03/2020 19:30:21": []
    },
    "3337": {
        "22/03/2020 14:44:59": [],
        "22/03/2020 17:11:27": [],
        "22/03/2020 19:30:22": []
    },
    "3338": {
        "22/03/2020 14:45:00": [],
        "22/03/2020 17:11:28": [],
        "22/03/2020 19:30:22": []
    },
    "3339": {
        "22/03/2020 14:45:00": [],
        "22/03/2020 17:11:28": [],
        "22/03/2020 19:30:22": []
    },
    "3340": {
        "22/03/2020 14:45:01": [],
        "22/03/2020 17:11:29": [],
        "22/03/2020 19:30:23": []
    },
    "3352": {
        "22/03/2020 14:45:01": [],
        "22/03/2020 17:11:29": [],
        "22/03/2020 19:30:23": []
    },
    "4765": {
        "22/03/2020 14:45:02": [],
        "22/03/2020 17:11:30": [],
        "22/03/2020 19:30:24": []
    },
    "4766": {
        "22/03/2020 14:45:02": [],
        "22/03/2020 17:11:30": [],
        "22/03/2020 19:30:24": []
    },
    "4767": {
        "22/03/2020 14:45:03": [],
        "22/03/2020 17:11:30": [],
        "22/03/2020 19:30:25": []
    },
    "4768": {
        "22/03/2020 14:45:03": [],
        "22/03/2020 17:11:31": [],
        "22/03/2020 19:30:25": []
    },
    "4324": {
        "22/03/2020 14:45:03": [],
        "22/03/2020 17:11:31": [],
        "22/03/2020 19:30:25": []
    },
    "4326": {
        "22/03/2020 14:45:04": [],
        "22/03/2020 17:11:32": [],
        "22/03/2020 19:30:26": []
    },
    "4769": {
        "22/03/2020 14:45:04": [],
        "22/03/2020 17:11:32": [],
        "22/03/2020 19:30:26": []
    },
    "4770": {
        "22/03/2020 14:45:05": [],
        "22/03/2020 17:11:33": [],
        "22/03/2020 19:30:27": []
    },
    "7026": {
        "22/03/2020 14:45:05": [],
        "22/03/2020 17:11:33": [],
        "22/03/2020 19:30:27": []
    }
}