{
    "1036": {
        "23/03/2020 12:16:03": [
            26,
            26,
            26,
            26
        ],
        "23/03/2020 14:46:12": [
            2,
            2,
            2,
            2
        ],
        "23/03/2020 17:46:03": [
            -21,
            -21,
            -21
        ]
    },
    "1037": {
        "23/03/2020 12:16:03": [
            -20,
            -20,
            -20,
            -20
        ],
        "23/03/2020 14:46:13": [
            20,
            20,
            20,
            20
        ],
        "23/03/2020 17:46:03": [
            7,
            7,
            7
        ]
    },
    "1038": {
        "23/03/2020 12:16:04": [
            6,
            6,
            6,
            6
        ],
        "23/03/2020 14:46:13": [
            -15,
            -15,
            -15,
            -15
        ],
        "23/03/2020 17:46:04": [
            -22,
            -22,
            -22
        ]
    },
    "1070": {
        "23/03/2020 12:16:04": [
            -8,
            -8,
            -8,
            -8
        ],
        "23/03/2020 14:46:13": [
            5,
            5,
            5,
            5
        ],
        "23/03/2020 17:46:04": [
            -376,
            14,
            14
        ]
    },
    "1071": {
        "23/03/2020 12:16:05": [
            -3,
            -3,
            -3,
            -3
        ],
        "23/03/2020 14:46:14": [
            15,
            15,
            15
        ],
        "23/03/2020 17:46:06": [
            -420,
            -30,
            -30
        ]
    },
    "1072": {
        "23/03/2020 12:16:05": [
            -21,
            -21,
            -21
        ],
        "23/03/2020 14:46:14": [
            -18,
            -18,
            -18
        ],
        "23/03/2020 17:46:06": [
            -386,
            -376,
            14,
            14
        ]
    },
    "1168": {
        "23/03/2020 12:16:06": [
            -3,
            -3,
            -3,
            -3
        ],
        "23/03/2020 14:46:14": [
            -4,
            -4,
            -4,
            -4
        ],
        "23/03/2020 17:46:07": [
            -393,
            -3,
            -3
        ]
    },
    "1169": {
        "23/03/2020 12:16:07": [
            -24,
            -24,
            -24,
            -24
        ],
        "23/03/2020 14:46:15": [
            -21,
            -21,
            -21,
            -21
        ],
        "23/03/2020 17:46:07": [
            -411,
            -21,
            -21
        ]
    },
    "1170": {
        "23/03/2020 12:16:07": [
            14,
            14,
            14,
            14
        ],
        "23/03/2020 14:46:15": [
            19,
            19,
            19,
            19
        ],
        "23/03/2020 17:46:08": [
            -371,
            19,
            19
        ]
    },
    "1069": {
        "23/03/2020 12:16:08": [
            5,
            5,
            5,
            5
        ],
        "23/03/2020 14:46:15": [
            14,
            14,
            14,
            14
        ],
        "23/03/2020 17:46:08": [
            -371,
            19,
            19
        ]
    },
    "1166": {
        "23/03/2020 12:16:09": [
            29,
            29,
            29,
            29
        ],
        "23/03/2020 14:46:16": [
            20,
            20,
            20,
            20
        ],
        "23/03/2020 17:46:09": [
            -422,
            -11,
            -11,
            -11
        ]
    },
    "1167": {
        "23/03/2020 12:16:09": [
            13,
            13,
            13,
            13
        ],
        "23/03/2020 14:46:16": [
            8,
            8,
            8,
            8
        ],
        "23/03/2020 17:46:09": [
            -418,
            -7,
            -7,
            -7
        ]
    },
    "1353": {
        "23/03/2020 12:16:10": [
            -152,
            19,
            19,
            19
        ],
        "23/03/2020 14:46:16": [
            -105,
            20,
            20,
            20
        ],
        "23/03/2020 17:46:10": [
            -376,
            -369,
            21,
            21
        ]
    },
    "1354": {
        "23/03/2020 12:16:11": [
            -174,
            -3,
            -3,
            -3
        ],
        "23/03/2020 14:46:17": [
            -127,
            -4,
            -4,
            -4
        ],
        "23/03/2020 17:46:11": [
            -381,
            -375,
            15,
            15
        ]
    },
    "1051": {
        "23/03/2020 12:16:11": [
            24,
            24,
            24,
            24
        ],
        "23/03/2020 14:46:17": [
            7,
            7,
            7,
            -2
        ],
        "23/03/2020 17:46:12": [
            17,
            17,
            17,
            10
        ]
    },
    "1052": {
        "23/03/2020 12:16:12": [
            8,
            8,
            8,
            8
        ],
        "23/03/2020 14:46:17": [
            0,
            0,
            0
        ],
        "23/03/2020 17:46:12": [
            2,
            2,
            2,
            -8
        ]
    },
    "1053": {
        "23/03/2020 12:16:12": [
            4,
            4,
            4
        ],
        "23/03/2020 14:46:18": [
            -9,
            -9,
            -9
        ],
        "23/03/2020 17:46:13": [
            3,
            3,
            3,
            -15
        ]
    },
    "1054": {
        "23/03/2020 12:16:13": [
            27,
            27,
            27,
            27
        ],
        "23/03/2020 14:46:18": [
            7,
            7,
            7,
            7
        ],
        "23/03/2020 17:46:13": [
            -26,
            -26,
            -26
        ]
    },
    "2826": {
        "23/03/2020 12:16:13": [
            -10,
            -10,
            -10,
            -10
        ],
        "23/03/2020 14:46:18": [
            -3,
            -3,
            -3,
            1,
            1
        ],
        "23/03/2020 17:46:14": [
            13,
            13,
            13,
            -26
        ]
    },
    "2842": {
        "23/03/2020 12:16:14": [
            -23,
            -23,
            -23,
            -23
        ],
        "23/03/2020 14:46:19": [
            -19,
            -19,
            -19,
            -9,
            -9
        ],
        "23/03/2020 17:46:14": [
            5,
            5,
            5,
            25
        ]
    },
    "2843": {
        "23/03/2020 12:16:15": [
            -22,
            -22,
            -22,
            -22
        ],
        "23/03/2020 14:46:19": [
            -23,
            -23,
            -23,
            -4,
            -4
        ],
        "23/03/2020 17:46:15": [
            11,
            11,
            11,
            -30
        ]
    },
    "2844": {
        "23/03/2020 12:16:15": [
            2,
            2,
            2,
            2
        ],
        "23/03/2020 14:46:19": [
            1,
            1,
            1,
            28,
            28
        ],
        "23/03/2020 17:46:16": [
            -20,
            -20,
            -20,
            -5
        ]
    },
    "2845": {
        "23/03/2020 12:16:16": [
            -4,
            -4,
            -4,
            -4
        ],
        "23/03/2020 14:46:20": [
            -2,
            -2,
            -2,
            -17
        ],
        "23/03/2020 17:46:16": [
            -13,
            -13,
            -13,
            -8
        ]
    },
    "2846": {
        "23/03/2020 12:16:16": [
            -14,
            -14,
            -14,
            -14
        ],
        "23/03/2020 14:46:20": [
            -10,
            -10,
            -10,
            -9
        ],
        "23/03/2020 17:46:17": [
            -11,
            -11,
            -11,
            -15
        ]
    },
    "2847": {
        "23/03/2020 12:16:17": [
            16,
            16,
            16,
            16
        ],
        "23/03/2020 14:46:20": [
            23,
            23,
            23,
            22
        ],
        "23/03/2020 17:46:18": [
            24,
            24,
            24,
            13
        ]
    },
    "2848": {
        "23/03/2020 12:16:17": [
            1,
            1,
            1,
            1
        ],
        "23/03/2020 14:46:21": [
            19,
            19,
            19,
            12
        ],
        "23/03/2020 17:46:18": [
            27,
            27,
            27,
            -8
        ]
    },
    "2849": {
        "23/03/2020 12:16:18": [
            -27,
            -27,
            -27,
            -27
        ],
        "23/03/2020 14:46:21": [
            -3,
            -3,
            -3,
            -13
        ],
        "23/03/2020 17:46:19": [
            3,
            3,
            3,
            24
        ]
    },
    "1189": {
        "23/03/2020 12:16:19": [],
        "23/03/2020 14:46:21": [],
        "23/03/2020 17:46:20": []
    },
    "2850": {
        "23/03/2020 12:16:20": [
            10,
            10,
            10,
            10
        ],
        "23/03/2020 14:46:22": [
            -19,
            -19,
            -19,
            28
        ],
        "23/03/2020 17:46:20": [
            -16,
            -16,
            -16,
            1
        ]
    },
    "2851": {
        "23/03/2020 12:16:20": [
            -18,
            -18,
            -18,
            -18
        ],
        "23/03/2020 14:46:22": [
            19,
            19,
            19,
            3
        ],
        "23/03/2020 17:46:21": [
            20,
            20,
            20,
            -26
        ]
    },
    "2852": {
        "23/03/2020 12:16:21": [
            8,
            8,
            8,
            8
        ],
        "23/03/2020 14:46:22": [
            -10,
            -10,
            -10,
            -28
        ],
        "23/03/2020 17:46:21": [
            -11,
            -11,
            -11,
            0
        ]
    },
    "2998": {
        "23/03/2020 12:16:21": [
            16,
            16,
            16,
            16
        ],
        "23/03/2020 14:46:23": [
            -6,
            -6,
            -6,
            -6
        ],
        "23/03/2020 17:46:22": [
            2,
            2,
            2
        ]
    },
    "2999": {
        "23/03/2020 12:16:22": [
            9,
            9,
            9,
            9
        ],
        "23/03/2020 14:46:23": [
            -16,
            -16,
            -16,
            -16
        ],
        "23/03/2020 17:46:23": [
            -391,
            -1,
            -1,
            -1
        ]
    },
    "3000": {
        "23/03/2020 12:16:23": [
            4,
            4,
            4,
            4
        ],
        "23/03/2020 14:46:23": [
            -17,
            -17,
            -17,
            -17
        ],
        "23/03/2020 17:46:24": [
            -423,
            18,
            18,
            18
        ]
    },
    "3001": {
        "23/03/2020 12:16:23": [
            5,
            5,
            5,
            5
        ],
        "23/03/2020 14:46:23": [
            -10,
            -10,
            -10,
            -10
        ],
        "23/03/2020 17:46:24": [
            -453,
            -12,
            -12,
            -12
        ]
    },
    "3002": {
        "23/03/2020 12:16:24": [
            27,
            27,
            27,
            27
        ],
        "23/03/2020 14:46:24": [
            14,
            14,
            14,
            14
        ],
        "23/03/2020 17:46:25": [
            -391,
            20,
            20,
            20
        ]
    },
    "4707": {
        "23/03/2020 12:16:24": [
            -6,
            -6,
            -6,
            -6
        ],
        "23/03/2020 14:46:24": [
            -24,
            -24,
            -24,
            20
        ],
        "23/03/2020 17:46:25": [
            -21,
            -21,
            -21,
            -14
        ]
    },
    "4708": {
        "23/03/2020 12:16:25": [
            -24,
            -24,
            -24,
            -24
        ],
        "23/03/2020 14:46:24": [
            18,
            18,
            18,
            4
        ],
        "23/03/2020 17:46:26": [
            25,
            25,
            25,
            28
        ]
    },
    "4709": {
        "23/03/2020 12:16:26": [
            -18,
            -18,
            -18,
            -18
        ],
        "23/03/2020 14:46:24": [
            19,
            19,
            19,
            19
        ],
        "23/03/2020 17:46:27": [
            -2,
            -2,
            -2
        ]
    },
    "4336": {
        "23/03/2020 12:16:27": [
            21,
            21,
            21,
            21
        ],
        "23/03/2020 14:46:25": [
            2,
            2,
            2,
            -9
        ],
        "23/03/2020 17:46:28": [
            75,
            14,
            14,
            12
        ]
    },
    "4528": {
        "23/03/2020 12:16:28": [
            -21,
            -21,
            -21,
            -21
        ],
        "23/03/2020 14:46:25": [
            -9,
            -9,
            -9
        ],
        "23/03/2020 17:46:28": [
            -390,
            -377,
            13,
            13
        ]
    },
    "6041": {
        "23/03/2020 12:16:29": [
            0,
            0,
            0,
            0
        ],
        "23/03/2020 14:46:25": [
            0,
            0,
            0,
            0
        ],
        "23/03/2020 17:46:29": [
            0,
            0,
            0,
            0
        ]
    },
    "7577": {
        "23/03/2020 12:16:29": [
            5,
            5,
            5
        ],
        "23/03/2020 14:46:26": [
            7,
            7,
            7
        ],
        "23/03/2020 17:46:29": [
            -404,
            -396,
            -6,
            -6
        ]
    },
    "7578": {
        "23/03/2020 12:16:30": [
            -174,
            -3,
            -3,
            -3
        ],
        "23/03/2020 14:46:26": [
            -127,
            -7,
            -7,
            -7
        ],
        "23/03/2020 17:46:30": [
            -367,
            -401,
            -11,
            -11
        ]
    },
    "7582": {
        "23/03/2020 12:16:31": [
            -105,
            21,
            21,
            21
        ],
        "23/03/2020 14:46:26": [
            -103,
            -28,
            -28,
            -28
        ],
        "23/03/2020 17:46:31": [
            -445,
            -371,
            -406,
            -16
        ]
    },
    "7589": {
        "23/03/2020 12:16:31": [],
        "23/03/2020 14:46:27": [],
        "23/03/2020 17:46:32": []
    },
    "4397": {
        "23/03/2020 12:16:32": [
            -20,
            -20,
            -20,
            -20
        ],
        "23/03/2020 14:46:27": [
            -10,
            -10,
            -10,
            -12
        ],
        "23/03/2020 17:46:33": [
            54,
            -7,
            -7,
            -24
        ]
    },
    "297": {
        "23/03/2020 12:16:32": [
            -126,
            0,
            0
        ],
        "23/03/2020 14:46:27": [
            -124,
            -14,
            -14
        ],
        "23/03/2020 17:46:34": [
            -651,
            -5,
            -642,
            -415,
            -25
        ]
    },
    "496": {
        "23/03/2020 12:16:33": [
            -131,
            -5,
            -5
        ],
        "23/03/2020 14:46:27": [
            6,
            -129,
            0,
            0
        ],
        "23/03/2020 17:46:34": [
            -633,
            -7,
            -780,
            -401,
            -11
        ]
    },
    "497": {
        "23/03/2020 12:16:33": [
            -142,
            -16,
            -16
        ],
        "23/03/2020 14:46:28": [
            4,
            -140,
            -7,
            -7
        ],
        "23/03/2020 17:46:35": [
            -632,
            -6,
            -779,
            -409,
            -19
        ]
    },
    "515": {
        "23/03/2020 12:16:34": [
            -103,
            23,
            23
        ],
        "23/03/2020 14:46:28": [
            53,
            -101,
            -20,
            -20
        ],
        "23/03/2020 17:46:36": [
            -18,
            -664,
            -18,
            -791,
            -366,
            24
        ]
    },
    "516": {
        "23/03/2020 12:16:35": [
            -146,
            -20,
            -20
        ],
        "23/03/2020 14:46:28": [
            -9,
            -144,
            2,
            2
        ],
        "23/03/2020 17:46:36": [
            6,
            -640,
            6,
            -767,
            -407,
            -17
        ]
    },
    "4384": {
        "23/03/2020 12:16:35": [
            -154,
            -28,
            -28
        ],
        "23/03/2020 14:46:29": [
            -47,
            -152,
            -2,
            -2
        ],
        "23/03/2020 17:46:37": [
            14,
            -632,
            14,
            -759,
            -404
        ]
    },
    "519": {
        "23/03/2020 12:16:36": [
            -149,
            -23,
            -23
        ],
        "23/03/2020 14:46:29": [
            -42,
            -147,
            7,
            7
        ],
        "23/03/2020 17:46:38": [
            -21,
            -667,
            -21,
            -794,
            -387
        ]
    },
    "521": {
        "23/03/2020 12:16:37": [
            -114,
            12,
            12
        ],
        "23/03/2020 14:46:29": [
            -7,
            -112,
            -9,
            -9
        ],
        "23/03/2020 17:46:38": [
            27,
            -619,
            27,
            -746,
            -407
        ]
    },
    "522": {
        "23/03/2020 12:16:37": [
            -123,
            3,
            3
        ],
        "23/03/2020 14:46:30": [
            -16,
            -121,
            -5,
            -5
        ],
        "23/03/2020 17:46:39": [
            -23,
            -669,
            -23,
            -796,
            -408
        ]
    },
    "523": {
        "23/03/2020 12:16:38": [
            -525,
            -128,
            -2,
            -2
        ],
        "23/03/2020 14:46:30": [
            -21,
            -126,
            12,
            12
        ],
        "23/03/2020 17:46:40": [
            10,
            -636,
            10,
            -763,
            -404
        ]
    },
    "669": {
        "23/03/2020 12:16:38": [
            -116,
            10,
            10
        ],
        "23/03/2020 14:46:30": [
            -9,
            -114,
            7
        ],
        "23/03/2020 17:46:40": [
            -17,
            -663,
            -17,
            -391,
            -377
        ]
    },
    "670": {
        "23/03/2020 12:16:39": [
            -486,
            -105,
            21,
            21
        ],
        "23/03/2020 14:46:31": [
            2,
            -103,
            0
        ],
        "23/03/2020 17:46:41": [
            -10,
            43,
            -633,
            13,
            -624,
            -411
        ]
    },
    "671": {
        "23/03/2020 12:16:40": [
            -511,
            -130,
            -4,
            -4
        ],
        "23/03/2020 14:46:31": [
            -23,
            -128,
            -14
        ],
        "23/03/2020 17:46:42": [
            -28,
            25,
            -651,
            -5,
            -642,
            -372
        ]
    },
    "672": {
        "23/03/2020 12:16:40": [
            -556,
            -134,
            -8,
            -8
        ],
        "23/03/2020 14:46:31": [
            -27,
            -132,
            -1
        ],
        "23/03/2020 17:46:42": [
            -20,
            33,
            -643,
            3,
            -770,
            -369
        ]
    },
    "4382": {
        "23/03/2020 12:16:41": [
            -527,
            -105,
            21,
            21
        ],
        "23/03/2020 14:46:31": [
            2,
            -103,
            -24
        ],
        "23/03/2020 17:46:43": [
            -45,
            8,
            -668,
            -22,
            -795,
            -397
        ]
    },
    "1185": {
        "23/03/2020 12:16:42": [
            -494,
            -113,
            13
        ],
        "23/03/2020 14:46:32": [
            -6,
            -111,
            -26
        ],
        "23/03/2020 17:46:44": [
            -45,
            8,
            -668,
            -22,
            -659,
            -397
        ]
    },
    "1186": {
        "23/03/2020 12:16:43": [
            -507,
            -110,
            16
        ],
        "23/03/2020 14:46:32": [
            -3,
            -108,
            -17
        ],
        "23/03/2020 17:46:44": [
            -34,
            19,
            -657,
            -11,
            -648,
            -384
        ]
    },
    "1187": {
        "23/03/2020 12:16:44": [
            -513,
            -106,
            20
        ],
        "23/03/2020 14:46:32": [
            1,
            -104,
            -7
        ],
        "23/03/2020 17:46:45": [
            -22,
            31,
            -645,
            1,
            -636,
            -371
        ]
    },
    "1188": {
        "23/03/2020 12:16:44": [
            -411,
            -97,
            29
        ],
        "23/03/2020 14:46:33": [
            10,
            -95,
            20
        ],
        "23/03/2020 17:46:46": [
            -12,
            41,
            -635,
            11,
            -626,
            -364
        ]
    },
    "216": {
        "23/03/2020 12:16:45": [
            -565,
            -126,
            0
        ],
        "23/03/2020 14:46:33": [
            -19,
            -124,
            16
        ],
        "23/03/2020 17:46:47": [
            -40,
            13,
            -663,
            -17,
            -790,
            -395
        ]
    },
    "217": {
        "23/03/2020 12:16:45": [
            -573,
            -134,
            -8
        ],
        "23/03/2020 14:46:33": [
            -27,
            -132,
            21
        ],
        "23/03/2020 17:46:47": [
            -48,
            5,
            -671,
            -25,
            -798,
            -406
        ]
    },
    "242": {
        "23/03/2020 12:16:46": [
            -433,
            -119,
            7
        ],
        "23/03/2020 14:46:34": [
            -12,
            -117,
            -4
        ],
        "23/03/2020 17:46:48": [
            -32,
            21,
            -655,
            -9,
            -646,
            -392
        ]
    },
    "243": {
        "23/03/2020 12:16:47": [
            -457,
            -143,
            -17
        ],
        "23/03/2020 14:46:34": [
            -36,
            -141
        ],
        "23/03/2020 17:46:48": [
            4,
            57,
            -619,
            27,
            -347,
            -418
        ]
    },
    "254": {
        "23/03/2020 12:16:47": [],
        "23/03/2020 14:46:34": [],
        "23/03/2020 17:46:49": []
    },
    "244": {
        "23/03/2020 12:16:48": [
            -429,
            -115,
            11
        ],
        "23/03/2020 14:46:34": [
            -457,
            -8,
            -113
        ],
        "23/03/2020 17:46:50": [
            -27,
            26,
            -650,
            -4,
            -378,
            -393
        ]
    },
    "245": {
        "23/03/2020 12:16:48": [
            -556,
            -117,
            9
        ],
        "23/03/2020 14:46:35": [
            -459,
            -10,
            -115
        ],
        "23/03/2020 17:46:51": [
            -28,
            25,
            -651,
            -5,
            -379,
            -396
        ]
    },
    "246": {
        "23/03/2020 12:16:49": [
            -560,
            -121,
            5
        ],
        "23/03/2020 14:46:35": [
            -463,
            -14,
            -119
        ],
        "23/03/2020 17:46:51": [
            -35,
            18,
            -658,
            -12,
            -386,
            -411
        ]
    },
    "248": {
        "23/03/2020 12:16:50": [
            0,
            0,
            0,
            0
        ],
        "23/03/2020 14:46:35": [
            0,
            0,
            0,
            0
        ],
        "23/03/2020 17:46:52": [
            0,
            0,
            0,
            0
        ]
    },
    "249": {
        "23/03/2020 12:16:51": [
            -22,
            -22,
            -22,
            -22
        ],
        "23/03/2020 14:46:36": [
            -27,
            -27,
            -25
        ],
        "23/03/2020 17:46:52": [
            73,
            -9,
            -9,
            -22,
            -22
        ]
    },
    "250": {
        "23/03/2020 12:16:51": [
            51,
            -12,
            -12,
            -12
        ],
        "23/03/2020 14:46:36": [
            -25,
            -25,
            -21
        ],
        "23/03/2020 17:46:53": [
            105,
            23,
            23,
            -12
        ]
    },
    "251": {
        "23/03/2020 12:16:52": [
            72,
            29,
            29,
            29
        ],
        "23/03/2020 14:46:36": [
            11,
            11,
            11,
            17
        ],
        "23/03/2020 17:46:54": [
            100,
            18,
            18,
            -30
        ]
    },
    "252": {
        "23/03/2020 12:16:53": [
            19,
            -24,
            -24,
            -24
        ],
        "23/03/2020 14:46:37": [
            -24,
            -24,
            -24,
            -20
        ],
        "23/03/2020 17:46:55": [
            57,
            -25,
            -25,
            -21
        ]
    },
    "255": {
        "23/03/2020 12:16:54": [
            68,
            25,
            25,
            25
        ],
        "23/03/2020 14:46:37": [
            -22,
            -22,
            -22,
            -18
        ],
        "23/03/2020 17:46:55": [
            54,
            -28,
            -28,
            -30
        ]
    },
    "234": {
        "23/03/2020 12:16:54": [
            56,
            13,
            13,
            13
        ],
        "23/03/2020 14:46:37": [
            -21,
            -21,
            -21,
            -19
        ],
        "23/03/2020 17:46:56": [
            89,
            27,
            27,
            19
        ]
    },
    "235": {
        "23/03/2020 12:16:55": [
            71,
            8,
            8,
            8
        ],
        "23/03/2020 14:46:38": [
            -13,
            -13,
            -13,
            -12
        ],
        "23/03/2020 17:46:57": [
            91,
            29,
            29,
            15
        ]
    },
    "236": {
        "23/03/2020 12:16:56": [
            41,
            -22,
            -22,
            -22
        ],
        "23/03/2020 14:46:38": [
            25,
            25,
            25,
            26
        ],
        "23/03/2020 17:46:57": [
            65,
            3,
            3,
            -14
        ]
    },
    "1190": {
        "23/03/2020 12:16:56": [
            59,
            -4,
            -4,
            -4
        ],
        "23/03/2020 14:46:38": [
            4,
            4,
            4,
            3
        ],
        "23/03/2020 17:46:58": [
            35,
            -27,
            -27,
            7
        ]
    },
    "1191": {
        "23/03/2020 12:16:57": [
            39,
            -24,
            -24,
            -24
        ],
        "23/03/2020 14:46:38": [
            -19,
            -19,
            -19,
            -16
        ],
        "23/03/2020 17:46:58": [
            80,
            18,
            18,
            -7
        ]
    },
    "1192": {
        "23/03/2020 12:16:57": [
            72,
            9,
            9,
            9
        ],
        "23/03/2020 14:46:39": [
            13,
            13,
            13,
            18
        ],
        "23/03/2020 17:46:59": [
            58,
            -4,
            -4,
            -29
        ]
    },
    "1193": {
        "23/03/2020 12:16:58": [
            55,
            -8,
            -8,
            -8
        ],
        "23/03/2020 14:46:39": [
            -7,
            -7,
            -7,
            2
        ],
        "23/03/2020 17:47:00": [
            47,
            -15,
            -15,
            21
        ]
    },
    "1194": {
        "23/03/2020 12:16:59": [
            86,
            23,
            23,
            23
        ],
        "23/03/2020 14:46:39": [
            22,
            22,
            22,
            -26
        ],
        "23/03/2020 17:47:00": [
            82,
            20,
            20,
            -3
        ]
    },
    "1195": {
        "23/03/2020 12:16:59": [
            81,
            18,
            18,
            18
        ],
        "23/03/2020 14:46:40": [
            14,
            14,
            14,
            -30
        ],
        "23/03/2020 17:47:01": [
            22,
            22,
            22,
            0
        ]
    },
    "664": {
        "23/03/2020 12:17:00": [
            77,
            14,
            14,
            14
        ],
        "23/03/2020 14:46:40": [
            7,
            7,
            7,
            28
        ],
        "23/03/2020 17:47:01": [
            26,
            26,
            26,
            5
        ]
    },
    "665": {
        "23/03/2020 12:17:01": [
            53,
            -10,
            -10,
            -10
        ],
        "23/03/2020 14:46:40": [
            -16,
            -16,
            -16,
            5
        ],
        "23/03/2020 17:47:02": [
            2,
            2,
            2,
            -19
        ]
    },
    "666": {
        "23/03/2020 12:17:01": [
            89,
            26,
            26,
            26
        ],
        "23/03/2020 14:46:41": [
            21,
            21,
            21,
            -17
        ],
        "23/03/2020 17:47:03": [
            -22,
            -22,
            -22,
            17
        ]
    },
    "667": {
        "23/03/2020 12:17:02": [
            67,
            4,
            4,
            4
        ],
        "23/03/2020 14:46:41": [
            0,
            0,
            0
        ],
        "23/03/2020 17:47:04": [
            16,
            16,
            16,
            -5
        ]
    },
    "668": {
        "23/03/2020 12:17:03": [
            8,
            8,
            8,
            8
        ],
        "23/03/2020 14:46:41": [
            14,
            14,
            14
        ],
        "23/03/2020 17:47:04": [
            -29,
            -29,
            -29,
            8
        ]
    },
    "614": {
        "23/03/2020 12:17:03": [
            -4,
            -4,
            -4,
            -4
        ],
        "23/03/2020 14:46:42": [
            9,
            9,
            9
        ],
        "23/03/2020 17:47:05": [
            27,
            27,
            27
        ]
    },
    "615": {
        "23/03/2020 12:17:04": [
            58,
            -8,
            -8,
            -8
        ],
        "23/03/2020 14:46:42": [
            -2,
            8,
            8,
            8
        ],
        "23/03/2020 17:47:06": [
            -24,
            -24,
            -24
        ]
    },
    "616": {
        "23/03/2020 12:17:05": [
            46,
            -20,
            -20,
            -20
        ],
        "23/03/2020 14:46:42": [
            -12,
            -2,
            -2,
            -2
        ],
        "23/03/2020 17:47:06": [
            -25,
            -25,
            -25
        ]
    },
    "617": {
        "23/03/2020 12:17:05": [
            94,
            28,
            28,
            28
        ],
        "23/03/2020 14:46:43": [
            -23,
            -13,
            -13,
            -13
        ],
        "23/03/2020 17:47:07": [
            26,
            26,
            26
        ]
    },
    "618": {
        "23/03/2020 12:17:06": [
            83,
            17,
            17,
            17
        ],
        "23/03/2020 14:46:43": [
            -33,
            -23,
            -23,
            -23
        ],
        "23/03/2020 17:47:08": [
            -267,
            17,
            17,
            17
        ]
    },
    "619": {
        "23/03/2020 12:17:07": [
            84,
            23,
            23,
            23
        ],
        "23/03/2020 14:46:43": [
            -76,
            -16,
            -16,
            -16
        ],
        "23/03/2020 17:47:08": [
            -281,
            24,
            24,
            24
        ]
    },
    "675": {
        "23/03/2020 12:17:07": [
            60,
            -1,
            -1,
            -1
        ],
        "23/03/2020 14:46:44": [
            -40,
            20,
            20,
            20
        ],
        "23/03/2020 17:47:09": [
            -305,
            0,
            0,
            0
        ]
    },
    "4415": {
        "23/03/2020 12:17:08": [
            67,
            6,
            6,
            6
        ],
        "23/03/2020 14:46:44": [
            28,
            28,
            28,
            28
        ],
        "23/03/2020 17:47:09": [
            -296,
            9,
            9,
            9
        ]
    },
    "301": {
        "23/03/2020 12:17:08": [
            28,
            28,
            28,
            28
        ],
        "23/03/2020 14:46:44": [
            17,
            17,
            17,
            17
        ],
        "23/03/2020 17:47:10": [
            -240,
            10,
            10,
            10
        ]
    },
    "336": {
        "23/03/2020 12:17:09": [
            -14,
            -14,
            -14,
            -14
        ],
        "23/03/2020 14:46:44": [
            120,
            17,
            17,
            17
        ],
        "23/03/2020 17:47:10": [
            -296,
            -225,
            25,
            25
        ]
    },
    "7581": {
        "23/03/2020 12:17:10": [
            0,
            0,
            0,
            0
        ],
        "23/03/2020 14:46:45": [
            100,
            22,
            22,
            22
        ],
        "23/03/2020 17:47:11": [
            -300,
            -264,
            -14,
            -14
        ]
    },
    "1283": {
        "23/03/2020 12:17:11": [
            6,
            6,
            6,
            6
        ],
        "23/03/2020 14:46:45": [
            106,
            23,
            23,
            23
        ],
        "23/03/2020 17:47:12": [
            -254,
            -275,
            -25,
            -25
        ]
    },
    "7579": {
        "23/03/2020 12:17:11": [
            -10,
            -10,
            -10,
            -10
        ],
        "23/03/2020 14:46:45": [
            90,
            -28,
            -28,
            -28
        ],
        "23/03/2020 17:47:12": [
            -239,
            -262,
            -12,
            -12
        ]
    },
    "1285": {
        "23/03/2020 12:17:12": [
            13,
            13,
            13,
            13
        ],
        "23/03/2020 14:46:46": [
            147,
            -8,
            -8,
            -8
        ],
        "23/03/2020 17:47:13": [
            -153,
            -234,
            -230,
            20
        ]
    },
    "1016": {
        "23/03/2020 12:17:12": [
            16,
            16,
            16,
            16
        ],
        "23/03/2020 14:46:46": [
            150,
            -7,
            -7,
            -7
        ],
        "23/03/2020 17:47:14": [
            -174,
            -255,
            -279,
            -29
        ]
    },
    "1017": {
        "23/03/2020 12:17:13": [
            7,
            7,
            7,
            7
        ],
        "23/03/2020 14:46:46": [
            141,
            -14,
            -14
        ],
        "23/03/2020 17:47:14": [
            -156,
            -237,
            -251,
            -1
        ]
    },
    "1018": {
        "23/03/2020 12:17:14": [
            0,
            0,
            0,
            0
        ],
        "23/03/2020 14:46:47": [
            134,
            -19,
            -19
        ],
        "23/03/2020 17:47:15": [
            -195,
            -276,
            -280,
            -30
        ]
    },
    "1019": {
        "23/03/2020 12:17:15": [
            -20,
            -20,
            -20,
            -20
        ],
        "23/03/2020 14:46:47": [
            114,
            29,
            29
        ],
        "23/03/2020 17:47:16": [
            -144,
            -225,
            -235,
            15
        ]
    },
    "1020": {
        "23/03/2020 12:17:15": [
            -29,
            -29,
            -29,
            -29
        ],
        "23/03/2020 14:46:47": [
            105,
            28,
            28
        ],
        "23/03/2020 17:47:16": [
            -201,
            -282,
            -238,
            12
        ]
    },
    "1076": {
        "23/03/2020 12:17:16": [
            -20,
            -20,
            -20,
            -20
        ],
        "23/03/2020 14:46:48": [
            114,
            -9,
            -9
        ],
        "23/03/2020 17:47:17": [
            -31,
            -173,
            -254,
            -279,
            -29
        ]
    },
    "1077": {
        "23/03/2020 12:17:16": [
            -14,
            -14,
            -14
        ],
        "23/03/2020 14:46:48": [
            32,
            120,
            9,
            9
        ],
        "23/03/2020 17:47:18": [
            -8,
            -150,
            -231,
            -265,
            -15
        ]
    },
    "1078": {
        "23/03/2020 12:17:17": [
            -30,
            -30,
            -30
        ],
        "23/03/2020 14:46:48": [
            16,
            104,
            -1,
            -1
        ],
        "23/03/2020 17:47:18": [
            -14,
            -156,
            -237,
            -275,
            -25
        ]
    },
    "1079": {
        "23/03/2020 12:17:17": [
            22,
            22,
            22
        ],
        "23/03/2020 14:46:48": [
            68,
            156,
            -1,
            -1
        ],
        "23/03/2020 17:47:19": [
            -11,
            -153,
            -234,
            -275,
            -25
        ]
    },
    "1080": {
        "23/03/2020 12:17:18": [
            2,
            2,
            2
        ],
        "23/03/2020 14:46:49": [
            48,
            136,
            -6,
            -6
        ],
        "23/03/2020 17:47:19": [
            -15,
            -157,
            -238,
            -232,
            18
        ]
    },
    "1081": {
        "23/03/2020 12:17:19": [
            0,
            0,
            0
        ],
        "23/03/2020 14:46:49": [
            46,
            134,
            12,
            12
        ],
        "23/03/2020 17:47:20": [
            -56,
            -198,
            -279,
            -230,
            20
        ]
    },
    "2914": {
        "23/03/2020 12:17:19": [
            -13,
            -13,
            -13
        ],
        "23/03/2020 14:46:49": [
            33,
            121,
            16,
            16
        ],
        "23/03/2020 17:47:21": [
            -50,
            -192,
            -273,
            -239,
            11
        ]
    },
    "2989": {
        "23/03/2020 12:17:20": [
            12,
            12,
            12
        ],
        "23/03/2020 14:46:50": [
            58,
            146,
            11,
            11
        ],
        "23/03/2020 17:47:21": [
            -54,
            -196,
            -277,
            -268
        ]
    },
    "2990": {
        "23/03/2020 12:17:21": [
            -5,
            -5,
            -5
        ],
        "23/03/2020 14:46:50": [
            41,
            129,
            -1,
            -1
        ],
        "23/03/2020 17:47:22": [
            -6,
            -148,
            -229,
            -222
        ]
    },
    "1042": {
        "23/03/2020 12:17:21": [
            -6,
            -6,
            -6
        ],
        "23/03/2020 14:46:50": [
            40,
            128,
            6,
            6
        ],
        "23/03/2020 17:47:22": [
            -59,
            -201,
            -282,
            -278
        ]
    },
    "1043": {
        "23/03/2020 12:17:22": [
            6,
            6,
            6
        ],
        "23/03/2020 14:46:51": [
            52,
            140,
            27
        ],
        "23/03/2020 17:47:23": [
            -34,
            -176,
            -257,
            -260
        ]
    },
    "1044": {
        "23/03/2020 12:17:22": [
            -21,
            -21,
            -21
        ],
        "23/03/2020 14:46:51": [
            25,
            113,
            4
        ],
        "23/03/2020 17:47:24": [
            -55,
            -197,
            -278,
            -224
        ]
    },
    "1045": {
        "23/03/2020 12:17:23": [
            1,
            1,
            1
        ],
        "23/03/2020 14:46:51": [
            47,
            135,
            -29
        ],
        "23/03/2020 17:47:25": [
            -31,
            -173,
            -254,
            -264
        ]
    },
    "4710": {
        "23/03/2020 12:17:24": [
            -16,
            -16,
            -16
        ],
        "23/03/2020 14:46:52": [
            30,
            118,
            24
        ],
        "23/03/2020 17:47:25": [
            31,
            -44,
            -186,
            -267,
            -223
        ]
    },
    "1046": {
        "23/03/2020 12:17:24": [
            -9,
            -9,
            -9
        ],
        "23/03/2020 14:46:52": [
            37,
            125,
            -23
        ],
        "23/03/2020 17:47:26": [
            47,
            -28,
            -170,
            -251,
            -278
        ]
    },
    "1047": {
        "23/03/2020 12:17:25": [
            18,
            18,
            18
        ],
        "23/03/2020 14:46:52": [
            64,
            152,
            12
        ],
        "23/03/2020 17:47:27": [
            26,
            -49,
            -191,
            -272,
            -252
        ]
    },
    "1048": {
        "23/03/2020 12:17:25": [
            14,
            14,
            14
        ],
        "23/03/2020 14:46:53": [
            60,
            148,
            13
        ],
        "23/03/2020 17:47:27": [
            30,
            -45,
            -187,
            -268,
            -257
        ]
    },
    "1049": {
        "23/03/2020 12:17:26": [
            -14,
            -14,
            -14
        ],
        "23/03/2020 14:46:53": [
            32,
            120,
            -13
        ],
        "23/03/2020 17:47:28": [
            73,
            -2,
            -144,
            -225,
            -280
        ]
    },
    "4333": {
        "23/03/2020 12:17:27": [
            -25,
            -25
        ],
        "23/03/2020 14:46:53": [
            21,
            109,
            -17
        ],
        "23/03/2020 17:47:28": [
            -227
        ]
    },
    "4334": {
        "23/03/2020 12:17:27": [
            17,
            17
        ],
        "23/03/2020 14:46:53": [
            63,
            151,
            -30
        ],
        "23/03/2020 17:47:29": [
            66,
            -9,
            -151,
            -232,
            -242
        ]
    },
    "4712": {
        "23/03/2020 12:17:28": [
            -16,
            -16
        ],
        "23/03/2020 14:46:54": [
            30,
            118,
            -1
        ],
        "23/03/2020 17:47:30": [
            43,
            -32,
            -174,
            -255,
            -276
        ]
    },
    "2853": {
        "23/03/2020 12:17:28": [
            -16,
            -16
        ],
        "23/03/2020 14:46:54": [
            30,
            118,
            4
        ],
        "23/03/2020 17:47:30": [
            63,
            -12,
            -154,
            -235,
            -279
        ]
    },
    "2854": {
        "23/03/2020 12:17:29": [
            -2,
            24,
            24
        ],
        "23/03/2020 14:46:54": [
            70,
            158,
            -10
        ],
        "23/03/2020 17:47:31": [
            46,
            -29,
            -171,
            -252,
            -242
        ]
    },
    "2855": {
        "23/03/2020 12:17:30": [
            -27,
            4,
            4
        ],
        "23/03/2020 14:46:55": [
            50,
            138,
            -24
        ],
        "23/03/2020 17:47:32": [
            30,
            -45,
            -187,
            -268,
            -265
        ]
    },
    "2856": {
        "23/03/2020 12:17:30": [
            7,
            -16,
            -16
        ],
        "23/03/2020 14:46:55": [
            30,
            118,
            22
        ],
        "23/03/2020 17:47:32": [
            74,
            -1,
            -143,
            -224,
            -227
        ]
    },
    "2857": {
        "23/03/2020 12:17:31": [
            -1155,
            -11,
            -27,
            -27
        ],
        "23/03/2020 14:46:55": [
            19,
            107,
            18
        ],
        "23/03/2020 17:47:33": [
            66,
            -9,
            -151,
            -232,
            -242
        ]
    },
    "2858": {
        "23/03/2020 12:17:32": [
            -1158,
            -18,
            -30,
            -30
        ],
        "23/03/2020 14:46:56": [
            16,
            104
        ],
        "23/03/2020 17:47:34": [
            69,
            -6,
            -148,
            -229,
            -242
        ]
    },
    "2859": {
        "23/03/2020 12:17:32": [
            -1153,
            -18,
            -25,
            -25
        ],
        "23/03/2020 14:46:56": [
            21,
            109
        ],
        "23/03/2020 17:47:34": [
            19,
            -56,
            -198,
            -279,
            -235
        ]
    },
    "2860": {
        "23/03/2020 12:17:33": [
            -1100,
            8,
            2,
            2
        ],
        "23/03/2020 14:46:56": [
            -399,
            48,
            136
        ],
        "23/03/2020 17:47:35": [
            50,
            -25,
            -167,
            -248
        ]
    },
    "2861": {
        "23/03/2020 12:17:34": [
            -27
        ],
        "23/03/2020 14:46:56": [],
        "23/03/2020 17:47:36": [
            20,
            -197,
            -278,
            -240
        ]
    },
    "2862": {
        "23/03/2020 12:17:34": [
            -1080,
            24,
            22,
            22
        ],
        "23/03/2020 14:46:57": [
            -379,
            68,
            156
        ],
        "23/03/2020 17:47:37": [
            20,
            -55,
            -197,
            -278,
            -245
        ]
    },
    "2863": {
        "23/03/2020 12:17:35": [
            -1130,
            -25,
            -28,
            -28
        ],
        "23/03/2020 14:46:57": [
            -429,
            18,
            106
        ],
        "23/03/2020 17:47:37": [
            29,
            -46,
            -188,
            -269,
            -237
        ]
    },
    "2864": {
        "23/03/2020 12:17:35": [
            -1099,
            -20,
            29,
            29
        ],
        "23/03/2020 14:46:57": [
            -372,
            75,
            163
        ],
        "23/03/2020 17:47:38": [
            24,
            -51,
            -193,
            -274
        ]
    },
    "4486": {
        "23/03/2020 12:17:36": [
            -1075,
            -6,
            -26,
            -26
        ],
        "23/03/2020 14:46:58": [
            -427,
            20,
            108
        ],
        "23/03/2020 17:47:38": [
            26,
            -49,
            -191,
            -272
        ]
    },
    "2865": {
        "23/03/2020 12:17:36": [
            -1113,
            -20,
            15,
            15
        ],
        "23/03/2020 14:46:58": [
            -386,
            61,
            149
        ],
        "23/03/2020 17:47:39": [
            65,
            -10,
            -152,
            -233
        ]
    },
    "2866": {
        "23/03/2020 12:17:37": [
            -1118,
            -30,
            10,
            10
        ],
        "23/03/2020 14:46:59": [
            -391,
            56,
            144
        ],
        "23/03/2020 17:47:40": [
            56,
            -19,
            -161,
            -242
        ]
    },
    "6044": {
        "23/03/2020 12:17:38": [],
        "23/03/2020 14:47:00": [],
        "23/03/2020 17:47:40": []
    }
}