{
    "7371": {
        "27/03/2020 11:00:45": [],
        "27/03/2020 13:17:06": [],
        "27/03/2020 17:09:30": []
    },
    "7512": {
        "27/03/2020 11:00:46": [],
        "27/03/2020 13:17:06": [],
        "27/03/2020 17:09:31": []
    },
    "7077": {
        "27/03/2020 11:00:46": [],
        "27/03/2020 13:17:07": [],
        "27/03/2020 17:09:31": []
    },
    "7221": {
        "27/03/2020 11:00:46": [],
        "27/03/2020 13:17:08": [],
        "27/03/2020 17:09:32": []
    },
    "2498": {
        "27/03/2020 11:00:47": [],
        "27/03/2020 13:17:08": [],
        "27/03/2020 17:09:32": []
    },
    "2499": {
        "27/03/2020 11:00:47": [],
        "27/03/2020 13:17:09": [],
        "27/03/2020 17:09:33": []
    },
    "7216": {
        "27/03/2020 11:00:48": [],
        "27/03/2020 13:17:10": [],
        "27/03/2020 17:09:33": []
    },
    "7076": {
        "27/03/2020 11:00:48": [],
        "27/03/2020 13:17:10": [],
        "27/03/2020 17:09:34": []
    },
    "7589": {
        "27/03/2020 11:00:49": [],
        "27/03/2020 13:17:11": [],
        "27/03/2020 17:09:34": []
    },
    "407": {
        "27/03/2020 11:00:49": [],
        "27/03/2020 13:17:11": [],
        "27/03/2020 17:09:35": []
    },
    "1105": {
        "27/03/2020 11:00:50": [
            0,
            0,
            0
        ],
        "27/03/2020 13:17:12": [
            0,
            0,
            0
        ],
        "27/03/2020 17:09:35": [
            0,
            0,
            0,
            0
        ]
    },
    "1107": {
        "27/03/2020 11:00:50": [
            -10,
            -12,
            -12
        ],
        "27/03/2020 13:17:13": [
            -12,
            -12,
            -12
        ],
        "27/03/2020 17:09:36": [
            4,
            -16,
            -16,
            -16
        ]
    },
    "1108": {
        "27/03/2020 11:00:50": [
            16,
            13,
            13
        ],
        "27/03/2020 13:17:13": [
            13,
            13,
            13
        ],
        "27/03/2020 17:09:36": [
            -23,
            7,
            7,
            7
        ]
    },
    "1109": {
        "27/03/2020 11:00:51": [
            -23,
            -28,
            -28
        ],
        "27/03/2020 13:17:14": [
            -28,
            -28,
            -28
        ],
        "27/03/2020 17:09:37": [
            -2,
            23,
            23,
            23
        ]
    },
    "1110": {
        "27/03/2020 11:00:51": [
            -5,
            -12,
            -12
        ],
        "27/03/2020 13:17:14": [
            -12,
            -12,
            -12
        ],
        "27/03/2020 17:09:37": [
            16,
            -23,
            -23,
            -23
        ]
    },
    "1111": {
        "27/03/2020 11:00:52": [
            11,
            5,
            5
        ],
        "27/03/2020 13:17:15": [
            5,
            5,
            5
        ],
        "27/03/2020 17:09:37": [
            -18,
            -3,
            -3,
            -3
        ]
    },
    "1112": {
        "27/03/2020 11:00:52": [
            -1,
            -2,
            -2
        ],
        "27/03/2020 13:17:16": [
            -2,
            -2,
            -2
        ],
        "27/03/2020 17:09:38": [
            -2,
            -4,
            -4,
            -4
        ]
    },
    "1113": {
        "27/03/2020 11:00:53": [
            24,
            23,
            23
        ],
        "27/03/2020 13:17:16": [
            23,
            23,
            23
        ],
        "27/03/2020 17:09:38": [
            25,
            24,
            24,
            24
        ]
    },
    "1114": {
        "27/03/2020 11:00:53": [
            -4,
            -3,
            -3
        ],
        "27/03/2020 13:17:17": [
            -3,
            -3,
            -3
        ],
        "27/03/2020 17:09:39": [
            1,
            2,
            2,
            2
        ]
    },
    "1115": {
        "27/03/2020 11:00:53": [
            22,
            23,
            23
        ],
        "27/03/2020 13:17:18": [
            23,
            23,
            23
        ],
        "27/03/2020 17:09:39": [
            -30,
            -29,
            -29,
            -29
        ]
    },
    "2437": {
        "27/03/2020 11:00:54": [
            1,
            3,
            3
        ],
        "27/03/2020 13:17:18": [
            3,
            3,
            3
        ],
        "27/03/2020 17:09:40": [
            13,
            16,
            16,
            16
        ]
    },
    "1117": {
        "27/03/2020 11:00:55": [
            -10,
            1,
            1
        ],
        "27/03/2020 13:17:19": [
            1,
            1,
            1
        ],
        "27/03/2020 17:09:40": [
            4,
            14,
            14,
            14
        ]
    },
    "1118": {
        "27/03/2020 11:00:55": [
            27,
            -16,
            -16
        ],
        "27/03/2020 13:17:19": [
            -16,
            -16,
            -16
        ],
        "27/03/2020 17:09:41": [
            -18,
            -14,
            -14,
            -14
        ]
    },
    "1119": {
        "27/03/2020 11:00:56": [
            -5,
            17,
            17
        ],
        "27/03/2020 13:17:20": [
            17,
            17
        ],
        "27/03/2020 17:09:41": [
            11,
            11,
            11,
            11
        ]
    },
    "1120": {
        "27/03/2020 11:00:56": [
            -14,
            16,
            16
        ],
        "27/03/2020 13:17:21": [
            16,
            16
        ],
        "27/03/2020 17:09:42": [
            4,
            -5,
            -5,
            -5
        ]
    },
    "1164": {
        "27/03/2020 11:00:57": [
            2,
            -16,
            -16
        ],
        "27/03/2020 13:17:21": [
            -65,
            -16,
            -16
        ],
        "27/03/2020 17:09:42": [
            21,
            1,
            1,
            1
        ]
    },
    "1165": {
        "27/03/2020 11:00:57": [
            74,
            -8,
            -25
        ],
        "27/03/2020 13:17:22": [
            -74,
            -25,
            -25
        ],
        "27/03/2020 17:09:43": [
            7,
            -12,
            -12
        ]
    },
    "1166": {
        "27/03/2020 11:00:58": [
            37,
            -17,
            27
        ],
        "27/03/2020 13:17:23": [
            -22,
            27,
            27
        ],
        "27/03/2020 17:09:43": [
            -7,
            -24,
            -24
        ]
    },
    "1167": {
        "27/03/2020 11:00:58": [
            70,
            16,
            0
        ],
        "27/03/2020 13:17:23": [
            -49,
            0,
            0
        ],
        "27/03/2020 17:09:43": [
            24,
            8,
            8
        ]
    },
    "1168": {
        "27/03/2020 11:00:59": [
            43,
            -11,
            -26
        ],
        "27/03/2020 13:17:24": [
            -75,
            -26,
            -26
        ],
        "27/03/2020 17:09:44": [
            -6,
            -21,
            -21
        ]
    },
    "1169": {
        "27/03/2020 11:00:59": [
            79,
            25,
            9
        ],
        "27/03/2020 13:17:24": [
            -60,
            9,
            9
        ],
        "27/03/2020 17:09:44": [
            -21,
            16,
            16
        ]
    },
    "1170": {
        "27/03/2020 11:01:00": [
            54,
            0,
            -18
        ],
        "27/03/2020 13:17:25": [
            -87,
            -18,
            -18
        ],
        "27/03/2020 17:09:45": [
            22,
            -8,
            -8
        ]
    },
    "1069": {
        "27/03/2020 11:01:00": [
            80,
            -22,
            22
        ],
        "27/03/2020 13:17:26": [
            -47,
            22,
            22
        ],
        "27/03/2020 17:09:45": [
            5,
            -22,
            -22
        ]
    },
    "1070": {
        "27/03/2020 11:01:01": [
            116,
            14,
            -2
        ],
        "27/03/2020 13:17:26": [
            -71,
            -2,
            -2
        ],
        "27/03/2020 17:09:46": [
            -15,
            20,
            20
        ]
    },
    "1071": {
        "27/03/2020 11:01:01": [
            125,
            3,
            -11
        ],
        "27/03/2020 13:17:27": [
            -80,
            -11,
            -11
        ],
        "27/03/2020 17:09:46": [
            -20,
            18,
            18
        ]
    },
    "4528": {
        "27/03/2020 11:01:02": [
            26,
            -28,
            22
        ],
        "27/03/2020 13:17:27": [
            -47,
            22,
            22
        ],
        "27/03/2020 17:09:47": [
            11,
            -10,
            -10
        ]
    },
    "1072": {
        "27/03/2020 11:01:02": [
            136,
            14,
            8
        ],
        "27/03/2020 13:17:28": [
            -61,
            8,
            8
        ],
        "27/03/2020 17:09:47": [
            -5,
            -25,
            -25
        ]
    },
    "7577": {
        "27/03/2020 11:01:03": [
            11,
            11,
            10
        ],
        "27/03/2020 13:17:29": [
            10,
            10,
            10
        ],
        "27/03/2020 17:09:48": [
            -5
        ]
    },
    "1353": {
        "27/03/2020 11:01:03": [
            62,
            0,
            4
        ],
        "27/03/2020 13:17:29": [
            4,
            4,
            4
        ],
        "27/03/2020 17:09:48": [
            -13,
            16,
            16
        ]
    },
    "1354": {
        "27/03/2020 11:01:03": [
            4,
            4,
            15
        ],
        "27/03/2020 13:17:30": [
            15,
            15,
            15
        ],
        "27/03/2020 17:09:49": [
            -4,
            18,
            18
        ]
    },
    "7578": {
        "27/03/2020 11:01:04": [
            25,
            25,
            -12
        ],
        "27/03/2020 13:17:30": [
            -12,
            -12,
            -12
        ],
        "27/03/2020 17:09:49": [
            -118,
            10,
            -17,
            -17
        ]
    },
    "7582": {
        "27/03/2020 11:01:04": [
            16,
            16,
            -26
        ],
        "27/03/2020 13:17:31": [
            -26,
            -26,
            -26
        ],
        "27/03/2020 17:09:50": [
            -114,
            14,
            28,
            28
        ]
    },
    "340": {
        "27/03/2020 11:01:05": [
            98,
            -24,
            -16
        ],
        "27/03/2020 13:17:31": [
            179,
            -16,
            -16
        ],
        "27/03/2020 17:09:50": [
            -132,
            -4,
            -23
        ]
    },
    "350": {
        "27/03/2020 11:01:05": [
            102,
            -20,
            -10
        ],
        "27/03/2020 13:17:32": [
            185,
            -10,
            -10
        ],
        "27/03/2020 17:09:51": [
            -136,
            -8,
            -23
        ]
    },
    "351": {
        "27/03/2020 11:01:06": [
            119,
            -3,
            2
        ],
        "27/03/2020 13:17:33": [
            197,
            2,
            2
        ],
        "27/03/2020 17:09:51": [
            -121,
            7,
            -12
        ]
    },
    "352": {
        "27/03/2020 11:01:06": [
            94,
            -28,
            -24
        ],
        "27/03/2020 13:17:33": [
            171,
            -24,
            -24
        ],
        "27/03/2020 17:09:52": [
            -146,
            -18,
            21
        ]
    },
    "353": {
        "27/03/2020 11:01:07": [
            128,
            6,
            9
        ],
        "27/03/2020 13:17:34": [
            204,
            9,
            9
        ],
        "27/03/2020 17:09:52": [
            -113,
            15,
            -8
        ]
    },
    "354": {
        "27/03/2020 11:01:07": [],
        "27/03/2020 13:17:35": [],
        "27/03/2020 17:09:53": []
    },
    "395": {
        "27/03/2020 11:01:08": [
            0,
            0,
            0
        ],
        "27/03/2020 13:17:35": [
            0,
            0,
            0
        ],
        "27/03/2020 17:09:53": [
            0,
            0,
            0,
            0
        ]
    },
    "396": {
        "27/03/2020 11:01:08": [
            -15,
            -11,
            -11
        ],
        "27/03/2020 13:17:36": [
            -11,
            -11,
            -11
        ],
        "27/03/2020 17:09:54": [
            -17,
            10,
            10,
            10
        ]
    },
    "397": {
        "27/03/2020 11:01:09": [
            10,
            16,
            16
        ],
        "27/03/2020 13:17:36": [
            16,
            16,
            16
        ],
        "27/03/2020 17:09:54": [
            -20,
            -11,
            -11,
            -11
        ]
    },
    "398": {
        "27/03/2020 11:01:09": [
            -13,
            -4,
            -4
        ],
        "27/03/2020 13:17:37": [
            -4,
            -4,
            -4
        ],
        "27/03/2020 17:09:55": [
            3,
            -13,
            -13,
            -13
        ]
    },
    "399": {
        "27/03/2020 11:01:10": [
            17,
            28,
            28
        ],
        "27/03/2020 13:17:37": [
            28,
            28,
            28
        ],
        "27/03/2020 17:09:55": [
            11,
            -27,
            -27,
            -27
        ]
    },
    "400": {
        "27/03/2020 11:01:10": [
            12,
            28,
            28
        ],
        "27/03/2020 13:17:38": [
            28,
            28,
            28
        ],
        "27/03/2020 17:09:55": [
            240,
            15,
            -2,
            -2
        ]
    },
    "7581": {
        "27/03/2020 11:01:11": [
            0,
            -18,
            -18
        ],
        "27/03/2020 13:17:38": [
            82,
            -18,
            -18
        ],
        "27/03/2020 17:09:56": [
            10,
            -9,
            12,
            12,
            12
        ]
    },
    "1283": {
        "27/03/2020 11:01:11": [
            17,
            10,
            10
        ],
        "27/03/2020 13:17:39": [
            47,
            10,
            10
        ],
        "27/03/2020 17:09:56": [
            48,
            29,
            -19,
            -19
        ]
    },
    "7579": {
        "27/03/2020 11:01:12": [
            24,
            -28,
            -28
        ],
        "27/03/2020 13:17:39": [
            9,
            -28,
            -28
        ],
        "27/03/2020 17:09:57": [
            15,
            -4,
            1,
            1
        ]
    },
    "1285": {
        "27/03/2020 11:01:12": [
            -20,
            7
        ],
        "27/03/2020 13:17:40": [
            44,
            7,
            7
        ],
        "27/03/2020 17:09:57": [
            54,
            -23,
            -19,
            -19
        ]
    },
    "1016": {
        "27/03/2020 11:01:12": [
            -13,
            -30
        ],
        "27/03/2020 13:17:41": [
            7,
            -30,
            -30
        ],
        "27/03/2020 17:09:58": [
            82,
            5,
            7,
            7
        ]
    },
    "1017": {
        "27/03/2020 11:01:13": [
            20,
            4
        ],
        "27/03/2020 13:17:41": [
            41,
            4,
            4
        ],
        "27/03/2020 17:09:58": [
            58,
            -19,
            -16,
            -16
        ]
    },
    "1018": {
        "27/03/2020 11:01:13": [
            -5,
            -21
        ],
        "27/03/2020 13:17:42": [
            16,
            -21,
            -21
        ],
        "27/03/2020 17:09:59": [
            96,
            19,
            23,
            23
        ]
    },
    "1019": {
        "27/03/2020 11:01:14": [
            19,
            8
        ],
        "27/03/2020 13:17:43": [
            45,
            8,
            8
        ],
        "27/03/2020 17:09:59": [
            67,
            -10,
            -7,
            -7
        ]
    },
    "1020": {
        "27/03/2020 11:01:14": [
            -10,
            -15
        ],
        "27/03/2020 13:17:43": [
            85,
            -15,
            -15
        ],
        "27/03/2020 17:10:00": [
            106,
            29,
            -30,
            -30
        ]
    },
    "1076": {
        "27/03/2020 11:01:15": [
            -27,
            -23
        ],
        "27/03/2020 13:17:44": [
            77,
            -23,
            -23
        ],
        "27/03/2020 17:10:00": [
            99,
            22,
            21,
            21
        ]
    },
    "1077": {
        "27/03/2020 11:01:15": [
            13,
            25
        ],
        "27/03/2020 13:17:45": [
            125,
            25,
            25
        ],
        "27/03/2020 17:10:00": [
            90,
            13,
            10,
            10
        ]
    },
    "1078": {
        "27/03/2020 11:01:16": [
            -10,
            2
        ],
        "27/03/2020 13:17:45": [
            102,
            2,
            2
        ],
        "27/03/2020 17:10:01": [
            78,
            1,
            -10,
            -10
        ]
    },
    "1079": {
        "27/03/2020 11:01:16": [
            -25,
            -14
        ],
        "27/03/2020 13:17:46": [
            86,
            -14,
            -14
        ],
        "27/03/2020 17:10:01": [
            74,
            -3,
            -22,
            -22
        ]
    },
    "1080": {
        "27/03/2020 11:01:17": [
            8,
            19
        ],
        "27/03/2020 13:17:46": [
            119,
            19,
            19
        ],
        "27/03/2020 17:10:02": [
            55,
            -22,
            11,
            11
        ]
    },
    "1081": {
        "27/03/2020 11:01:17": [
            -4,
            6
        ],
        "27/03/2020 13:17:47": [
            106,
            6,
            6
        ],
        "27/03/2020 17:10:02": [
            34,
            53,
            -24,
            0,
            0
        ]
    },
    "1082": {
        "27/03/2020 11:01:18": [
            28,
            -21
        ],
        "27/03/2020 13:17:48": [
            79,
            -21,
            -21
        ],
        "27/03/2020 17:10:03": [
            74,
            93,
            16,
            -28,
            -28
        ]
    },
    "1083": {
        "27/03/2020 11:01:18": [
            -2,
            8
        ],
        "27/03/2020 13:17:48": [
            108,
            8,
            8
        ],
        "27/03/2020 17:10:03": [
            51,
            70,
            -7,
            3,
            3
        ]
    },
    "1085": {
        "27/03/2020 11:01:19": [
            -11,
            -1
        ],
        "27/03/2020 13:17:49": [
            99,
            -1,
            -1
        ],
        "27/03/2020 17:10:04": [
            45,
            72,
            -5,
            -6,
            -6
        ]
    },
    "1086": {
        "27/03/2020 11:01:19": [
            26,
            -23
        ],
        "27/03/2020 13:17:49": [
            77,
            -23,
            -23
        ],
        "27/03/2020 17:10:04": [
            25,
            52,
            -25,
            -24,
            -24
        ]
    },
    "1087": {
        "27/03/2020 11:01:20": [
            9,
            22
        ],
        "27/03/2020 13:17:50": [
            122,
            22,
            22
        ],
        "27/03/2020 17:10:05": [
            73,
            100,
            23,
            26
        ]
    },
    "1088": {
        "27/03/2020 11:01:20": [
            -8,
            6
        ],
        "27/03/2020 13:17:51": [
            106,
            6,
            6
        ],
        "27/03/2020 17:10:05": [
            60,
            87,
            10,
            16
        ]
    },
    "1089": {
        "27/03/2020 11:01:21": [
            -19,
            -4
        ],
        "27/03/2020 13:17:51": [
            96,
            -4,
            -4
        ],
        "27/03/2020 17:10:05": [
            4,
            80,
            3,
            11
        ]
    },
    "1090": {
        "27/03/2020 11:01:21": [
            17,
            -27
        ],
        "27/03/2020 13:17:52": [
            73,
            -27,
            -27
        ],
        "27/03/2020 17:10:06": [
            56,
            60,
            -17,
            -7
        ]
    },
    "1091": {
        "27/03/2020 11:01:21": [
            4,
            16
        ],
        "27/03/2020 13:17:52": [
            116,
            16,
            16
        ],
        "27/03/2020 17:10:06": [
            101,
            105,
            28,
            -20
        ]
    },
    "1092": {
        "27/03/2020 11:01:22": [
            -24,
            -9
        ],
        "27/03/2020 13:17:53": [
            91,
            -9,
            -9
        ],
        "27/03/2020 17:10:07": [
            80,
            84,
            7,
            21
        ]
    },
    "1093": {
        "27/03/2020 11:01:22": [
            -6,
            11
        ],
        "27/03/2020 13:17:54": [
            111,
            11,
            11
        ],
        "27/03/2020 17:10:08": [
            -16
        ]
    },
    "1094": {
        "27/03/2020 11:01:23": [
            462,
            17,
            -24
        ],
        "27/03/2020 13:17:54": [
            76,
            -24
        ],
        "27/03/2020 17:10:08": [
            70,
            74,
            -3,
            13
        ]
    },
    "1095": {
        "27/03/2020 11:01:23": [
            489,
            0,
            22
        ],
        "27/03/2020 13:17:55": [
            83,
            122,
            22
        ],
        "27/03/2020 17:10:08": [
            -6,
            66,
            -11,
            6
        ]
    },
    "1096": {
        "27/03/2020 11:01:24": [
            504,
            15,
            -22
        ],
        "27/03/2020 13:17:56": [
            39,
            78,
            -22
        ],
        "27/03/2020 17:10:09": [
            80,
            84,
            7,
            25
        ]
    },
    "1101": {
        "27/03/2020 11:01:24": [
            473,
            -16,
            16
        ],
        "27/03/2020 13:17:56": [
            77,
            116,
            16
        ],
        "27/03/2020 17:10:09": [
            57,
            61,
            -16,
            10
        ]
    },
    "1102": {
        "27/03/2020 11:01:25": [
            500,
            11,
            -12
        ],
        "27/03/2020 13:17:57": [
            49,
            88,
            -12
        ],
        "27/03/2020 17:10:10": [
            88,
            92,
            15,
            -25
        ]
    },
    "1103": {
        "27/03/2020 11:01:25": [
            461,
            -28,
            12
        ],
        "27/03/2020 13:17:58": [
            73,
            112,
            12
        ],
        "27/03/2020 17:10:10": [
            51,
            55,
            -22,
            -7
        ]
    },
    "1104": {
        "27/03/2020 11:01:26": [],
        "27/03/2020 13:17:58": [],
        "27/03/2020 17:10:11": []
    }
}