{
    "7371": {
        "26/03/2020 12:45:53": [],
        "26/03/2020 15:10:30": [],
        "26/03/2020 17:48:55": []
    },
    "7512": {
        "26/03/2020 12:45:54": [],
        "26/03/2020 15:10:31": [],
        "26/03/2020 17:48:56": []
    },
    "7077": {
        "26/03/2020 12:45:54": [],
        "26/03/2020 15:10:32": [],
        "26/03/2020 17:48:56": []
    },
    "7221": {
        "26/03/2020 12:45:55": [],
        "26/03/2020 15:10:32": [],
        "26/03/2020 17:48:57": []
    },
    "2498": {
        "26/03/2020 12:45:55": [],
        "26/03/2020 15:10:33": [],
        "26/03/2020 17:48:57": []
    },
    "2499": {
        "26/03/2020 12:45:56": [],
        "26/03/2020 15:10:33": [],
        "26/03/2020 17:48:58": []
    },
    "7216": {
        "26/03/2020 12:45:56": [],
        "26/03/2020 15:10:34": [],
        "26/03/2020 17:48:58": []
    },
    "7076": {
        "26/03/2020 12:45:57": [],
        "26/03/2020 15:10:34": [],
        "26/03/2020 17:48:59": []
    },
    "7589": {
        "26/03/2020 12:45:57": [],
        "26/03/2020 15:10:35": [],
        "26/03/2020 17:48:59": []
    },
    "407": {
        "26/03/2020 12:45:58": [],
        "26/03/2020 15:10:36": [],
        "26/03/2020 17:49:00": []
    },
    "1105": {
        "26/03/2020 12:45:58": [
            0,
            0,
            0
        ],
        "26/03/2020 15:10:36": [
            0,
            0
        ],
        "26/03/2020 17:49:00": [
            0,
            0,
            0
        ]
    },
    "1107": {
        "26/03/2020 12:45:59": [
            -12,
            -12,
            -12
        ],
        "26/03/2020 15:10:37": [
            -10,
            -9,
            -9
        ],
        "26/03/2020 17:49:01": [
            -16,
            -16,
            -6
        ]
    },
    "1108": {
        "26/03/2020 12:45:59": [
            13,
            13,
            13
        ],
        "26/03/2020 15:10:37": [
            16,
            17,
            17
        ],
        "26/03/2020 17:49:01": [
            7,
            7,
            21
        ]
    },
    "1109": {
        "26/03/2020 12:46:00": [
            -28,
            -28,
            -28
        ],
        "26/03/2020 15:10:37": [
            -19,
            -25,
            -25
        ],
        "26/03/2020 17:49:02": [
            23,
            23,
            -20
        ]
    },
    "1110": {
        "26/03/2020 12:46:00": [
            -12,
            -12,
            -12
        ],
        "26/03/2020 15:10:38": [
            2,
            -10,
            -10
        ],
        "26/03/2020 17:49:02": [
            -23,
            -23,
            -3
        ]
    },
    "1111": {
        "26/03/2020 12:46:01": [
            5,
            5,
            5
        ],
        "26/03/2020 15:10:38": [
            17,
            13,
            13
        ],
        "26/03/2020 17:49:03": [
            -3,
            -3,
            13
        ]
    },
    "1112": {
        "26/03/2020 12:46:01": [
            -2,
            -2,
            -2
        ],
        "26/03/2020 15:10:39": [
            3,
            23,
            23
        ],
        "26/03/2020 17:49:03": [
            -4,
            -4,
            2
        ]
    },
    "1113": {
        "26/03/2020 12:46:02": [
            23,
            23,
            23
        ],
        "26/03/2020 15:10:39": [
            -29,
            -6,
            -6
        ],
        "26/03/2020 17:49:04": [
            24,
            24,
            24
        ]
    },
    "1114": {
        "26/03/2020 12:46:02": [
            -3,
            -3,
            -3
        ],
        "26/03/2020 15:10:40": [
            7,
            -25,
            -25
        ],
        "26/03/2020 17:49:04": [
            2,
            2,
            -7
        ]
    },
    "1115": {
        "26/03/2020 12:46:03": [
            23,
            23,
            23
        ],
        "26/03/2020 15:10:41": [
            -24,
            6,
            6
        ],
        "26/03/2020 17:49:05": [
            -29,
            -29,
            15
        ]
    },
    "2437": {
        "26/03/2020 12:46:03": [
            3,
            3,
            3
        ],
        "26/03/2020 15:10:42": [
            20,
            -5,
            -5
        ],
        "26/03/2020 17:49:05": [
            -18,
            16,
            16,
            -10
        ]
    },
    "1117": {
        "26/03/2020 12:46:04": [
            1,
            1,
            1
        ],
        "26/03/2020 15:10:42": [
            7,
            -14,
            -14
        ],
        "26/03/2020 17:49:06": [
            -20,
            14,
            14,
            -22
        ]
    },
    "1118": {
        "26/03/2020 12:46:04": [
            -16,
            -16,
            -16
        ],
        "26/03/2020 15:10:43": [
            -5,
            25,
            25
        ],
        "26/03/2020 17:49:06": [
            -48,
            -14,
            -14,
            11
        ]
    },
    "1119": {
        "26/03/2020 12:46:05": [
            17,
            17,
            17
        ],
        "26/03/2020 15:10:43": [
            -28,
            -5,
            -5
        ],
        "26/03/2020 17:49:07": [
            11,
            11,
            11,
            -24
        ]
    },
    "1120": {
        "26/03/2020 12:46:05": [
            16,
            16,
            16
        ],
        "26/03/2020 15:10:44": [
            -22,
            -11,
            -11
        ],
        "26/03/2020 17:49:07": [
            -5,
            -5,
            -5,
            22
        ]
    },
    "1164": {
        "26/03/2020 12:46:06": [
            -16,
            -16,
            -16
        ],
        "26/03/2020 15:10:44": [
            16,
            8,
            8
        ],
        "26/03/2020 17:49:08": [
            1,
            1,
            1,
            -30
        ]
    },
    "1165": {
        "26/03/2020 12:46:06": [
            -25,
            -25,
            -25
        ],
        "26/03/2020 15:10:45": [
            6,
            -3,
            -3
        ],
        "26/03/2020 17:49:08": [
            -12,
            -12,
            -12,
            17
        ]
    },
    "1166": {
        "26/03/2020 12:46:07": [
            27,
            27,
            27
        ],
        "26/03/2020 15:10:45": [
            -2,
            -14,
            -14
        ],
        "26/03/2020 17:49:09": [
            -24,
            -24,
            -24,
            5
        ]
    },
    "1167": {
        "26/03/2020 12:46:07": [
            280,
            0,
            0,
            0
        ],
        "26/03/2020 15:10:46": [
            -29,
            18,
            18
        ],
        "26/03/2020 17:49:09": [
            8,
            8,
            8,
            -24
        ]
    },
    "1168": {
        "26/03/2020 12:46:08": [
            254,
            -26,
            -26,
            -26
        ],
        "26/03/2020 15:10:46": [
            4,
            -10,
            -10
        ],
        "26/03/2020 17:49:09": [
            -21,
            -21,
            -21,
            7
        ]
    },
    "1169": {
        "26/03/2020 12:46:08": [
            289,
            9,
            9,
            9
        ],
        "26/03/2020 15:10:47": [
            -21,
            25,
            25
        ],
        "26/03/2020 17:49:10": [
            16,
            16,
            16,
            -20
        ]
    },
    "1170": {
        "26/03/2020 12:46:09": [
            262,
            -18,
            -18,
            -18
        ],
        "26/03/2020 15:10:47": [
            12,
            -2,
            -2
        ],
        "26/03/2020 17:49:11": [
            -8,
            -8,
            -8,
            12
        ]
    },
    "1069": {
        "26/03/2020 12:46:09": [
            302,
            22,
            22,
            22
        ],
        "26/03/2020 15:10:48": [
            -6,
            -25,
            -25
        ],
        "26/03/2020 17:49:11": [
            -22,
            -22,
            -22,
            -14
        ]
    },
    "1070": {
        "26/03/2020 12:46:15": [
            278,
            -2,
            -2,
            -2
        ],
        "26/03/2020 15:10:49": [
            -28,
            9,
            9
        ],
        "26/03/2020 17:49:12": [
            20,
            20,
            20,
            17
        ]
    },
    "1071": {
        "26/03/2020 12:46:21": [
            249,
            -11,
            -11,
            -11
        ],
        "26/03/2020 15:10:49": [
            26,
            -4,
            -4
        ],
        "26/03/2020 17:49:12": [
            18,
            18,
            18,
            0
        ]
    },
    "4528": {
        "26/03/2020 12:46:26": [
            282,
            22,
            22
        ],
        "26/03/2020 15:10:50": [
            -6,
            -21,
            -21
        ],
        "26/03/2020 17:49:13": [
            -10,
            -10,
            -10,
            -27
        ]
    },
    "1072": {
        "26/03/2020 12:46:32": [
            268,
            8,
            8
        ],
        "26/03/2020 15:10:50": [
            -26,
            -21,
            -21
        ],
        "26/03/2020 17:49:13": [
            -25,
            -25,
            -25,
            21
        ]
    },
    "7577": {
        "26/03/2020 12:46:39": [
            270,
            10,
            10
        ],
        "26/03/2020 15:10:51": [
            -30,
            -20,
            -20
        ],
        "26/03/2020 17:49:13": [
            4
        ]
    },
    "1353": {
        "26/03/2020 12:46:44": [
            264,
            4,
            4
        ],
        "26/03/2020 15:10:51": [
            19,
            -28,
            -28
        ],
        "26/03/2020 17:49:14": [
            16,
            16,
            16,
            -19
        ]
    },
    "1354": {
        "26/03/2020 12:46:50": [
            275,
            15,
            15
        ],
        "26/03/2020 15:10:52": [
            23,
            -18
        ],
        "26/03/2020 17:49:14": [
            39,
            18,
            18,
            18,
            -29
        ]
    },
    "7578": {
        "26/03/2020 12:46:57": [
            248,
            -12,
            -12
        ],
        "26/03/2020 15:10:52": [
            47,
            -4,
            12
        ],
        "26/03/2020 17:49:15": [
            4,
            -17,
            -17,
            -17
        ]
    },
    "7582": {
        "26/03/2020 12:47:05": [
            234,
            -26,
            -26
        ],
        "26/03/2020 15:10:53": [
            25,
            -26,
            14
        ],
        "26/03/2020 17:49:15": [
            28,
            28,
            28,
            28
        ]
    },
    "340": {
        "26/03/2020 12:47:11": [
            244,
            -16,
            -16
        ],
        "26/03/2020 15:10:53": [
            -29,
            -29,
            -6
        ],
        "26/03/2020 17:49:16": [
            -23,
            -23,
            -23,
            -23
        ]
    },
    "350": {
        "26/03/2020 12:47:17": [
            250,
            -10,
            -10
        ],
        "26/03/2020 15:10:54": [
            -28,
            -28,
            9
        ],
        "26/03/2020 17:49:16": [
            -23,
            -23,
            -23,
            -23
        ]
    },
    "351": {
        "26/03/2020 12:47:23": [
            262,
            2,
            2
        ],
        "26/03/2020 15:10:54": [
            0,
            0,
            21
        ],
        "26/03/2020 17:49:17": [
            -12,
            -12,
            -12,
            -12
        ]
    },
    "352": {
        "26/03/2020 12:47:29": [
            236,
            -24,
            -24
        ],
        "26/03/2020 15:10:55": [
            -19,
            -19,
            -6
        ],
        "26/03/2020 17:49:17": [
            21,
            21,
            21,
            21
        ]
    },
    "353": {
        "26/03/2020 12:47:34": [
            269,
            9,
            9
        ],
        "26/03/2020 15:10:55": [
            20,
            20,
            26
        ],
        "26/03/2020 17:49:18": [
            -8,
            -8,
            -8,
            -8
        ]
    },
    "354": {
        "26/03/2020 12:47:40": [],
        "26/03/2020 15:10:56": [],
        "26/03/2020 17:49:19": []
    },
    "395": {
        "26/03/2020 12:47:45": [
            0,
            0
        ],
        "26/03/2020 15:10:56": [
            0,
            0
        ],
        "26/03/2020 17:49:19": [
            0,
            0,
            0,
            0
        ]
    },
    "396": {
        "26/03/2020 12:47:51": [
            -11,
            -11
        ],
        "26/03/2020 15:10:57": [
            -10,
            -10
        ],
        "26/03/2020 17:49:19": [
            10,
            10,
            -11,
            -11
        ]
    },
    "397": {
        "26/03/2020 12:47:57": [
            16,
            16
        ],
        "26/03/2020 15:10:57": [
            17,
            17
        ],
        "26/03/2020 17:49:20": [
            -11,
            -11,
            16,
            16
        ]
    },
    "398": {
        "26/03/2020 12:48:03": [
            -4,
            -4
        ],
        "26/03/2020 15:10:58": [
            -2,
            -2
        ],
        "26/03/2020 17:49:20": [
            -13,
            -13,
            -4,
            -4
        ]
    },
    "399": {
        "26/03/2020 12:48:09": [
            28,
            28
        ],
        "26/03/2020 15:10:58": [
            -29,
            -29
        ],
        "26/03/2020 17:49:21": [
            -27,
            -27,
            28,
            28
        ]
    },
    "400": {
        "26/03/2020 12:48:18": [
            28,
            28
        ],
        "26/03/2020 15:10:59": [
            -29,
            -29
        ],
        "26/03/2020 17:49:21": [
            81,
            -2,
            -2,
            28
        ]
    },
    "7581": {
        "26/03/2020 12:48:19": [
            -18,
            -18
        ],
        "26/03/2020 15:10:59": [
            17,
            17
        ],
        "26/03/2020 17:49:22": [
            95,
            12,
            12,
            27
        ]
    },
    "1283": {
        "26/03/2020 12:48:19": [
            10,
            10
        ],
        "26/03/2020 15:11:00": [
            -27,
            -27
        ],
        "26/03/2020 17:49:22": [
            64,
            -19,
            -19,
            -12
        ]
    },
    "7579": {
        "26/03/2020 12:48:20": [
            -28,
            -28
        ],
        "26/03/2020 15:11:00": [
            -13,
            -13
        ],
        "26/03/2020 17:49:23": [
            84,
            1,
            1,
            0
        ]
    },
    "1285": {
        "26/03/2020 12:48:20": [
            7,
            7
        ],
        "26/03/2020 15:11:01": [
            6,
            6
        ],
        "26/03/2020 17:49:23": [
            -19,
            -19,
            -19,
            28
        ]
    },
    "1016": {
        "26/03/2020 12:48:21": [
            -30,
            -30
        ],
        "26/03/2020 15:11:01": [
            15,
            15
        ],
        "26/03/2020 17:49:24": [
            7,
            7,
            7,
            -16
        ]
    },
    "1017": {
        "26/03/2020 12:48:22": [
            4,
            4
        ],
        "26/03/2020 15:11:02": [
            -11,
            -11
        ],
        "26/03/2020 17:49:24": [
            -16,
            -16,
            -16,
            18
        ]
    },
    "1018": {
        "26/03/2020 12:48:22": [
            -21,
            -21
        ],
        "26/03/2020 15:11:03": [
            24,
            24
        ],
        "26/03/2020 17:49:25": [
            23,
            23,
            23,
            -7
        ]
    },
    "1019": {
        "26/03/2020 12:48:23": [
            8,
            8
        ],
        "26/03/2020 15:11:03": [
            -7,
            -7
        ],
        "26/03/2020 17:49:25": [
            -7,
            -7,
            -7,
            21
        ]
    },
    "1020": {
        "26/03/2020 12:48:23": [
            -15,
            -15
        ],
        "26/03/2020 15:11:04": [
            29,
            29
        ],
        "26/03/2020 17:49:26": [
            -30,
            -30,
            -30,
            -3
        ]
    },
    "1076": {
        "26/03/2020 12:48:24": [
            -23,
            -23
        ],
        "26/03/2020 15:11:04": [
            19,
            19
        ],
        "26/03/2020 17:49:26": [
            21,
            21,
            21,
            -14
        ]
    },
    "1077": {
        "26/03/2020 12:48:24": [
            25
        ],
        "26/03/2020 15:11:05": [
            6,
            6
        ],
        "26/03/2020 17:49:27": [
            10,
            10,
            10,
            -27
        ]
    },
    "1078": {
        "26/03/2020 12:48:25": [
            2
        ],
        "26/03/2020 15:11:06": [
            -23,
            -23
        ],
        "26/03/2020 17:49:28": [
            -10,
            -10,
            -10,
            7
        ]
    },
    "1079": {
        "26/03/2020 12:48:25": [
            92,
            -14
        ],
        "26/03/2020 15:11:06": [
            14,
            14
        ],
        "26/03/2020 17:49:28": [
            -22,
            -22,
            -22,
            -13
        ]
    },
    "1080": {
        "26/03/2020 12:48:26": [
            125,
            19
        ],
        "26/03/2020 15:11:07": [
            -8,
            -8
        ],
        "26/03/2020 17:49:28": [
            11,
            11,
            11,
            14
        ]
    },
    "1081": {
        "26/03/2020 12:48:26": [
            112,
            6
        ],
        "26/03/2020 15:11:07": [
            -12,
            -12
        ],
        "26/03/2020 17:49:29": [
            0,
            0,
            0,
            -6
        ]
    },
    "1082": {
        "26/03/2020 12:48:27": [
            85,
            -21
        ],
        "26/03/2020 15:11:08": [
            25,
            25
        ],
        "26/03/2020 17:49:29": [
            -28,
            -28,
            -28
        ]
    },
    "1083": {
        "26/03/2020 12:48:27": [
            114,
            8
        ],
        "26/03/2020 15:11:08": [
            0,
            0
        ],
        "26/03/2020 17:49:30": [
            3,
            3,
            3
        ]
    },
    "1085": {
        "26/03/2020 12:48:28": [
            105,
            -1
        ],
        "26/03/2020 15:11:09": [
            -1
        ],
        "26/03/2020 17:49:30": [
            -191,
            -6,
            -6,
            -6
        ]
    },
    "1086": {
        "26/03/2020 12:48:28": [
            83,
            -23
        ],
        "26/03/2020 15:11:09": [
            -23
        ],
        "26/03/2020 17:49:31": [
            -200,
            -24,
            -24,
            -24
        ]
    },
    "1087": {
        "26/03/2020 12:48:29": [
            128,
            22
        ],
        "26/03/2020 15:11:10": [
            22
        ],
        "26/03/2020 17:49:32": [
            -150,
            26,
            26,
            26
        ]
    },
    "1088": {
        "26/03/2020 12:48:30": [
            112,
            6
        ],
        "26/03/2020 15:11:10": [
            -155,
            6
        ],
        "26/03/2020 17:49:32": [
            -160,
            16,
            16,
            16
        ]
    },
    "1089": {
        "26/03/2020 12:48:30": [
            102,
            -4
        ],
        "26/03/2020 15:11:11": [
            -141,
            -4
        ],
        "26/03/2020 17:49:33": [
            -189,
            11,
            11,
            11
        ]
    },
    "1090": {
        "26/03/2020 12:48:31": [
            79,
            -27
        ],
        "26/03/2020 15:11:12": [
            -141,
            -27
        ],
        "26/03/2020 17:49:33": [
            -207,
            -7,
            -7,
            -7
        ]
    },
    "1091": {
        "26/03/2020 12:48:31": [
            122,
            16
        ],
        "26/03/2020 15:11:12": [
            -154,
            11
        ],
        "26/03/2020 17:49:33": [
            -220,
            -20,
            -20,
            -20
        ]
    },
    "1092": {
        "26/03/2020 12:48:32": [
            97,
            -9
        ],
        "26/03/2020 15:11:12": [
            -128,
            -14
        ],
        "26/03/2020 17:49:34": [
            -179,
            21,
            21,
            21
        ]
    },
    "1093": {
        "26/03/2020 12:48:32": [
            117,
            11
        ],
        "26/03/2020 15:11:13": [
            -151,
            6
        ],
        "26/03/2020 17:49:34": [
            -216,
            -16,
            -16,
            -16
        ]
    },
    "1094": {
        "26/03/2020 12:48:33": [
            82,
            -24
        ],
        "26/03/2020 15:11:13": [
            -136,
            -29
        ],
        "26/03/2020 17:49:35": [
            -187,
            13,
            13,
            13
        ]
    },
    "1095": {
        "26/03/2020 12:48:33": [
            128,
            22
        ],
        "26/03/2020 15:11:14": [
            -143,
            17
        ],
        "26/03/2020 17:49:35": [
            -194,
            6,
            6,
            6
        ]
    },
    "1096": {
        "26/03/2020 12:48:34": [
            84,
            -22
        ],
        "26/03/2020 15:11:14": [
            -111,
            -27
        ],
        "26/03/2020 17:49:36": [
            -175,
            25,
            25,
            25
        ]
    },
    "1101": {
        "26/03/2020 12:48:34": [
            122,
            16
        ],
        "26/03/2020 15:11:15": [
            -130,
            11
        ],
        "26/03/2020 17:49:36": [
            -16,
            -190,
            10,
            10,
            10
        ]
    },
    "1102": {
        "26/03/2020 12:48:35": [
            94,
            -12
        ],
        "26/03/2020 15:11:15": [
            -155,
            -19
        ],
        "26/03/2020 17:49:37": [
            15,
            -160,
            -25,
            -25,
            -25
        ]
    },
    "1103": {
        "26/03/2020 12:48:35": [
            118,
            12
        ],
        "26/03/2020 15:11:16": [
            -129,
            3
        ],
        "26/03/2020 17:49:37": [
            -22,
            -142,
            -7,
            -7,
            -7
        ]
    },
    "1104": {
        "26/03/2020 12:48:36": [],
        "26/03/2020 15:11:17": [],
        "26/03/2020 17:49:38": []
    }
}