{
    "6185": {
        "21/03/2020 15:24:40": [
            0
        ],
        "21/03/2020 15:26:42": [
            0
        ],
        "21/03/2020 17:29:10": [
            0
        ],
        "21/03/2020 20:16:04": [],
        "21/03/2020 22:18:55": []
    },
    "6186": {
        "21/03/2020 15:24:40": [
            -11
        ],
        "21/03/2020 15:26:43": [
            -11
        ],
        "21/03/2020 17:29:10": [
            -12
        ],
        "21/03/2020 20:16:04": [],
        "21/03/2020 22:18:55": []
    },
    "6216": {
        "21/03/2020 15:24:40": [
            14
        ],
        "21/03/2020 15:26:59": [
            14
        ],
        "21/03/2020 17:29:27": [
            12
        ],
        "21/03/2020 20:16:28": [],
        "21/03/2020 22:19:20": []
    },
    "3400": {
        "21/03/2020 15:24:41": [
            23
        ],
        "21/03/2020 15:26:05": [
            23
        ],
        "21/03/2020 15:26:19": [
            23
        ],
        "21/03/2020 15:26:48": [
            23
        ],
        "21/03/2020 17:29:16": [
            20
        ],
        "21/03/2020 20:16:12": [
            0
        ],
        "21/03/2020 22:19:04": []
    },
    "3401": {
        "21/03/2020 15:24:41": [
            4
        ],
        "21/03/2020 15:26:05": [
            4
        ],
        "21/03/2020 15:26:19": [
            4
        ],
        "21/03/2020 15:26:48": [
            4
        ],
        "21/03/2020 17:29:16": [
            1
        ],
        "21/03/2020 20:16:13": [
            -21
        ],
        "21/03/2020 22:19:04": []
    },
    "3402": {
        "21/03/2020 15:24:41": [
            -20
        ],
        "21/03/2020 15:26:06": [
            -20
        ],
        "21/03/2020 15:26:19": [
            -20
        ],
        "21/03/2020 15:26:49": [
            -20
        ],
        "21/03/2020 17:29:16": [
            -24
        ],
        "21/03/2020 20:16:13": [
            13
        ],
        "21/03/2020 22:19:05": []
    },
    "3403": {
        "21/03/2020 15:24:42": [
            8
        ],
        "21/03/2020 15:26:06": [
            8
        ],
        "21/03/2020 15:26:19": [
            8
        ],
        "21/03/2020 15:26:49": [
            8
        ],
        "21/03/2020 17:29:17": [
            4
        ],
        "21/03/2020 20:16:13": [
            -21
        ],
        "21/03/2020 22:19:05": []
    },
    "3404": {
        "21/03/2020 15:24:42": [
            28
        ],
        "21/03/2020 15:26:06": [
            28
        ],
        "21/03/2020 15:26:20": [
            28
        ],
        "21/03/2020 15:26:49": [
            28
        ],
        "21/03/2020 17:29:17": [
            23
        ],
        "21/03/2020 20:16:14": [
            -2
        ],
        "21/03/2020 22:19:06": []
    },
    "3405": {
        "21/03/2020 15:24:42": [
            -13
        ],
        "21/03/2020 15:26:06": [
            -13
        ],
        "21/03/2020 15:26:20": [
            -13
        ],
        "21/03/2020 15:26:50": [
            -13
        ],
        "21/03/2020 17:29:17": [
            -17
        ],
        "21/03/2020 20:16:14": [
            16
        ],
        "21/03/2020 22:19:06": []
    },
    "3406": {
        "21/03/2020 15:24:42": [
            5
        ],
        "21/03/2020 15:26:07": [
            5
        ],
        "21/03/2020 15:26:20": [
            5
        ],
        "21/03/2020 15:26:50": [
            5
        ],
        "21/03/2020 17:29:17": [
            2
        ],
        "21/03/2020 20:16:15": [
            -27
        ],
        "21/03/2020 22:19:06": []
    },
    "3410": {
        "21/03/2020 15:24:43": [
            21
        ],
        "21/03/2020 15:26:07": [
            21
        ],
        "21/03/2020 15:26:20": [
            21
        ],
        "21/03/2020 15:26:51": [
            21
        ],
        "21/03/2020 17:29:19": [
            18
        ],
        "21/03/2020 20:16:17": [
            -12
        ],
        "21/03/2020 22:19:08": []
    },
    "3407": {
        "21/03/2020 15:24:43": [
            -8
        ],
        "21/03/2020 15:26:07": [
            -8
        ],
        "21/03/2020 15:26:21": [
            -8
        ],
        "21/03/2020 15:26:50": [
            -8
        ],
        "21/03/2020 17:29:18": [
            -12
        ],
        "21/03/2020 20:16:15": [
            16
        ],
        "21/03/2020 22:19:07": []
    },
    "3408": {
        "21/03/2020 15:24:43": [
            2
        ],
        "21/03/2020 15:26:07": [
            2
        ],
        "21/03/2020 15:26:21": [
            2
        ],
        "21/03/2020 15:26:50": [
            2
        ],
        "21/03/2020 17:29:18": [
            -2
        ],
        "21/03/2020 20:16:16": [
            25
        ],
        "21/03/2020 22:19:07": []
    },
    "3409": {
        "21/03/2020 15:24:44": [
            16
        ],
        "21/03/2020 15:26:08": [
            16
        ],
        "21/03/2020 15:26:21": [
            16
        ],
        "21/03/2020 15:26:51": [
            16
        ],
        "21/03/2020 17:29:18": [
            5
        ],
        "21/03/2020 20:16:16": [
            23
        ],
        "21/03/2020 22:19:08": [
            23
        ]
    },
    "4558": {
        "21/03/2020 15:24:44": [
            -4
        ],
        "21/03/2020 15:26:08": [
            -4
        ],
        "21/03/2020 15:26:22": [
            -4
        ],
        "21/03/2020 15:26:42": [
            -4
        ],
        "21/03/2020 17:29:09": [
            -16
        ],
        "21/03/2020 20:16:03": [
            -1
        ],
        "21/03/2020 22:18:55": [
            -1
        ]
    },
    "3411": {
        "21/03/2020 15:24:44": [
            19
        ],
        "21/03/2020 15:26:08": [
            19
        ],
        "21/03/2020 15:26:22": [
            19
        ],
        "21/03/2020 15:26:51": [
            19
        ],
        "21/03/2020 17:29:19": [
            6
        ],
        "21/03/2020 20:16:17": [
            19
        ],
        "21/03/2020 22:19:09": [
            19
        ]
    },
    "3412": {
        "21/03/2020 15:24:45": [
            -10
        ],
        "21/03/2020 15:26:09": [
            -10
        ],
        "21/03/2020 15:26:22": [
            -10
        ],
        "21/03/2020 15:26:52": [
            -10
        ],
        "21/03/2020 17:29:19": [
            -21
        ],
        "21/03/2020 20:16:17": [
            -7
        ],
        "21/03/2020 22:19:09": [
            -7
        ]
    },
    "3413": {
        "21/03/2020 15:24:45": [
            9
        ],
        "21/03/2020 15:26:09": [
            9
        ],
        "21/03/2020 15:26:23": [
            9
        ],
        "21/03/2020 15:26:52": [
            9
        ],
        "21/03/2020 17:29:20": [
            -1
        ],
        "21/03/2020 20:16:18": [
            14
        ],
        "21/03/2020 22:19:09": [
            14
        ]
    },
    "3414": {
        "21/03/2020 15:24:45": [
            2
        ],
        "21/03/2020 15:26:09": [
            2
        ],
        "21/03/2020 15:26:23": [
            2
        ],
        "21/03/2020 15:26:52": [
            2
        ],
        "21/03/2020 17:29:20": [
            -22
        ],
        "21/03/2020 20:16:18": [
            -5
        ],
        "21/03/2020 22:19:10": [
            -5
        ]
    },
    "3415": {
        "21/03/2020 15:24:45": [
            -30
        ],
        "21/03/2020 15:26:09": [
            -30
        ],
        "21/03/2020 15:26:23": [
            -30
        ],
        "21/03/2020 15:26:52": [
            -30
        ],
        "21/03/2020 17:29:21": [
            4
        ],
        "21/03/2020 20:16:18": [
            19
        ],
        "21/03/2020 22:19:10": [
            19
        ]
    },
    "3416": {
        "21/03/2020 15:24:46": [
            -14
        ],
        "21/03/2020 15:26:10": [
            -14
        ],
        "21/03/2020 15:26:23": [
            -14
        ],
        "21/03/2020 15:26:53": [
            -14
        ],
        "21/03/2020 17:29:21": [
            19
        ],
        "21/03/2020 20:16:19": [
            -27
        ],
        "21/03/2020 22:19:11": [
            -27
        ]
    },
    "3417": {
        "21/03/2020 15:24:46": [
            21
        ],
        "21/03/2020 15:26:10": [
            21
        ],
        "21/03/2020 15:26:24": [
            21
        ],
        "21/03/2020 15:26:53": [
            21
        ],
        "21/03/2020 17:29:21": [
            -3
        ],
        "21/03/2020 20:16:19": [
            9
        ],
        "21/03/2020 22:19:11": [
            9
        ]
    },
    "3418": {
        "21/03/2020 15:24:47": [
            22
        ],
        "21/03/2020 15:26:10": [
            22
        ],
        "21/03/2020 15:26:24": [
            22
        ],
        "21/03/2020 15:26:53": [
            22
        ],
        "21/03/2020 17:29:21": [
            0
        ],
        "21/03/2020 20:16:20": [
            11
        ],
        "21/03/2020 22:19:12": [
            11
        ]
    },
    "3419": {
        "21/03/2020 15:24:48": [
            -4
        ],
        "21/03/2020 15:26:10": [
            -4
        ],
        "21/03/2020 15:26:24": [
            -4
        ],
        "21/03/2020 15:26:54": [
            -4
        ],
        "21/03/2020 17:29:22": [
            -22
        ],
        "21/03/2020 20:16:20": [
            -26
        ],
        "21/03/2020 22:19:12": [
            -26
        ]
    },
    "3420": {
        "21/03/2020 15:24:48": [
            -20
        ],
        "21/03/2020 15:26:11": [
            -20
        ],
        "21/03/2020 15:26:25": [
            -20
        ],
        "21/03/2020 15:26:54": [
            -20
        ],
        "21/03/2020 17:29:22": [
            25
        ],
        "21/03/2020 20:16:21": [
            4
        ],
        "21/03/2020 22:19:12": [
            4
        ]
    },
    "3421": {
        "21/03/2020 15:24:49": [
            3
        ],
        "21/03/2020 15:26:11": [
            3
        ],
        "21/03/2020 15:26:25": [
            3
        ],
        "21/03/2020 15:26:54": [
            3
        ],
        "21/03/2020 17:29:22": [
            -4
        ],
        "21/03/2020 20:16:21": [
            0
        ],
        "21/03/2020 22:19:13": [
            0
        ]
    },
    "3422": {
        "21/03/2020 15:24:49": [
            -15
        ],
        "21/03/2020 15:26:11": [
            -15
        ],
        "21/03/2020 15:26:25": [
            -15
        ],
        "21/03/2020 15:26:55": [
            -15
        ],
        "21/03/2020 17:29:22": [
            -18
        ],
        "21/03/2020 20:16:22": [
            29
        ],
        "21/03/2020 22:19:13": [
            29
        ]
    },
    "3423": {
        "21/03/2020 15:24:50": [
            24
        ],
        "21/03/2020 15:26:12": [
            24
        ],
        "21/03/2020 15:26:25": [
            24
        ],
        "21/03/2020 15:26:55": [
            24
        ],
        "21/03/2020 17:29:23": [
            22
        ],
        "21/03/2020 20:16:22": [
            0
        ],
        "21/03/2020 22:19:14": [
            0
        ]
    },
    "2156": {
        "21/03/2020 15:24:50": [
            -14
        ],
        "21/03/2020 15:26:12": [
            -14
        ],
        "21/03/2020 15:26:26": [
            -14
        ],
        "21/03/2020 15:26:58": [
            -14
        ],
        "21/03/2020 17:29:27": [
            -14
        ],
        "21/03/2020 20:16:27": [
            -20,
            4
        ],
        "21/03/2020 22:19:19": [
            4
        ]
    },
    "6014": {
        "21/03/2020 15:24:50": [],
        "21/03/2020 15:26:12": [
            27
        ],
        "21/03/2020 15:26:26": [
            27
        ],
        "21/03/2020 15:26:43": [
            27
        ],
        "21/03/2020 17:29:11": [
            24
        ],
        "21/03/2020 20:16:06": [
            16,
            -27
        ],
        "21/03/2020 22:18:57": [
            -27
        ]
    },
    "2158": {
        "21/03/2020 15:24:51": [],
        "21/03/2020 15:26:12": [],
        "21/03/2020 15:26:26": [],
        "21/03/2020 15:26:58": [],
        "21/03/2020 17:29:27": [
            -14
        ],
        "21/03/2020 20:16:28": [
            -11,
            -23
        ],
        "21/03/2020 22:19:20": [
            -23
        ]
    },
    "2159": {
        "21/03/2020 15:24:51": [],
        "21/03/2020 15:26:13": [],
        "21/03/2020 15:26:27": [],
        "21/03/2020 15:26:59": [],
        "21/03/2020 17:29:27": [
            20,
            -8
        ],
        "21/03/2020 20:16:28": [
            4
        ],
        "21/03/2020 22:19:20": []
    },
    "4409": {
        "21/03/2020 15:24:51": [],
        "21/03/2020 15:26:13": [],
        "21/03/2020 15:26:27": [],
        "21/03/2020 15:26:55": [],
        "21/03/2020 17:29:23": [
            -8,
            15
        ],
        "21/03/2020 20:16:23": [
            -30
        ],
        "21/03/2020 22:19:15": [
            -13
        ]
    },
    "1972": {
        "21/03/2020 15:24:52": [],
        "21/03/2020 15:26:13": [],
        "21/03/2020 15:26:27": [],
        "21/03/2020 15:26:44": [],
        "21/03/2020 17:29:11": [
            1,
            -13
        ],
        "21/03/2020 20:16:06": [
            -29
        ],
        "21/03/2020 22:18:57": [
            -29
        ]
    },
    "1973": {
        "21/03/2020 15:24:52": [],
        "21/03/2020 15:26:13": [],
        "21/03/2020 15:26:27": [],
        "21/03/2020 15:26:44": [],
        "21/03/2020 17:29:11": [
            -5,
            -20
        ],
        "21/03/2020 20:16:06": [
            12
        ],
        "21/03/2020 22:18:58": [
            3
        ]
    },
    "1974": {
        "21/03/2020 15:24:52": [],
        "21/03/2020 15:26:14": [],
        "21/03/2020 15:26:28": [],
        "21/03/2020 15:26:44": [],
        "21/03/2020 17:29:12": [
            -21,
            24
        ],
        "21/03/2020 20:16:07": [
            -13
        ],
        "21/03/2020 22:18:58": [
            -30
        ]
    },
    "1975": {
        "21/03/2020 15:24:52": [],
        "21/03/2020 15:26:14": [],
        "21/03/2020 15:26:28": [],
        "21/03/2020 15:26:45": [],
        "21/03/2020 17:29:12": [
            -12,
            -2
        ],
        "21/03/2020 20:16:07": [
            19
        ],
        "21/03/2020 22:18:58": [
            -16
        ]
    },
    "1977": {
        "21/03/2020 15:24:53": [],
        "21/03/2020 15:26:14": [],
        "21/03/2020 15:26:28": [],
        "21/03/2020 15:26:45": [],
        "21/03/2020 17:29:12": [
            14,
            -4
        ],
        "21/03/2020 20:16:08": [
            19
        ],
        "21/03/2020 22:18:59": [
            -18
        ]
    },
    "1978": {
        "21/03/2020 15:24:53": [],
        "21/03/2020 15:26:15": [],
        "21/03/2020 15:26:29": [],
        "21/03/2020 15:26:45": [],
        "21/03/2020 17:29:13": [
            -25,
            16
        ],
        "21/03/2020 20:16:08": [
            -22
        ],
        "21/03/2020 22:18:59": [
            3
        ]
    },
    "1980": {
        "21/03/2020 15:24:53": [],
        "21/03/2020 15:26:15": [],
        "21/03/2020 15:26:29": [],
        "21/03/2020 15:26:46": [],
        "21/03/2020 17:29:13": [
            -21
        ],
        "21/03/2020 20:16:08": [
            -4
        ],
        "21/03/2020 22:19:00": [
            10
        ]
    },
    "1981": {
        "21/03/2020 15:24:53": [
            -167
        ],
        "21/03/2020 15:26:15": [],
        "21/03/2020 15:26:29": [],
        "21/03/2020 15:26:46": [],
        "21/03/2020 17:29:13": [
            -27
        ],
        "21/03/2020 20:16:09": [
            29
        ],
        "21/03/2020 22:19:00": [
            -11
        ]
    },
    "1982": {
        "21/03/2020 15:24:54": [
            -137
        ],
        "21/03/2020 15:26:16": [],
        "21/03/2020 15:26:29": [],
        "21/03/2020 15:26:46": [],
        "21/03/2020 17:29:14": [
            5
        ],
        "21/03/2020 20:16:09": [
            -11
        ],
        "21/03/2020 22:19:01": [
            12
        ]
    },
    "4406": {
        "21/03/2020 15:24:54": [
            -169
        ],
        "21/03/2020 15:26:16": [],
        "21/03/2020 15:26:30": [],
        "21/03/2020 15:26:55": [],
        "21/03/2020 17:29:23": [
            -19
        ],
        "21/03/2020 20:16:22": [
            19
        ],
        "21/03/2020 22:19:14": [
            -23
        ]
    },
    "1984": {
        "21/03/2020 15:24:54": [
            -161
        ],
        "21/03/2020 15:26:16": [
            -161
        ],
        "21/03/2020 15:26:30": [
            -161
        ],
        "21/03/2020 15:26:46": [
            -161
        ],
        "21/03/2020 17:29:14": [
            -26
        ],
        "21/03/2020 20:16:10": [
            2
        ],
        "21/03/2020 22:19:01": [
            13
        ]
    },
    "1985": {
        "21/03/2020 15:24:55": [
            -166
        ],
        "21/03/2020 15:26:16": [
            -166
        ],
        "21/03/2020 15:26:30": [
            -166
        ],
        "21/03/2020 15:26:47": [
            -166
        ],
        "21/03/2020 17:29:14": [
            27
        ],
        "21/03/2020 20:16:10": [
            -14
        ],
        "21/03/2020 22:19:01": [
            -11
        ]
    },
    "1986": {
        "21/03/2020 15:24:55": [
            -157
        ],
        "21/03/2020 15:26:17": [
            -157
        ],
        "21/03/2020 15:26:30": [
            -157
        ],
        "21/03/2020 15:26:47": [
            -157
        ],
        "21/03/2020 17:29:14": [
            -30
        ],
        "21/03/2020 20:16:10": [
            -17
        ],
        "21/03/2020 22:19:02": [
            24
        ]
    },
    "1987": {
        "21/03/2020 15:24:55": [
            -125
        ],
        "21/03/2020 15:26:17": [
            -125
        ],
        "21/03/2020 15:26:31": [
            -125
        ],
        "21/03/2020 15:26:47": [
            -125
        ],
        "21/03/2020 17:29:15": [
            -2
        ],
        "21/03/2020 20:16:11": [
            9
        ],
        "21/03/2020 22:19:03": [
            -19
        ]
    },
    "1988": {
        "21/03/2020 15:24:55": [
            -119
        ],
        "21/03/2020 15:26:17": [
            -119
        ],
        "21/03/2020 15:26:31": [
            -119
        ],
        "21/03/2020 15:26:47": [
            -119
        ],
        "21/03/2020 17:29:15": [
            -2
        ],
        "21/03/2020 20:16:11": [
            3
        ],
        "21/03/2020 22:19:03": [
            15
        ]
    },
    "1989": {
        "21/03/2020 15:24:56": [
            -109
        ],
        "21/03/2020 15:26:17": [
            -109
        ],
        "21/03/2020 15:26:31": [
            -109
        ],
        "21/03/2020 15:26:48": [
            -109
        ],
        "21/03/2020 17:29:15": [
            14
        ],
        "21/03/2020 20:16:12": [
            10
        ],
        "21/03/2020 22:19:03": [
            10
        ]
    },
    "1375": {
        "21/03/2020 15:24:56": [
            -119
        ],
        "21/03/2020 15:26:31": [
            -119
        ],
        "21/03/2020 15:26:39": [
            -119
        ],
        "21/03/2020 17:29:06": [
            14
        ],
        "21/03/2020 20:15:58": [
            -5
        ],
        "21/03/2020 22:18:49": [
            -24
        ]
    },
    "1376": {
        "21/03/2020 15:24:56": [
            -134
        ],
        "21/03/2020 15:26:32": [
            -134
        ],
        "21/03/2020 15:26:39": [
            -134
        ],
        "21/03/2020 17:29:06": [
            10
        ],
        "21/03/2020 20:15:58": [
            -23
        ],
        "21/03/2020 22:18:50": [
            6
        ]
    },
    "1377": {
        "21/03/2020 15:24:56": [
            -138
        ],
        "21/03/2020 15:26:32": [
            -138
        ],
        "21/03/2020 15:26:39": [
            -138
        ],
        "21/03/2020 17:29:06": [
            20
        ],
        "21/03/2020 20:15:59": [
            -30
        ],
        "21/03/2020 22:18:50": [
            -17
        ]
    },
    "1378": {
        "21/03/2020 15:24:57": [
            -151
        ],
        "21/03/2020 15:26:32": [
            -151
        ],
        "21/03/2020 15:26:39": [
            -151
        ],
        "21/03/2020 17:29:07": [
            18
        ],
        "21/03/2020 20:15:59": [
            13
        ],
        "21/03/2020 22:18:51": [
            14
        ]
    },
    "1379": {
        "21/03/2020 15:24:57": [
            -157
        ],
        "21/03/2020 15:26:32": [
            -157
        ],
        "21/03/2020 15:26:40": [
            -157
        ],
        "21/03/2020 17:29:07": [
            26
        ],
        "21/03/2020 20:15:59": [
            4
        ],
        "21/03/2020 22:18:51": [
            -11
        ]
    },
    "1380": {
        "21/03/2020 15:24:57": [
            -151
        ],
        "21/03/2020 15:26:33": [
            -151
        ],
        "21/03/2020 15:26:40": [
            -151
        ],
        "21/03/2020 17:29:07": [
            -13
        ],
        "21/03/2020 20:16:00": [
            5
        ],
        "21/03/2020 22:18:52": [
            -27
        ]
    },
    "1381": {
        "21/03/2020 15:24:58": [
            -118
        ],
        "21/03/2020 15:26:33": [
            -118
        ],
        "21/03/2020 15:26:40": [
            -118
        ],
        "21/03/2020 17:29:08": [
            28
        ],
        "21/03/2020 20:16:00": [
            -24
        ],
        "21/03/2020 22:18:52": [
            -5
        ]
    },
    "1382": {
        "21/03/2020 15:24:58": [
            -116
        ],
        "21/03/2020 15:26:33": [
            -116
        ],
        "21/03/2020 15:26:41": [
            -116
        ],
        "21/03/2020 17:29:08": [
            -14
        ],
        "21/03/2020 20:16:01": [
            -26
        ],
        "21/03/2020 22:18:52": [
            -24
        ]
    },
    "1383": {
        "21/03/2020 15:24:58": [
            -125
        ],
        "21/03/2020 15:26:34": [
            -125
        ],
        "21/03/2020 15:26:41": [
            -125
        ],
        "21/03/2020 17:29:08": [
            -29
        ],
        "21/03/2020 20:16:01": [
            24
        ],
        "21/03/2020 22:18:53": [
            10
        ]
    },
    "1384": {
        "21/03/2020 15:24:58": [
            -133
        ],
        "21/03/2020 15:26:34": [
            -133
        ],
        "21/03/2020 15:26:41": [
            -133
        ],
        "21/03/2020 17:29:08": [
            16
        ],
        "21/03/2020 20:16:02": [
            14
        ],
        "21/03/2020 22:18:53": [
            -15
        ]
    },
    "1385": {
        "21/03/2020 15:24:59": [
            -148
        ],
        "21/03/2020 15:26:34": [
            -148
        ],
        "21/03/2020 15:26:41": [
            -148
        ],
        "21/03/2020 17:29:09": [
            15
        ],
        "21/03/2020 20:16:02": [
            3
        ],
        "21/03/2020 22:18:54": [
            -30
        ]
    },
    "1348": {
        "21/03/2020 15:24:59": [
            -161
        ],
        "21/03/2020 15:26:34": [
            -161
        ],
        "21/03/2020 15:26:56": [
            -161
        ],
        "21/03/2020 17:29:25": [
            20
        ],
        "21/03/2020 20:16:25": [
            -6
        ],
        "21/03/2020 22:19:16": [
            17
        ]
    },
    "1349": {
        "21/03/2020 15:24:59": [
            -112
        ],
        "21/03/2020 15:26:35": [
            -112
        ],
        "21/03/2020 15:26:57": [
            -112
        ],
        "21/03/2020 17:29:25": [
            18
        ],
        "21/03/2020 20:16:25": [
            -22
        ],
        "21/03/2020 22:19:17": [
            1
        ]
    },
    "1350": {
        "21/03/2020 15:24:59": [
            -116
        ],
        "21/03/2020 15:26:35": [
            -116
        ],
        "21/03/2020 15:26:57": [
            -116
        ],
        "21/03/2020 17:29:25": [
            24
        ],
        "21/03/2020 20:16:25": [
            28
        ],
        "21/03/2020 22:19:17": [
            -9
        ]
    },
    "1352": {
        "21/03/2020 15:25:00": [
            -143
        ],
        "21/03/2020 15:26:35": [
            -143
        ],
        "21/03/2020 15:26:43": [
            -143
        ],
        "21/03/2020 17:29:10": [
            14
        ],
        "21/03/2020 20:16:05": [
            -8
        ],
        "21/03/2020 22:18:56": [
            15
        ]
    },
    "1353": {
        "21/03/2020 15:25:00": [
            -159
        ],
        "21/03/2020 15:26:36": [
            -159
        ],
        "21/03/2020 15:26:43": [
            -159
        ],
        "21/03/2020 17:29:11": [
            6
        ],
        "21/03/2020 20:16:05": [
            -28
        ],
        "21/03/2020 22:18:56": [
            -5
        ]
    },
    "1355": {
        "21/03/2020 15:25:00": [
            -157
        ],
        "21/03/2020 15:26:36": [
            -157
        ],
        "21/03/2020 15:26:57": [
            -157
        ],
        "21/03/2020 17:29:26": [
            20
        ],
        "21/03/2020 20:16:26": [
            -9
        ],
        "21/03/2020 22:19:18": [
            -1
        ]
    },
    "1357": {
        "21/03/2020 15:25:01": [
            -119
        ],
        "21/03/2020 15:26:36": [
            -119
        ],
        "21/03/2020 15:26:58": [
            -119
        ],
        "21/03/2020 17:29:26": [
            -22
        ],
        "21/03/2020 20:16:26": [
            -18
        ],
        "21/03/2020 22:19:18": [
            -12
        ]
    },
    "1358": {
        "21/03/2020 15:25:01": [
            -135
        ],
        "21/03/2020 15:26:36": [
            -135
        ],
        "21/03/2020 15:26:58": [
            -135
        ],
        "21/03/2020 17:29:26": [
            -24
        ],
        "21/03/2020 20:16:27": [
            12
        ],
        "21/03/2020 22:19:19": [
            -13
        ]
    },
    "7665": {
        "21/03/2020 15:25:01": [],
        "21/03/2020 15:26:37": [],
        "21/03/2020 17:29:03": [],
        "21/03/2020 20:15:55": [],
        "21/03/2020 22:18:46": []
    },
    "1946": {
        "21/03/2020 15:25:01": [
            26
        ],
        "21/03/2020 15:25:30": [
            26
        ],
        "21/03/2020 15:25:50": [
            26
        ],
        "21/03/2020 17:28:50": [
            15
        ],
        "21/03/2020 20:15:35": [],
        "21/03/2020 22:18:26": [
            27
        ]
    },
    "1947": {
        "21/03/2020 15:25:02": [
            -12
        ],
        "21/03/2020 15:25:30": [
            -12
        ],
        "21/03/2020 15:25:51": [
            -12
        ],
        "21/03/2020 17:28:50": [
            -21
        ],
        "21/03/2020 20:15:35": [],
        "21/03/2020 22:18:26": [
            -13
        ]
    },
    "1948": {
        "21/03/2020 15:25:02": [
            -7
        ],
        "21/03/2020 15:25:30": [
            -7
        ],
        "21/03/2020 15:25:51": [
            -7
        ],
        "21/03/2020 17:28:50": [
            -9
        ],
        "21/03/2020 20:15:36": [],
        "21/03/2020 22:18:26": [
            -13
        ]
    },
    "1949": {
        "21/03/2020 15:25:02": [
            29
        ],
        "21/03/2020 15:25:30": [
            29
        ],
        "21/03/2020 15:25:51": [
            29
        ],
        "21/03/2020 17:28:50": [
            17
        ],
        "21/03/2020 20:15:36": [],
        "21/03/2020 22:18:27": [
            19
        ]
    },
    "1950": {
        "21/03/2020 15:25:03": [
            24
        ],
        "21/03/2020 15:25:31": [
            24
        ],
        "21/03/2020 15:25:52": [
            24
        ],
        "21/03/2020 17:28:51": [
            -2
        ],
        "21/03/2020 20:15:36": [],
        "21/03/2020 22:18:27": [
            8
        ]
    },
    "1951": {
        "21/03/2020 15:25:03": [
            -7
        ],
        "21/03/2020 15:25:31": [
            -7
        ],
        "21/03/2020 15:25:52": [
            -7
        ],
        "21/03/2020 17:28:51": [
            4
        ],
        "21/03/2020 20:15:37": [],
        "21/03/2020 22:18:28": [
            29
        ]
    },
    "1952": {
        "21/03/2020 15:25:03": [
            16
        ],
        "21/03/2020 15:25:31": [
            16
        ],
        "21/03/2020 15:25:52": [
            16
        ],
        "21/03/2020 17:28:51": [
            24
        ],
        "21/03/2020 20:15:37": [],
        "21/03/2020 22:18:28": [
            -11
        ]
    },
    "1953": {
        "21/03/2020 15:25:03": [
            -18
        ],
        "21/03/2020 15:25:31": [
            -18
        ],
        "21/03/2020 15:25:52": [
            -18
        ],
        "21/03/2020 17:28:52": [
            -14
        ],
        "21/03/2020 20:15:38": [],
        "21/03/2020 22:18:29": [
            11
        ]
    },
    "1954": {
        "21/03/2020 15:25:04": [
            11
        ],
        "21/03/2020 15:25:32": [
            11
        ],
        "21/03/2020 15:25:53": [
            11
        ],
        "21/03/2020 17:28:52": [
            11
        ],
        "21/03/2020 20:15:38": [],
        "21/03/2020 22:18:29": [
            -24
        ]
    },
    "1955": {
        "21/03/2020 15:25:04": [
            -14
        ],
        "21/03/2020 15:25:32": [
            -14
        ],
        "21/03/2020 15:25:53": [
            -14
        ],
        "21/03/2020 17:28:52": [
            -23
        ],
        "21/03/2020 20:15:38": [],
        "21/03/2020 22:18:29": [
            15
        ]
    },
    "1956": {
        "21/03/2020 15:25:04": [
            -5
        ],
        "21/03/2020 15:25:32": [
            -5
        ],
        "21/03/2020 15:25:53": [
            -5
        ],
        "21/03/2020 17:28:52": [
            29
        ],
        "21/03/2020 20:15:39": [],
        "21/03/2020 22:18:30": [
            -28
        ]
    },
    "1957": {
        "21/03/2020 15:25:05": [
            14
        ],
        "21/03/2020 15:25:33": [
            14
        ],
        "21/03/2020 15:25:54": [
            14
        ],
        "21/03/2020 17:28:53": [
            -16
        ],
        "21/03/2020 20:15:39": [],
        "21/03/2020 22:18:30": [
            -4
        ]
    },
    "1958": {
        "21/03/2020 15:25:05": [
            29
        ],
        "21/03/2020 15:25:33": [
            29
        ],
        "21/03/2020 15:25:54": [
            29
        ],
        "21/03/2020 17:28:53": [
            -3
        ],
        "21/03/2020 20:15:40": [],
        "21/03/2020 22:18:31": [
            15
        ]
    },
    "1959": {
        "21/03/2020 15:25:05": [
            20
        ],
        "21/03/2020 15:25:33": [
            20
        ],
        "21/03/2020 15:25:54": [
            20
        ],
        "21/03/2020 17:28:53": [
            16
        ],
        "21/03/2020 20:15:40": [],
        "21/03/2020 22:18:31": [
            -5
        ]
    },
    "2114": {
        "21/03/2020 15:25:05": [
            23
        ],
        "21/03/2020 15:25:35": [
            23
        ],
        "21/03/2020 15:25:57": [
            23
        ],
        "21/03/2020 17:28:55": [
            -23
        ],
        "21/03/2020 20:15:43": [],
        "21/03/2020 22:18:34": [
            -12
        ]
    },
    "2115": {
        "21/03/2020 15:25:06": [
            -5
        ],
        "21/03/2020 15:25:35": [
            -5
        ],
        "21/03/2020 15:25:57": [
            -5
        ],
        "21/03/2020 17:28:56": [
            15
        ],
        "21/03/2020 20:15:44": [],
        "21/03/2020 22:18:35": [
            17
        ]
    },
    "3392": {
        "21/03/2020 15:25:06": [
            -296
        ],
        "21/03/2020 15:25:41": [
            -296
        ],
        "21/03/2020 15:26:03": [
            -296
        ],
        "21/03/2020 17:29:01": [
            -169
        ],
        "21/03/2020 20:15:52": [
            -559
        ],
        "21/03/2020 22:18:43": []
    },
    "3393": {
        "21/03/2020 15:25:06": [
            -306
        ],
        "21/03/2020 15:25:41": [
            -306
        ],
        "21/03/2020 15:26:03": [
            -306
        ],
        "21/03/2020 17:29:02": [
            -159
        ],
        "21/03/2020 20:15:52": [
            -556
        ],
        "21/03/2020 22:18:44": []
    },
    "3394": {
        "21/03/2020 15:25:07": [
            -330
        ],
        "21/03/2020 15:25:42": [
            -330
        ],
        "21/03/2020 15:26:04": [
            -330
        ],
        "21/03/2020 17:29:02": [
            -170
        ],
        "21/03/2020 20:15:53": [
            -571
        ],
        "21/03/2020 22:18:44": []
    },
    "3396": {
        "21/03/2020 15:25:07": [
            -310
        ],
        "21/03/2020 15:25:42": [
            -310
        ],
        "21/03/2020 15:26:04": [
            -310
        ],
        "21/03/2020 17:29:02": [
            -203
        ],
        "21/03/2020 20:15:53": [
            -547
        ],
        "21/03/2020 22:18:45": []
    },
    "1289": {
        "21/03/2020 15:25:07": [
            -28
        ],
        "21/03/2020 15:25:25": [
            -28
        ],
        "21/03/2020 15:25:46": [
            -28
        ],
        "21/03/2020 17:28:45": [
            29
        ],
        "21/03/2020 20:15:29": [],
        "21/03/2020 22:18:19": [
            -18
        ]
    },
    "1360": {
        "21/03/2020 15:25:07": [
            -17
        ],
        "21/03/2020 15:25:25": [
            -17
        ],
        "21/03/2020 15:25:47": [
            -17
        ],
        "21/03/2020 17:28:46": [
            20
        ],
        "21/03/2020 20:15:29": [],
        "21/03/2020 22:18:20": [
            24
        ]
    },
    "1362": {
        "21/03/2020 15:25:08": [
            -7
        ],
        "21/03/2020 15:25:26": [
            -7
        ],
        "21/03/2020 15:25:47": [
            -7
        ],
        "21/03/2020 17:28:46": [
            11
        ],
        "21/03/2020 20:15:30": [],
        "21/03/2020 22:18:20": [
            5
        ]
    },
    "1363": {
        "21/03/2020 15:25:08": [
            -16
        ],
        "21/03/2020 15:25:26": [
            -16
        ],
        "21/03/2020 15:25:47": [
            -16
        ],
        "21/03/2020 17:28:46": [
            -28
        ],
        "21/03/2020 20:15:30": [],
        "21/03/2020 22:18:20": [
            11
        ]
    },
    "1364": {
        "21/03/2020 15:25:08": [
            11
        ],
        "21/03/2020 15:25:26": [
            11
        ],
        "21/03/2020 15:25:48": [
            11
        ],
        "21/03/2020 17:28:46": [
            5
        ],
        "21/03/2020 20:15:31": [],
        "21/03/2020 22:18:21": [
            -17
        ]
    },
    "1365": {
        "21/03/2020 15:25:08": [
            -23
        ],
        "21/03/2020 15:25:27": [
            -23
        ],
        "21/03/2020 15:25:48": [
            -23
        ],
        "21/03/2020 17:28:47": [
            -25
        ],
        "21/03/2020 20:15:31": [],
        "21/03/2020 22:18:21": [
            13
        ]
    },
    "1366": {
        "21/03/2020 15:25:09": [
            -12
        ],
        "21/03/2020 15:25:27": [
            -12
        ],
        "21/03/2020 15:25:48": [
            -12
        ],
        "21/03/2020 17:28:47": [
            -6
        ],
        "21/03/2020 20:15:31": [],
        "21/03/2020 22:18:22": [
            19
        ]
    },
    "1367": {
        "21/03/2020 15:25:09": [
            18
        ],
        "21/03/2020 15:25:27": [
            18
        ],
        "21/03/2020 15:25:48": [
            18
        ],
        "21/03/2020 17:28:47": [
            27
        ],
        "21/03/2020 20:15:32": [],
        "21/03/2020 22:18:22": [
            -14
        ]
    },
    "1369": {
        "21/03/2020 15:25:09": [
            18
        ],
        "21/03/2020 15:25:27": [
            18
        ],
        "21/03/2020 15:25:49": [
            18
        ],
        "21/03/2020 17:28:48": [
            -20
        ],
        "21/03/2020 20:15:32": [],
        "21/03/2020 22:18:23": [
            -22
        ]
    },
    "1370": {
        "21/03/2020 15:25:10": [
            -2
        ],
        "21/03/2020 15:25:28": [
            -2
        ],
        "21/03/2020 15:25:49": [
            -2
        ],
        "21/03/2020 17:28:48": [
            24
        ],
        "21/03/2020 20:15:32": [],
        "21/03/2020 22:18:23": [
            14
        ]
    },
    "1960": {
        "21/03/2020 15:25:10": [
            8
        ],
        "21/03/2020 15:25:33": [
            8
        ],
        "21/03/2020 15:25:55": [
            8
        ],
        "21/03/2020 17:28:53": [
            -5
        ],
        "21/03/2020 20:15:41": [],
        "21/03/2020 22:18:32": [
            -24
        ]
    },
    "1968": {
        "21/03/2020 15:25:10": [
            22
        ],
        "21/03/2020 15:25:34": [
            22
        ],
        "21/03/2020 15:25:56": [
            22
        ],
        "21/03/2020 17:28:54": [
            16
        ],
        "21/03/2020 20:15:41": [],
        "21/03/2020 22:18:33": [
            9
        ]
    },
    "1969": {
        "21/03/2020 15:25:11": [
            -20
        ],
        "21/03/2020 15:25:34": [
            -20
        ],
        "21/03/2020 15:25:56": [
            -20
        ],
        "21/03/2020 17:28:54": [
            -24
        ],
        "21/03/2020 20:15:42": [],
        "21/03/2020 22:18:33": [
            24
        ]
    },
    "1970": {
        "21/03/2020 15:25:11": [
            28
        ],
        "21/03/2020 15:25:35": [
            28
        ],
        "21/03/2020 15:25:56": [
            28
        ],
        "21/03/2020 17:28:55": [
            -30
        ],
        "21/03/2020 20:15:42": [],
        "21/03/2020 22:18:33": [
            6
        ]
    },
    "1971": {
        "21/03/2020 15:25:11": [
            9
        ],
        "21/03/2020 15:25:35": [
            9
        ],
        "21/03/2020 15:25:57": [
            9
        ],
        "21/03/2020 17:28:55": [
            -5
        ],
        "21/03/2020 20:15:43": [],
        "21/03/2020 22:18:34": [
            -16
        ]
    },
    "337": {
        "21/03/2020 15:25:11": [],
        "21/03/2020 17:28:41": [],
        "21/03/2020 20:15:23": [],
        "21/03/2020 22:18:13": []
    },
    "3378": {
        "21/03/2020 15:25:12": [
            -20
        ],
        "21/03/2020 15:25:37": [
            -20
        ],
        "21/03/2020 15:25:59": [
            -20
        ],
        "21/03/2020 17:28:57": [
            8
        ],
        "21/03/2020 20:15:46": [],
        "21/03/2020 22:18:37": [
            16
        ]
    },
    "3379": {
        "21/03/2020 15:25:12": [
            -22
        ],
        "21/03/2020 15:25:37": [
            -22
        ],
        "21/03/2020 15:25:59": [
            -22
        ],
        "21/03/2020 17:28:57": [
            17
        ],
        "21/03/2020 20:15:46": [],
        "21/03/2020 22:18:37": [
            17
        ]
    },
    "3383": {
        "21/03/2020 15:25:12": [],
        "21/03/2020 15:25:38": [],
        "21/03/2020 15:26:00": [
            29
        ],
        "21/03/2020 17:28:59": [
            19
        ],
        "21/03/2020 20:15:48": [],
        "21/03/2020 22:18:39": [
            -1
        ]
    },
    "3397": {
        "21/03/2020 15:25:13": [
            -293
        ],
        "21/03/2020 15:25:42": [
            -293
        ],
        "21/03/2020 15:26:04": [
            -293
        ],
        "21/03/2020 17:29:02": [
            -180
        ],
        "21/03/2020 20:15:54": [
            -526
        ],
        "21/03/2020 22:18:45": []
    },
    "3398": {
        "21/03/2020 15:25:13": [
            -327
        ],
        "21/03/2020 15:25:43": [
            -327
        ],
        "21/03/2020 15:26:04": [
            -327
        ],
        "21/03/2020 17:29:03": [],
        "21/03/2020 20:15:54": [
            -545
        ],
        "21/03/2020 22:18:45": []
    },
    "3399": {
        "21/03/2020 15:25:13": [
            -301
        ],
        "21/03/2020 15:25:43": [
            -301
        ],
        "21/03/2020 15:26:05": [
            -301
        ],
        "21/03/2020 17:29:03": [
            -186
        ],
        "21/03/2020 20:15:54": [],
        "21/03/2020 22:18:46": []
    },
    "4669": {
        "21/03/2020 15:25:13": [
            -13
        ],
        "21/03/2020 15:25:37": [
            -13
        ],
        "21/03/2020 15:25:59": [
            -13
        ],
        "21/03/2020 17:28:58": [
            27
        ],
        "21/03/2020 20:15:47": [],
        "21/03/2020 22:18:38": [
            26
        ]
    },
    "6184": {
        "21/03/2020 15:25:14": [],
        "21/03/2020 15:25:44": [],
        "21/03/2020 17:28:43": [],
        "21/03/2020 20:15:25": [],
        "21/03/2020 22:18:15": []
    },
    "6187": {
        "21/03/2020 15:25:14": [
            -336
        ],
        "21/03/2020 15:25:43": [
            -336
        ],
        "21/03/2020 17:28:42": [
            -160
        ],
        "21/03/2020 20:15:24": [],
        "21/03/2020 22:18:14": []
    },
    "6188": {
        "21/03/2020 15:25:14": [
            -324
        ],
        "21/03/2020 15:25:43": [
            -324
        ],
        "21/03/2020 17:28:42": [
            -205
        ],
        "21/03/2020 20:15:24": [],
        "21/03/2020 22:18:14": []
    },
    "3384": {
        "21/03/2020 15:25:15": [],
        "21/03/2020 15:25:39": [],
        "21/03/2020 15:26:01": [
            -12
        ],
        "21/03/2020 17:28:59": [
            -19
        ],
        "21/03/2020 20:15:49": [],
        "21/03/2020 22:18:40": [
            27
        ]
    },
    "3385": {
        "21/03/2020 15:25:15": [
            -323
        ],
        "21/03/2020 15:25:39": [
            -323
        ],
        "21/03/2020 15:26:01": [
            -323,
            -19
        ],
        "21/03/2020 17:28:59": [
            -26
        ],
        "21/03/2020 20:15:49": [],
        "21/03/2020 22:18:40": []
    },
    "3386": {
        "21/03/2020 15:25:15": [
            -305
        ],
        "21/03/2020 15:25:39": [
            -305
        ],
        "21/03/2020 15:26:01": [
            -305
        ],
        "21/03/2020 17:29:00": [],
        "21/03/2020 20:15:49": [],
        "21/03/2020 22:18:41": []
    },
    "3387": {
        "21/03/2020 15:25:15": [
            -294
        ],
        "21/03/2020 15:25:40": [
            -294
        ],
        "21/03/2020 15:26:02": [
            -294
        ],
        "21/03/2020 17:29:00": [],
        "21/03/2020 20:15:50": [],
        "21/03/2020 22:18:41": []
    },
    "3389": {
        "21/03/2020 15:25:16": [
            -336
        ],
        "21/03/2020 15:25:40": [
            -336
        ],
        "21/03/2020 15:26:02": [
            -336
        ],
        "21/03/2020 17:29:00": [],
        "21/03/2020 20:15:51": [],
        "21/03/2020 22:18:42": []
    },
    "339": {
        "21/03/2020 15:25:16": [],
        "21/03/2020 15:26:42": [],
        "21/03/2020 17:29:09": [],
        "21/03/2020 20:16:03": [],
        "21/03/2020 22:18:54": []
    },
    "3390": {
        "21/03/2020 15:25:16": [
            -345
        ],
        "21/03/2020 15:25:40": [
            -345
        ],
        "21/03/2020 15:26:02": [
            -345
        ],
        "21/03/2020 17:29:01": [],
        "21/03/2020 20:15:51": [
            -548
        ],
        "21/03/2020 22:18:42": []
    },
    "4456": {
        "21/03/2020 15:25:17": [
            11
        ],
        "21/03/2020 15:25:24": [
            11
        ],
        "21/03/2020 15:25:45": [
            11
        ],
        "21/03/2020 17:28:44": [
            25
        ],
        "21/03/2020 20:15:27": [
            19
        ],
        "21/03/2020 22:18:17": [
            19
        ]
    },
    "1278": {
        "21/03/2020 15:25:17": [
            -14
        ],
        "21/03/2020 15:25:23": [
            -14
        ],
        "21/03/2020 15:25:45": [
            -14
        ],
        "21/03/2020 17:28:43": [
            -3
        ],
        "21/03/2020 20:15:26": [
            22
        ],
        "21/03/2020 22:18:16": [
            22
        ]
    },
    "1282": {
        "21/03/2020 15:25:17": [
            -26
        ],
        "21/03/2020 15:25:24": [
            -26
        ],
        "21/03/2020 15:25:45": [
            -26
        ],
        "21/03/2020 17:28:44": [
            -4
        ],
        "21/03/2020 20:15:26": [
            -13
        ],
        "21/03/2020 22:18:16": [
            -13
        ]
    },
    "1284": {
        "21/03/2020 15:25:17": [
            4
        ],
        "21/03/2020 15:25:24": [
            4
        ],
        "21/03/2020 15:25:45": [
            4
        ],
        "21/03/2020 17:28:44": [
            28
        ],
        "21/03/2020 20:15:27": [],
        "21/03/2020 22:18:17": [
            -2
        ]
    },
    "1285": {
        "21/03/2020 15:25:18": [
            -8
        ],
        "21/03/2020 15:25:24": [
            -8
        ],
        "21/03/2020 15:25:46": [
            -8
        ],
        "21/03/2020 17:28:44": [
            -22
        ],
        "21/03/2020 20:15:28": [],
        "21/03/2020 22:18:18": [
            20
        ]
    },
    "1286": {
        "21/03/2020 15:25:18": [
            16
        ],
        "21/03/2020 15:25:25": [
            16
        ],
        "21/03/2020 15:25:46": [
            16
        ],
        "21/03/2020 17:28:45": [
            7
        ],
        "21/03/2020 20:15:28": [],
        "21/03/2020 22:18:18": [
            -26
        ]
    },
    "1288": {
        "21/03/2020 15:25:18": [
            -30
        ],
        "21/03/2020 15:25:25": [
            -30
        ],
        "21/03/2020 15:25:46": [
            -30
        ],
        "21/03/2020 17:28:45": [
            24
        ],
        "21/03/2020 20:15:28": [],
        "21/03/2020 22:18:19": [
            -16
        ]
    },
    "2133": {
        "21/03/2020 15:25:19": [
            -9
        ],
        "21/03/2020 15:25:36": [
            -9
        ],
        "21/03/2020 15:25:58": [
            -9
        ],
        "21/03/2020 17:28:56": [
            -20
        ],
        "21/03/2020 20:15:44": [],
        "21/03/2020 22:18:36": [
            15
        ]
    },
    "2134": {
        "21/03/2020 15:25:19": [
            -5
        ],
        "21/03/2020 15:25:37": [
            -5
        ],
        "21/03/2020 15:25:58": [
            -5
        ],
        "21/03/2020 17:28:57": [
            14
        ],
        "21/03/2020 20:15:45": [],
        "21/03/2020 22:18:36": [
            29
        ]
    },
    "4379": {
        "21/03/2020 15:25:19": [
            -15
        ],
        "21/03/2020 15:25:34": [
            -15
        ],
        "21/03/2020 15:25:55": [
            -15
        ],
        "21/03/2020 17:28:54": [
            28
        ],
        "21/03/2020 20:15:41": [],
        "21/03/2020 22:18:32": [
            16
        ]
    },
    "6011": {
        "21/03/2020 15:25:19": [
            -1
        ],
        "21/03/2020 15:25:36": [
            -1
        ],
        "21/03/2020 15:25:57": [
            -1
        ],
        "21/03/2020 17:28:56": [
            -27
        ],
        "21/03/2020 20:15:44": [],
        "21/03/2020 22:18:35": [
            17
        ]
    },
    "6215": {
        "21/03/2020 15:25:20": [
            -323
        ],
        "21/03/2020 15:25:44": [
            -323
        ],
        "21/03/2020 17:28:42": [
            -202
        ],
        "21/03/2020 20:15:25": [],
        "21/03/2020 22:18:15": []
    },
    "6244": {
        "21/03/2020 15:25:20": [
            -26
        ],
        "21/03/2020 15:25:36": [
            -26
        ],
        "21/03/2020 15:25:58": [
            -26
        ],
        "21/03/2020 17:28:56": [
            -25
        ],
        "21/03/2020 20:15:45": [],
        "21/03/2020 22:18:36": [
            2
        ]
    },
    "1371": {
        "21/03/2020 15:25:20": [
            -17
        ],
        "21/03/2020 15:25:28": [
            -17
        ],
        "21/03/2020 15:25:49": [
            -17
        ],
        "21/03/2020 17:28:48": [
            14
        ],
        "21/03/2020 20:15:33": [],
        "21/03/2020 22:18:24": [
            -4
        ]
    },
    "1372": {
        "21/03/2020 15:25:21": [
            18
        ],
        "21/03/2020 15:25:29": [
            18
        ],
        "21/03/2020 15:25:49": [
            18
        ],
        "21/03/2020 17:28:49": [
            -7
        ],
        "21/03/2020 20:15:33": [],
        "21/03/2020 22:18:24": [
            28
        ]
    },
    "1373": {
        "21/03/2020 15:25:21": [
            -13
        ],
        "21/03/2020 15:25:29": [
            -13
        ],
        "21/03/2020 15:25:50": [
            -13
        ],
        "21/03/2020 17:28:49": [
            25
        ],
        "21/03/2020 20:15:34": [],
        "21/03/2020 22:18:25": [
            -5
        ]
    },
    "1374": {
        "21/03/2020 15:25:21": [
            28
        ],
        "21/03/2020 15:25:29": [
            28
        ],
        "21/03/2020 15:25:50": [
            28
        ],
        "21/03/2020 17:28:49": [
            11
        ],
        "21/03/2020 20:15:34": [],
        "21/03/2020 22:18:25": [
            -27
        ]
    },
    "2165": {
        "21/03/2020 15:25:22": [
            13
        ],
        "21/03/2020 15:25:38": [
            13
        ],
        "21/03/2020 15:26:00": [
            13
        ],
        "21/03/2020 17:28:58": [
            -2
        ],
        "21/03/2020 20:15:47": [],
        "21/03/2020 22:18:38": [
            -7
        ]
    },
    "2166": {
        "21/03/2020 15:25:22": [
            -27
        ],
        "21/03/2020 15:25:38": [
            -27
        ],
        "21/03/2020 15:26:00": [
            -27
        ],
        "21/03/2020 17:28:58": [
            22
        ],
        "21/03/2020 20:15:47": [],
        "21/03/2020 22:18:38": [
            14
        ]
    },
    "2167": {
        "21/03/2020 15:25:22": [
            -20
        ],
        "21/03/2020 15:25:38": [
            -20
        ],
        "21/03/2020 15:26:00": [
            -20
        ],
        "21/03/2020 17:28:59": [
            27
        ],
        "21/03/2020 20:15:48": [],
        "21/03/2020 22:18:39": [
            -12
        ]
    },
    "4559": {
        "21/03/2020 15:25:22": [
            -326
        ],
        "21/03/2020 15:25:40": [
            -326
        ],
        "21/03/2020 15:26:02": [
            -326
        ],
        "21/03/2020 17:29:00": [],
        "21/03/2020 20:15:50": [],
        "21/03/2020 22:18:41": []
    },
    "6119": {
        "21/03/2020 15:25:23": [
            -328
        ],
        "21/03/2020 15:25:41": [
            -328
        ],
        "21/03/2020 15:26:03": [
            -328
        ],
        "21/03/2020 17:29:01": [],
        "21/03/2020 20:15:51": [
            -531
        ],
        "21/03/2020 22:18:43": []
    },
    "4495": {
        "21/03/2020 15:25:23": [
            0
        ],
        "21/03/2020 15:25:44": [
            0
        ],
        "21/03/2020 17:28:43": [
            0
        ],
        "21/03/2020 20:15:26": [
            0
        ],
        "21/03/2020 22:18:15": [
            0
        ]
    },
    "1472": {
        "21/03/2020 15:26:18": [],
        "21/03/2020 15:26:37": [],
        "21/03/2020 17:29:04": [],
        "21/03/2020 20:15:56": [],
        "21/03/2020 22:18:47": []
    },
    "4408": {
        "21/03/2020 15:26:18": [],
        "21/03/2020 15:26:38": [],
        "21/03/2020 17:29:05": [],
        "21/03/2020 20:15:57": [],
        "21/03/2020 22:18:49": []
    },
    "1473": {
        "21/03/2020 15:26:18": [],
        "21/03/2020 15:26:38": [],
        "21/03/2020 17:29:04": [],
        "21/03/2020 20:15:56": [],
        "21/03/2020 22:18:48": []
    },
    "1471": {
        "21/03/2020 15:26:37": [],
        "21/03/2020 17:29:04": [],
        "21/03/2020 20:15:55": [],
        "21/03/2020 22:18:47": []
    },
    "1990": {
        "21/03/2020 15:26:38": [],
        "21/03/2020 17:29:05": [],
        "21/03/2020 20:15:56": [],
        "21/03/2020 22:18:48": []
    },
    "1992": {
        "21/03/2020 15:26:38": [],
        "21/03/2020 17:29:05": [],
        "21/03/2020 20:15:57": [],
        "21/03/2020 22:18:48": []
    },
    "5192": {
        "21/03/2020 15:26:56": [],
        "21/03/2020 17:29:24": [],
        "21/03/2020 20:16:23": [],
        "21/03/2020 22:19:15": []
    },
    "7483": {
        "21/03/2020 15:26:56": [],
        "21/03/2020 17:29:24": [],
        "21/03/2020 20:16:24": [],
        "21/03/2020 22:19:16": []
    },
    "7589": {
        "21/03/2020 15:26:56": [],
        "21/03/2020 17:29:24": [],
        "21/03/2020 20:16:24": [],
        "21/03/2020 22:19:16": []
    }
}