{
    "747": {
        "22/03/2020 15:29:46": [],
        "22/03/2020 17:53:43": [],
        "22/03/2020 20:11:29": []
    },
    "748": {
        "22/03/2020 15:29:46": [],
        "22/03/2020 17:53:43": [],
        "22/03/2020 20:11:29": []
    },
    "336": {
        "22/03/2020 15:29:47": [],
        "22/03/2020 17:53:44": [],
        "22/03/2020 20:11:30": []
    },
    "404": {
        "22/03/2020 15:29:47": [],
        "22/03/2020 17:53:44": [],
        "22/03/2020 20:11:30": []
    },
    "7433": {
        "22/03/2020 15:29:48": [],
        "22/03/2020 17:53:45": [],
        "22/03/2020 20:11:30": []
    },
    "4677": {
        "22/03/2020 15:29:48": [],
        "22/03/2020 17:53:45": [],
        "22/03/2020 20:11:31": []
    },
    "2136": {
        "22/03/2020 15:29:49": [],
        "22/03/2020 17:53:46": [],
        "22/03/2020 20:11:31": []
    },
    "2137": {
        "22/03/2020 15:29:49": [],
        "22/03/2020 17:53:46": [],
        "22/03/2020 20:11:32": []
    },
    "2138": {
        "22/03/2020 15:29:49": [],
        "22/03/2020 17:53:47": [],
        "22/03/2020 20:11:32": []
    },
    "2139": {
        "22/03/2020 15:29:50": [],
        "22/03/2020 17:53:48": [],
        "22/03/2020 20:11:33": []
    },
    "2140": {
        "22/03/2020 15:29:50": [],
        "22/03/2020 17:53:48": [],
        "22/03/2020 20:11:33": []
    },
    "2141": {
        "22/03/2020 15:29:51": [],
        "22/03/2020 17:53:48": [],
        "22/03/2020 20:11:34": []
    },
    "2142": {
        "22/03/2020 15:29:51": [],
        "22/03/2020 17:53:49": [],
        "22/03/2020 20:11:34": []
    },
    "2143": {
        "22/03/2020 15:29:52": [],
        "22/03/2020 17:53:49": [],
        "22/03/2020 20:11:34": []
    },
    "2145": {
        "22/03/2020 15:29:52": [],
        "22/03/2020 17:53:50": [],
        "22/03/2020 20:11:35": []
    },
    "4670": {
        "22/03/2020 15:29:52": [],
        "22/03/2020 17:53:50": [],
        "22/03/2020 20:11:35": []
    },
    "3420": {
        "22/03/2020 15:29:53": [],
        "22/03/2020 17:53:51": [],
        "22/03/2020 20:11:36": []
    },
    "3421": {
        "22/03/2020 15:29:53": [],
        "22/03/2020 17:53:51": [],
        "22/03/2020 20:11:36": []
    },
    "3422": {
        "22/03/2020 15:29:54": [],
        "22/03/2020 17:53:52": [],
        "22/03/2020 20:11:37": []
    },
    "3423": {
        "22/03/2020 15:29:54": [],
        "22/03/2020 17:53:52": [],
        "22/03/2020 20:11:37": []
    },
    "4409": {
        "22/03/2020 15:29:55": [],
        "22/03/2020 17:53:52": [],
        "22/03/2020 20:11:37": []
    },
    "1972": {
        "22/03/2020 15:29:55": [],
        "22/03/2020 17:53:53": [],
        "22/03/2020 20:11:38": []
    },
    "1973": {
        "22/03/2020 15:29:56": [],
        "22/03/2020 17:53:53": [],
        "22/03/2020 20:11:38": []
    },
    "1974": {
        "22/03/2020 15:29:56": [],
        "22/03/2020 17:53:54": [],
        "22/03/2020 20:11:39": []
    },
    "1975": {
        "22/03/2020 15:29:57": [],
        "22/03/2020 17:53:54": [],
        "22/03/2020 20:11:40": []
    },
    "1982": {
        "22/03/2020 15:29:57": [],
        "22/03/2020 17:53:55": [],
        "22/03/2020 20:11:40": []
    },
    "2642": {
        "22/03/2020 15:29:58": [],
        "22/03/2020 17:53:55": [],
        "22/03/2020 20:11:41": []
    },
    "7435": {
        "22/03/2020 15:29:58": [],
        "22/03/2020 17:53:56": [],
        "22/03/2020 20:11:41": []
    },
    "4413": {
        "22/03/2020 15:29:59": [],
        "22/03/2020 17:53:56": [],
        "22/03/2020 20:11:41": []
    },
    "7453": {
        "22/03/2020 15:29:59": [],
        "22/03/2020 17:53:56": [],
        "22/03/2020 20:11:42": []
    },
    "1478": {
        "22/03/2020 15:30:00": [],
        "22/03/2020 17:53:57": [],
        "22/03/2020 20:11:42": []
    },
    "1479": {
        "22/03/2020 15:30:00": [],
        "22/03/2020 17:53:57": [],
        "22/03/2020 20:11:43": []
    },
    "315": {
        "22/03/2020 15:30:01": [],
        "22/03/2020 17:53:58": [],
        "22/03/2020 20:11:43": []
    },
    "4495": {
        "22/03/2020 15:30:01": [],
        "22/03/2020 17:53:58": [],
        "22/03/2020 20:11:44": []
    },
    "2809": {
        "22/03/2020 15:30:01": [],
        "22/03/2020 17:53:59": [],
        "22/03/2020 20:11:44": []
    },
    "2810": {
        "22/03/2020 15:30:02": [],
        "22/03/2020 17:53:59": [],
        "22/03/2020 20:11:44": []
    },
    "749": {
        "22/03/2020 15:30:02": [],
        "22/03/2020 17:53:59": [],
        "22/03/2020 20:11:45": []
    },
    "750": {
        "22/03/2020 15:30:03": [],
        "22/03/2020 17:54:00": [],
        "22/03/2020 20:11:45": []
    },
    "751": {
        "22/03/2020 15:30:03": [],
        "22/03/2020 17:54:00": [],
        "22/03/2020 20:11:46": []
    },
    "752": {
        "22/03/2020 15:30:04": [],
        "22/03/2020 17:54:01": [],
        "22/03/2020 20:11:46": []
    },
    "753": {
        "22/03/2020 15:30:04": [],
        "22/03/2020 17:54:01": [],
        "22/03/2020 20:11:47": []
    },
    "754": {
        "22/03/2020 15:30:05": [],
        "22/03/2020 17:54:02": [],
        "22/03/2020 20:11:47": []
    },
    "755": {
        "22/03/2020 15:30:05": [],
        "22/03/2020 17:54:02": [],
        "22/03/2020 20:11:47": []
    },
    "756": {
        "22/03/2020 15:30:06": [],
        "22/03/2020 17:54:03": [],
        "22/03/2020 20:11:48": []
    },
    "757": {
        "22/03/2020 15:30:06": [],
        "22/03/2020 17:54:03": [],
        "22/03/2020 20:11:48": []
    },
    "758": {
        "22/03/2020 15:30:07": [],
        "22/03/2020 17:54:03": [],
        "22/03/2020 20:11:49": []
    },
    "759": {
        "22/03/2020 15:30:07": [],
        "22/03/2020 17:54:04": [],
        "22/03/2020 20:11:49": []
    },
    "760": {
        "22/03/2020 15:30:07": [],
        "22/03/2020 17:54:04": [],
        "22/03/2020 20:11:50": []
    },
    "761": {
        "22/03/2020 15:30:08": [],
        "22/03/2020 17:54:05": [],
        "22/03/2020 20:11:50": []
    },
    "762": {
        "22/03/2020 15:30:08": [],
        "22/03/2020 17:54:05": [],
        "22/03/2020 20:11:50": []
    },
    "763": {
        "22/03/2020 15:30:09": [],
        "22/03/2020 17:54:06": [],
        "22/03/2020 20:11:51": []
    },
    "4953": {
        "22/03/2020 15:30:09": [],
        "22/03/2020 17:54:06": [],
        "22/03/2020 20:11:51": []
    }
}