{
    "1278": {
        "20/03/2020 16:33:49": [
            -153,
            -29,
            -20,
            -20,
            -20
        ],
        "20/03/2020 21:00:57": [
            96,
            -27
        ],
        "20/03/2020 21:01:18": [
            96,
            -27
        ]
    },
    "1282": {
        "20/03/2020 16:33:49": [
            -126,
            -2,
            2,
            2
        ],
        "20/03/2020 21:00:57": [
            115,
            -8
        ],
        "20/03/2020 21:01:18": [
            115,
            -8
        ]
    },
    "1284": {
        "20/03/2020 16:33:50": [
            -151,
            -27,
            -11,
            -11
        ],
        "20/03/2020 21:00:57": [
            128,
            5
        ],
        "20/03/2020 21:01:18": [
            128,
            5
        ]
    },
    "1285": {
        "20/03/2020 16:33:50": [
            -235,
            -145,
            -21,
            10,
            10
        ],
        "20/03/2020 21:00:58": [
            119,
            -4
        ],
        "20/03/2020 21:01:19": [
            119,
            -4
        ]
    },
    "1360": {
        "20/03/2020 16:33:52": [
            -235,
            -145,
            -21,
            20
        ],
        "20/03/2020 21:00:58": [
            119,
            -4
        ],
        "20/03/2020 21:01:20": [
            119,
            -4
        ]
    },
    "1362": {
        "20/03/2020 16:33:52": [
            -229,
            -139,
            -15,
            -27
        ],
        "20/03/2020 21:00:58": [
            104,
            -19
        ],
        "20/03/2020 21:01:20": [
            104,
            -19
        ]
    },
    "1363": {
        "20/03/2020 16:33:52": [
            -118,
            -97,
            27,
            27
        ],
        "20/03/2020 21:00:59": [
            114,
            -9
        ],
        "20/03/2020 21:01:21": [
            114,
            -9
        ]
    },
    "1364": {
        "20/03/2020 16:33:53": [
            -137,
            -116,
            8,
            10
        ],
        "20/03/2020 21:00:59": [
            144,
            21
        ],
        "20/03/2020 21:01:21": [
            144,
            21
        ]
    },
    "1286": {
        "20/03/2020 16:33:51": [
            -176,
            -114,
            10,
            13,
            13
        ],
        "20/03/2020 21:00:59": [
            99,
            -24
        ],
        "20/03/2020 21:01:19": [
            99,
            -24
        ]
    },
    "1414": {
        "20/03/2020 16:33:56": [
            -576,
            -152,
            -131,
            -7
        ],
        "20/03/2020 21:00:59": [
            112,
            -11
        ],
        "20/03/2020 21:01:24": [
            112,
            -11
        ]
    },
    "1415": {
        "20/03/2020 16:33:56": [
            -569,
            -145,
            -124,
            0
        ],
        "20/03/2020 21:01:00": [
            96,
            -27
        ],
        "20/03/2020 21:01:24": [
            96,
            -27
        ]
    },
    "1417": {
        "20/03/2020 16:33:56": [
            -571,
            -147,
            -126,
            -2
        ],
        "20/03/2020 21:01:00": [
            143,
            20
        ],
        "20/03/2020 21:01:24": [
            143,
            20
        ]
    },
    "1288": {
        "20/03/2020 16:33:51": [
            -185,
            -95,
            29,
            -12,
            -12
        ],
        "20/03/2020 21:01:00": [
            151,
            28
        ],
        "20/03/2020 21:01:19": [
            151,
            28
        ]
    },
    "1289": {
        "20/03/2020 16:33:51": [
            -240,
            -150,
            -26,
            7
        ],
        "20/03/2020 21:01:01": [
            134,
            11
        ],
        "20/03/2020 21:01:20": [
            134,
            11
        ]
    },
    "1410": {
        "20/03/2020 16:33:55": [
            -134,
            -113,
            11
        ],
        "20/03/2020 21:01:01": [
            145,
            22
        ],
        "20/03/2020 21:01:23": [
            145,
            22
        ]
    },
    "1411": {
        "20/03/2020 16:33:55": [
            -138,
            -117,
            7
        ],
        "20/03/2020 21:01:01": [
            122,
            -1
        ],
        "20/03/2020 21:01:23": [
            122,
            -1
        ]
    },
    "1365": {
        "20/03/2020 16:33:53": [
            -159,
            -138,
            -14,
            -11
        ],
        "20/03/2020 21:01:01": [
            112,
            -11
        ],
        "20/03/2020 21:01:21": [
            112,
            -11
        ]
    },
    "1366": {
        "20/03/2020 16:33:53": [
            -135,
            -114,
            10,
            15
        ],
        "20/03/2020 21:01:02": [
            107,
            -16
        ],
        "20/03/2020 21:01:22": [
            107,
            -16
        ]
    },
    "1367": {
        "20/03/2020 16:33:54": [
            -160,
            -139,
            -15,
            -10
        ],
        "20/03/2020 21:01:02": [
            130,
            7
        ],
        "20/03/2020 21:01:22": [
            130,
            7
        ]
    },
    "16": {
        "20/03/2020 16:34:00": [
            -10,
            -10,
            -10,
            -10,
            -10
        ],
        "20/03/2020 21:01:02": [
            -19,
            -19
        ],
        "20/03/2020 21:01:13": [
            -19,
            -19
        ],
        "20/03/2020 21:01:27": [
            -19,
            -19
        ]
    },
    "263": {
        "20/03/2020 16:34:05": [
            3,
            -4,
            -4,
            -4
        ],
        "20/03/2020 21:01:03": [
            119,
            5
        ],
        "20/03/2020 21:01:17": [
            119,
            5
        ],
        "20/03/2020 21:01:32": [
            119,
            5
        ]
    },
    "51": {
        "20/03/2020 16:34:04": [
            -4,
            -6,
            -6,
            -6,
            -6
        ],
        "20/03/2020 21:01:03": [
            26,
            26
        ],
        "20/03/2020 21:01:16": [
            26,
            26
        ],
        "20/03/2020 21:01:31": [
            26,
            26
        ]
    },
    "5149": {
        "20/03/2020 16:33:57": [
            -599,
            -175,
            -154,
            -30
        ],
        "20/03/2020 21:01:03": [
            98,
            -25
        ],
        "20/03/2020 21:01:25": [
            98,
            -25
        ]
    },
    "1700": {
        "20/03/2020 16:33:59": [
            -17,
            -17,
            -17,
            -17,
            -17
        ],
        "20/03/2020 21:01:03": [
            13,
            13
        ],
        "20/03/2020 21:01:12": [
            13,
            13
        ],
        "20/03/2020 21:01:26": [
            13,
            13
        ]
    },
    "1701": {
        "20/03/2020 16:33:59": [
            26,
            26,
            26,
            26,
            26
        ],
        "20/03/2020 21:01:04": [
            -18,
            -18
        ],
        "20/03/2020 21:01:12": [
            -18,
            -18
        ],
        "20/03/2020 21:01:27": [
            -18,
            -18
        ]
    },
    "1702": {
        "20/03/2020 16:33:59": [
            -4,
            -4,
            -4,
            -4,
            -4
        ],
        "20/03/2020 21:01:04": [
            3,
            3
        ],
        "20/03/2020 21:01:12": [
            3,
            3
        ],
        "20/03/2020 21:01:27": [
            3,
            3
        ]
    },
    "271": {
        "20/03/2020 16:33:49": [
            -100,
            29,
            7,
            7,
            7
        ],
        "20/03/2020 21:01:04": [
            83,
            -16
        ],
        "20/03/2020 21:01:17": [
            83,
            -16
        ]
    },
    "4456": {
        "20/03/2020 16:33:50": [
            -152,
            -28,
            -20,
            -20
        ],
        "20/03/2020 21:01:05": [
            134,
            11
        ],
        "20/03/2020 21:01:18": [
            134,
            11
        ]
    },
    "1412": {
        "20/03/2020 16:33:55": [
            -147,
            -126,
            -2
        ],
        "20/03/2020 21:01:05": [
            96,
            -27
        ],
        "20/03/2020 21:01:23": [
            96,
            -27
        ]
    },
    "1413": {
        "20/03/2020 16:33:55": [
            -571,
            -147,
            -126,
            -2
        ],
        "20/03/2020 21:01:05": [
            135,
            12
        ],
        "20/03/2020 21:01:24": [
            135,
            12
        ]
    },
    "4371": {
        "20/03/2020 16:34:01": [
            -3,
            -3,
            -3,
            -3,
            -3
        ],
        "20/03/2020 21:01:06": [
            -9,
            -9
        ],
        "20/03/2020 21:01:14": [
            -9,
            -9
        ],
        "20/03/2020 21:01:28": [
            -9,
            -9
        ]
    },
    "4525": {
        "20/03/2020 16:33:58": [
            0,
            0,
            0,
            0,
            0
        ],
        "20/03/2020 21:01:06": [
            0,
            0
        ],
        "20/03/2020 21:01:11": [
            0,
            0
        ],
        "20/03/2020 21:01:26": [
            0,
            0
        ]
    },
    "4526": {
        "20/03/2020 16:33:58": [
            5,
            5,
            5,
            5,
            5
        ],
        "20/03/2020 21:01:06": [
            -7,
            -7
        ],
        "20/03/2020 21:01:12": [
            -7,
            -7
        ],
        "20/03/2020 21:01:26": [
            -7,
            -7
        ]
    },
    "52": {
        "20/03/2020 16:34:04": [
            -6,
            -8,
            -8,
            -8,
            -8
        ],
        "20/03/2020 21:01:06": [
            154,
            -2,
            -2
        ],
        "20/03/2020 21:01:17": [
            154,
            -2,
            -2
        ],
        "20/03/2020 21:01:31": [
            154,
            -2,
            -2
        ]
    },
    "73": {
        "20/03/2020 16:34:00": [
            -3,
            -3,
            -3,
            -3,
            -3
        ],
        "20/03/2020 21:01:07": [
            28,
            28
        ],
        "20/03/2020 21:01:13": [
            28,
            28
        ],
        "20/03/2020 21:01:28": [
            28,
            28
        ]
    },
    "82": {
        "20/03/2020 16:34:03": [
            -43,
            -6,
            -6,
            -6,
            -6
        ],
        "20/03/2020 21:01:07": [
            12,
            12
        ],
        "20/03/2020 21:01:16": [
            12,
            12
        ],
        "20/03/2020 21:01:30": [
            12,
            12
        ]
    },
    "83": {
        "20/03/2020 16:34:03": [
            -29,
            28,
            28,
            28,
            28
        ],
        "20/03/2020 21:01:07": [
            -25,
            -25
        ],
        "20/03/2020 21:01:16": [
            -25,
            -25
        ],
        "20/03/2020 21:01:30": [
            -25,
            -25
        ]
    },
    "832": {
        "20/03/2020 16:34:01": [
            -17,
            -17,
            -17,
            -17,
            -17
        ],
        "20/03/2020 21:01:08": [
            27,
            27
        ],
        "20/03/2020 21:01:14": [
            27,
            27
        ],
        "20/03/2020 21:01:29": [
            27,
            27
        ]
    },
    "833": {
        "20/03/2020 16:34:01": [
            20,
            20,
            20,
            20,
            20
        ],
        "20/03/2020 21:01:08": [
            -4,
            -4
        ],
        "20/03/2020 21:01:14": [
            -4,
            -4
        ],
        "20/03/2020 21:01:29": [
            -4,
            -4
        ]
    },
    "84": {
        "20/03/2020 16:34:04": [
            17,
            14,
            14,
            14,
            14
        ],
        "20/03/2020 21:01:08": [
            0,
            0
        ],
        "20/03/2020 21:01:16": [
            0,
            0
        ],
        "20/03/2020 21:01:31": [
            0,
            0
        ]
    },
    "1418": {
        "20/03/2020 16:33:57": [
            -576,
            -152,
            -131,
            -7
        ],
        "20/03/2020 21:01:08": [
            128,
            5
        ],
        "20/03/2020 21:01:25": [
            128,
            5
        ]
    },
    "1419": {
        "20/03/2020 16:33:57": [
            -564,
            -140,
            -119,
            5
        ],
        "20/03/2020 21:01:09": [
            -628,
            127,
            4
        ],
        "20/03/2020 21:01:25": [
            -628,
            127,
            4
        ]
    },
    "7455": {
        "20/03/2020 16:33:54": [
            -159,
            -138,
            -14,
            -7
        ],
        "20/03/2020 21:01:09": [
            111,
            -12
        ],
        "20/03/2020 21:01:22": [
            111,
            -12
        ]
    },
    "74": {
        "20/03/2020 16:34:00": [
            3,
            3,
            3,
            3,
            3
        ],
        "20/03/2020 21:01:09": [
            8,
            8
        ],
        "20/03/2020 21:01:13": [
            8,
            8
        ],
        "20/03/2020 21:01:28": [
            8,
            8
        ]
    },
    "7438": {
        "20/03/2020 16:33:54": [
            -123,
            -102,
            22
        ],
        "20/03/2020 21:01:10": [
            113,
            -10
        ],
        "20/03/2020 21:01:22": [
            113,
            -10
        ]
    },
    "77": {
        "20/03/2020 16:34:02": [
            20,
            20,
            20,
            20,
            20
        ],
        "20/03/2020 21:01:10": [
            -30,
            -30
        ],
        "20/03/2020 21:01:14": [
            -30,
            -30
        ],
        "20/03/2020 21:01:29": [
            -30,
            -30
        ]
    },
    "6094": {
        "20/03/2020 16:33:58": [],
        "20/03/2020 21:01:10": [],
        "20/03/2020 21:01:26": []
    },
    "78": {
        "20/03/2020 16:34:02": [
            -23,
            -23,
            -23,
            -23
        ],
        "20/03/2020 21:01:10": [
            14,
            14
        ],
        "20/03/2020 21:01:15": [
            14,
            14
        ],
        "20/03/2020 21:01:29": [
            14,
            14
        ]
    },
    "79": {
        "20/03/2020 16:34:02": [
            11,
            12,
            12,
            12,
            12
        ],
        "20/03/2020 21:01:11": [
            -22,
            -22
        ],
        "20/03/2020 21:01:15": [
            -22,
            -22
        ],
        "20/03/2020 21:01:30": [
            -22,
            -22
        ]
    },
    "80": {
        "20/03/2020 16:34:03": [
            -31,
            6,
            6,
            6,
            6
        ],
        "20/03/2020 21:01:11": [
            14,
            14
        ],
        "20/03/2020 21:01:15": [
            14,
            14
        ],
        "20/03/2020 21:01:30": [
            14,
            14
        ]
    },
    "12": {
        "20/03/2020 16:34:32": [
            243,
            -15,
            -15,
            8
        ],
        "20/03/2020 21:01:32": [
            18
        ],
        "20/03/2020 21:01:57": [
            18
        ]
    },
    "1349": {
        "20/03/2020 16:34:45": [
            7,
            11,
            11,
            11
        ],
        "20/03/2020 21:01:32": [
            -14,
            -14
        ],
        "20/03/2020 21:01:54": [
            -14,
            -14
        ],
        "20/03/2020 21:02:09": [
            -14,
            -14
        ]
    },
    "1350": {
        "20/03/2020 16:34:46": [
            -13,
            -1,
            5,
            5,
            5
        ],
        "20/03/2020 21:01:32": [
            -30,
            -30
        ],
        "20/03/2020 21:01:54": [
            -30,
            -30
        ],
        "20/03/2020 21:02:09": [
            -30,
            -30
        ]
    },
    "1380": {
        "20/03/2020 16:34:43": [
            -131,
            2,
            2,
            2,
            2
        ],
        "20/03/2020 21:01:33": [
            25,
            25
        ],
        "20/03/2020 21:01:52": [
            25,
            25
        ],
        "20/03/2020 21:02:07": [
            25,
            25
        ]
    },
    "1381": {
        "20/03/2020 16:34:43": [
            -103,
            -29,
            -29,
            -29,
            -29
        ],
        "20/03/2020 21:01:33": [
            -12,
            -12
        ],
        "20/03/2020 21:01:52": [
            -12,
            -12
        ],
        "20/03/2020 21:02:07": [
            -12,
            -12
        ]
    },
    "1382": {
        "20/03/2020 16:34:44": [
            -66,
            26,
            26,
            26,
            26
        ],
        "20/03/2020 21:01:33": [
            -28,
            -28
        ],
        "20/03/2020 21:01:52": [
            -28,
            -28
        ],
        "20/03/2020 21:02:07": [
            -28,
            -28
        ]
    },
    "1383": {
        "20/03/2020 16:34:44": [
            -77,
            20,
            20,
            20,
            20
        ],
        "20/03/2020 21:01:34": [
            13,
            13
        ],
        "20/03/2020 21:01:53": [
            13,
            13
        ],
        "20/03/2020 21:02:07": [
            13,
            13
        ]
    },
    "1384": {
        "20/03/2020 16:34:44": [
            -88,
            15,
            15,
            15,
            15
        ],
        "20/03/2020 21:01:34": [
            -5,
            -5
        ],
        "20/03/2020 21:01:53": [
            -5,
            -5
        ],
        "20/03/2020 21:02:08": [
            -5,
            -5
        ]
    },
    "1385": {
        "20/03/2020 16:34:45": [
            -113,
            -13,
            -13,
            -13,
            -13
        ],
        "20/03/2020 21:01:34": [
            -1,
            -1
        ],
        "20/03/2020 21:01:53": [
            -1,
            -1
        ],
        "20/03/2020 21:02:08": [
            -1,
            -1
        ]
    },
    "1423": {
        "20/03/2020 16:34:39": [
            0,
            0,
            0,
            0,
            0
        ],
        "20/03/2020 21:01:34": [
            0,
            0
        ],
        "20/03/2020 21:01:47": [
            0,
            0
        ],
        "20/03/2020 21:02:02": [
            0,
            0
        ]
    },
    "1424": {
        "20/03/2020 16:34:39": [
            -20,
            -20,
            -20,
            -20,
            -20
        ],
        "20/03/2020 21:01:35": [
            -29
        ],
        "20/03/2020 21:01:47": [
            -29
        ],
        "20/03/2020 21:02:03": [
            -29
        ]
    },
    "1425": {
        "20/03/2020 16:34:39": [
            -29,
            -29,
            -29,
            -29,
            -29
        ],
        "20/03/2020 21:01:35": [
            10
        ],
        "20/03/2020 21:01:48": [
            10
        ],
        "20/03/2020 21:02:03": [
            10
        ]
    },
    "1426": {
        "20/03/2020 16:34:40": [
            -12,
            -12,
            -12,
            -12,
            -12
        ],
        "20/03/2020 21:01:35": [
            8,
            8
        ],
        "20/03/2020 21:01:48": [
            8,
            8
        ],
        "20/03/2020 21:02:03": [
            8,
            8
        ]
    },
    "1427": {
        "20/03/2020 16:34:40": [
            -23,
            -23,
            -23,
            -23,
            -23
        ],
        "20/03/2020 21:01:36": [
            -14,
            -14
        ],
        "20/03/2020 21:01:48": [
            -14,
            -14
        ],
        "20/03/2020 21:02:04": [
            -14,
            -14
        ]
    },
    "1428": {
        "20/03/2020 16:34:40": [
            22,
            22,
            22,
            22,
            22
        ],
        "20/03/2020 21:01:36": [
            21,
            21
        ],
        "20/03/2020 21:01:49": [
            21,
            21
        ],
        "20/03/2020 21:02:04": [
            21,
            21
        ]
    },
    "1429": {
        "20/03/2020 16:34:41": [
            8,
            8,
            8,
            8,
            8
        ],
        "20/03/2020 21:01:36": [
            -2,
            -2
        ],
        "20/03/2020 21:01:49": [
            -2,
            -2
        ],
        "20/03/2020 21:02:04": [
            -2,
            -2
        ]
    },
    "1430": {
        "20/03/2020 16:34:41": [
            12,
            12,
            12,
            12
        ],
        "20/03/2020 21:01:36": [
            -11,
            -11
        ],
        "20/03/2020 21:01:50": [
            -11,
            -11
        ],
        "20/03/2020 21:02:04": [
            -11,
            -11
        ]
    },
    "1432": {
        "20/03/2020 16:34:41": [
            -14,
            -14,
            -14,
            -14
        ],
        "20/03/2020 21:01:37": [
            15,
            15
        ],
        "20/03/2020 21:01:50": [
            15,
            15
        ],
        "20/03/2020 21:02:05": [
            15,
            15
        ]
    },
    "1433": {
        "20/03/2020 16:34:42": [
            -16,
            -16,
            -16,
            -16
        ],
        "20/03/2020 21:01:37": [
            1,
            1
        ],
        "20/03/2020 21:01:50": [
            1,
            1
        ],
        "20/03/2020 21:02:05": [
            1,
            1
        ]
    },
    "1434": {
        "20/03/2020 16:34:42": [
            -26,
            -26,
            -26,
            -26
        ],
        "20/03/2020 21:01:37": [
            -19,
            -19
        ],
        "20/03/2020 21:01:51": [
            -19,
            -19
        ],
        "20/03/2020 21:02:05": [
            -19,
            -19
        ]
    },
    "1435": {
        "20/03/2020 16:34:42": [
            -131,
            16,
            16,
            16,
            16
        ],
        "20/03/2020 21:01:38": [
            14,
            14
        ],
        "20/03/2020 21:01:51": [
            14,
            14
        ],
        "20/03/2020 21:02:06": [
            14,
            14
        ]
    },
    "1348": {
        "20/03/2020 16:34:45": [
            21,
            24,
            24,
            24
        ],
        "20/03/2020 21:01:38": [
            7,
            7
        ],
        "20/03/2020 21:01:53": [
            7,
            7
        ],
        "20/03/2020 21:02:08": [
            7,
            7
        ]
    },
    "1355": {
        "20/03/2020 16:34:47": [
            -29,
            -29,
            -20,
            -20,
            -20
        ],
        "20/03/2020 21:01:38": [
            7,
            7
        ],
        "20/03/2020 21:01:55": [
            7,
            7
        ],
        "20/03/2020 21:02:10": [
            7,
            7
        ]
    },
    "1357": {
        "20/03/2020 16:34:47": [
            19,
            19,
            24,
            24,
            24
        ],
        "20/03/2020 21:01:38": [
            -13,
            -13
        ],
        "20/03/2020 21:01:55": [
            -13,
            -13
        ],
        "20/03/2020 21:02:10": [
            -13,
            -13
        ]
    },
    "1359": {
        "20/03/2020 16:34:47": [
            252,
            -6,
            -6,
            -28,
            -28
        ],
        "20/03/2020 21:01:39": [
            13,
            13
        ],
        "20/03/2020 21:01:56": [
            13,
            13
        ],
        "20/03/2020 21:02:10": [
            13,
            13
        ]
    },
    "1660": {
        "20/03/2020 16:34:37": [
            -271,
            277,
            19,
            -112
        ],
        "20/03/2020 21:01:39": [
            -359,
            8
        ],
        "20/03/2020 21:02:01": [
            -359,
            8
        ]
    },
    "1661": {
        "20/03/2020 16:34:37": [
            -305,
            243,
            -15,
            -146
        ],
        "20/03/2020 21:01:39": [
            -392,
            -10
        ],
        "20/03/2020 21:02:01": [
            -392,
            -10
        ]
    },
    "4322": {
        "20/03/2020 16:34:38": [],
        "20/03/2020 21:01:40": [],
        "20/03/2020 21:02:02": []
    },
    "4498": {
        "20/03/2020 16:34:37": [
            -305,
            243,
            -15,
            -146
        ],
        "20/03/2020 21:01:40": [
            -361,
            6
        ],
        "20/03/2020 21:02:01": [
            -361,
            6
        ]
    },
    "4523": {
        "20/03/2020 16:34:38": [
            -280,
            268,
            10
        ],
        "20/03/2020 21:01:40": [
            -375,
            7
        ],
        "20/03/2020 21:02:02": [
            -375,
            7
        ]
    },
    "14": {
        "20/03/2020 16:34:32": [
            263,
            5,
            5,
            16
        ],
        "20/03/2020 21:01:41": [
            4
        ],
        "20/03/2020 21:01:57": [
            4
        ]
    },
    "3": {
        "20/03/2020 16:34:32": [
            263,
            5,
            -126,
            -29,
            -29
        ],
        "20/03/2020 21:01:41": [
            21,
            21
        ],
        "20/03/2020 21:01:56": [
            21,
            21
        ]
    },
    "58": {
        "20/03/2020 16:34:34": [
            -184,
            284,
            26,
            -105,
            15
        ],
        "20/03/2020 21:01:41": [
            -346
        ],
        "20/03/2020 21:01:58": [
            -346
        ]
    },
    "59": {
        "20/03/2020 16:34:34": [
            -237,
            231,
            -27,
            -158,
            4
        ],
        "20/03/2020 21:01:41": [
            -312,
            21
        ],
        "20/03/2020 21:01:58": [
            -312,
            21
        ]
    },
    "4524": {
        "20/03/2020 16:34:38": [
            -1009,
            -288,
            260,
            2
        ],
        "20/03/2020 21:01:42": [
            -388,
            -6
        ],
        "20/03/2020 21:02:02": [
            -388,
            -6
        ]
    },
    "53": {
        "20/03/2020 16:34:33": [
            239,
            -19,
            -150,
            -22
        ],
        "20/03/2020 21:01:42": [
            -1
        ],
        "20/03/2020 21:01:57": [
            -1
        ]
    },
    "64": {
        "20/03/2020 16:34:36": [
            -168,
            233,
            -25,
            -156
        ],
        "20/03/2020 21:01:42": [
            -324,
            24
        ],
        "20/03/2020 21:02:00": [
            -324,
            24
        ]
    },
    "65": {
        "20/03/2020 16:34:36": [
            -130,
            271,
            13,
            -118
        ],
        "20/03/2020 21:01:42": [
            -352,
            -4
        ],
        "20/03/2020 21:02:00": [
            -352,
            -4
        ]
    },
    "60": {
        "20/03/2020 16:34:35": [
            -217,
            251,
            -7,
            -138,
            4
        ],
        "20/03/2020 21:01:43": [
            -331,
            2
        ],
        "20/03/2020 21:01:59": [
            -331,
            2
        ]
    },
    "63": {
        "20/03/2020 16:34:36": [
            -142,
            259,
            1,
            -130
        ],
        "20/03/2020 21:01:43": [
            -353,
            -5
        ],
        "20/03/2020 21:02:00": [
            -353,
            -5
        ]
    },
    "7589": {
        "20/03/2020 16:34:19": [],
        "20/03/2020 21:01:43": []
    },
    "820": {
        "20/03/2020 16:34:35": [
            -222,
            280,
            22,
            22
        ],
        "20/03/2020 21:01:44": [
            -342,
            -9
        ],
        "20/03/2020 21:01:59": [
            -342,
            -9
        ]
    },
    "821": {
        "20/03/2020 16:34:35": [
            -162,
            239,
            -19,
            -19
        ],
        "20/03/2020 21:01:44": [
            -359,
            -26
        ],
        "20/03/2020 21:01:59": [
            -359,
            -26
        ]
    },
    "66": {
        "20/03/2020 16:34:36": [
            -151,
            250,
            -8,
            -139
        ],
        "20/03/2020 21:01:44": [
            -319,
            29
        ],
        "20/03/2020 21:02:00": [
            -319,
            29
        ]
    },
    "7439": {
        "20/03/2020 16:34:43": [
            -179,
            -5,
            -5,
            -5,
            -5
        ],
        "20/03/2020 21:01:45": [
            -15,
            -15
        ],
        "20/03/2020 21:01:51": [
            -15,
            -15
        ],
        "20/03/2020 21:02:06": [
            -15,
            -15
        ]
    },
    "7454": {
        "20/03/2020 16:34:43": [
            -186,
            -9,
            -9,
            -9,
            -9
        ],
        "20/03/2020 21:01:45": [],
        "20/03/2020 21:01:52": [],
        "20/03/2020 21:02:06": []
    },
    "279": {
        "20/03/2020 16:34:48": [
            265,
            7,
            -124,
            -10,
            -10
        ],
        "20/03/2020 21:01:45": [
            7,
            7
        ],
        "20/03/2020 21:01:56": [
            7,
            7
        ],
        "20/03/2020 21:02:10": [
            7,
            7
        ]
    },
    "56": {
        "20/03/2020 16:34:34": [
            -209,
            259,
            1,
            -130,
            11
        ],
        "20/03/2020 21:01:46": [
            3
        ],
        "20/03/2020 21:01:58": [
            3
        ]
    },
    "1352": {
        "20/03/2020 16:34:46": [
            51,
            26,
            -25,
            -25,
            -25
        ],
        "20/03/2020 21:01:46": [
            -16,
            -16
        ],
        "20/03/2020 21:01:54": [
            -16,
            -16
        ],
        "20/03/2020 21:02:09": [
            -16,
            -16
        ]
    },
    "1353": {
        "20/03/2020 16:34:46": [
            32,
            7,
            17,
            17,
            17
        ],
        "20/03/2020 21:01:46": [
            19,
            19
        ],
        "20/03/2020 21:01:55": [
            19,
            19
        ],
        "20/03/2020 21:02:09": [
            19,
            19
        ]
    },
    "54": {
        "20/03/2020 16:34:33": [
            243,
            -15,
            -146,
            -27
        ],
        "20/03/2020 21:01:46": [
            -24
        ],
        "20/03/2020 21:01:57": [
            -24
        ]
    },
    "55": {
        "20/03/2020 16:34:33": [
            251,
            -7,
            -138,
            -29
        ],
        "20/03/2020 21:01:47": [
            15
        ],
        "20/03/2020 21:01:58": [
            15
        ]
    }
}