{
    "2068": {
        "27/03/2020 14:31:23": [],
        "27/03/2020 18:08:27": []
    },
    "2069": {
        "27/03/2020 14:31:24": [],
        "27/03/2020 18:08:27": []
    },
    "2070": {
        "27/03/2020 14:31:24": [],
        "27/03/2020 18:08:28": []
    },
    "2084": {
        "27/03/2020 14:31:25": [],
        "27/03/2020 18:08:28": []
    },
    "3196": {
        "27/03/2020 14:31:26": [],
        "27/03/2020 18:08:28": []
    },
    "320": {
        "27/03/2020 14:31:26": [],
        "27/03/2020 18:08:29": []
    },
    "461": {
        "27/03/2020 14:31:27": [],
        "27/03/2020 18:08:29": []
    },
    "7586": {
        "27/03/2020 14:31:28": [],
        "27/03/2020 18:08:29": []
    },
    "7587": {
        "27/03/2020 14:31:28": [],
        "27/03/2020 18:08:29": []
    },
    "3114": {
        "27/03/2020 14:31:29": [],
        "27/03/2020 18:08:30": []
    },
    "3345": {
        "27/03/2020 14:31:29": [],
        "27/03/2020 18:08:30": []
    },
    "4726": {
        "27/03/2020 14:31:30": [],
        "27/03/2020 18:08:30": []
    },
    "4727": {
        "27/03/2020 14:31:30": [],
        "27/03/2020 18:08:31": []
    },
    "4728": {
        "27/03/2020 14:31:31": [],
        "27/03/2020 18:08:31": []
    },
    "4962": {
        "27/03/2020 14:31:32": [],
        "27/03/2020 18:08:31": []
    },
    "7555": {
        "27/03/2020 14:31:32": [],
        "27/03/2020 18:08:32": []
    },
    "786": {
        "27/03/2020 14:31:33": [],
        "27/03/2020 18:08:32": []
    },
    "792": {
        "27/03/2020 14:31:34": [],
        "27/03/2020 18:08:32": []
    },
    "2": {
        "27/03/2020 14:31:34": [],
        "27/03/2020 18:08:33": []
    },
    "3034": {
        "27/03/2020 14:31:35": [],
        "27/03/2020 18:08:33": []
    },
    "3085": {
        "27/03/2020 14:31:35": [],
        "27/03/2020 18:08:34": []
    },
    "4353": {
        "27/03/2020 14:31:36": [],
        "27/03/2020 18:08:34": []
    },
    "4354": {
        "27/03/2020 14:31:37": [],
        "27/03/2020 18:08:34": []
    },
    "4355": {
        "27/03/2020 14:31:37": [],
        "27/03/2020 18:08:34": []
    },
    "906": {
        "27/03/2020 14:31:38": [],
        "27/03/2020 18:08:35": []
    },
    "907": {
        "27/03/2020 14:31:38": [],
        "27/03/2020 18:08:35": []
    },
    "278": {
        "27/03/2020 14:31:39": [],
        "27/03/2020 18:08:35": []
    },
    "345": {
        "27/03/2020 14:31:40": [],
        "27/03/2020 18:08:36": []
    },
    "768": {
        "27/03/2020 14:31:40": [],
        "27/03/2020 18:08:36": []
    },
    "769": {
        "27/03/2020 14:31:41": [],
        "27/03/2020 18:08:36": []
    },
    "770": {
        "27/03/2020 14:31:41": [],
        "27/03/2020 18:08:37": []
    },
    "771": {
        "27/03/2020 14:31:42": [],
        "27/03/2020 18:08:37": []
    },
    "772": {
        "27/03/2020 14:31:43": [],
        "27/03/2020 18:08:37": []
    },
    "773": {
        "27/03/2020 14:31:43": [],
        "27/03/2020 18:08:38": []
    },
    "774": {
        "27/03/2020 14:31:44": [],
        "27/03/2020 18:08:38": []
    },
    "775": {
        "27/03/2020 14:31:44": [],
        "27/03/2020 18:08:38": []
    },
    "776": {
        "27/03/2020 14:31:45": [],
        "27/03/2020 18:08:39": []
    },
    "777": {
        "27/03/2020 14:31:46": [],
        "27/03/2020 18:08:39": []
    },
    "908": {
        "27/03/2020 14:31:46": [],
        "27/03/2020 18:08:39": []
    },
    "909": {
        "27/03/2020 14:31:47": [],
        "27/03/2020 18:08:40": []
    }
}