{
    "3085": {
        "21/03/2020 14:57:18": [],
        "21/03/2020 14:57:34": [],
        "21/03/2020 17:16:37": [],
        "21/03/2020 19:59:10": [],
        "21/03/2020 21:59:24": []
    },
    "3034": {
        "21/03/2020 14:57:18": [],
        "21/03/2020 14:57:34": [],
        "21/03/2020 17:16:36": [],
        "21/03/2020 19:59:10": [],
        "21/03/2020 21:59:24": []
    },
    "3114": {
        "21/03/2020 14:57:18": [],
        "21/03/2020 14:57:31": [],
        "21/03/2020 17:16:33": [],
        "21/03/2020 19:59:06": [],
        "21/03/2020 21:59:20": []
    },
    "4353": {
        "21/03/2020 14:57:19": [],
        "21/03/2020 14:57:34": [],
        "21/03/2020 17:16:37": [],
        "21/03/2020 19:59:11": [],
        "21/03/2020 21:59:25": []
    },
    "4355": {
        "21/03/2020 14:57:19": [],
        "21/03/2020 14:57:35": [],
        "21/03/2020 17:16:38": [],
        "21/03/2020 19:59:12": [],
        "21/03/2020 21:59:26": []
    },
    "4354": {
        "21/03/2020 14:57:19": [],
        "21/03/2020 14:57:35": [],
        "21/03/2020 17:16:37": [],
        "21/03/2020 19:59:11": [],
        "21/03/2020 21:59:25": []
    },
    "3196": {
        "21/03/2020 14:57:19": [],
        "21/03/2020 14:57:30": [],
        "21/03/2020 17:16:32": [],
        "21/03/2020 19:59:03": [],
        "21/03/2020 21:59:18": []
    },
    "3345": {
        "21/03/2020 14:57:20": [],
        "21/03/2020 14:57:31": [],
        "21/03/2020 17:16:33": [],
        "21/03/2020 19:59:06": [],
        "21/03/2020 21:59:20": []
    },
    "4727": {
        "21/03/2020 14:57:20": [],
        "21/03/2020 14:57:32": [],
        "21/03/2020 17:16:34": [],
        "21/03/2020 19:59:07": [],
        "21/03/2020 21:59:21": []
    },
    "4728": {
        "21/03/2020 14:57:20": [],
        "21/03/2020 14:57:32": [],
        "21/03/2020 17:16:34": [],
        "21/03/2020 19:59:07": [],
        "21/03/2020 21:59:21": []
    },
    "461": {
        "21/03/2020 14:57:21": [],
        "21/03/2020 14:57:30": [],
        "21/03/2020 17:16:32": [],
        "21/03/2020 19:59:04": [],
        "21/03/2020 21:59:18": []
    },
    "2068": {
        "21/03/2020 14:57:21": [],
        "21/03/2020 14:57:29": [],
        "21/03/2020 17:16:30": [],
        "21/03/2020 19:59:02": [],
        "21/03/2020 21:59:16": []
    },
    "2069": {
        "21/03/2020 14:57:21": [],
        "21/03/2020 14:57:29": [],
        "21/03/2020 17:16:31": [],
        "21/03/2020 19:59:02": [],
        "21/03/2020 21:59:16": []
    },
    "2070": {
        "21/03/2020 14:57:22": [],
        "21/03/2020 14:57:29": [],
        "21/03/2020 17:16:31": [],
        "21/03/2020 19:59:02": [],
        "21/03/2020 21:59:17": []
    },
    "2084": {
        "21/03/2020 14:57:22": [],
        "21/03/2020 14:57:30": [],
        "21/03/2020 17:16:31": [],
        "21/03/2020 19:59:03": [],
        "21/03/2020 21:59:17": []
    },
    "768": {
        "21/03/2020 14:57:22": [],
        "21/03/2020 14:57:36": [],
        "21/03/2020 17:16:39": [],
        "21/03/2020 19:59:14": [],
        "21/03/2020 21:59:28": []
    },
    "769": {
        "21/03/2020 14:57:22": [],
        "21/03/2020 14:57:36": [],
        "21/03/2020 17:16:39": [],
        "21/03/2020 19:59:14": [],
        "21/03/2020 21:59:28": []
    },
    "770": {
        "21/03/2020 14:57:23": [],
        "21/03/2020 14:57:37": [],
        "21/03/2020 17:16:39": [],
        "21/03/2020 19:59:15": [],
        "21/03/2020 21:59:29": []
    },
    "771": {
        "21/03/2020 14:57:23": [],
        "21/03/2020 14:57:37": [],
        "21/03/2020 17:16:40": [],
        "21/03/2020 19:59:15": [],
        "21/03/2020 21:59:29": []
    },
    "772": {
        "21/03/2020 14:57:23": [],
        "21/03/2020 14:57:37": [],
        "21/03/2020 17:16:40": [],
        "21/03/2020 19:59:16": [],
        "21/03/2020 21:59:30": []
    },
    "773": {
        "21/03/2020 14:57:24": [],
        "21/03/2020 14:57:38": [],
        "21/03/2020 17:16:40": [],
        "21/03/2020 19:59:16": [],
        "21/03/2020 21:59:30": []
    },
    "774": {
        "21/03/2020 14:57:24": [],
        "21/03/2020 14:57:38": [],
        "21/03/2020 17:16:41": [],
        "21/03/2020 19:59:17": [],
        "21/03/2020 21:59:31": []
    },
    "775": {
        "21/03/2020 14:57:24": [],
        "21/03/2020 14:57:38": [],
        "21/03/2020 17:16:41": [],
        "21/03/2020 19:59:17": [],
        "21/03/2020 21:59:31": []
    },
    "776": {
        "21/03/2020 14:57:24": [],
        "21/03/2020 14:57:38": [],
        "21/03/2020 17:16:41": [],
        "21/03/2020 19:59:17": [],
        "21/03/2020 21:59:31": []
    },
    "777": {
        "21/03/2020 14:57:25": [],
        "21/03/2020 14:57:39": [],
        "21/03/2020 17:16:41": [],
        "21/03/2020 19:59:18": [],
        "21/03/2020 21:59:32": []
    },
    "906": {
        "21/03/2020 14:57:25": [],
        "21/03/2020 14:57:35": [],
        "21/03/2020 17:16:38": [],
        "21/03/2020 19:59:12": [],
        "21/03/2020 21:59:26": []
    },
    "907": {
        "21/03/2020 14:57:25": [],
        "21/03/2020 14:57:35": [],
        "21/03/2020 17:16:38": [],
        "21/03/2020 19:59:13": [],
        "21/03/2020 21:59:26": []
    },
    "908": {
        "21/03/2020 14:57:26": [],
        "21/03/2020 14:57:39": [],
        "21/03/2020 17:16:42": [],
        "21/03/2020 19:59:18": [],
        "21/03/2020 21:59:32": []
    },
    "909": {
        "21/03/2020 14:57:26": [],
        "21/03/2020 14:57:39": [],
        "21/03/2020 17:16:42": [],
        "21/03/2020 19:59:19": [],
        "21/03/2020 21:59:33": []
    },
    "786": {
        "21/03/2020 14:57:26": [],
        "21/03/2020 14:57:33": [],
        "21/03/2020 17:16:35": [],
        "21/03/2020 19:59:09": [],
        "21/03/2020 21:59:23": []
    },
    "792": {
        "21/03/2020 14:57:26": [],
        "21/03/2020 14:57:33": [],
        "21/03/2020 17:16:36": [],
        "21/03/2020 19:59:09": [],
        "21/03/2020 21:59:23": []
    },
    "320": {
        "21/03/2020 14:57:27": [],
        "21/03/2020 14:57:30": [],
        "21/03/2020 17:16:32": [],
        "21/03/2020 19:59:04": [],
        "21/03/2020 21:59:18": []
    },
    "278": {
        "21/03/2020 14:57:27": [],
        "21/03/2020 14:57:36": [],
        "21/03/2020 17:16:38": [],
        "21/03/2020 19:59:13": [],
        "21/03/2020 21:59:27": []
    },
    "2": {
        "21/03/2020 14:57:27": [],
        "21/03/2020 14:57:34": [],
        "21/03/2020 17:16:36": [],
        "21/03/2020 19:59:10": [],
        "21/03/2020 21:59:24": []
    },
    "4726": {
        "21/03/2020 14:57:28": [],
        "21/03/2020 14:57:32": [],
        "21/03/2020 17:16:34": [],
        "21/03/2020 19:59:06": [],
        "21/03/2020 21:59:20": []
    },
    "7555": {
        "21/03/2020 14:57:28": [],
        "21/03/2020 14:57:33": [],
        "21/03/2020 17:16:35": [],
        "21/03/2020 19:59:08": [],
        "21/03/2020 21:59:22": []
    },
    "4962": {
        "21/03/2020 14:57:28": [],
        "21/03/2020 14:57:32": [],
        "21/03/2020 17:16:35": [],
        "21/03/2020 19:59:08": [],
        "21/03/2020 21:59:22": []
    },
    "7586": {
        "21/03/2020 14:57:31": [],
        "21/03/2020 17:16:33": [],
        "21/03/2020 19:59:05": [],
        "21/03/2020 21:59:19": []
    },
    "7587": {
        "21/03/2020 14:57:31": [],
        "21/03/2020 17:16:33": [],
        "21/03/2020 19:59:05": [],
        "21/03/2020 21:59:19": []
    },
    "345": {
        "21/03/2020 14:57:36": [],
        "21/03/2020 17:16:39": [],
        "21/03/2020 19:59:14": [],
        "21/03/2020 21:59:27": []
    }
}