{
    "2068": {
        "22/03/2020 15:27:08": [],
        "22/03/2020 17:51:09": [],
        "22/03/2020 20:09:00": []
    },
    "2069": {
        "22/03/2020 15:27:09": [],
        "22/03/2020 17:51:09": [],
        "22/03/2020 20:09:00": []
    },
    "2070": {
        "22/03/2020 15:27:09": [],
        "22/03/2020 17:51:09": [],
        "22/03/2020 20:09:01": []
    },
    "2084": {
        "22/03/2020 15:27:09": [],
        "22/03/2020 17:51:10": [],
        "22/03/2020 20:09:01": []
    },
    "3196": {
        "22/03/2020 15:27:10": [],
        "22/03/2020 17:51:10": [],
        "22/03/2020 20:09:02": []
    },
    "320": {
        "22/03/2020 15:27:10": [],
        "22/03/2020 17:51:11": [],
        "22/03/2020 20:09:02": []
    },
    "461": {
        "22/03/2020 15:27:11": [],
        "22/03/2020 17:51:11": [],
        "22/03/2020 20:09:02": []
    },
    "7586": {
        "22/03/2020 15:27:11": [],
        "22/03/2020 17:51:12": [],
        "22/03/2020 20:09:03": []
    },
    "7587": {
        "22/03/2020 15:27:11": [],
        "22/03/2020 17:51:12": [],
        "22/03/2020 20:09:03": []
    },
    "3114": {
        "22/03/2020 15:27:12": [],
        "22/03/2020 17:51:12": [],
        "22/03/2020 20:09:04": []
    },
    "3345": {
        "22/03/2020 15:27:13": [],
        "22/03/2020 17:51:13": [],
        "22/03/2020 20:09:04": []
    },
    "4726": {
        "22/03/2020 15:27:13": [],
        "22/03/2020 17:51:13": [],
        "22/03/2020 20:09:05": []
    },
    "4727": {
        "22/03/2020 15:27:14": [],
        "22/03/2020 17:51:14": [],
        "22/03/2020 20:09:05": []
    },
    "4728": {
        "22/03/2020 15:27:14": [],
        "22/03/2020 17:51:14": [],
        "22/03/2020 20:09:05": []
    },
    "4962": {
        "22/03/2020 15:27:15": [],
        "22/03/2020 17:51:14": [],
        "22/03/2020 20:09:06": []
    },
    "7555": {
        "22/03/2020 15:27:15": [],
        "22/03/2020 17:51:15": [],
        "22/03/2020 20:09:06": []
    },
    "786": {
        "22/03/2020 15:27:16": [],
        "22/03/2020 17:51:15": [],
        "22/03/2020 20:09:07": []
    },
    "792": {
        "22/03/2020 15:27:16": [],
        "22/03/2020 17:51:16": [],
        "22/03/2020 20:09:07": []
    },
    "2": {
        "22/03/2020 15:27:16": [],
        "22/03/2020 17:51:16": [],
        "22/03/2020 20:09:08": []
    },
    "3034": {
        "22/03/2020 15:27:17": [],
        "22/03/2020 17:51:17": [],
        "22/03/2020 20:09:08": []
    },
    "3085": {
        "22/03/2020 15:27:17": [],
        "22/03/2020 17:51:17": [],
        "22/03/2020 20:09:08": []
    },
    "4353": {
        "22/03/2020 15:27:18": [],
        "22/03/2020 17:51:18": [],
        "22/03/2020 20:09:09": []
    },
    "4354": {
        "22/03/2020 15:27:18": [],
        "22/03/2020 17:51:18": [],
        "22/03/2020 20:09:09": []
    },
    "4355": {
        "22/03/2020 15:27:19": [],
        "22/03/2020 17:51:19": [],
        "22/03/2020 20:09:10": []
    },
    "906": {
        "22/03/2020 15:27:19": [],
        "22/03/2020 17:51:19": [],
        "22/03/2020 20:09:10": []
    },
    "907": {
        "22/03/2020 15:27:20": [],
        "22/03/2020 17:51:20": [],
        "22/03/2020 20:09:10": []
    },
    "278": {
        "22/03/2020 15:27:20": [],
        "22/03/2020 17:51:20": [],
        "22/03/2020 20:09:11": []
    },
    "345": {
        "22/03/2020 15:27:20": [],
        "22/03/2020 17:51:21": [],
        "22/03/2020 20:09:11": []
    },
    "768": {
        "22/03/2020 15:27:21": [],
        "22/03/2020 17:51:21": [],
        "22/03/2020 20:09:12": []
    },
    "769": {
        "22/03/2020 15:27:21": [],
        "22/03/2020 17:51:21": [],
        "22/03/2020 20:09:12": []
    },
    "770": {
        "22/03/2020 15:27:22": [],
        "22/03/2020 17:51:22": [],
        "22/03/2020 20:09:13": []
    },
    "771": {
        "22/03/2020 15:27:22": [],
        "22/03/2020 17:51:22": [],
        "22/03/2020 20:09:13": []
    },
    "772": {
        "22/03/2020 15:27:23": [],
        "22/03/2020 17:51:23": [],
        "22/03/2020 20:09:13": []
    },
    "773": {
        "22/03/2020 15:27:23": [],
        "22/03/2020 17:51:23": [],
        "22/03/2020 20:09:14": []
    },
    "774": {
        "22/03/2020 15:27:24": [],
        "22/03/2020 17:51:24": [],
        "22/03/2020 20:09:14": []
    },
    "775": {
        "22/03/2020 15:27:24": [],
        "22/03/2020 17:51:24": [],
        "22/03/2020 20:09:15": []
    },
    "776": {
        "22/03/2020 15:27:25": [],
        "22/03/2020 17:51:24": [],
        "22/03/2020 20:09:15": []
    },
    "777": {
        "22/03/2020 15:27:25": [],
        "22/03/2020 17:51:25": [],
        "22/03/2020 20:09:16": []
    },
    "908": {
        "22/03/2020 15:27:26": [],
        "22/03/2020 17:51:25": [],
        "22/03/2020 20:09:16": []
    },
    "909": {
        "22/03/2020 15:27:26": [],
        "22/03/2020 17:51:26": [],
        "22/03/2020 20:09:16": []
    }
}