{
    "7571": {
        "21/03/2020 14:47:11": [],
        "21/03/2020 14:47:31": [],
        "21/03/2020 17:13:38": [],
        "21/03/2020 19:53:04": [],
        "21/03/2020 21:55:06": []
    },
    "92": {
        "21/03/2020 14:47:11": [],
        "21/03/2020 17:13:19": [],
        "21/03/2020 19:52:38": [],
        "21/03/2020 21:54:40": []
    },
    "93": {
        "21/03/2020 14:47:12": [],
        "21/03/2020 17:13:19": [],
        "21/03/2020 19:52:39": [],
        "21/03/2020 21:54:40": []
    },
    "94": {
        "21/03/2020 14:47:12": [],
        "21/03/2020 17:13:20": [],
        "21/03/2020 19:52:39": [],
        "21/03/2020 21:54:41": []
    },
    "126": {
        "21/03/2020 14:47:12": [],
        "21/03/2020 17:13:20": [],
        "21/03/2020 19:52:40": [],
        "21/03/2020 21:54:41": []
    },
    "6182": {
        "21/03/2020 14:47:12": [],
        "21/03/2020 17:13:20": [],
        "21/03/2020 19:52:40": [],
        "21/03/2020 21:54:41": []
    },
    "322": {
        "21/03/2020 14:47:13": [],
        "21/03/2020 17:13:21": [],
        "21/03/2020 19:52:40": [],
        "21/03/2020 21:54:42": []
    },
    "6312": {
        "21/03/2020 14:47:13": [],
        "21/03/2020 17:13:21": [],
        "21/03/2020 19:52:41": [],
        "21/03/2020 21:54:42": []
    },
    "7197": {
        "21/03/2020 14:47:13": [],
        "21/03/2020 17:13:21": [],
        "21/03/2020 19:52:41": [],
        "21/03/2020 21:54:43": []
    },
    "7195": {
        "21/03/2020 14:47:13": [],
        "21/03/2020 17:13:21": [],
        "21/03/2020 19:52:42": [],
        "21/03/2020 21:54:43": []
    },
    "3653": {
        "21/03/2020 14:47:14": [],
        "21/03/2020 17:13:22": [],
        "21/03/2020 19:52:42": [],
        "21/03/2020 21:54:43": []
    },
    "6055": {
        "21/03/2020 14:47:14": [],
        "21/03/2020 17:13:22": [],
        "21/03/2020 19:52:42": [],
        "21/03/2020 21:54:44": []
    },
    "1073": {
        "21/03/2020 14:47:14": [],
        "21/03/2020 17:13:22": [],
        "21/03/2020 19:52:43": [],
        "21/03/2020 21:54:44": []
    },
    "3641": {
        "21/03/2020 14:47:15": [],
        "21/03/2020 17:13:23": [],
        "21/03/2020 19:52:43": [],
        "21/03/2020 21:54:45": []
    },
    "3642": {
        "21/03/2020 14:47:15": [],
        "21/03/2020 17:13:23": [],
        "21/03/2020 19:52:44": [],
        "21/03/2020 21:54:45": []
    },
    "3643": {
        "21/03/2020 14:47:15": [],
        "21/03/2020 17:13:23": [],
        "21/03/2020 19:52:44": [],
        "21/03/2020 21:54:46": []
    },
    "3583": {
        "21/03/2020 14:47:15": [],
        "21/03/2020 17:13:24": [],
        "21/03/2020 19:52:45": [],
        "21/03/2020 21:54:46": []
    },
    "3584": {
        "21/03/2020 14:47:16": [],
        "21/03/2020 17:13:24": [],
        "21/03/2020 19:52:45": [],
        "21/03/2020 21:54:46": []
    },
    "3585": {
        "21/03/2020 14:47:16": [],
        "21/03/2020 17:13:24": [],
        "21/03/2020 19:52:45": [],
        "21/03/2020 21:54:47": []
    },
    "3625": {
        "21/03/2020 14:47:16": [],
        "21/03/2020 17:13:24": [],
        "21/03/2020 19:52:46": [],
        "21/03/2020 21:54:47": []
    },
    "3626": {
        "21/03/2020 14:47:17": [],
        "21/03/2020 17:13:25": [],
        "21/03/2020 19:52:46": [],
        "21/03/2020 21:54:48": []
    },
    "3627": {
        "21/03/2020 14:47:17": [],
        "21/03/2020 17:13:25": [],
        "21/03/2020 19:52:47": [],
        "21/03/2020 21:54:48": []
    },
    "3628": {
        "21/03/2020 14:47:17": [],
        "21/03/2020 17:13:25": [],
        "21/03/2020 19:52:47": [],
        "21/03/2020 21:54:49": []
    },
    "6052": {
        "21/03/2020 14:47:18": [],
        "21/03/2020 17:13:26": [],
        "21/03/2020 19:52:48": [],
        "21/03/2020 21:54:49": []
    },
    "3613": {
        "21/03/2020 14:47:18": [],
        "21/03/2020 17:13:26": [],
        "21/03/2020 19:52:48": [],
        "21/03/2020 21:54:49": []
    },
    "3615": {
        "21/03/2020 14:47:18": [],
        "21/03/2020 17:13:26": [],
        "21/03/2020 19:52:48": [],
        "21/03/2020 21:54:50": []
    },
    "3594": {
        "21/03/2020 14:47:18": [],
        "21/03/2020 17:13:27": [],
        "21/03/2020 19:52:49": [],
        "21/03/2020 21:54:50": []
    },
    "3595": {
        "21/03/2020 14:47:19": [],
        "21/03/2020 17:13:27": [],
        "21/03/2020 19:52:49": [],
        "21/03/2020 21:54:51": []
    },
    "3596": {
        "21/03/2020 14:47:19": [],
        "21/03/2020 17:13:27": [],
        "21/03/2020 19:52:50": [],
        "21/03/2020 21:54:51": []
    },
    "3597": {
        "21/03/2020 14:47:19": [],
        "21/03/2020 17:13:28": [],
        "21/03/2020 19:52:50": [],
        "21/03/2020 21:54:52": []
    },
    "3598": {
        "21/03/2020 14:47:20": [],
        "21/03/2020 17:13:28": [],
        "21/03/2020 19:52:51": [],
        "21/03/2020 21:54:52": []
    },
    "4465": {
        "21/03/2020 14:47:20": [],
        "21/03/2020 17:13:28": [],
        "21/03/2020 19:52:51": [],
        "21/03/2020 21:54:52": []
    },
    "943": {
        "21/03/2020 14:47:21": [],
        "21/03/2020 17:13:28": [],
        "21/03/2020 19:52:51": [],
        "21/03/2020 21:54:53": []
    },
    "3599": {
        "21/03/2020 14:47:21": [],
        "21/03/2020 17:13:29": [],
        "21/03/2020 19:52:52": [],
        "21/03/2020 21:54:53": []
    },
    "3600": {
        "21/03/2020 14:47:22": [],
        "21/03/2020 17:13:29": [],
        "21/03/2020 19:52:52": [],
        "21/03/2020 21:54:54": []
    },
    "3601": {
        "21/03/2020 14:47:23": [],
        "21/03/2020 17:13:29": [],
        "21/03/2020 19:52:53": [],
        "21/03/2020 21:54:54": []
    },
    "3602": {
        "21/03/2020 14:47:23": [],
        "21/03/2020 17:13:30": [],
        "21/03/2020 19:52:53": [],
        "21/03/2020 21:54:54": []
    },
    "3604": {
        "21/03/2020 14:47:23": [],
        "21/03/2020 17:13:30": [],
        "21/03/2020 19:52:53": [],
        "21/03/2020 21:54:55": []
    },
    "3607": {
        "21/03/2020 14:47:24": [],
        "21/03/2020 17:13:30": [],
        "21/03/2020 19:52:54": [],
        "21/03/2020 21:54:55": []
    },
    "6051": {
        "21/03/2020 14:47:24": [],
        "21/03/2020 17:13:30": [],
        "21/03/2020 19:52:54": [],
        "21/03/2020 21:54:56": []
    },
    "6053": {
        "21/03/2020 14:47:24": [],
        "21/03/2020 17:13:31": [],
        "21/03/2020 19:52:55": [],
        "21/03/2020 21:54:56": []
    },
    "7327": {
        "21/03/2020 14:47:24": [],
        "21/03/2020 17:13:31": [],
        "21/03/2020 19:52:55": [],
        "21/03/2020 21:54:57": []
    },
    "3629": {
        "21/03/2020 14:47:25": [],
        "21/03/2020 17:13:31": [],
        "21/03/2020 19:52:55": [],
        "21/03/2020 21:54:57": []
    },
    "3630": {
        "21/03/2020 14:47:25": [],
        "21/03/2020 17:13:32": [],
        "21/03/2020 19:52:56": [],
        "21/03/2020 21:54:58": []
    },
    "3631": {
        "21/03/2020 14:47:25": [],
        "21/03/2020 17:13:32": [],
        "21/03/2020 19:52:56": [],
        "21/03/2020 21:54:58": []
    },
    "3632": {
        "21/03/2020 14:47:25": [],
        "21/03/2020 17:13:32": [],
        "21/03/2020 19:52:57": [],
        "21/03/2020 21:54:58": []
    },
    "3633": {
        "21/03/2020 14:47:26": [],
        "21/03/2020 17:13:32": [],
        "21/03/2020 19:52:57": [],
        "21/03/2020 21:54:59": []
    },
    "3634": {
        "21/03/2020 14:47:26": [],
        "21/03/2020 17:13:33": [],
        "21/03/2020 19:52:57": [],
        "21/03/2020 21:54:59": []
    },
    "3635": {
        "21/03/2020 14:47:26": [],
        "21/03/2020 17:13:33": [],
        "21/03/2020 19:52:58": [],
        "21/03/2020 21:55:00": []
    },
    "3636": {
        "21/03/2020 14:47:27": [],
        "21/03/2020 17:13:33": [],
        "21/03/2020 19:52:58": [],
        "21/03/2020 21:55:00": []
    },
    "905": {
        "21/03/2020 14:47:27": [],
        "21/03/2020 17:13:34": [],
        "21/03/2020 19:52:59": [],
        "21/03/2020 21:55:01": []
    },
    "4331": {
        "21/03/2020 14:47:27": [],
        "21/03/2020 17:13:34": [],
        "21/03/2020 19:52:59": [],
        "21/03/2020 21:55:01": []
    },
    "4339": {
        "21/03/2020 14:47:28": [],
        "21/03/2020 17:13:34": [],
        "21/03/2020 19:52:59": [],
        "21/03/2020 21:55:01": []
    },
    "7692": {
        "21/03/2020 14:47:28": [],
        "21/03/2020 17:13:34": [],
        "21/03/2020 19:53:00": [],
        "21/03/2020 21:55:02": []
    },
    "6010": {
        "21/03/2020 14:47:28": [],
        "21/03/2020 17:13:35": [],
        "21/03/2020 19:53:00": [],
        "21/03/2020 21:55:02": []
    },
    "3656": {
        "21/03/2020 14:47:29": [],
        "21/03/2020 17:13:35": [],
        "21/03/2020 19:53:01": [],
        "21/03/2020 21:55:03": []
    },
    "7194": {
        "21/03/2020 14:47:29": [],
        "21/03/2020 17:13:35": [],
        "21/03/2020 19:53:01": [],
        "21/03/2020 21:55:03": []
    },
    "6310": {
        "21/03/2020 14:47:29": [],
        "21/03/2020 17:13:36": [],
        "21/03/2020 19:53:02": [],
        "21/03/2020 21:55:04": []
    },
    "6311": {
        "21/03/2020 14:47:29": [],
        "21/03/2020 17:13:36": [],
        "21/03/2020 19:53:02": [],
        "21/03/2020 21:55:04": []
    },
    "112": {
        "21/03/2020 14:47:30": [],
        "21/03/2020 17:13:36": [],
        "21/03/2020 19:53:03": [],
        "21/03/2020 21:55:05": []
    },
    "113": {
        "21/03/2020 14:47:30": [],
        "21/03/2020 17:13:37": [],
        "21/03/2020 19:53:03": [],
        "21/03/2020 21:55:05": []
    },
    "114": {
        "21/03/2020 14:47:30": [],
        "21/03/2020 17:13:37": [],
        "21/03/2020 19:53:03": [],
        "21/03/2020 21:55:06": []
    },
    "1646": {
        "21/03/2020 14:47:31": [],
        "21/03/2020 17:13:37": [],
        "21/03/2020 19:53:04": [],
        "21/03/2020 21:55:06": []
    }
}