{
    "92": {
        "26/03/2020 13:47:51": [],
        "26/03/2020 16:13:17": [],
        "26/03/2020 18:49:56": []
    },
    "93": {
        "26/03/2020 13:47:51": [],
        "26/03/2020 16:13:18": [],
        "26/03/2020 18:49:57": []
    },
    "94": {
        "26/03/2020 13:47:52": [],
        "26/03/2020 16:13:19": [],
        "26/03/2020 18:49:57": []
    },
    "126": {
        "26/03/2020 13:47:52": [],
        "26/03/2020 16:13:19": [],
        "26/03/2020 18:49:58": []
    },
    "6182": {
        "26/03/2020 13:47:53": [],
        "26/03/2020 16:13:20": [],
        "26/03/2020 18:49:58": []
    },
    "322": {
        "26/03/2020 13:47:53": [],
        "26/03/2020 16:13:20": [],
        "26/03/2020 18:49:59": []
    },
    "6312": {
        "26/03/2020 13:47:54": [],
        "26/03/2020 16:13:21": [],
        "26/03/2020 18:49:59": []
    },
    "7197": {
        "26/03/2020 13:47:55": [],
        "26/03/2020 16:13:21": [],
        "26/03/2020 18:50:00": []
    },
    "7195": {
        "26/03/2020 13:47:55": [],
        "26/03/2020 16:13:22": [],
        "26/03/2020 18:50:01": []
    },
    "3653": {
        "26/03/2020 13:47:56": [],
        "26/03/2020 16:13:22": [],
        "26/03/2020 18:50:01": []
    },
    "6055": {
        "26/03/2020 13:47:56": [],
        "26/03/2020 16:13:23": [],
        "26/03/2020 18:50:02": []
    },
    "1073": {
        "26/03/2020 13:47:57": [],
        "26/03/2020 16:13:23": [],
        "26/03/2020 18:50:02": []
    },
    "3641": {
        "26/03/2020 13:47:57": [],
        "26/03/2020 16:13:24": [],
        "26/03/2020 18:50:03": []
    },
    "3642": {
        "26/03/2020 13:47:58": [],
        "26/03/2020 16:13:24": [],
        "26/03/2020 18:50:03": []
    },
    "3643": {
        "26/03/2020 13:47:58": [],
        "26/03/2020 16:13:25": [],
        "26/03/2020 18:50:04": []
    },
    "3583": {
        "26/03/2020 13:47:59": [],
        "26/03/2020 16:13:25": [],
        "26/03/2020 18:50:04": []
    },
    "3584": {
        "26/03/2020 13:47:59": [],
        "26/03/2020 16:13:26": [],
        "26/03/2020 18:50:05": []
    },
    "3585": {
        "26/03/2020 13:47:59": [],
        "26/03/2020 16:13:26": [],
        "26/03/2020 18:50:05": []
    },
    "3625": {
        "26/03/2020 13:48:00": [],
        "26/03/2020 16:13:27": [],
        "26/03/2020 18:50:06": []
    },
    "3626": {
        "26/03/2020 13:48:01": [],
        "26/03/2020 16:13:27": [],
        "26/03/2020 18:50:06": []
    },
    "3627": {
        "26/03/2020 13:48:01": [],
        "26/03/2020 16:13:28": [],
        "26/03/2020 18:50:07": []
    },
    "3628": {
        "26/03/2020 13:48:02": [],
        "26/03/2020 16:13:28": [],
        "26/03/2020 18:50:07": []
    },
    "6052": {
        "26/03/2020 13:48:02": [],
        "26/03/2020 16:13:29": [],
        "26/03/2020 18:50:08": []
    },
    "3613": {
        "26/03/2020 13:48:03": [],
        "26/03/2020 16:13:29": [],
        "26/03/2020 18:50:08": []
    },
    "3615": {
        "26/03/2020 13:48:04": [],
        "26/03/2020 16:13:30": [],
        "26/03/2020 18:50:09": []
    },
    "3594": {
        "26/03/2020 13:48:04": [],
        "26/03/2020 16:13:30": [],
        "26/03/2020 18:50:09": []
    },
    "3595": {
        "26/03/2020 13:48:05": [],
        "26/03/2020 16:13:31": [],
        "26/03/2020 18:50:09": []
    },
    "3596": {
        "26/03/2020 13:48:05": [],
        "26/03/2020 16:13:31": [],
        "26/03/2020 18:50:10": []
    },
    "3597": {
        "26/03/2020 13:48:05": [],
        "26/03/2020 16:13:32": [],
        "26/03/2020 18:50:10": []
    },
    "3598": {
        "26/03/2020 13:48:06": [],
        "26/03/2020 16:13:32": [],
        "26/03/2020 18:50:11": []
    },
    "4465": {
        "26/03/2020 13:48:06": [],
        "26/03/2020 16:13:33": [],
        "26/03/2020 18:50:11": []
    },
    "943": {
        "26/03/2020 13:48:07": [],
        "26/03/2020 16:13:33": [],
        "26/03/2020 18:50:12": []
    },
    "3599": {
        "26/03/2020 13:48:07": [],
        "26/03/2020 16:13:34": [],
        "26/03/2020 18:50:12": []
    },
    "3600": {
        "26/03/2020 13:48:08": [],
        "26/03/2020 16:13:34": [],
        "26/03/2020 18:50:13": []
    },
    "3601": {
        "26/03/2020 13:48:09": [],
        "26/03/2020 16:13:35": [],
        "26/03/2020 18:50:13": []
    },
    "3602": {
        "26/03/2020 13:48:09": [],
        "26/03/2020 16:13:35": [],
        "26/03/2020 18:50:13": []
    },
    "3604": {
        "26/03/2020 13:48:10": [],
        "26/03/2020 16:13:36": [],
        "26/03/2020 18:50:14": []
    },
    "3607": {
        "26/03/2020 13:48:11": [],
        "26/03/2020 16:13:36": [],
        "26/03/2020 18:50:15": []
    },
    "6051": {
        "26/03/2020 13:48:11": [],
        "26/03/2020 16:13:37": [],
        "26/03/2020 18:50:15": []
    },
    "6053": {
        "26/03/2020 13:48:12": [],
        "26/03/2020 16:13:37": [],
        "26/03/2020 18:50:16": []
    },
    "7327": {
        "26/03/2020 13:48:13": [],
        "26/03/2020 16:13:38": [],
        "26/03/2020 18:50:16": []
    },
    "3629": {
        "26/03/2020 13:48:13": [],
        "26/03/2020 16:13:38": [],
        "26/03/2020 18:50:16": []
    },
    "3630": {
        "26/03/2020 13:48:14": [],
        "26/03/2020 16:13:39": [],
        "26/03/2020 18:50:17": []
    },
    "3631": {
        "26/03/2020 13:48:14": [],
        "26/03/2020 16:13:39": [],
        "26/03/2020 18:50:17": []
    },
    "3632": {
        "26/03/2020 13:48:14": [],
        "26/03/2020 16:13:40": [],
        "26/03/2020 18:50:18": []
    },
    "3633": {
        "26/03/2020 13:48:15": [],
        "26/03/2020 16:13:40": [],
        "26/03/2020 18:50:18": []
    },
    "3634": {
        "26/03/2020 13:48:16": [],
        "26/03/2020 16:13:41": [],
        "26/03/2020 18:50:19": []
    },
    "3635": {
        "26/03/2020 13:48:16": [],
        "26/03/2020 16:13:41": [],
        "26/03/2020 18:50:19": []
    },
    "3636": {
        "26/03/2020 13:48:16": [],
        "26/03/2020 16:13:42": [],
        "26/03/2020 18:50:20": []
    },
    "905": {
        "26/03/2020 13:48:17": [],
        "26/03/2020 16:13:42": [],
        "26/03/2020 18:50:20": []
    },
    "4331": {
        "26/03/2020 13:48:17": [],
        "26/03/2020 16:13:43": [],
        "26/03/2020 18:50:21": []
    },
    "4339": {
        "26/03/2020 13:48:18": [],
        "26/03/2020 16:13:43": [],
        "26/03/2020 18:50:21": []
    },
    "7692": {
        "26/03/2020 13:48:18": [],
        "26/03/2020 16:13:44": [],
        "26/03/2020 18:50:22": []
    },
    "6010": {
        "26/03/2020 13:48:19": [],
        "26/03/2020 16:13:44": [],
        "26/03/2020 18:50:22": []
    },
    "3656": {
        "26/03/2020 13:48:19": [],
        "26/03/2020 16:13:45": [],
        "26/03/2020 18:50:23": []
    },
    "7194": {
        "26/03/2020 13:48:20": [],
        "26/03/2020 16:13:45": [],
        "26/03/2020 18:50:24": []
    },
    "6310": {
        "26/03/2020 13:48:20": [],
        "26/03/2020 16:13:46": [],
        "26/03/2020 18:50:25": []
    },
    "6311": {
        "26/03/2020 13:48:21": [],
        "26/03/2020 16:13:46": [],
        "26/03/2020 18:50:25": []
    },
    "112": {
        "26/03/2020 13:48:21": [],
        "26/03/2020 16:13:47": [],
        "26/03/2020 18:50:26": []
    },
    "113": {
        "26/03/2020 13:48:22": [],
        "26/03/2020 16:13:47": [],
        "26/03/2020 18:50:26": []
    },
    "114": {
        "26/03/2020 13:48:22": [],
        "26/03/2020 16:13:48": [],
        "26/03/2020 18:50:27": []
    },
    "1646": {
        "26/03/2020 13:48:23": [],
        "26/03/2020 16:13:49": [],
        "26/03/2020 18:50:27": []
    },
    "7571": {
        "26/03/2020 13:48:23": [],
        "26/03/2020 16:13:49": [
            0
        ],
        "26/03/2020 18:50:27": []
    }
}