{
    "92": {
        "25/03/2020 15:07:56": [],
        "25/03/2020 17:50:10": [],
        "25/03/2020 20:11:58": [],
        "25/03/2020 21:39:02": []
    },
    "93": {
        "25/03/2020 15:07:56": [],
        "25/03/2020 17:50:11": [],
        "25/03/2020 20:12:00": [],
        "25/03/2020 21:39:02": []
    },
    "94": {
        "25/03/2020 15:07:57": [],
        "25/03/2020 17:50:12": [],
        "25/03/2020 20:12:02": [],
        "25/03/2020 21:39:03": []
    },
    "126": {
        "25/03/2020 15:07:57": [],
        "25/03/2020 17:50:12": [],
        "25/03/2020 20:12:04": [],
        "25/03/2020 21:39:03": []
    },
    "6182": {
        "25/03/2020 15:07:57": [],
        "25/03/2020 17:50:13": [],
        "25/03/2020 20:12:06": [],
        "25/03/2020 21:39:03": []
    },
    "322": {
        "25/03/2020 15:07:58": [],
        "25/03/2020 17:50:13": [],
        "25/03/2020 20:12:08": [],
        "25/03/2020 21:39:04": []
    },
    "6312": {
        "25/03/2020 15:07:58": [],
        "25/03/2020 17:50:14": [],
        "25/03/2020 20:12:11": [],
        "25/03/2020 21:39:04": []
    },
    "7197": {
        "25/03/2020 15:07:59": [],
        "25/03/2020 17:50:14": [],
        "25/03/2020 20:12:13": [],
        "25/03/2020 21:39:04": []
    },
    "7195": {
        "25/03/2020 15:08:00": [],
        "25/03/2020 17:50:15": [],
        "25/03/2020 20:12:15": [],
        "25/03/2020 21:39:04": []
    },
    "3653": {
        "25/03/2020 15:08:01": [],
        "25/03/2020 17:50:15": [],
        "25/03/2020 20:12:18": [],
        "25/03/2020 21:39:05": []
    },
    "6055": {
        "25/03/2020 15:08:01": [],
        "25/03/2020 17:50:16": [],
        "25/03/2020 20:12:19": [],
        "25/03/2020 21:39:05": []
    },
    "1073": {
        "25/03/2020 15:08:01": [],
        "25/03/2020 17:50:16": [],
        "25/03/2020 20:12:20": [],
        "25/03/2020 21:39:05": []
    },
    "3641": {
        "25/03/2020 15:08:02": [],
        "25/03/2020 17:50:17": [],
        "25/03/2020 20:12:22": [],
        "25/03/2020 21:39:06": []
    },
    "3642": {
        "25/03/2020 15:08:02": [],
        "25/03/2020 17:50:17": [],
        "25/03/2020 20:12:25": [],
        "25/03/2020 21:39:06": []
    },
    "3643": {
        "25/03/2020 15:08:03": [],
        "25/03/2020 17:50:18": [],
        "25/03/2020 20:12:29": [],
        "25/03/2020 21:39:06": []
    },
    "3583": {
        "25/03/2020 15:08:03": [],
        "25/03/2020 17:50:18": [],
        "25/03/2020 20:12:31": [],
        "25/03/2020 21:39:07": []
    },
    "3584": {
        "25/03/2020 15:08:03": [],
        "25/03/2020 17:50:19": [],
        "25/03/2020 20:12:33": [],
        "25/03/2020 21:39:07": []
    },
    "3585": {
        "25/03/2020 15:08:03": [],
        "25/03/2020 17:50:19": [],
        "25/03/2020 20:12:34": [],
        "25/03/2020 21:39:07": []
    },
    "3625": {
        "25/03/2020 15:08:04": [],
        "25/03/2020 17:50:20": [],
        "25/03/2020 20:12:36": [],
        "25/03/2020 21:39:08": []
    },
    "3626": {
        "25/03/2020 15:08:04": [],
        "25/03/2020 17:50:20": [],
        "25/03/2020 20:12:38": [],
        "25/03/2020 21:39:08": []
    },
    "3627": {
        "25/03/2020 15:08:04": [],
        "25/03/2020 17:50:21": [],
        "25/03/2020 20:12:41": [],
        "25/03/2020 21:39:09": []
    },
    "3628": {
        "25/03/2020 15:08:05": [],
        "25/03/2020 17:50:22": [],
        "25/03/2020 20:12:43": [],
        "25/03/2020 21:39:09": []
    },
    "6052": {
        "25/03/2020 15:08:05": [],
        "25/03/2020 17:50:23": [],
        "25/03/2020 20:12:45": [],
        "25/03/2020 21:39:10": []
    },
    "3613": {
        "25/03/2020 15:08:05": [],
        "25/03/2020 17:50:24": [],
        "25/03/2020 20:12:46": [],
        "25/03/2020 21:39:10": []
    },
    "3615": {
        "25/03/2020 15:08:06": [],
        "25/03/2020 17:50:24": [],
        "25/03/2020 20:12:48": [],
        "25/03/2020 21:39:10": []
    },
    "3594": {
        "25/03/2020 15:08:06": [],
        "25/03/2020 17:50:25": [],
        "25/03/2020 20:12:50": [],
        "25/03/2020 21:39:11": []
    },
    "3595": {
        "25/03/2020 15:08:07": [],
        "25/03/2020 17:50:25": [],
        "25/03/2020 20:12:51": [],
        "25/03/2020 21:39:11": []
    },
    "3596": {
        "25/03/2020 15:08:07": [],
        "25/03/2020 17:50:26": [],
        "25/03/2020 20:12:53": [],
        "25/03/2020 21:39:12": []
    },
    "3597": {
        "25/03/2020 15:08:07": [],
        "25/03/2020 17:50:27": [],
        "25/03/2020 20:12:55": [],
        "25/03/2020 21:39:12": []
    },
    "3598": {
        "25/03/2020 15:08:08": [],
        "25/03/2020 17:50:28": [],
        "25/03/2020 20:12:58": [],
        "25/03/2020 21:39:12": []
    },
    "4465": {
        "25/03/2020 15:08:08": [],
        "25/03/2020 17:50:28": [],
        "25/03/2020 20:13:00": [],
        "25/03/2020 21:39:12": []
    },
    "943": {
        "25/03/2020 15:08:08": [],
        "25/03/2020 17:50:29": [],
        "25/03/2020 20:13:02": [],
        "25/03/2020 21:39:13": []
    },
    "3599": {
        "25/03/2020 15:08:09": [],
        "25/03/2020 17:50:30": [],
        "25/03/2020 20:13:04": [],
        "25/03/2020 21:39:13": []
    },
    "3600": {
        "25/03/2020 15:08:09": [],
        "25/03/2020 17:50:31": [],
        "25/03/2020 20:13:07": [],
        "25/03/2020 21:39:13": []
    },
    "3601": {
        "25/03/2020 15:08:09": [],
        "25/03/2020 17:50:32": [],
        "25/03/2020 20:13:09": [],
        "25/03/2020 21:39:14": []
    },
    "3602": {
        "25/03/2020 15:08:10": [],
        "25/03/2020 17:50:32": [],
        "25/03/2020 20:13:12": [],
        "25/03/2020 21:39:14": []
    },
    "3604": {
        "25/03/2020 15:08:10": [],
        "25/03/2020 17:50:33": [],
        "25/03/2020 20:13:13": [],
        "25/03/2020 21:39:14": []
    },
    "3607": {
        "25/03/2020 15:08:10": [],
        "25/03/2020 17:50:33": [],
        "25/03/2020 20:13:15": [],
        "25/03/2020 21:39:14": []
    },
    "6051": {
        "25/03/2020 15:08:11": [],
        "25/03/2020 17:50:34": [],
        "25/03/2020 20:13:17": [],
        "25/03/2020 21:39:15": []
    },
    "6053": {
        "25/03/2020 15:08:11": [],
        "25/03/2020 17:50:35": [],
        "25/03/2020 20:13:19": [],
        "25/03/2020 21:39:15": []
    },
    "7327": {
        "25/03/2020 15:08:11": [],
        "25/03/2020 17:50:35": [],
        "25/03/2020 20:13:21": [],
        "25/03/2020 21:39:15": []
    },
    "3629": {
        "25/03/2020 15:08:12": [],
        "25/03/2020 17:50:36": [],
        "25/03/2020 20:13:24": [],
        "25/03/2020 21:39:16": []
    },
    "3630": {
        "25/03/2020 15:08:12": [],
        "25/03/2020 17:50:36": [],
        "25/03/2020 20:13:26": [],
        "25/03/2020 21:39:16": []
    },
    "3631": {
        "25/03/2020 15:08:12": [],
        "25/03/2020 17:50:37": [],
        "25/03/2020 20:13:28": [],
        "25/03/2020 21:39:16": []
    },
    "3632": {
        "25/03/2020 15:08:13": [],
        "25/03/2020 17:50:38": [],
        "25/03/2020 20:13:29": [],
        "25/03/2020 21:39:17": []
    },
    "3633": {
        "25/03/2020 15:08:13": [],
        "25/03/2020 17:50:38": [],
        "25/03/2020 20:13:30": [],
        "25/03/2020 21:39:17": []
    },
    "3634": {
        "25/03/2020 15:08:13": [],
        "25/03/2020 17:50:39": [],
        "25/03/2020 20:13:32": [],
        "25/03/2020 21:39:17": []
    },
    "3635": {
        "25/03/2020 15:08:14": [],
        "25/03/2020 17:50:40": [],
        "25/03/2020 20:13:36": [],
        "25/03/2020 21:39:17": []
    },
    "3636": {
        "25/03/2020 15:08:14": [],
        "25/03/2020 17:50:41": [],
        "25/03/2020 20:13:37": [],
        "25/03/2020 21:39:18": []
    },
    "905": {
        "25/03/2020 15:08:14": [],
        "25/03/2020 17:50:41": [],
        "25/03/2020 20:13:37": [],
        "25/03/2020 21:39:18": []
    },
    "4331": {
        "25/03/2020 15:08:15": [],
        "25/03/2020 17:50:42": [],
        "25/03/2020 20:13:37": [],
        "25/03/2020 21:39:18": []
    },
    "4339": {
        "25/03/2020 15:08:15": [],
        "25/03/2020 17:50:42": [],
        "25/03/2020 20:13:38": [],
        "25/03/2020 21:39:19": []
    },
    "7692": {
        "25/03/2020 15:08:15": [],
        "25/03/2020 17:50:43": [],
        "25/03/2020 20:13:38": [],
        "25/03/2020 21:39:19": []
    },
    "6010": {
        "25/03/2020 15:08:16": [],
        "25/03/2020 17:50:44": [],
        "25/03/2020 20:13:38": [],
        "25/03/2020 21:39:19": []
    },
    "3656": {
        "25/03/2020 15:08:16": [],
        "25/03/2020 17:50:44": [],
        "25/03/2020 20:13:38": [],
        "25/03/2020 21:39:20": []
    },
    "7194": {
        "25/03/2020 15:08:17": [],
        "25/03/2020 17:50:45": [],
        "25/03/2020 20:13:39": [],
        "25/03/2020 21:39:20": []
    },
    "6310": {
        "25/03/2020 15:08:17": [],
        "25/03/2020 17:50:46": [],
        "25/03/2020 20:13:39": [],
        "25/03/2020 21:39:20": []
    },
    "6311": {
        "25/03/2020 15:08:18": [],
        "25/03/2020 17:50:47": [],
        "25/03/2020 20:13:39": [],
        "25/03/2020 21:39:21": []
    },
    "112": {
        "25/03/2020 15:08:18": [],
        "25/03/2020 17:50:47": [],
        "25/03/2020 20:13:40": [],
        "25/03/2020 21:39:21": []
    },
    "113": {
        "25/03/2020 15:08:18": [],
        "25/03/2020 17:50:48": [],
        "25/03/2020 20:13:40": [],
        "25/03/2020 21:39:21": []
    },
    "114": {
        "25/03/2020 15:08:19": [],
        "25/03/2020 17:50:49": [],
        "25/03/2020 20:13:40": [],
        "25/03/2020 21:39:22": []
    },
    "1646": {
        "25/03/2020 15:08:19": [],
        "25/03/2020 17:50:50": [],
        "25/03/2020 20:13:40": [],
        "25/03/2020 21:39:22": []
    },
    "7571": {
        "25/03/2020 15:08:19": [],
        "25/03/2020 17:50:50": [],
        "25/03/2020 20:13:41": [],
        "25/03/2020 21:39:22": []
    }
}