{
    "4690": {
        "27/03/2020 13:32:23": [],
        "27/03/2020 17:22:48": []
    },
    "4691": {
        "27/03/2020 13:32:23": [],
        "27/03/2020 17:22:48": []
    },
    "4820": {
        "27/03/2020 13:32:24": [],
        "27/03/2020 17:22:49": []
    },
    "6126": {
        "27/03/2020 13:32:24": [],
        "27/03/2020 17:22:49": []
    },
    "6134": {
        "27/03/2020 13:32:25": [],
        "27/03/2020 17:22:50": []
    },
    "7155": {
        "27/03/2020 13:32:25": [],
        "27/03/2020 17:22:50": []
    },
    "7379": {
        "27/03/2020 13:32:26": [],
        "27/03/2020 17:22:51": []
    },
    "7563": {
        "27/03/2020 13:32:26": [],
        "27/03/2020 17:22:51": []
    },
    "1882": {
        "27/03/2020 13:32:26": [],
        "27/03/2020 17:22:52": []
    },
    "1883": {
        "27/03/2020 13:32:27": [],
        "27/03/2020 17:22:52": []
    },
    "1884": {
        "27/03/2020 13:32:27": [],
        "27/03/2020 17:22:53": []
    },
    "1887": {
        "27/03/2020 13:32:28": [],
        "27/03/2020 17:22:53": []
    },
    "1888": {
        "27/03/2020 13:32:28": [],
        "27/03/2020 17:22:54": []
    },
    "1889": {
        "27/03/2020 13:32:29": [],
        "27/03/2020 17:22:54": []
    },
    "1890": {
        "27/03/2020 13:32:29": [],
        "27/03/2020 17:22:55": []
    },
    "2681": {
        "27/03/2020 13:32:30": [],
        "27/03/2020 17:22:55": []
    },
    "2682": {
        "27/03/2020 13:32:30": [],
        "27/03/2020 17:22:56": []
    },
    "4603": {
        "27/03/2020 13:32:31": [],
        "27/03/2020 17:22:56": []
    },
    "4604": {
        "27/03/2020 13:32:31": [],
        "27/03/2020 17:22:57": []
    },
    "4620": {
        "27/03/2020 13:32:31": [],
        "27/03/2020 17:22:57": []
    },
    "4626": {
        "27/03/2020 13:32:32": [],
        "27/03/2020 17:22:58": []
    },
    "4627": {
        "27/03/2020 13:32:32": [],
        "27/03/2020 17:22:58": []
    },
    "4903": {
        "27/03/2020 13:32:33": [],
        "27/03/2020 17:22:59": []
    },
    "2223": {
        "27/03/2020 13:32:33": [],
        "27/03/2020 17:22:59": []
    },
    "2224": {
        "27/03/2020 13:32:34": [],
        "27/03/2020 17:23:00": []
    },
    "2225": {
        "27/03/2020 13:32:34": [],
        "27/03/2020 17:23:00": []
    },
    "2226": {
        "27/03/2020 13:32:35": [],
        "27/03/2020 17:23:01": []
    },
    "3368": {
        "27/03/2020 13:32:35": [],
        "27/03/2020 17:23:01": []
    },
    "4411": {
        "27/03/2020 13:32:36": [],
        "27/03/2020 17:23:02": []
    },
    "4327": {
        "27/03/2020 13:32:36": [],
        "27/03/2020 17:23:03": []
    },
    "2227": {
        "27/03/2020 13:32:37": [],
        "27/03/2020 17:23:03": []
    },
    "2228": {
        "27/03/2020 13:32:37": [],
        "27/03/2020 17:23:04": []
    },
    "2229": {
        "27/03/2020 13:32:38": [],
        "27/03/2020 17:23:04": []
    },
    "3370": {
        "27/03/2020 13:32:38": [],
        "27/03/2020 17:23:05": []
    },
    "4410": {
        "27/03/2020 13:32:39": [],
        "27/03/2020 17:23:05": []
    },
    "4715": {
        "27/03/2020 13:32:39": [],
        "27/03/2020 17:23:05": []
    },
    "6073": {
        "27/03/2020 13:32:40": [],
        "27/03/2020 17:23:06": []
    },
    "4493": {
        "27/03/2020 13:32:40": [],
        "27/03/2020 17:23:06": []
    },
    "4611": {
        "27/03/2020 13:32:40": [],
        "27/03/2020 17:23:07": []
    },
    "4612": {
        "27/03/2020 13:32:41": [],
        "27/03/2020 17:23:07": []
    },
    "4613": {
        "27/03/2020 13:32:41": [],
        "27/03/2020 17:23:08": []
    },
    "4616": {
        "27/03/2020 13:32:42": [],
        "27/03/2020 17:23:08": []
    },
    "4630": {
        "27/03/2020 13:32:42": [],
        "27/03/2020 17:23:09": []
    },
    "4631": {
        "27/03/2020 13:32:43": [],
        "27/03/2020 17:23:09": []
    },
    "4795": {
        "27/03/2020 13:32:43": [],
        "27/03/2020 17:23:10": []
    },
    "4826": {
        "27/03/2020 13:32:44": [],
        "27/03/2020 17:23:10": []
    },
    "5138": {
        "27/03/2020 13:32:44": [],
        "27/03/2020 17:23:11": []
    },
    "6127": {
        "27/03/2020 13:32:45": [],
        "27/03/2020 17:23:11": []
    },
    "6133": {
        "27/03/2020 13:32:45": [],
        "27/03/2020 17:23:11": []
    },
    "1844": {
        "27/03/2020 13:32:46": [],
        "27/03/2020 17:23:12": []
    },
    "1895": {
        "27/03/2020 13:32:46": [],
        "27/03/2020 17:23:12": []
    },
    "1896": {
        "27/03/2020 13:32:47": [],
        "27/03/2020 17:23:13": []
    },
    "1897": {
        "27/03/2020 13:32:48": [],
        "27/03/2020 17:23:13": []
    },
    "1912": {
        "27/03/2020 13:32:48": [],
        "27/03/2020 17:23:14": []
    },
    "2678": {
        "27/03/2020 13:32:49": [],
        "27/03/2020 17:23:14": []
    },
    "4362": {
        "27/03/2020 13:32:49": [],
        "27/03/2020 17:23:15": []
    },
    "4688": {
        "27/03/2020 13:32:50": [],
        "27/03/2020 17:23:15": []
    },
    "4689": {
        "27/03/2020 13:32:50": [],
        "27/03/2020 17:23:15": []
    },
    "7168": {
        "27/03/2020 13:32:51": [],
        "27/03/2020 17:23:16": []
    },
    "7026": {
        "27/03/2020 13:32:51": [],
        "27/03/2020 17:23:16": []
    }
}