{
    "4690": {
        "23/03/2020 12:45:42": [],
        "23/03/2020 15:01:21": [],
        "23/03/2020 18:09:29": []
    },
    "4691": {
        "23/03/2020 12:45:42": [],
        "23/03/2020 15:01:21": [],
        "23/03/2020 18:09:29": []
    },
    "4820": {
        "23/03/2020 12:45:43": [],
        "23/03/2020 15:01:21": [],
        "23/03/2020 18:09:30": []
    },
    "6126": {
        "23/03/2020 12:45:43": [],
        "23/03/2020 15:01:22": [],
        "23/03/2020 18:09:30": []
    },
    "6134": {
        "23/03/2020 12:45:44": [],
        "23/03/2020 15:01:22": [],
        "23/03/2020 18:09:30": []
    },
    "7155": {
        "23/03/2020 12:45:44": [],
        "23/03/2020 15:01:22": [],
        "23/03/2020 18:09:30": []
    },
    "7379": {
        "23/03/2020 12:45:45": [],
        "23/03/2020 15:01:23": [],
        "23/03/2020 18:09:31": []
    },
    "7563": {
        "23/03/2020 12:45:46": [],
        "23/03/2020 15:01:23": [],
        "23/03/2020 18:09:31": []
    },
    "1882": {
        "23/03/2020 12:45:46": [],
        "23/03/2020 15:01:23": [],
        "23/03/2020 18:09:31": []
    },
    "1883": {
        "23/03/2020 12:45:47": [],
        "23/03/2020 15:01:23": [],
        "23/03/2020 18:09:32": []
    },
    "1884": {
        "23/03/2020 12:45:47": [],
        "23/03/2020 15:01:24": [],
        "23/03/2020 18:09:32": []
    },
    "1887": {
        "23/03/2020 12:45:48": [],
        "23/03/2020 15:01:24": [],
        "23/03/2020 18:09:32": []
    },
    "1888": {
        "23/03/2020 12:45:48": [],
        "23/03/2020 15:01:24": [],
        "23/03/2020 18:09:33": []
    },
    "1889": {
        "23/03/2020 12:45:49": [],
        "23/03/2020 15:01:25": [],
        "23/03/2020 18:09:33": []
    },
    "1890": {
        "23/03/2020 12:45:49": [],
        "23/03/2020 15:01:25": [],
        "23/03/2020 18:09:33": []
    },
    "2681": {
        "23/03/2020 12:45:50": [],
        "23/03/2020 15:01:25": [],
        "23/03/2020 18:09:33": []
    },
    "2682": {
        "23/03/2020 12:45:51": [],
        "23/03/2020 15:01:26": [],
        "23/03/2020 18:09:34": []
    },
    "4603": {
        "23/03/2020 12:45:51": [],
        "23/03/2020 15:01:26": [],
        "23/03/2020 18:09:34": []
    },
    "4604": {
        "23/03/2020 12:45:52": [],
        "23/03/2020 15:01:26": [],
        "23/03/2020 18:09:34": []
    },
    "4620": {
        "23/03/2020 12:45:52": [],
        "23/03/2020 15:01:27": [],
        "23/03/2020 18:09:35": []
    },
    "4626": {
        "23/03/2020 12:45:53": [],
        "23/03/2020 15:01:27": [],
        "23/03/2020 18:09:35": []
    },
    "4627": {
        "23/03/2020 12:45:53": [],
        "23/03/2020 15:01:28": [],
        "23/03/2020 18:09:35": []
    },
    "4903": {
        "23/03/2020 12:45:54": [],
        "23/03/2020 15:01:28": [],
        "23/03/2020 18:09:36": []
    },
    "2223": {
        "23/03/2020 12:45:54": [],
        "23/03/2020 15:01:29": [],
        "23/03/2020 18:09:36": []
    },
    "2224": {
        "23/03/2020 12:45:55": [],
        "23/03/2020 15:01:29": [],
        "23/03/2020 18:09:36": []
    },
    "2225": {
        "23/03/2020 12:45:56": [],
        "23/03/2020 15:01:29": [],
        "23/03/2020 18:09:36": []
    },
    "2226": {
        "23/03/2020 12:45:56": [],
        "23/03/2020 15:01:30": [],
        "23/03/2020 18:09:37": []
    },
    "3368": {
        "23/03/2020 12:45:57": [],
        "23/03/2020 15:01:30": [],
        "23/03/2020 18:09:37": []
    },
    "4411": {
        "23/03/2020 12:45:57": [],
        "23/03/2020 15:01:30": [],
        "23/03/2020 18:09:37": []
    },
    "4327": {
        "23/03/2020 12:45:58": [],
        "23/03/2020 15:01:31": [],
        "23/03/2020 18:09:38": []
    },
    "2227": {
        "23/03/2020 12:45:59": [],
        "23/03/2020 15:01:31": [],
        "23/03/2020 18:09:38": []
    },
    "2228": {
        "23/03/2020 12:46:00": [],
        "23/03/2020 15:01:31": [],
        "23/03/2020 18:09:38": []
    },
    "2229": {
        "23/03/2020 12:46:01": [],
        "23/03/2020 15:01:32": [],
        "23/03/2020 18:09:39": []
    },
    "3370": {
        "23/03/2020 12:46:02": [],
        "23/03/2020 15:01:32": [],
        "23/03/2020 18:09:39": []
    },
    "4410": {
        "23/03/2020 12:46:02": [],
        "23/03/2020 15:01:32": [],
        "23/03/2020 18:09:39": []
    },
    "4715": {
        "23/03/2020 12:46:03": [],
        "23/03/2020 15:01:33": [],
        "23/03/2020 18:09:40": []
    },
    "6073": {
        "23/03/2020 12:46:03": [],
        "23/03/2020 15:01:33": [],
        "23/03/2020 18:09:40": []
    },
    "4493": {
        "23/03/2020 12:46:04": [],
        "23/03/2020 15:01:33": [],
        "23/03/2020 18:09:40": []
    },
    "4611": {
        "23/03/2020 12:46:05": [],
        "23/03/2020 15:01:34": [],
        "23/03/2020 18:09:40": []
    },
    "4612": {
        "23/03/2020 12:46:05": [],
        "23/03/2020 15:01:34": [],
        "23/03/2020 18:09:41": []
    },
    "4613": {
        "23/03/2020 12:46:06": [],
        "23/03/2020 15:01:34": [],
        "23/03/2020 18:09:41": []
    },
    "4616": {
        "23/03/2020 12:46:07": [],
        "23/03/2020 15:01:35": [],
        "23/03/2020 18:09:41": []
    },
    "4630": {
        "23/03/2020 12:46:07": [],
        "23/03/2020 15:01:35": [],
        "23/03/2020 18:09:42": []
    },
    "4631": {
        "23/03/2020 12:46:08": [],
        "23/03/2020 15:01:35": [],
        "23/03/2020 18:09:42": []
    },
    "4795": {
        "23/03/2020 12:46:09": [],
        "23/03/2020 15:01:35": [],
        "23/03/2020 18:09:42": []
    },
    "4826": {
        "23/03/2020 12:46:09": [],
        "23/03/2020 15:01:36": [],
        "23/03/2020 18:09:42": []
    },
    "5138": {
        "23/03/2020 12:46:10": [],
        "23/03/2020 15:01:36": [],
        "23/03/2020 18:09:43": []
    },
    "6127": {
        "23/03/2020 12:46:11": [],
        "23/03/2020 15:01:36": [],
        "23/03/2020 18:09:43": []
    },
    "6133": {
        "23/03/2020 12:46:12": [],
        "23/03/2020 15:01:37": [],
        "23/03/2020 18:09:43": []
    },
    "1844": {
        "23/03/2020 12:46:12": [],
        "23/03/2020 15:01:37": [],
        "23/03/2020 18:09:44": []
    },
    "1895": {
        "23/03/2020 12:46:13": [],
        "23/03/2020 15:01:37": [],
        "23/03/2020 18:09:44": []
    },
    "1896": {
        "23/03/2020 12:46:13": [],
        "23/03/2020 15:01:37": [],
        "23/03/2020 18:09:44": []
    },
    "1897": {
        "23/03/2020 12:46:14": [],
        "23/03/2020 15:01:38": [],
        "23/03/2020 18:09:44": []
    },
    "1912": {
        "23/03/2020 12:46:14": [],
        "23/03/2020 15:01:38": [],
        "23/03/2020 18:09:45": []
    },
    "2678": {
        "23/03/2020 12:46:15": [],
        "23/03/2020 15:01:38": [],
        "23/03/2020 18:09:45": []
    },
    "4362": {
        "23/03/2020 12:46:16": [],
        "23/03/2020 15:01:39": [],
        "23/03/2020 18:09:45": []
    },
    "4688": {
        "23/03/2020 12:46:16": [],
        "23/03/2020 15:01:39": [],
        "23/03/2020 18:09:46": []
    },
    "4689": {
        "23/03/2020 12:46:17": [],
        "23/03/2020 15:01:39": [],
        "23/03/2020 18:09:46": []
    },
    "7168": {
        "23/03/2020 12:46:17": [],
        "23/03/2020 15:01:40": [],
        "23/03/2020 18:09:46": []
    },
    "7026": {
        "23/03/2020 12:46:18": [],
        "23/03/2020 15:01:40": [],
        "23/03/2020 18:09:47": []
    }
}