{
    "overall_punctuality": -278513,
    "overall_num": 7090,
    "overall_avg": -39,
    "daily_punctuality": {
        "Sunday": {
            "num_results": 838,
            "total": -73972,
            "avg:": 0,
            "avg": -88
        },
        "Monday": {
            "num_results": 844,
            "total": -109241,
            "avg:": 0,
            "avg": -129
        },
        "Tuesday": {
            "num_results": 1117,
            "total": -157893,
            "avg:": 0,
            "avg": -141
        },
        "Wednesday": {
            "num_results": 1124,
            "total": 53299,
            "avg:": 0,
            "avg": 48
        },
        "Thursday": {
            "num_results": 844,
            "total": 145617,
            "avg:": 0,
            "avg": 173
        },
        "Friday": {
            "num_results": 563,
            "total": 47013,
            "avg:": 0,
            "avg": 84
        },
        "Saturday": {
            "num_results": 1760,
            "total": -183336,
            "avg:": 0,
            "avg": -104
        }
    }
}