{
    "313": {
        "27/03/2020 14:07:01": [],
        "27/03/2020 17:53:46": []
    },
    "349": {
        "27/03/2020 14:07:01": [],
        "27/03/2020 17:53:46": []
    },
    "7158": {
        "27/03/2020 14:07:02": [
            0,
            0,
            0,
            0,
            0,
            0
        ],
        "27/03/2020 17:53:46": [
            0,
            0,
            0
        ]
    },
    "7048": {
        "27/03/2020 14:07:02": [
            -27,
            -27,
            -30,
            -30,
            -30,
            -30
        ],
        "27/03/2020 17:53:47": [
            -27,
            -26,
            -26
        ]
    },
    "7699": {
        "27/03/2020 14:07:03": [
            9,
            9,
            1,
            1,
            1,
            1
        ],
        "27/03/2020 17:53:47": [
            7,
            10,
            10
        ]
    },
    "7159": {
        "27/03/2020 14:07:03": [
            -30,
            -30,
            20,
            20,
            20,
            20
        ],
        "27/03/2020 17:53:48": [
            28,
            -28,
            -28
        ]
    },
    "7388": {
        "27/03/2020 14:07:04": [
            -15,
            -15,
            -27,
            -27,
            -27,
            -27
        ],
        "27/03/2020 17:53:48": [
            -17,
            -12,
            -12
        ]
    },
    "7017": {
        "27/03/2020 14:07:04": [
            6,
            6,
            -15,
            -15,
            -15,
            -15
        ],
        "27/03/2020 17:53:49": [
            114,
            2,
            11,
            11
        ]
    },
    "7018": {
        "27/03/2020 14:07:05": [
            -13,
            -13,
            21,
            21,
            21,
            21
        ],
        "27/03/2020 17:53:49": [
            109,
            -18,
            -8,
            -8
        ]
    },
    "7030": {
        "27/03/2020 14:07:05": [
            28,
            28,
            -2,
            -2,
            -2,
            -2
        ],
        "27/03/2020 17:53:50": [
            149,
            22,
            -25,
            -25
        ]
    },
    "7021": {
        "27/03/2020 14:07:06": [
            -8,
            -8,
            19,
            19,
            19,
            19
        ],
        "27/03/2020 17:53:50": [
            113,
            -14,
            -1,
            -1
        ]
    },
    "6111": {
        "27/03/2020 14:07:07": [
            -22,
            -22,
            -1,
            -1,
            -1,
            -1
        ],
        "27/03/2020 17:53:51": [
            62,
            -30,
            -14,
            -14
        ]
    },
    "6112": {
        "27/03/2020 14:07:07": [
            -24,
            -24,
            -9,
            -9,
            -9,
            -9
        ],
        "27/03/2020 17:53:51": [
            99,
            27,
            -14,
            -14
        ]
    },
    "6113": {
        "27/03/2020 14:07:08": [
            -21,
            -21,
            -21,
            -13,
            -13,
            -13
        ],
        "27/03/2020 17:53:52": [
            101,
            29,
            -10
        ]
    },
    "1898": {
        "27/03/2020 14:07:08": [
            1,
            1,
            1,
            6,
            6,
            6
        ],
        "27/03/2020 17:53:52": [
            62,
            -10,
            13,
            13
        ]
    },
    "1858": {
        "27/03/2020 14:07:09": [
            -4,
            -4,
            -4,
            -5,
            -5,
            -5
        ],
        "27/03/2020 17:53:53": [
            56,
            -16,
            9
        ]
    },
    "1859": {
        "27/03/2020 14:07:09": [
            -24,
            -24,
            -24
        ],
        "27/03/2020 17:53:53": [
            89,
            17,
            -17
        ]
    },
    "1860": {
        "27/03/2020 14:07:10": [
            23,
            23,
            23,
            10,
            10,
            10
        ],
        "27/03/2020 17:53:54": [
            68,
            -4,
            24
        ]
    },
    "4492": {
        "27/03/2020 14:07:10": [
            -13,
            -13,
            -13,
            -29,
            -29,
            -29
        ],
        "27/03/2020 17:53:54": [
            88,
            16,
            -15
        ]
    },
    "1861": {
        "27/03/2020 14:07:11": [
            13,
            13,
            13,
            -7,
            -7,
            -7
        ],
        "27/03/2020 17:53:55": [
            49,
            -23,
            7
        ]
    },
    "1862": {
        "27/03/2020 14:07:12": [
            -15,
            -15,
            -15,
            21,
            21,
            21
        ],
        "27/03/2020 17:53:55": [
            76,
            4,
            -25
        ]
    },
    "1863": {
        "27/03/2020 14:07:13": [
            17,
            17,
            17,
            -12,
            -12,
            -12
        ],
        "27/03/2020 17:53:55": [
            42,
            -30,
            2
        ]
    },
    "1864": {
        "27/03/2020 14:07:13": [
            -14,
            -14,
            -14,
            13,
            13,
            13
        ],
        "27/03/2020 17:53:56": [
            66,
            -6,
            27
        ]
    },
    "1865": {
        "27/03/2020 14:07:14": [
            22,
            22,
            22,
            -16,
            -16,
            -16
        ],
        "27/03/2020 17:53:56": [
            96,
            24,
            -2
        ]
    },
    "1866": {
        "27/03/2020 14:07:14": [
            -1,
            -1,
            -1,
            15,
            15,
            15
        ],
        "27/03/2020 17:53:57": [
            61,
            66,
            -6
        ]
    },
    "1850": {
        "27/03/2020 14:07:15": [
            -18,
            -18,
            -18,
            -7,
            -7,
            -7
        ],
        "27/03/2020 17:53:57": [
            37,
            42,
            -30,
            7
        ]
    },
    "1867": {
        "27/03/2020 14:07:16": [
            159,
            11,
            11,
            11,
            18,
            18,
            18
        ],
        "27/03/2020 17:53:58": [
            61,
            66,
            -6,
            -28
        ]
    },
    "4489": {
        "27/03/2020 14:07:16": [
            171,
            79,
            23,
            23
        ],
        "27/03/2020 17:53:58": [
            72,
            77,
            5,
            -17
        ]
    },
    "4747": {
        "27/03/2020 14:07:17": [
            150,
            21,
            21,
            21,
            24,
            24,
            24
        ],
        "27/03/2020 17:53:59": [
            64,
            69,
            -3,
            -22
        ]
    },
    "1845": {
        "27/03/2020 14:07:18": [
            115,
            -14,
            -14,
            -14,
            24,
            24
        ],
        "27/03/2020 17:53:59": [
            432,
            52,
            -15,
            -15,
            -19
        ]
    },
    "7166": {
        "27/03/2020 14:07:18": [
            102,
            -27,
            -27,
            -27,
            8,
            8
        ],
        "27/03/2020 17:53:59": [
            474,
            94,
            154,
            27,
            25
        ]
    },
    "1847": {
        "27/03/2020 14:07:19": [
            106,
            -23,
            -23,
            -23,
            10,
            10
        ],
        "27/03/2020 17:54:00": [
            466,
            86,
            19,
            19
        ]
    },
    "1696": {
        "27/03/2020 14:07:19": [
            148,
            19,
            19,
            19,
            -13,
            -13
        ],
        "27/03/2020 17:54:00": [
            561,
            442,
            62,
            -5,
            -5
        ]
    },
    "1697": {
        "27/03/2020 14:07:20": [
            105,
            -24,
            -24,
            -24,
            1,
            1
        ],
        "27/03/2020 17:54:01": [
            577,
            453,
            73,
            6,
            6
        ]
    },
    "1698": {
        "27/03/2020 14:07:21": [
            138,
            9,
            9,
            9,
            29,
            29
        ],
        "27/03/2020 17:54:01": [
            548,
            475,
            95,
            28,
            28
        ]
    },
    "1699": {
        "27/03/2020 14:07:21": [
            104,
            -25,
            -25,
            -25,
            -7,
            -7
        ],
        "27/03/2020 17:54:02": [
            567,
            442,
            62,
            -5,
            -5
        ]
    },
    "1700": {
        "27/03/2020 14:07:22": [
            144,
            15,
            15,
            15,
            -29,
            -29
        ],
        "27/03/2020 17:54:02": [
            537,
            424,
            44,
            -23,
            -23
        ]
    },
    "1701": {
        "27/03/2020 14:07:22": [
            -25,
            118,
            -11,
            -11,
            -11,
            -2,
            -2
        ],
        "27/03/2020 17:54:03": [
            568,
            460,
            80,
            13,
            13
        ]
    },
    "1702": {
        "27/03/2020 14:07:23": [
            -1,
            142,
            13,
            13,
            13,
            17,
            17
        ],
        "27/03/2020 17:54:03": [
            591,
            425,
            45,
            -22,
            -22
        ]
    },
    "1703": {
        "27/03/2020 14:07:24": [
            -30,
            113,
            -16,
            -16,
            -16,
            -16,
            -16
        ],
        "27/03/2020 17:54:04": [
            558,
            447,
            67,
            0,
            0
        ]
    },
    "1905": {
        "27/03/2020 14:07:24": [
            -43,
            100,
            -29,
            -29,
            -29,
            27,
            27
        ],
        "27/03/2020 17:54:04": [
            539,
            327,
            41,
            -26,
            -26
        ]
    },
    "1906": {
        "27/03/2020 14:07:25": [
            16,
            145,
            16,
            16,
            16,
            9
        ],
        "27/03/2020 17:54:05": [
            586,
            402,
            9,
            9,
            9
        ]
    },
    "1907": {
        "27/03/2020 14:07:26": [
            -17,
            112,
            -17,
            -17,
            -17,
            -28
        ],
        "27/03/2020 17:54:05": [
            550,
            371,
            -22,
            -22,
            -22
        ]
    },
    "1908": {
        "27/03/2020 14:07:26": [
            -28,
            101,
            -28,
            -28,
            -28,
            15
        ],
        "27/03/2020 17:54:06": [
            588,
            407,
            14,
            14,
            14
        ]
    },
    "1909": {
        "27/03/2020 14:07:27": [
            -25,
            104,
            -25,
            -25,
            -25,
            10
        ],
        "27/03/2020 17:54:06": [
            577,
            394,
            1,
            1,
            1
        ]
    },
    "1713": {
        "27/03/2020 14:07:27": [
            0,
            129,
            0,
            0,
            0,
            24
        ],
        "27/03/2020 17:54:07": [
            529,
            403,
            10,
            10,
            10
        ]
    },
    "1714": {
        "27/03/2020 14:07:28": [
            -26,
            103,
            -26,
            -26,
            -26,
            3
        ],
        "27/03/2020 17:54:07": [
            508,
            377,
            -16,
            -16,
            -16
        ]
    },
    "1715": {
        "27/03/2020 14:07:29": [
            -19,
            110,
            -19,
            -19,
            -19,
            18
        ],
        "27/03/2020 17:54:08": [
            525,
            385,
            -8,
            -8,
            -8
        ]
    },
    "7453": {
        "27/03/2020 14:07:29": [
            -8,
            -1,
            128,
            -1,
            -1,
            -1,
            -14
        ],
        "27/03/2020 17:54:08": [
            494,
            403,
            10,
            10,
            10
        ]
    },
    "1478": {
        "27/03/2020 14:07:30": [
            -11,
            -21,
            108,
            -21,
            -21,
            -21
        ],
        "27/03/2020 17:54:09": [
            214,
            477,
            414,
            21,
            21,
            21
        ]
    },
    "1479": {
        "27/03/2020 14:07:30": [
            -3,
            -13,
            116,
            -13,
            -13,
            -13
        ],
        "27/03/2020 17:54:09": [
            739,
            248,
            511,
            404,
            11,
            11,
            11
        ]
    },
    "315": {
        "27/03/2020 14:07:31": [
            28,
            7,
            136,
            7,
            7,
            7
        ],
        "27/03/2020 17:54:09": [
            752,
            190,
            384,
            524,
            -9,
            -9,
            -9
        ]
    },
    "335": {
        "27/03/2020 14:07:32": [
            27,
            6,
            135,
            6,
            6,
            6
        ],
        "27/03/2020 17:54:10": [
            684,
            278,
            365,
            508,
            -28,
            -28
        ]
    },
    "404": {
        "27/03/2020 14:07:32": [
            6,
            -15,
            114,
            -15,
            -15
        ],
        "27/03/2020 17:54:10": [
            672,
            266,
            400,
            7,
            496,
            7
        ]
    },
    "747": {
        "27/03/2020 14:07:33": [
            13,
            -8,
            121,
            -8,
            -8
        ],
        "27/03/2020 17:54:11": [
            79,
            681,
            414,
            21,
            505,
            21
        ]
    },
    "748": {
        "27/03/2020 14:07:33": [
            -5,
            -26,
            103,
            -26,
            -26
        ],
        "27/03/2020 17:54:11": [
            66,
            668,
            385,
            -8,
            492,
            -8
        ]
    },
    "749": {
        "27/03/2020 14:07:34": [
            -123,
            47,
            26,
            155,
            26,
            26
        ],
        "27/03/2020 17:54:12": [
            64,
            666,
            363,
            -30,
            490,
            -30
        ]
    },
    "750": {
        "27/03/2020 14:07:34": [
            -143,
            27,
            6,
            135,
            6,
            6
        ],
        "27/03/2020 17:54:12": [
            52,
            654,
            389,
            -4,
            478,
            -4
        ]
    },
    "751": {
        "27/03/2020 14:07:35": [
            -162,
            8,
            -13,
            116,
            -13,
            -13
        ],
        "27/03/2020 17:54:13": [
            403,
            100,
            702,
            416,
            23,
            526,
            23
        ]
    },
    "752": {
        "27/03/2020 14:07:36": [
            -172,
            -2,
            -23,
            106,
            -23,
            -23
        ],
        "27/03/2020 17:54:13": [
            402,
            99,
            701,
            389,
            -4,
            525,
            -4
        ]
    },
    "753": {
        "27/03/2020 14:07:36": [
            -145,
            25,
            4,
            133,
            4,
            4
        ],
        "27/03/2020 17:54:14": [
            379,
            67,
            669,
            415,
            22,
            493,
            22
        ]
    },
    "754": {
        "27/03/2020 14:07:37": [
            -172,
            -2,
            -23,
            106,
            -23,
            -23
        ],
        "27/03/2020 17:54:14": [
            413,
            101,
            703,
            386,
            -7,
            527,
            -7
        ]
    },
    "755": {
        "27/03/2020 14:07:37": [
            -135,
            35,
            14,
            143,
            14,
            14
        ],
        "27/03/2020 17:54:15": [
            391,
            79,
            681,
            422,
            29,
            505,
            29
        ]
    },
    "756": {
        "27/03/2020 14:07:38": [
            -141,
            29,
            8,
            137,
            8,
            8
        ],
        "27/03/2020 17:54:15": [
            381,
            69,
            671,
            409,
            16,
            495,
            16
        ]
    },
    "757": {
        "27/03/2020 14:07:38": [
            -151,
            19,
            -2,
            127,
            -2,
            -2
        ],
        "27/03/2020 17:54:16": [
            368,
            56,
            658,
            392,
            -1,
            482,
            -1
        ]
    },
    "758": {
        "27/03/2020 14:07:39": [
            -126,
            44,
            23,
            152,
            23,
            23
        ],
        "27/03/2020 17:54:16": [
            395,
            83,
            685,
            417,
            24,
            509,
            24
        ]
    },
    "759": {
        "27/03/2020 14:07:40": [
            -122,
            48,
            27,
            156,
            27,
            27
        ],
        "27/03/2020 17:54:17": [
            385,
            73,
            675,
            407,
            14,
            499,
            14
        ]
    },
    "760": {
        "27/03/2020 14:07:40": [
            15,
            -134,
            36,
            15,
            144,
            15
        ],
        "27/03/2020 17:54:17": [
            363,
            51,
            653,
            384,
            -9,
            477,
            -9
        ]
    },
    "761": {
        "27/03/2020 14:07:41": [
            -21,
            -170,
            0,
            -21,
            108,
            -21
        ],
        "27/03/2020 17:54:18": [
            389,
            77,
            679,
            411,
            18,
            503,
            18
        ]
    },
    "762": {
        "27/03/2020 14:07:42": [
            0,
            -149,
            21,
            0,
            129,
            0
        ],
        "27/03/2020 17:54:18": [
            412,
            100,
            702,
            375,
            -18,
            526,
            -18
        ]
    },
    "763": {
        "27/03/2020 14:07:42": [
            -21,
            -170,
            0,
            -21,
            108,
            -21
        ],
        "27/03/2020 17:54:19": [
            389,
            77,
            679,
            410,
            17,
            503,
            17
        ]
    },
    "7576": {
        "27/03/2020 14:07:43": [],
        "27/03/2020 17:54:19": []
    },
    "767": {
        "27/03/2020 14:07:43": [
            0,
            0,
            0,
            0,
            0,
            0
        ],
        "27/03/2020 17:54:20": [
            0,
            0,
            0,
            0,
            0,
            0
        ]
    },
    "768": {
        "27/03/2020 14:07:44": [
            -14,
            -14,
            -16,
            -16,
            -16,
            -16
        ],
        "27/03/2020 17:54:20": [
            -3,
            -3,
            -3,
            -21,
            -21,
            -21
        ]
    },
    "769": {
        "27/03/2020 14:07:45": [
            6,
            6,
            4,
            4,
            4,
            4
        ],
        "27/03/2020 17:54:21": [
            19,
            19,
            19,
            1,
            1,
            1
        ]
    },
    "770": {
        "27/03/2020 14:07:45": [
            -14,
            -14,
            -11,
            -11,
            -11,
            -11
        ],
        "27/03/2020 17:54:21": [
            1,
            1,
            1,
            -12,
            -12,
            -12
        ]
    },
    "771": {
        "27/03/2020 14:07:46": [
            2,
            2,
            8,
            8,
            8,
            8
        ],
        "27/03/2020 17:54:21": [
            83,
            19,
            19,
            19,
            7,
            7,
            7
        ]
    },
    "772": {
        "27/03/2020 14:07:46": [
            -24,
            -24,
            -14,
            -14,
            -14,
            -14
        ],
        "27/03/2020 17:54:22": [
            59,
            -5,
            -5,
            -5,
            -13,
            -13
        ]
    },
    "773": {
        "27/03/2020 14:07:47": [
            3,
            3,
            12,
            12,
            12,
            12
        ],
        "27/03/2020 17:54:22": [
            63,
            22,
            22,
            22,
            12,
            12
        ]
    },
    "774": {
        "27/03/2020 14:07:47": [
            -23,
            -23,
            -16,
            -16,
            -16,
            -16
        ],
        "27/03/2020 17:54:23": [
            35,
            -6,
            -6,
            -6,
            -18,
            -18
        ]
    },
    "775": {
        "27/03/2020 14:07:48": [
            201,
            22,
            22,
            27,
            27,
            27,
            27
        ],
        "27/03/2020 17:54:23": [
            19,
            -22,
            -22,
            -22,
            24,
            24
        ]
    },
    "776": {
        "27/03/2020 14:07:49": [
            197,
            18,
            18,
            29,
            29,
            29,
            29
        ],
        "27/03/2020 17:54:24": [
            59,
            18,
            18,
            18,
            -2,
            -2
        ]
    },
    "777": {
        "27/03/2020 14:07:49": [
            170,
            -9,
            -9,
            10,
            10,
            10,
            10
        ],
        "27/03/2020 17:54:24": [
            31,
            -10,
            -10,
            -10,
            -29,
            -29
        ]
    },
    "779": {
        "27/03/2020 14:07:50": [
            150,
            -29,
            -29,
            0,
            0,
            0
        ],
        "27/03/2020 17:54:25": [
            11,
            -30,
            -30,
            -30,
            11,
            11
        ]
    },
    "780": {
        "27/03/2020 14:07:51": [
            226,
            25,
            25,
            -9,
            -9,
            -9
        ],
        "27/03/2020 17:54:25": [
            -1,
            -1
        ]
    },
    "781": {
        "27/03/2020 14:07:51": [
            204,
            3,
            3,
            28,
            28,
            28
        ],
        "27/03/2020 17:54:25": [
            75,
            11,
            11,
            11,
            -27,
            -27
        ]
    },
    "782": {
        "27/03/2020 14:07:52": [
            177,
            -24,
            -24,
            -1,
            -1,
            -1
        ],
        "27/03/2020 17:54:26": [
            51,
            -13,
            -13,
            -13,
            3,
            3
        ]
    },
    "783": {
        "27/03/2020 14:07:52": [
            229,
            28,
            28,
            -12,
            -12,
            -12
        ],
        "27/03/2020 17:54:26": [
            48,
            -16,
            -16,
            -16,
            -11,
            -11
        ]
    },
    "784": {
        "27/03/2020 14:07:53": [
            202,
            1,
            1,
            16,
            16,
            16
        ],
        "27/03/2020 17:54:27": [
            85,
            21,
            21,
            21,
            15,
            15
        ]
    },
    "785": {
        "27/03/2020 14:07:54": [
            198,
            -3,
            -3,
            5,
            5,
            5
        ],
        "27/03/2020 17:54:27": [
            88,
            24,
            24,
            24,
            0,
            0
        ]
    },
    "786": {
        "27/03/2020 14:07:54": [
            103,
            -30,
            -30,
            -18,
            -18,
            -18
        ],
        "27/03/2020 17:54:28": [
            12,
            12,
            12,
            12,
            19,
            19
        ]
    },
    "793": {
        "27/03/2020 14:07:55": [
            257,
            123,
            -10,
            -10,
            6,
            6,
            6
        ],
        "27/03/2020 17:54:28": [
            -6,
            -6,
            -6,
            -6,
            16
        ]
    },
    "7586": {
        "27/03/2020 14:07:55": [
            169,
            137,
            4,
            4,
            -1,
            -1
        ],
        "27/03/2020 17:54:29": [
            -173,
            8,
            8,
            8,
            8,
            -2
        ]
    },
    "7587": {
        "27/03/2020 14:07:56": [
            165,
            160,
            27,
            27,
            4,
            4
        ],
        "27/03/2020 17:54:29": [
            -13
        ]
    },
    "7588": {
        "27/03/2020 14:07:57": [
            263,
            155,
            22,
            22,
            11,
            11
        ],
        "27/03/2020 17:54:30": [
            -178,
            24,
            24,
            24,
            24,
            -26
        ]
    },
    "328": {
        "27/03/2020 14:07:57": [
            261,
            153,
            20,
            20,
            -2
        ],
        "27/03/2020 17:54:30": [
            -109,
            20,
            20,
            20,
            20
        ]
    },
    "1443": {
        "27/03/2020 14:07:58": [
            241,
            133,
            0,
            0,
            -13
        ],
        "27/03/2020 17:54:31": [
            -298,
            62,
            -124,
            5,
            5,
            5,
            5
        ]
    },
    "1444": {
        "27/03/2020 14:07:59": [
            -74,
            238,
            130,
            -3,
            -3,
            -15
        ],
        "27/03/2020 17:54:31": [
            -308,
            38,
            -134,
            -5,
            -5,
            -5
        ]
    },
    "1445": {
        "27/03/2020 14:07:59": [
            -71,
            241,
            133,
            0,
            0,
            -10
        ],
        "27/03/2020 17:54:31": [
            -312,
            40,
            -138,
            -9,
            -9,
            -9
        ]
    },
    "1647": {
        "27/03/2020 14:08:00": [
            -43,
            228,
            120,
            -13,
            -13,
            -21
        ],
        "27/03/2020 17:54:32": [
            44,
            -225,
            -104,
            25,
            25,
            25,
            25
        ]
    },
    "1648": {
        "27/03/2020 14:08:00": [
            -14,
            237,
            129,
            -4,
            -4,
            -11
        ],
        "27/03/2020 17:54:32": [
            -48,
            -224,
            -103,
            26,
            26,
            26
        ]
    },
    "1649": {
        "27/03/2020 14:08:01": [
            -40,
            211,
            103,
            -30,
            -30,
            20
        ],
        "27/03/2020 17:54:33": [
            901,
            -8,
            -256,
            -135,
            -6,
            -6,
            -6
        ]
    },
    "1911": {
        "27/03/2020 14:08:02": [
            -68,
            244,
            136,
            3,
            3
        ],
        "27/03/2020 17:54:33": [
            891,
            -18,
            -239,
            -118,
            11,
            11,
            11
        ]
    },
    "1913": {
        "27/03/2020 14:08:02": [
            -18,
            233,
            125,
            -8,
            -8
        ],
        "27/03/2020 17:54:34": [
            886,
            -294,
            -23,
            -144,
            -15,
            -15,
            -15
        ]
    },
    "1914": {
        "27/03/2020 14:08:03": [
            -40,
            211,
            103,
            -30,
            -30
        ],
        "27/03/2020 17:54:34": [
            867,
            -268,
            -42,
            -118,
            11,
            11,
            11
        ]
    },
    "1805": {
        "27/03/2020 14:08:03": [
            -70,
            242,
            134,
            1,
            1
        ],
        "27/03/2020 17:54:35": [
            894,
            -271,
            -15,
            -150,
            -21,
            -21,
            -21
        ]
    },
    "1806": {
        "27/03/2020 14:08:04": [
            -8,
            -118,
            253,
            145,
            12,
            12
        ],
        "27/03/2020 17:54:35": [
            904,
            -271,
            -5,
            -150,
            -21,
            -21,
            -21
        ]
    },
    "1660": {
        "27/03/2020 14:08:05": [
            22,
            15,
            266,
            158,
            25,
            25
        ],
        "27/03/2020 17:54:35": [
            918,
            -296,
            9,
            -146,
            -17,
            -17,
            -17
        ]
    },
    "1661": {
        "27/03/2020 14:08:05": [
            6,
            -1,
            250,
            142,
            9,
            9
        ],
        "27/03/2020 17:54:36": [
            911,
            -260,
            2,
            -110,
            19,
            19,
            19
        ]
    },
    "1662": {
        "27/03/2020 14:08:06": [
            -5,
            -12,
            239,
            131,
            -2,
            -2
        ],
        "27/03/2020 17:54:36": [
            911,
            -279,
            2,
            -129,
            0,
            0,
            0
        ]
    },
    "1664": {
        "27/03/2020 14:08:06": [
            -10,
            -17,
            234,
            126,
            -7,
            -7
        ],
        "27/03/2020 17:54:37": [
            904,
            -290,
            -5,
            -140,
            -11,
            -11,
            -11
        ]
    },
    "1665": {
        "27/03/2020 14:08:07": [
            25,
            18,
            269,
            161,
            28,
            28
        ],
        "27/03/2020 17:54:37": [
            878,
            -258,
            -31,
            -108,
            21,
            21,
            21
        ]
    },
    "1666": {
        "27/03/2020 14:08:08": [
            -4,
            -11,
            240,
            132,
            -1,
            -1
        ],
        "27/03/2020 17:54:38": [
            906,
            -288,
            -3,
            -138,
            -9,
            -9,
            -9
        ]
    },
    "1807": {
        "27/03/2020 14:08:08": [
            -45,
            -128,
            243,
            135,
            2,
            2
        ],
        "27/03/2020 17:54:38": [
            912,
            -256,
            3,
            -135,
            -6,
            -6
        ]
    },
    "7167": {
        "27/03/2020 14:08:09": [
            -75,
            -38,
            213,
            105,
            -28,
            -28
        ],
        "27/03/2020 17:54:39": [
            881,
            -253,
            -28,
            -103,
            26,
            26
        ]
    },
    "1808": {
        "27/03/2020 14:08:09": [
            -22,
            -105,
            266,
            158,
            25,
            25
        ],
        "27/03/2020 17:54:39": [
            875,
            -226,
            -34,
            -105,
            24,
            24
        ]
    },
    "7389": {
        "27/03/2020 14:08:10": [
            645,
            -110,
            -62,
            249,
            141,
            8
        ],
        "27/03/2020 17:54:39": [
            -284,
            -546,
            919,
            -278,
            10,
            -128,
            1,
            1
        ]
    },
    "7025": {
        "27/03/2020 14:08:11": [
            427,
            -90,
            -106,
            -58,
            253,
            145,
            12
        ],
        "27/03/2020 17:54:40": [
            -370,
            -662,
            865,
            -281,
            -44,
            -131,
            -2,
            -2
        ]
    },
    "4464": {
        "27/03/2020 14:08:11": [
            -82,
            657,
            -98,
            -50,
            261,
            153,
            20
        ],
        "27/03/2020 17:54:40": [
            -362,
            -654,
            873,
            -276,
            -36,
            -126,
            3,
            3
        ]
    },
    "1869": {
        "27/03/2020 14:08:12": [
            -111,
            628,
            -127,
            -79,
            232,
            124,
            -9
        ],
        "27/03/2020 17:54:41": [
            -331,
            -623,
            904,
            -306,
            -5,
            -156,
            -27
        ]
    },
    "1870": {
        "27/03/2020 14:08:12": [
            -83,
            656,
            -99,
            -51,
            260,
            152,
            19
        ],
        "27/03/2020 17:54:41": [
            -359,
            -651,
            876,
            -276,
            -33,
            -126,
            3
        ]
    },
    "1871": {
        "27/03/2020 14:08:13": [
            -108,
            631,
            -124,
            -76,
            235,
            127,
            -6
        ],
        "27/03/2020 17:54:42": [
            -318,
            -610,
            917,
            -299,
            8,
            -149,
            -20
        ]
    },
    "1872": {
        "27/03/2020 14:08:14": [
            -130,
            609,
            -146,
            -98,
            213,
            105,
            -28
        ],
        "27/03/2020 17:54:42": [
            -336,
            -628,
            899,
            -260,
            -10,
            -110,
            19
        ]
    },
    "1873": {
        "27/03/2020 14:08:14": [
            -88,
            651,
            -104,
            -56,
            255,
            147,
            14
        ],
        "27/03/2020 17:54:43": [
            -348,
            -640,
            887,
            -275,
            -22,
            -125,
            4
        ]
    },
    "1874": {
        "27/03/2020 14:08:15": [
            -110,
            629,
            -126,
            -78,
            233,
            125
        ],
        "27/03/2020 17:54:43": [
            -364,
            -656,
            871,
            -296,
            -38,
            -146,
            -17
        ]
    },
    "1875": {
        "27/03/2020 14:08:16": [
            -79,
            660,
            -95,
            -47,
            264,
            156
        ],
        "27/03/2020 17:54:43": [
            -328,
            -620,
            907,
            -262,
            -2,
            -112,
            17
        ]
    },
    "1876": {
        "27/03/2020 14:08:16": [
            -107,
            632,
            -123,
            -75,
            236,
            128
        ],
        "27/03/2020 17:54:44": [
            -351,
            -643,
            884,
            -288,
            -25,
            -138,
            -9
        ]
    },
    "1877": {
        "27/03/2020 14:08:17": [
            -119,
            620,
            -135,
            -87,
            224,
            116
        ],
        "27/03/2020 17:54:44": [
            -357,
            -649,
            878,
            -298,
            -31,
            -148,
            -19
        ]
    },
    "1878": {
        "27/03/2020 14:08:17": [
            -99,
            640,
            -115,
            -67,
            244,
            136
        ],
        "27/03/2020 17:54:45": [
            -337,
            -629,
            898,
            -278,
            -11,
            -128,
            1
        ]
    },
    "1879": {
        "27/03/2020 14:08:18": [
            -77,
            662,
            -93,
            -45,
            266,
            158
        ],
        "27/03/2020 17:54:45": [
            -189,
            -375,
            -667,
            860,
            -256,
            -49,
            -106,
            23
        ]
    },
    "1899": {
        "27/03/2020 14:08:18": [
            -113,
            626,
            -129,
            -81,
            230,
            122
        ],
        "27/03/2020 17:54:46": [
            -242,
            -165,
            -351,
            -643,
            884,
            -292,
            -25,
            -142,
            -13
        ]
    },
    "6107": {
        "27/03/2020 14:08:19": [
            460,
            -102,
            -118,
            -70,
            241,
            133
        ],
        "27/03/2020 17:54:46": [
            -231,
            -154,
            -340,
            -570,
            895,
            -281,
            -14,
            -131,
            -2
        ]
    },
    "6108": {
        "27/03/2020 14:08:20": [
            444,
            477,
            -85,
            -101,
            -53,
            258,
            150
        ],
        "27/03/2020 17:54:47": [
            -214,
            -137,
            -323,
            -553,
            912,
            -264,
            3,
            -114,
            15
        ]
    },
    "6109": {
        "27/03/2020 14:08:20": [
            404,
            437,
            -125,
            -141,
            -93,
            218,
            110
        ],
        "27/03/2020 17:54:47": [
            -194,
            -177,
            -363,
            -593,
            872,
            -304,
            -37,
            -154,
            -25
        ]
    },
    "6110": {
        "27/03/2020 14:08:21": [
            436,
            469,
            -93,
            -109,
            -61,
            250,
            142
        ],
        "27/03/2020 17:54:48": [
            -222,
            -145,
            -331,
            -561,
            904,
            -272,
            -5,
            -122,
            7
        ]
    },
    "7020": {
        "27/03/2020 14:08:21": [
            405,
            438,
            -124,
            -140,
            -92,
            219,
            111
        ],
        "27/03/2020 17:54:48": [
            -193,
            -176,
            -362,
            -654,
            873,
            -303,
            -36,
            -153,
            -24
        ]
    },
    "7029": {
        "27/03/2020 14:08:22": [
            416,
            449,
            -113,
            -129,
            -81,
            230,
            122
        ],
        "27/03/2020 17:54:48": [
            -242,
            -165,
            -351,
            -643,
            884,
            -292,
            -25,
            -142,
            -13
        ]
    },
    "7038": {
        "27/03/2020 14:08:23": [
            436,
            469,
            -93,
            -109,
            -61,
            250,
            142
        ],
        "27/03/2020 17:54:49": [
            -222,
            -145,
            -331,
            -623,
            904,
            -272,
            -5,
            -122,
            7
        ]
    },
    "7011": {
        "27/03/2020 14:08:23": [
            403,
            436,
            -126,
            -142,
            -94,
            217,
            109
        ],
        "27/03/2020 17:54:49": [
            -195,
            -178,
            -364,
            -656,
            871,
            -305,
            -38,
            -155,
            -26
        ]
    },
    "2171": {
        "27/03/2020 14:08:24": [
            424,
            -86,
            653,
            -102,
            -54,
            257,
            149
        ],
        "27/03/2020 17:54:50": [
            -255,
            -138,
            -324,
            -616,
            911,
            -265,
            2,
            -115,
            14
        ]
    },
    "7160": {
        "27/03/2020 14:08:25": [
            432,
            484,
            -78,
            -94,
            -46,
            265,
            157
        ],
        "27/03/2020 17:54:50": [
            -247,
            -257,
            -107,
            22
        ]
    },
    "7700": {
        "27/03/2020 14:08:25": [
            385,
            -125,
            614,
            -141,
            -93,
            218,
            110
        ],
        "27/03/2020 17:54:51": [
            -234,
            -177,
            -363,
            -655,
            872,
            -304,
            -37,
            -154,
            -25
        ]
    },
    "7047": {
        "27/03/2020 14:08:26": [
            400,
            452,
            -110,
            -126,
            -78,
            233,
            125
        ],
        "27/03/2020 17:54:51": [
            -279,
            -162,
            -348,
            -640,
            887,
            -289,
            -22,
            -139
        ]
    },
    "7161": {
        "27/03/2020 14:08:26": [
            418,
            470,
            -92,
            -108,
            -60,
            251,
            143
        ],
        "27/03/2020 17:54:52": [
            -261,
            -144,
            -330,
            -560,
            905,
            -271,
            -4,
            -121
        ]
    },
    "7162": {
        "27/03/2020 14:08:27": [],
        "27/03/2020 17:54:52": []
    }
}