{
    "7660": {
        "24/03/2020 14:52:53": [
            -70,
            -489,
            -476,
            -17
        ],
        "24/03/2020 17:05:44": [
            -1135,
            -79,
            262
        ],
        "24/03/2020 19:46:29": [
            -418,
            107
        ],
        "24/03/2020 22:03:14": [
            -8
        ]
    },
    "273": {
        "24/03/2020 14:52:54": [
            -4,
            -4,
            -4
        ],
        "24/03/2020 17:05:44": [
            250,
            242,
            -1,
            -23,
            -23
        ],
        "24/03/2020 19:46:29": [
            112,
            -14
        ],
        "24/03/2020 22:03:14": [
            -23,
            -23
        ]
    },
    "3114": {
        "24/03/2020 14:52:54": [
            -60,
            -70,
            -489,
            -476,
            -17
        ],
        "24/03/2020 17:05:45": [
            -1192,
            -119,
            222
        ],
        "24/03/2020 19:46:29": [
            -382,
            143
        ],
        "24/03/2020 22:03:15": [
            -129,
            4
        ]
    },
    "3115": {
        "24/03/2020 14:52:55": [
            -22,
            -32,
            -451,
            -438,
            21
        ],
        "24/03/2020 17:05:45": [
            -1182,
            -80,
            261
        ],
        "24/03/2020 19:46:30": [
            -404,
            121
        ],
        "24/03/2020 22:03:15": [
            -160,
            -27
        ]
    },
    "3116": {
        "24/03/2020 14:52:55": [
            -71,
            -81,
            -500,
            -487,
            -28
        ],
        "24/03/2020 17:05:46": [
            -1123,
            -67,
            274
        ],
        "24/03/2020 19:46:30": [
            -393,
            132
        ],
        "24/03/2020 22:03:16": [
            -106,
            27
        ]
    },
    "2026": {
        "24/03/2020 14:52:56": [
            -26,
            -36,
            -455,
            -442,
            17
        ],
        "24/03/2020 17:05:46": [
            -1133,
            -77,
            264
        ],
        "24/03/2020 19:46:31": [
            -858,
            -413,
            112
        ],
        "24/03/2020 22:03:16": [
            -252,
            -150,
            -17
        ]
    },
    "412": {
        "24/03/2020 14:52:56": [
            -489,
            -30,
            -30
        ],
        "24/03/2020 17:05:47": [
            -80,
            261,
            253,
            10,
            -23
        ],
        "24/03/2020 19:46:31": [
            -425,
            100,
            -26
        ],
        "24/03/2020 22:03:17": [
            -146,
            10,
            10
        ]
    },
    "413": {
        "24/03/2020 14:52:57": [
            -462,
            -3,
            -3
        ],
        "24/03/2020 17:05:48": [
            -107,
            234,
            226,
            -17,
            5
        ],
        "24/03/2020 19:46:32": [
            -400,
            125,
            -1
        ],
        "24/03/2020 22:03:17": [
            -163,
            -30,
            -30
        ]
    },
    "414": {
        "24/03/2020 14:52:57": [
            -460,
            -1,
            -1
        ],
        "24/03/2020 17:05:48": [
            -89,
            252,
            244,
            1
        ],
        "24/03/2020 19:46:32": [
            -402,
            123,
            -3
        ],
        "24/03/2020 22:03:18": [
            -115,
            18,
            18
        ]
    },
    "415": {
        "24/03/2020 14:52:58": [
            -478,
            -19,
            -19
        ],
        "24/03/2020 17:05:49": [
            -99,
            242,
            234,
            -9
        ],
        "24/03/2020 19:46:33": [
            -420,
            105,
            -21
        ],
        "24/03/2020 22:03:18": [
            -146,
            -13,
            -13
        ]
    },
    "418": {
        "24/03/2020 14:52:58": [
            -541,
            -484,
            -25,
            -25
        ],
        "24/03/2020 17:05:49": [
            -97,
            244,
            236,
            -7
        ],
        "24/03/2020 19:46:33": [
            -428,
            97
        ],
        "24/03/2020 22:03:19": [
            -144,
            -11,
            -11
        ]
    },
    "419": {
        "24/03/2020 14:52:59": [
            -465,
            -434,
            25,
            25
        ],
        "24/03/2020 17:05:49": [
            -81,
            260,
            252,
            9
        ],
        "24/03/2020 19:46:34": [
            -379,
            146
        ],
        "24/03/2020 22:03:19": [
            -110,
            23,
            23
        ]
    },
    "420": {
        "24/03/2020 14:52:59": [
            -491,
            -434,
            25
        ],
        "24/03/2020 17:05:50": [
            -84,
            257,
            249,
            6
        ],
        "24/03/2020 19:46:34": [
            -389,
            136
        ],
        "24/03/2020 22:03:20": [
            -139,
            -6,
            -6
        ]
    },
    "421": {
        "24/03/2020 14:53:00": [
            -492,
            -435,
            24
        ],
        "24/03/2020 17:05:50": [
            -91,
            250,
            242,
            -1
        ],
        "24/03/2020 19:46:35": [
            -400,
            125
        ],
        "24/03/2020 22:03:20": [
            -108,
            25,
            25
        ]
    },
    "422": {
        "24/03/2020 14:53:00": [
            -77,
            -557,
            -483,
            -24
        ],
        "24/03/2020 17:05:51": [
            -74,
            267,
            259
        ],
        "24/03/2020 19:46:36": [
            -400,
            125
        ],
        "24/03/2020 22:03:20": [
            -5,
            2
        ]
    },
    "426": {
        "24/03/2020 14:53:01": [
            -26,
            -445,
            -432,
            27
        ],
        "24/03/2020 17:05:51": [
            -74,
            267,
            259
        ],
        "24/03/2020 19:46:37": [
            -371,
            154
        ],
        "24/03/2020 22:03:21": [
            -140,
            -7,
            -7
        ]
    },
    "427": {
        "24/03/2020 14:53:01": [
            -82,
            -501,
            -488,
            -29
        ],
        "24/03/2020 17:05:52": [
            -68,
            273,
            265
        ],
        "24/03/2020 19:46:38": [
            -377,
            148
        ],
        "24/03/2020 22:03:21": [
            -153,
            -20,
            -20
        ]
    },
    "428": {
        "24/03/2020 14:53:02": [
            -39,
            -519,
            -445,
            14
        ],
        "24/03/2020 17:05:52": [
            -81,
            260,
            252
        ],
        "24/03/2020 19:46:38": [
            -399,
            126
        ],
        "24/03/2020 22:03:22": [
            0,
            7
        ]
    },
    "405": {
        "24/03/2020 14:53:02": [
            -478,
            -19,
            -19,
            -19
        ],
        "24/03/2020 17:05:53": [
            277,
            269,
            26,
            16
        ],
        "24/03/2020 19:46:38": [
            -410,
            142,
            16
        ],
        "24/03/2020 22:03:22": [
            -92,
            10
        ]
    },
    "408": {
        "24/03/2020 14:53:03": [
            -451,
            8,
            8
        ],
        "24/03/2020 17:05:53": [
            -104,
            237,
            229,
            -14,
            -18
        ],
        "24/03/2020 19:46:39": [
            -450,
            102,
            -24
        ],
        "24/03/2020 22:03:23": [
            -133,
            0,
            0
        ]
    },
    "409": {
        "24/03/2020 14:53:03": [
            -428,
            -11,
            -11
        ],
        "24/03/2020 17:05:54": [
            -116,
            225,
            217,
            -26,
            11
        ],
        "24/03/2020 19:46:39": [
            -413,
            139,
            13
        ],
        "24/03/2020 22:03:23": [
            -153,
            -20,
            -20
        ]
    },
    "410": {
        "24/03/2020 14:53:04": [
            -459,
            0,
            0
        ],
        "24/03/2020 17:05:54": [
            -87,
            254,
            246,
            3,
            -23
        ],
        "24/03/2020 19:46:40": [
            -408,
            144,
            18
        ],
        "24/03/2020 22:03:24": [
            -128,
            28,
            28
        ]
    },
    "411": {
        "24/03/2020 14:53:05": [
            -479,
            -20,
            -20
        ],
        "24/03/2020 17:05:55": [
            -97,
            244,
            236,
            -7,
            25
        ],
        "24/03/2020 19:46:41": [
            -453,
            120,
            -6
        ],
        "24/03/2020 22:03:24": [
            -161,
            -5,
            -5
        ]
    },
    "6334": {
        "24/03/2020 14:53:05": [
            -55,
            -474,
            -461,
            -2
        ],
        "24/03/2020 17:05:55": [
            -1156,
            -83,
            258
        ],
        "24/03/2020 19:46:41": [
            -382,
            143
        ],
        "24/03/2020 22:03:25": [
            -4,
            3
        ]
    },
    "416": {
        "24/03/2020 14:53:06": [
            -458,
            1,
            1
        ],
        "24/03/2020 17:05:56": [
            -62,
            279,
            271,
            28
        ],
        "24/03/2020 19:46:41": [
            -400,
            125,
            -1
        ],
        "24/03/2020 22:03:25": [
            -149,
            -16,
            -16
        ]
    },
    "417": {
        "24/03/2020 14:53:06": [
            -531,
            -474,
            -15,
            -15
        ],
        "24/03/2020 17:05:56": [
            -114,
            227,
            219,
            -24
        ],
        "24/03/2020 19:46:42": [
            -417,
            108,
            -18
        ],
        "24/03/2020 22:03:26": [
            -119,
            14,
            14
        ]
    },
    "7226": {
        "24/03/2020 14:53:06": [],
        "24/03/2020 17:05:57": [],
        "24/03/2020 19:46:42": [],
        "24/03/2020 22:03:26": []
    },
    "423": {
        "24/03/2020 14:53:07": [
            -39,
            -458,
            -445,
            14
        ],
        "24/03/2020 17:05:57": [
            -82,
            259,
            251
        ],
        "24/03/2020 19:46:43": [
            -429,
            96
        ],
        "24/03/2020 22:03:26": [
            -109,
            24,
            24
        ]
    },
    "424": {
        "24/03/2020 14:53:07": [
            -44,
            -524,
            -450,
            9
        ],
        "24/03/2020 17:05:58": [
            -66,
            275,
            267
        ],
        "24/03/2020 19:46:43": [
            -384,
            141
        ],
        "24/03/2020 22:03:27": [
            -136,
            -3,
            -3
        ]
    },
    "425": {
        "24/03/2020 14:53:08": [
            -55,
            -474,
            -461,
            -2
        ],
        "24/03/2020 17:05:58": [
            -116,
            225,
            217
        ],
        "24/03/2020 19:46:44": [
            -398,
            127
        ],
        "24/03/2020 22:03:27": [
            -161,
            -28,
            -28
        ]
    },
    "429": {
        "24/03/2020 14:53:08": [
            -54,
            -473,
            -460,
            -1
        ],
        "24/03/2020 17:05:58": [
            -92,
            249,
            241
        ],
        "24/03/2020 19:46:44": [
            -419,
            106
        ],
        "24/03/2020 22:03:28": [
            -157,
            -24,
            -24
        ]
    },
    "6085": {
        "24/03/2020 14:53:09": [
            -39,
            -49,
            -468,
            -455,
            4
        ],
        "24/03/2020 17:05:59": [
            -1147,
            -91,
            250
        ],
        "24/03/2020 19:46:45": [
            -883,
            -421,
            104
        ],
        "24/03/2020 22:03:28": [
            -253,
            -151,
            -18
        ]
    },
    "7457": {
        "24/03/2020 14:53:09": [],
        "24/03/2020 17:05:59": [],
        "24/03/2020 19:46:45": [],
        "24/03/2020 22:03:29": []
    },
    "324": {
        "24/03/2020 14:53:10": [
            0,
            0,
            0,
            0,
            0
        ],
        "24/03/2020 17:06:00": [
            0,
            0,
            0,
            0,
            0
        ],
        "24/03/2020 19:46:46": [
            0,
            0,
            0
        ],
        "24/03/2020 22:03:29": [
            0,
            0,
            0
        ]
    },
    "327": {
        "24/03/2020 14:53:10": [
            3,
            3,
            3,
            3,
            3
        ],
        "24/03/2020 17:06:01": [
            21,
            21,
            21,
            21,
            -14
        ],
        "24/03/2020 19:46:46": [
            -14,
            -14,
            -22
        ],
        "24/03/2020 22:03:29": [
            -22,
            -22,
            -22
        ]
    },
    "7113": {
        "24/03/2020 14:53:11": [
            -27,
            -27,
            -27,
            -27,
            -27
        ],
        "24/03/2020 17:06:02": [
            82,
            19,
            19,
            19,
            19,
            21
        ],
        "24/03/2020 19:46:47": [
            21,
            21,
            -30
        ],
        "24/03/2020 22:03:30": [
            22,
            -30,
            -30
        ]
    },
    "127": {
        "24/03/2020 14:53:11": [
            17,
            17,
            17,
            17
        ],
        "24/03/2020 17:06:02": [
            66,
            10,
            10,
            10,
            10
        ],
        "24/03/2020 19:46:47": [
            89,
            -9,
            -9,
            -22
        ],
        "24/03/2020 22:03:30": [
            30,
            -22,
            -22
        ]
    },
    "112": {
        "24/03/2020 14:53:12": [
            -16,
            -16,
            -16,
            -16
        ],
        "24/03/2020 17:06:03": [
            93,
            -17,
            -17,
            -17,
            -17
        ],
        "24/03/2020 19:46:48": [
            134,
            8,
            8,
            -25
        ],
        "24/03/2020 22:03:31": [
            27,
            -25,
            -25
        ]
    },
    "113": {
        "24/03/2020 14:53:12": [
            -1,
            -1,
            -1,
            -1
        ],
        "24/03/2020 17:06:03": [
            114,
            2,
            2,
            2,
            2
        ],
        "24/03/2020 19:46:48": [
            141,
            15,
            15,
            27
        ],
        "24/03/2020 22:03:31": [
            79,
            27,
            27
        ]
    },
    "114": {
        "24/03/2020 14:53:13": [
            17,
            17,
            17,
            17
        ],
        "24/03/2020 17:06:04": [
            74,
            21,
            21,
            21,
            21
        ],
        "24/03/2020 19:46:49": [
            97,
            -29,
            -29
        ],
        "24/03/2020 22:03:32": [
            31,
            -21,
            -21
        ]
    },
    "115": {
        "24/03/2020 14:53:13": [
            25,
            25,
            25,
            25
        ],
        "24/03/2020 17:06:04": [
            87,
            -27,
            -27,
            -27,
            -27
        ],
        "24/03/2020 19:46:49": [
            54,
            -29,
            -29
        ],
        "24/03/2020 22:03:32": [
            78,
            26,
            26
        ]
    },
    "37": {
        "24/03/2020 14:53:14": [
            16,
            16,
            16,
            16
        ],
        "24/03/2020 17:06:04": [
            81,
            26,
            26,
            26,
            26
        ],
        "24/03/2020 19:46:50": [
            99,
            16,
            16
        ],
        "24/03/2020 22:03:33": [
            53,
            1,
            1
        ]
    },
    "38": {
        "24/03/2020 14:53:14": [
            17,
            17,
            17,
            17
        ],
        "24/03/2020 17:06:05": [
            87,
            -29,
            -29,
            -29,
            -29
        ],
        "24/03/2020 19:46:50": [
            93,
            10,
            10
        ],
        "24/03/2020 22:03:33": [
            35,
            -17,
            -17
        ]
    },
    "39": {
        "24/03/2020 14:53:15": [
            -7,
            -7,
            -7,
            -7
        ],
        "24/03/2020 17:06:06": [
            215,
            66,
            9,
            9,
            9,
            9
        ],
        "24/03/2020 19:46:50": [
            65,
            -18,
            -18
        ],
        "24/03/2020 22:03:34": [
            60,
            8,
            8
        ]
    },
    "40": {
        "24/03/2020 14:53:15": [
            5,
            5,
            5,
            5
        ],
        "24/03/2020 17:06:06": [
            221,
            72,
            14,
            14,
            14
        ],
        "24/03/2020 19:46:51": [
            61,
            -22,
            -22
        ],
        "24/03/2020 22:03:34": [
            39,
            -13,
            -13
        ]
    },
    "146": {
        "24/03/2020 14:53:15": [
            -27,
            -27,
            -27,
            -27
        ],
        "24/03/2020 17:06:07": [
            247,
            98,
            -20,
            -20,
            -20
        ],
        "24/03/2020 19:46:51": [
            84,
            1,
            1
        ],
        "24/03/2020 22:03:35": [
            55,
            3,
            3
        ]
    },
    "147": {
        "24/03/2020 14:53:16": [
            24,
            24,
            24,
            24
        ],
        "24/03/2020 17:06:07": [
            234,
            85,
            28,
            28,
            28
        ],
        "24/03/2020 19:46:52": [
            65,
            -18,
            -18
        ],
        "24/03/2020 22:03:35": [
            24,
            -28,
            -28
        ]
    },
    "184": {
        "24/03/2020 14:53:16": [
            28,
            28,
            28
        ],
        "24/03/2020 17:06:08": [
            233,
            84,
            26,
            26,
            26
        ],
        "24/03/2020 19:46:53": [
            55,
            -28,
            -28
        ],
        "24/03/2020 22:03:36": [
            59,
            7,
            7
        ]
    },
    "185": {
        "24/03/2020 14:53:17": [
            14,
            14,
            14
        ],
        "24/03/2020 17:06:08": [
            215,
            66,
            5,
            5,
            5
        ],
        "24/03/2020 19:46:53": [
            90,
            7,
            7
        ],
        "24/03/2020 22:03:36": [
            24,
            -28,
            -28
        ]
    },
    "186": {
        "24/03/2020 14:53:17": [
            -76,
            -25,
            -25,
            -25
        ],
        "24/03/2020 17:06:09": [
            229,
            80,
            14,
            14,
            14
        ],
        "24/03/2020 19:46:54": [
            90,
            7,
            7
        ],
        "24/03/2020 22:03:37": [
            69,
            17,
            17
        ]
    },
    "187": {
        "24/03/2020 14:53:18": [
            -39,
            12,
            12,
            12
        ],
        "24/03/2020 17:06:09": [
            264,
            21,
            -11,
            -11,
            -11
        ],
        "24/03/2020 19:46:54": [
            112,
            29,
            29
        ],
        "24/03/2020 22:03:37": [
            13,
            13,
            13
        ]
    },
    "188": {
        "24/03/2020 14:53:18": [
            -28,
            23,
            23,
            23
        ],
        "24/03/2020 17:06:09": [
            266,
            23,
            -8,
            -8,
            -8
        ],
        "24/03/2020 19:46:54": [
            56,
            -27,
            -27
        ],
        "24/03/2020 22:03:38": [
            2,
            2,
            2
        ]
    },
    "189": {
        "24/03/2020 14:53:19": [
            -16,
            -16,
            -16,
            -16
        ],
        "24/03/2020 17:06:10": [
            217,
            -26,
            5,
            5,
            5
        ],
        "24/03/2020 19:46:55": [
            69,
            -14,
            -14
        ],
        "24/03/2020 22:03:38": [
            -1,
            -1,
            -1
        ]
    },
    "190": {
        "24/03/2020 14:53:19": [
            -23,
            -23,
            -23,
            -23
        ],
        "24/03/2020 17:06:10": [
            267,
            24,
            -5,
            -5,
            -5
        ],
        "24/03/2020 19:46:56": [
            53,
            -30,
            -30
        ],
        "24/03/2020 22:03:38": [
            -25,
            -25,
            -25
        ]
    },
    "191": {
        "24/03/2020 14:53:19": [
            7,
            7,
            7,
            7
        ],
        "24/03/2020 17:06:11": [
            291,
            232,
            -11,
            22,
            22,
            22
        ],
        "24/03/2020 19:46:56": [
            67,
            -16,
            -16
        ],
        "24/03/2020 22:03:39": [
            -23,
            -23,
            -23
        ]
    },
    "819": {
        "24/03/2020 14:53:20": [
            -96,
            -21,
            -21,
            -21
        ],
        "24/03/2020 17:06:12": [
            317,
            259,
            16,
            -10,
            -10
        ],
        "24/03/2020 19:46:57": [
            84,
            1,
            1
        ],
        "24/03/2020 22:03:39": [
            -19,
            -19,
            -19
        ]
    },
    "4725": {
        "24/03/2020 14:53:20": [
            -24,
            -24,
            -24
        ],
        "24/03/2020 17:06:12": [
            345,
            270,
            27,
            -3,
            -3
        ],
        "24/03/2020 19:46:58": [
            103,
            -23
        ],
        "24/03/2020 22:03:40": [
            8,
            8,
            8
        ]
    },
    "126": {
        "24/03/2020 14:53:21": [
            -140,
            -221,
            -701,
            -546
        ],
        "24/03/2020 17:06:12": [
            -1506,
            -1128
        ],
        "24/03/2020 19:46:58": [
            -672,
            -557,
            -159
        ],
        "24/03/2020 22:03:40": [
            -234,
            15
        ]
    },
    "148": {
        "24/03/2020 14:53:21": [
            -204,
            -684,
            -529,
            -101
        ],
        "24/03/2020 17:06:13": [
            -1130,
            -258
        ],
        "24/03/2020 19:46:59": [
            -502,
            -104
        ],
        "24/03/2020 22:03:41": [
            -244,
            5,
            5
        ]
    },
    "149": {
        "24/03/2020 14:53:22": [
            -204,
            -684,
            -529,
            -101
        ],
        "24/03/2020 17:06:13": [
            -1125,
            -253
        ],
        "24/03/2020 19:46:59": [
            -516,
            -118
        ],
        "24/03/2020 22:03:41": [
            -269,
            -20,
            -20
        ]
    },
    "150": {
        "24/03/2020 14:53:22": [
            -210,
            -690,
            -535,
            -107
        ],
        "24/03/2020 17:06:14": [
            -1128,
            -256
        ],
        "24/03/2020 19:47:00": [
            -535,
            -137
        ],
        "24/03/2020 22:03:42": [
            -237,
            12,
            12
        ]
    },
    "200": {
        "24/03/2020 14:53:23": [
            -239,
            -719,
            -564,
            -10
        ],
        "24/03/2020 17:06:14": [
            -1111,
            -239
        ],
        "24/03/2020 19:47:00": [
            -515,
            14
        ],
        "24/03/2020 22:03:42": [
            -121,
            7
        ]
    },
    "201": {
        "24/03/2020 14:53:23": [
            -259,
            -739,
            -584,
            -30
        ],
        "24/03/2020 17:06:15": [
            -1129,
            -257
        ],
        "24/03/2020 19:47:01": [
            -544,
            -15
        ],
        "24/03/2020 22:03:43": [
            -156,
            -28
        ]
    },
    "29": {
        "24/03/2020 14:53:24": [
            -137,
            -214,
            -694,
            -539,
            15
        ],
        "24/03/2020 17:06:15": [
            -1120,
            -248
        ],
        "24/03/2020 19:47:01": [
            -512,
            17
        ],
        "24/03/2020 22:03:43": [
            -129,
            -1,
            -1
        ]
    },
    "196": {
        "24/03/2020 14:53:24": [
            -247,
            -727,
            -572,
            -18,
            -18
        ],
        "24/03/2020 17:06:16": [
            -1080,
            -250,
            -140
        ],
        "24/03/2020 19:47:01": [
            -551,
            -22,
            -22
        ],
        "24/03/2020 22:03:44": [
            -173,
            25
        ]
    },
    "197": {
        "24/03/2020 14:53:25": [
            -227,
            -707,
            -552,
            -124,
            2
        ],
        "24/03/2020 17:06:16": [
            -1110,
            -261,
            -151
        ],
        "24/03/2020 19:47:02": [
            -559,
            -30
        ],
        "24/03/2020 22:03:44": [
            -121,
            7
        ]
    },
    "198": {
        "24/03/2020 14:53:25": [
            -239,
            -719,
            -564,
            -136
        ],
        "24/03/2020 17:06:17": [
            -1097,
            -296,
            -186
        ],
        "24/03/2020 19:47:03": [
            -548,
            -19
        ],
        "24/03/2020 22:03:45": [
            -125,
            3
        ]
    },
    "199": {
        "24/03/2020 14:53:26": [
            -245,
            -725,
            -570,
            -142
        ],
        "24/03/2020 17:06:17": [
            -1044,
            -243,
            -133
        ],
        "24/03/2020 19:47:03": [
            -502,
            27
        ],
        "24/03/2020 22:03:45": [
            -148,
            -20
        ]
    },
    "2051": {
        "24/03/2020 14:53:26": [
            6,
            6,
            6,
            6,
            6
        ],
        "24/03/2020 17:06:18": [
            18,
            18,
            18
        ],
        "24/03/2020 19:47:04": [
            9,
            -8,
            -8
        ],
        "24/03/2020 22:03:46": [
            -8,
            -8,
            -8
        ]
    },
    "3084": {
        "24/03/2020 14:53:27": [
            -169,
            -12,
            -12,
            -12,
            -12
        ],
        "24/03/2020 17:06:18": [
            -137,
            -3,
            -3
        ],
        "24/03/2020 19:47:04": [
            13,
            11,
            11,
            11
        ],
        "24/03/2020 22:03:46": [
            11,
            11
        ]
    },
    "322": {
        "24/03/2020 14:53:27": [
            -221,
            -701,
            -546
        ],
        "24/03/2020 17:06:19": [
            -1517,
            -1139
        ],
        "24/03/2020 19:47:04": [
            -638,
            -523,
            -125
        ],
        "24/03/2020 22:03:47": [
            -153
        ]
    },
    "194": {
        "24/03/2020 14:53:28": [
            -245,
            -725,
            -570,
            -142,
            -16
        ],
        "24/03/2020 17:06:19": [
            -256,
            -146
        ],
        "24/03/2020 19:47:05": [
            -532,
            -3,
            -3
        ],
        "24/03/2020 22:03:47": [
            -220,
            -22
        ]
    },
    "195": {
        "24/03/2020 14:53:28": [
            -232,
            -712,
            -557,
            -129,
            -3
        ],
        "24/03/2020 17:06:20": [
            -1087,
            -238,
            -128
        ],
        "24/03/2020 19:47:06": [
            -530,
            -1,
            -1
        ],
        "24/03/2020 22:03:48": [
            -214,
            -16
        ]
    },
    "28": {
        "24/03/2020 14:53:29": [
            -115,
            -251,
            -731,
            -576,
            -22
        ],
        "24/03/2020 17:06:20": [
            -1159,
            -287
        ],
        "24/03/2020 19:47:06": [
            -548,
            -19
        ],
        "24/03/2020 22:03:48": [
            -153,
            -25,
            -25
        ]
    },
    "281": {
        "24/03/2020 14:53:29": [
            -694,
            -579,
            -151,
            -25
        ],
        "24/03/2020 17:06:21": [
            -293,
            -183,
            -24
        ],
        "24/03/2020 19:47:07": [
            -585,
            -143,
            -12
        ],
        "24/03/2020 22:03:49": [
            -221,
            28,
            28
        ]
    },
    "3161": {
        "24/03/2020 14:53:30": [
            -17,
            -17,
            -17,
            -17,
            -17
        ],
        "24/03/2020 17:06:21": [
            13,
            13,
            13
        ],
        "24/03/2020 19:47:07": [
            -11,
            3,
            3
        ],
        "24/03/2020 22:03:49": [
            3,
            3,
            3
        ]
    },
    "3162": {
        "24/03/2020 14:53:30": [
            -18,
            -18,
            -18,
            -18,
            -18
        ],
        "24/03/2020 17:06:22": [
            25,
            25,
            25
        ],
        "24/03/2020 19:47:08": [
            -11,
            -19,
            -19
        ],
        "24/03/2020 22:03:50": [
            -19,
            -19
        ]
    },
    "3163": {
        "24/03/2020 14:53:31": [
            29,
            29,
            29,
            29,
            29
        ],
        "24/03/2020 17:06:22": [
            8,
            8,
            8
        ],
        "24/03/2020 19:47:08": [
            26,
            12,
            12
        ],
        "24/03/2020 22:03:50": [
            12,
            12
        ]
    },
    "323": {
        "24/03/2020 14:53:31": [
            -126,
            -203,
            -683,
            -528
        ],
        "24/03/2020 17:06:23": [
            -1542,
            -1164
        ],
        "24/03/2020 19:47:09": [
            -657,
            -520,
            -122
        ],
        "24/03/2020 22:03:50": [
            -106
        ]
    },
    "400": {
        "24/03/2020 14:53:32": [
            -564,
            -136,
            -10,
            -10
        ],
        "24/03/2020 17:06:23": [
            -264,
            -154,
            -8
        ],
        "24/03/2020 19:47:10": [
            -311,
            -113,
            18,
            -7
        ],
        "24/03/2020 22:03:51": [
            -59,
            -7
        ]
    },
    "470": {
        "24/03/2020 14:53:32": [
            -186,
            -29,
            -29,
            -29,
            -29
        ],
        "24/03/2020 17:06:24": [
            -149,
            -25,
            -25
        ],
        "24/03/2020 19:47:10": [
            -189,
            -16,
            -28
        ],
        "24/03/2020 22:03:52": [
            53,
            -28,
            -28
        ]
    },
    "4705": {
        "24/03/2020 14:53:32": [
            -105,
            4,
            4,
            4,
            4
        ],
        "24/03/2020 17:06:24": [
            -183,
            -5,
            -5
        ],
        "24/03/2020 19:47:11": [
            -76,
            -1,
            18
        ],
        "24/03/2020 22:03:52": [
            99,
            18,
            18
        ]
    },
    "471": {
        "24/03/2020 14:53:33": [
            -156,
            1,
            1,
            1,
            1
        ],
        "24/03/2020 17:06:30": [
            -178,
            4,
            4
        ],
        "24/03/2020 19:47:11": [
            -162,
            11,
            -4
        ],
        "24/03/2020 22:03:52": [
            77,
            -4,
            -4
        ]
    },
    "472": {
        "24/03/2020 14:53:33": [
            -184,
            -27,
            -27,
            -27,
            -27
        ],
        "24/03/2020 17:06:37": [
            -295,
            29,
            29
        ],
        "24/03/2020 19:47:12": [
            -192,
            -19,
            20
        ],
        "24/03/2020 22:03:53": [
            101,
            20,
            20
        ]
    },
    "473": {
        "24/03/2020 14:53:34": [
            -142,
            15,
            15,
            15,
            15
        ],
        "24/03/2020 17:06:41": [
            -316,
            9,
            9
        ],
        "24/03/2020 19:47:12": [
            -156,
            17,
            -13
        ],
        "24/03/2020 22:03:53": [
            68,
            -13,
            -13
        ]
    },
    "3164": {
        "24/03/2020 14:53:34": [
            -2,
            -2,
            -2,
            -2
        ],
        "24/03/2020 17:06:47": [
            29,
            29
        ],
        "24/03/2020 19:47:13": [
            -14,
            2,
            2
        ],
        "24/03/2020 22:03:54": [
            2,
            2
        ]
    },
    "477": {
        "24/03/2020 14:53:35": [
            -148,
            -22,
            -22,
            -22,
            -22
        ],
        "24/03/2020 17:06:53": [
            -283,
            -26,
            -26
        ],
        "24/03/2020 19:47:14": [
            -172,
            1,
            -10
        ],
        "24/03/2020 22:03:54": [
            71,
            -10,
            -10
        ]
    },
    "478": {
        "24/03/2020 14:53:36": [
            -139,
            -13,
            -13,
            -13
        ],
        "24/03/2020 17:06:59": [
            -336,
            29,
            29
        ],
        "24/03/2020 19:47:15": [
            -196,
            -7,
            -26
        ],
        "24/03/2020 22:03:55": [
            55,
            -26,
            -26
        ]
    },
    "479": {
        "24/03/2020 14:53:36": [
            -106,
            20,
            20,
            20
        ],
        "24/03/2020 17:07:05": [
            -300,
            5,
            5
        ],
        "24/03/2020 19:47:15": [
            -108,
            23,
            -6
        ],
        "24/03/2020 22:03:55": [
            75,
            -6,
            -6
        ]
    },
    "480": {
        "24/03/2020 14:53:37": [
            -116,
            10,
            10,
            10
        ],
        "24/03/2020 17:07:11": [
            -158,
            -1,
            -1
        ],
        "24/03/2020 19:47:15": [
            -124,
            7,
            25
        ],
        "24/03/2020 22:03:56": [
            106,
            25,
            25
        ]
    },
    "481": {
        "24/03/2020 14:53:37": [
            -136,
            -10,
            -10,
            -10
        ],
        "24/03/2020 17:07:17": [
            -325,
            -18,
            -18
        ],
        "24/03/2020 19:47:16": [
            -149,
            -18,
            -11
        ],
        "24/03/2020 22:03:57": [
            70,
            -11,
            -11
        ]
    },
    "482": {
        "24/03/2020 14:53:38": [
            -128,
            -2,
            -2,
            -2
        ],
        "24/03/2020 17:07:23": [
            -312,
            -4,
            -4
        ],
        "24/03/2020 19:47:17": [
            -148,
            -17,
            -29
        ],
        "24/03/2020 22:03:57": [
            52,
            -29,
            -29
        ]
    },
    "27": {
        "24/03/2020 14:53:38": [
            -238,
            -718,
            -563,
            -135
        ],
        "24/03/2020 17:07:27": [
            -1149,
            -277
        ],
        "24/03/2020 19:47:17": [
            -524,
            -126
        ],
        "24/03/2020 22:03:58": [
            -121,
            7,
            7
        ]
    },
    "332": {
        "24/03/2020 14:53:39": [],
        "24/03/2020 17:07:34": [],
        "24/03/2020 19:47:18": [],
        "24/03/2020 22:03:58": []
    },
    "488": {
        "24/03/2020 14:53:39": [
            -109,
            17,
            17,
            17
        ],
        "24/03/2020 17:07:41": [
            -328,
            -286,
            -4,
            -4
        ],
        "24/03/2020 19:47:18": [
            -144,
            -13,
            27
        ],
        "24/03/2020 22:03:58": [
            27,
            27,
            27
        ]
    },
    "489": {
        "24/03/2020 14:53:39": [
            -106,
            20,
            20,
            20
        ],
        "24/03/2020 17:07:47": [
            -375,
            -333,
            -3,
            -3
        ],
        "24/03/2020 19:47:19": [
            -151,
            -20,
            7
        ],
        "24/03/2020 22:03:59": [
            7,
            7,
            7
        ]
    },
    "490": {
        "24/03/2020 14:53:40": [
            -582,
            -105,
            21,
            21,
            21
        ],
        "24/03/2020 17:07:52": [
            -364,
            -322,
            -4,
            -4
        ],
        "24/03/2020 19:47:19": [
            -159,
            -28,
            -14
        ],
        "24/03/2020 22:04:00": [
            -14,
            -14
        ]
    },
    "491": {
        "24/03/2020 14:53:40": [
            -580,
            -103,
            23,
            23
        ],
        "24/03/2020 17:07:58": [
            -383,
            -311,
            -5,
            -5
        ],
        "24/03/2020 19:47:20": [
            -106,
            25,
            26
        ],
        "24/03/2020 22:04:00": [
            26,
            26,
            26
        ]
    },
    "4680": {
        "24/03/2020 14:53:41": [
            -107,
            -245,
            -725,
            -570,
            -142
        ],
        "24/03/2020 17:08:04": [
            -1148,
            -276
        ],
        "24/03/2020 19:47:20": [
            -544,
            -146
        ],
        "24/03/2020 22:04:00": [
            -230,
            19,
            19
        ]
    },
    "469": {
        "24/03/2020 14:53:42": [
            -63,
            25,
            25,
            25,
            25
        ],
        "24/03/2020 17:08:09": [
            -27,
            -27
        ],
        "24/03/2020 19:47:21": [
            -14,
            -20
        ],
        "24/03/2020 22:04:01": [
            61,
            -20,
            -20
        ]
    },
    "493": {
        "24/03/2020 14:53:42": [
            -595,
            -150,
            -24,
            -24
        ],
        "24/03/2020 17:08:15": [
            -238,
            -277,
            4
        ],
        "24/03/2020 19:47:21": [
            -113,
            18,
            -9
        ],
        "24/03/2020 22:04:01": [
            -9,
            -9,
            -9
        ]
    },
    "494": {
        "24/03/2020 14:53:43": [
            -532,
            -104,
            22,
            22
        ],
        "24/03/2020 17:08:20": [
            -283,
            -322,
            4
        ],
        "24/03/2020 19:47:22": [
            -152,
            -21,
            -9
        ],
        "24/03/2020 22:04:02": [
            -9,
            -9,
            -9
        ]
    },
    "495": {
        "24/03/2020 14:53:43": [
            -564,
            -136,
            -10,
            -10
        ],
        "24/03/2020 17:08:26": [
            -254,
            -293,
            16
        ],
        "24/03/2020 19:47:22": [
            -151,
            -20,
            -29
        ],
        "24/03/2020 22:04:02": [
            -29,
            -29,
            -29
        ]
    },
    "6182": {
        "24/03/2020 14:53:44": [
            -123,
            -204,
            -684,
            -529
        ],
        "24/03/2020 17:08:34": [
            -1490,
            -1112,
            -240
        ],
        "24/03/2020 19:47:23": [
            -665,
            -550,
            -152
        ],
        "24/03/2020 22:04:03": [
            -116
        ]
    },
    "492": {
        "24/03/2020 14:53:44": [
            -558,
            -113,
            13,
            13
        ],
        "24/03/2020 17:08:35": [
            -274,
            -313,
            -16
        ],
        "24/03/2020 19:47:24": [
            -124,
            7,
            -2
        ],
        "24/03/2020 22:04:04": [
            -2,
            -2,
            -2
        ]
    },
    "6086": {
        "24/03/2020 14:53:45": [
            12,
            12,
            12,
            12
        ],
        "24/03/2020 17:08:36": [
            -24,
            -24,
            -24
        ],
        "24/03/2020 19:47:24": [
            18,
            -17,
            -17
        ],
        "24/03/2020 22:04:05": [
            -17,
            -17,
            -17
        ]
    },
    "7330": {
        "24/03/2020 14:53:45": [
            0,
            0,
            0,
            0,
            0
        ],
        "24/03/2020 17:08:36": [
            0,
            0,
            0
        ],
        "24/03/2020 19:47:25": [
            0,
            0,
            0
        ],
        "24/03/2020 22:04:05": [
            0,
            0,
            0
        ]
    },
    "483": {
        "24/03/2020 14:53:46": [
            -146,
            -20,
            -20,
            -20
        ],
        "24/03/2020 17:08:37": [
            -326,
            -21,
            -21
        ],
        "24/03/2020 19:47:25": [
            -109,
            22,
            -2
        ],
        "24/03/2020 22:04:06": [
            79,
            -2,
            -2
        ]
    },
    "485": {
        "24/03/2020 14:53:46": [
            -102,
            24,
            24,
            24
        ],
        "24/03/2020 17:08:37": [
            -319,
            -27,
            -27
        ],
        "24/03/2020 19:47:26": [
            -132,
            -1,
            17
        ],
        "24/03/2020 22:04:06": [
            98,
            17,
            17
        ]
    },
    "487": {
        "24/03/2020 14:53:47": [
            -110,
            16,
            16,
            16
        ],
        "24/03/2020 17:08:38": [
            -446,
            -303,
            -24,
            -24
        ],
        "24/03/2020 19:47:26": [
            -148,
            -17,
            -18
        ],
        "24/03/2020 22:04:07": [
            -18,
            -18,
            -18
        ]
    },
    "6": {
        "24/03/2020 14:53:47": [
            -214,
            -694,
            -539,
            -111,
            15
        ],
        "24/03/2020 17:08:38": [
            -241,
            -280,
            3
        ],
        "24/03/2020 19:47:27": [
            -598,
            -156,
            -25
        ],
        "24/03/2020 22:04:07": [
            -172,
            26
        ]
    },
    "90": {
        "24/03/2020 14:53:48": [
            -138,
            -217,
            -697,
            -670,
            -114
        ],
        "24/03/2020 17:08:39": [
            -1118,
            -376
        ],
        "24/03/2020 19:47:28": [
            -516,
            -118
        ],
        "24/03/2020 22:04:08": [
            -150,
            -22,
            -22
        ]
    },
    "475": {
        "24/03/2020 14:53:48": [
            -123,
            -14,
            -14,
            -14,
            -14
        ],
        "24/03/2020 17:08:39": [
            -284,
            -18,
            -18
        ],
        "24/03/2020 19:47:28": [
            -200,
            -27,
            -18
        ],
        "24/03/2020 22:04:08": [
            63,
            -18,
            -18
        ]
    },
    "476": {
        "24/03/2020 14:53:49": [
            -129,
            -3,
            -3,
            -3,
            -3
        ],
        "24/03/2020 17:08:39": [
            -323,
            1,
            1
        ],
        "24/03/2020 19:47:28": [
            -202,
            -29,
            24
        ],
        "24/03/2020 22:04:09": [
            105,
            24,
            24
        ]
    },
    "91": {
        "24/03/2020 14:53:50": [
            -151,
            -231,
            -711,
            -684,
            -128
        ],
        "24/03/2020 17:08:40": [
            -1132,
            -390
        ],
        "24/03/2020 19:47:29": [
            -535,
            -137
        ],
        "24/03/2020 22:04:09": [
            -116,
            12
        ]
    },
    "92": {
        "24/03/2020 14:53:50": [
            -118,
            -257,
            -737,
            -710,
            -154
        ],
        "24/03/2020 17:08:40": [
            -1160,
            -418
        ],
        "24/03/2020 19:47:29": [
            -506,
            -108
        ],
        "24/03/2020 22:04:10": [
            -152,
            -24
        ]
    },
    "93": {
        "24/03/2020 14:53:51": [
            -120,
            -259,
            -739,
            -712,
            -156
        ],
        "24/03/2020 17:08:41": [
            -1163,
            -421
        ],
        "24/03/2020 19:47:30": [
            -516,
            -118
        ],
        "24/03/2020 22:04:10": [
            -109,
            19
        ]
    },
    "94": {
        "24/03/2020 14:53:51": [
            -92,
            -232,
            -712,
            -685
        ],
        "24/03/2020 17:08:42": [
            -1137,
            -395
        ],
        "24/03/2020 19:47:30": [],
        "24/03/2020 22:04:11": [
            -105,
            23
        ]
    }
}