{
    "7623": {
        "24/03/2020 14:42:21": [],
        "24/03/2020 16:56:56": [
            5,
            5
        ],
        "24/03/2020 19:35:56": [],
        "24/03/2020 21:52:48": []
    },
    "7690": {
        "24/03/2020 14:42:21": [],
        "24/03/2020 16:56:57": [
            4,
            -21
        ],
        "24/03/2020 19:35:57": [],
        "24/03/2020 21:52:48": []
    },
    "3569": {
        "24/03/2020 14:42:21": [],
        "24/03/2020 16:56:57": [
            13
        ],
        "24/03/2020 19:35:57": [],
        "24/03/2020 21:52:49": []
    },
    "3571": {
        "24/03/2020 14:42:22": [],
        "24/03/2020 16:56:57": [
            -12
        ],
        "24/03/2020 19:35:58": [],
        "24/03/2020 21:52:49": []
    },
    "3713": {
        "24/03/2020 14:42:22": [],
        "24/03/2020 16:56:58": [],
        "24/03/2020 19:35:58": [],
        "24/03/2020 21:52:49": []
    },
    "3714": {
        "24/03/2020 14:42:23": [],
        "24/03/2020 16:56:58": [],
        "24/03/2020 19:35:59": [],
        "24/03/2020 21:52:50": []
    },
    "3715": {
        "24/03/2020 14:42:23": [],
        "24/03/2020 16:56:59": [
            -20
        ],
        "24/03/2020 19:35:59": [],
        "24/03/2020 21:52:50": []
    },
    "3755": {
        "24/03/2020 14:42:24": [],
        "24/03/2020 16:56:59": [
            -22
        ],
        "24/03/2020 19:36:00": [],
        "24/03/2020 21:52:51": []
    },
    "3756": {
        "24/03/2020 14:42:24": [],
        "24/03/2020 16:57:00": [
            -14
        ],
        "24/03/2020 19:36:00": [],
        "24/03/2020 21:52:51": []
    },
    "3757": {
        "24/03/2020 14:42:25": [],
        "24/03/2020 16:57:00": [
            17
        ],
        "24/03/2020 19:36:00": [],
        "24/03/2020 21:52:51": []
    },
    "3758": {
        "24/03/2020 14:42:25": [],
        "24/03/2020 16:57:01": [
            21,
            -6
        ],
        "24/03/2020 19:36:01": [],
        "24/03/2020 21:52:52": []
    },
    "3759": {
        "24/03/2020 14:42:26": [],
        "24/03/2020 16:57:02": [
            6,
            -22
        ],
        "24/03/2020 19:36:01": [],
        "24/03/2020 21:52:52": []
    },
    "3760": {
        "24/03/2020 14:42:26": [],
        "24/03/2020 16:57:02": [
            27,
            -2
        ],
        "24/03/2020 19:36:02": [],
        "24/03/2020 21:52:53": []
    },
    "3761": {
        "24/03/2020 14:42:26": [],
        "24/03/2020 16:57:03": [
            -45,
            -7
        ],
        "24/03/2020 19:36:02": [],
        "24/03/2020 21:52:53": []
    },
    "3762": {
        "24/03/2020 14:42:27": [],
        "24/03/2020 16:57:03": [
            -63,
            -25
        ],
        "24/03/2020 19:36:03": [],
        "24/03/2020 21:52:54": []
    },
    "3763": {
        "24/03/2020 14:42:27": [],
        "24/03/2020 16:57:04": [
            -66,
            -29
        ],
        "24/03/2020 19:36:03": [],
        "24/03/2020 21:52:54": []
    },
    "3764": {
        "24/03/2020 14:42:28": [],
        "24/03/2020 16:57:04": [
            -91,
            4
        ],
        "24/03/2020 19:36:04": [],
        "24/03/2020 21:52:55": []
    },
    "3765": {
        "24/03/2020 14:42:28": [],
        "24/03/2020 16:57:05": [
            9,
            -25
        ],
        "24/03/2020 19:36:04": [],
        "24/03/2020 21:52:55": []
    },
    "3766": {
        "24/03/2020 14:42:29": [],
        "24/03/2020 16:57:05": [
            1,
            28
        ],
        "24/03/2020 19:36:05": [],
        "24/03/2020 21:52:56": []
    },
    "3767": {
        "24/03/2020 14:42:29": [],
        "24/03/2020 16:57:06": [
            -29,
            -1
        ],
        "24/03/2020 19:36:05": [],
        "24/03/2020 21:52:56": []
    },
    "3768": {
        "24/03/2020 14:42:30": [],
        "24/03/2020 16:57:07": [
            -11,
            18
        ],
        "24/03/2020 19:36:06": [],
        "24/03/2020 21:52:57": []
    },
    "3769": {
        "24/03/2020 14:42:30": [],
        "24/03/2020 16:57:07": [
            -21,
            8
        ],
        "24/03/2020 19:36:06": [],
        "24/03/2020 21:52:57": []
    },
    "3770": {
        "24/03/2020 14:42:31": [],
        "24/03/2020 16:57:08": [],
        "24/03/2020 19:36:07": [],
        "24/03/2020 21:52:58": []
    },
    "3771": {
        "24/03/2020 14:42:31": [],
        "24/03/2020 16:57:08": [
            29,
            0
        ],
        "24/03/2020 19:36:07": [],
        "24/03/2020 21:52:58": []
    },
    "3772": {
        "24/03/2020 14:42:31": [],
        "24/03/2020 16:57:09": [
            3,
            -25
        ],
        "24/03/2020 19:36:07": [],
        "24/03/2020 21:52:59": []
    },
    "3773": {
        "24/03/2020 14:42:32": [],
        "24/03/2020 16:57:09": [
            21,
            -7
        ],
        "24/03/2020 19:36:08": [],
        "24/03/2020 21:52:59": []
    },
    "3774": {
        "24/03/2020 14:42:32": [],
        "24/03/2020 16:57:10": [
            13,
            -13
        ],
        "24/03/2020 19:36:08": [],
        "24/03/2020 21:52:59": []
    },
    "3775": {
        "24/03/2020 14:42:33": [],
        "24/03/2020 16:57:10": [
            26,
            1
        ],
        "24/03/2020 19:36:09": [],
        "24/03/2020 21:53:00": []
    },
    "3777": {
        "24/03/2020 14:42:33": [],
        "24/03/2020 16:57:11": [
            -1,
            -24
        ],
        "24/03/2020 19:36:09": [],
        "24/03/2020 21:53:01": []
    },
    "3778": {
        "24/03/2020 14:42:34": [],
        "24/03/2020 16:57:11": [
            29,
            6
        ],
        "24/03/2020 19:36:10": [],
        "24/03/2020 21:53:01": []
    },
    "3781": {
        "24/03/2020 14:42:34": [],
        "24/03/2020 16:57:12": [
            -30,
            2
        ],
        "24/03/2020 19:36:10": [],
        "24/03/2020 21:53:02": []
    },
    "3782": {
        "24/03/2020 14:42:35": [],
        "24/03/2020 16:57:12": [
            4,
            -27
        ],
        "24/03/2020 19:36:11": [],
        "24/03/2020 21:53:02": []
    },
    "3783": {
        "24/03/2020 14:42:35": [],
        "24/03/2020 16:57:13": [
            -12,
            14
        ],
        "24/03/2020 19:36:11": [],
        "24/03/2020 21:53:02": []
    },
    "3784": {
        "24/03/2020 14:42:36": [],
        "24/03/2020 16:57:13": [
            -20,
            2
        ],
        "24/03/2020 19:36:12": [],
        "24/03/2020 21:53:03": []
    },
    "3785": {
        "24/03/2020 14:42:36": [],
        "24/03/2020 16:57:14": [
            -10,
            7
        ],
        "24/03/2020 19:36:12": [],
        "24/03/2020 21:53:03": []
    },
    "3786": {
        "24/03/2020 14:42:36": [],
        "24/03/2020 16:57:14": [
            -26,
            -13
        ],
        "24/03/2020 19:36:13": [],
        "24/03/2020 21:53:04": []
    },
    "3787": {
        "24/03/2020 14:42:37": [],
        "24/03/2020 16:57:15": [
            -18,
            -10
        ],
        "24/03/2020 19:36:13": [],
        "24/03/2020 21:53:04": []
    },
    "3788": {
        "24/03/2020 14:42:38": [],
        "24/03/2020 16:57:15": [
            25,
            -30
        ],
        "24/03/2020 19:36:14": [],
        "24/03/2020 21:53:05": []
    },
    "3789": {
        "24/03/2020 14:42:38": [],
        "24/03/2020 16:57:16": [
            11,
            12
        ],
        "24/03/2020 19:36:14": [],
        "24/03/2020 21:53:05": []
    },
    "3790": {
        "24/03/2020 14:42:39": [],
        "24/03/2020 16:57:16": [
            7,
            4
        ],
        "24/03/2020 19:36:15": [],
        "24/03/2020 21:53:06": []
    },
    "3791": {
        "24/03/2020 14:42:39": [],
        "24/03/2020 16:57:17": [
            -5,
            -12
        ],
        "24/03/2020 19:36:15": [],
        "24/03/2020 21:53:06": []
    },
    "3792": {
        "24/03/2020 14:42:40": [],
        "24/03/2020 16:57:17": [
            -19,
            -30
        ],
        "24/03/2020 19:36:15": [],
        "24/03/2020 21:53:06": []
    },
    "3793": {
        "24/03/2020 14:42:40": [],
        "24/03/2020 16:57:18": [
            -30,
            15
        ],
        "24/03/2020 19:36:16": [],
        "24/03/2020 21:53:07": []
    },
    "3794": {
        "24/03/2020 14:42:41": [],
        "24/03/2020 16:57:18": [
            11,
            -7
        ],
        "24/03/2020 19:36:16": [],
        "24/03/2020 21:53:07": []
    },
    "3795": {
        "24/03/2020 14:42:41": [],
        "24/03/2020 16:57:19": [
            -19,
            21
        ],
        "24/03/2020 19:36:17": [],
        "24/03/2020 21:53:08": []
    },
    "3797": {
        "24/03/2020 14:42:41": [],
        "24/03/2020 16:57:19": [
            5
        ],
        "24/03/2020 19:36:17": [],
        "24/03/2020 21:53:08": []
    },
    "3798": {
        "24/03/2020 14:42:42": [],
        "24/03/2020 16:57:20": [
            -11,
            23
        ],
        "24/03/2020 19:36:18": [],
        "24/03/2020 21:53:09": []
    },
    "3799": {
        "24/03/2020 14:42:42": [],
        "24/03/2020 16:57:20": [
            18
        ],
        "24/03/2020 19:36:18": [],
        "24/03/2020 21:53:09": []
    },
    "2498": {
        "24/03/2020 14:42:43": [],
        "24/03/2020 16:57:20": [
            12,
            12
        ],
        "24/03/2020 19:36:19": [],
        "24/03/2020 21:53:10": []
    },
    "2499": {
        "24/03/2020 14:42:43": [],
        "24/03/2020 16:57:21": [
            9,
            9
        ],
        "24/03/2020 19:36:19": [],
        "24/03/2020 21:53:11": []
    },
    "407": {
        "24/03/2020 14:42:44": [],
        "24/03/2020 16:57:21": [
            0,
            0
        ],
        "24/03/2020 19:36:20": [],
        "24/03/2020 21:53:11": []
    },
    "2500": {
        "24/03/2020 14:42:44": [],
        "24/03/2020 16:57:22": [
            -18,
            -18
        ],
        "24/03/2020 19:36:20": [],
        "24/03/2020 21:53:11": []
    },
    "2501": {
        "24/03/2020 14:42:45": [],
        "24/03/2020 16:57:22": [
            -21,
            -21
        ],
        "24/03/2020 19:36:20": [],
        "24/03/2020 21:53:12": []
    },
    "2507": {
        "24/03/2020 14:42:45": [],
        "24/03/2020 16:57:23": [],
        "24/03/2020 19:36:21": [],
        "24/03/2020 21:53:12": []
    },
    "6077": {
        "24/03/2020 14:42:46": [],
        "24/03/2020 16:57:23": [
            -10
        ],
        "24/03/2020 19:36:21": [],
        "24/03/2020 21:53:13": []
    },
    "3801": {
        "24/03/2020 14:42:46": [],
        "24/03/2020 16:57:24": [
            -21
        ],
        "24/03/2020 19:36:22": [],
        "24/03/2020 21:53:13": []
    },
    "3802": {
        "24/03/2020 14:42:46": [],
        "24/03/2020 16:57:24": [
            1
        ],
        "24/03/2020 19:36:22": [],
        "24/03/2020 21:53:14": []
    },
    "3805": {
        "24/03/2020 14:42:47": [],
        "24/03/2020 16:57:25": [
            -10
        ],
        "24/03/2020 19:36:23": [],
        "24/03/2020 21:53:14": []
    },
    "3806": {
        "24/03/2020 14:42:47": [],
        "24/03/2020 16:57:25": [
            7
        ],
        "24/03/2020 19:36:23": [],
        "24/03/2020 21:53:15": []
    },
    "3807": {
        "24/03/2020 14:42:48": [],
        "24/03/2020 16:57:26": [
            25
        ],
        "24/03/2020 19:36:24": [],
        "24/03/2020 21:53:15": []
    },
    "3808": {
        "24/03/2020 14:42:48": [],
        "24/03/2020 16:57:26": [
            -7
        ],
        "24/03/2020 19:36:24": [],
        "24/03/2020 21:53:15": []
    },
    "3809": {
        "24/03/2020 14:42:49": [],
        "24/03/2020 16:57:27": [
            1
        ],
        "24/03/2020 19:36:25": [],
        "24/03/2020 21:53:16": []
    },
    "5175": {
        "24/03/2020 14:42:49": [],
        "24/03/2020 16:57:28": [
            1
        ],
        "24/03/2020 19:36:26": [],
        "24/03/2020 21:53:16": []
    },
    "5176": {
        "24/03/2020 14:42:50": [],
        "24/03/2020 16:57:28": [
            -10,
            23
        ],
        "24/03/2020 19:36:26": [],
        "24/03/2020 21:53:17": []
    },
    "6076": {
        "24/03/2020 14:42:50": [],
        "24/03/2020 16:57:29": [
            -9,
            20
        ],
        "24/03/2020 19:36:26": [],
        "24/03/2020 21:53:18": []
    },
    "7172": {
        "24/03/2020 14:42:51": [],
        "24/03/2020 16:57:29": [
            5,
            -20
        ],
        "24/03/2020 19:36:27": [],
        "24/03/2020 21:53:18": []
    },
    "7174": {
        "24/03/2020 14:42:51": [],
        "24/03/2020 16:57:30": [],
        "24/03/2020 19:36:27": [],
        "24/03/2020 21:53:19": []
    },
    "7175": {
        "24/03/2020 14:42:52": [],
        "24/03/2020 16:57:30": [
            27
        ],
        "24/03/2020 19:36:28": [],
        "24/03/2020 21:53:19": []
    },
    "4495": {
        "24/03/2020 14:42:52": [],
        "24/03/2020 16:57:31": [],
        "24/03/2020 19:36:28": [],
        "24/03/2020 21:53:20": []
    },
    "2809": {
        "24/03/2020 14:42:53": [],
        "24/03/2020 16:57:31": [],
        "24/03/2020 19:36:29": [],
        "24/03/2020 21:53:20": []
    },
    "2810": {
        "24/03/2020 14:42:53": [],
        "24/03/2020 16:57:32": [],
        "24/03/2020 19:36:29": [],
        "24/03/2020 21:53:20": []
    },
    "302": {
        "24/03/2020 14:42:54": [],
        "24/03/2020 16:57:32": [],
        "24/03/2020 19:36:30": [],
        "24/03/2020 21:53:21": []
    },
    "3815": {
        "24/03/2020 14:42:54": [],
        "24/03/2020 16:57:33": [],
        "24/03/2020 19:36:30": [],
        "24/03/2020 21:53:21": []
    },
    "3816": {
        "24/03/2020 14:42:55": [],
        "24/03/2020 16:57:33": [],
        "24/03/2020 19:36:31": [],
        "24/03/2020 21:53:22": []
    },
    "3818": {
        "24/03/2020 14:42:55": [],
        "24/03/2020 16:57:34": [],
        "24/03/2020 19:36:31": [],
        "24/03/2020 21:53:22": []
    },
    "3819": {
        "24/03/2020 14:42:56": [],
        "24/03/2020 16:57:34": [],
        "24/03/2020 19:36:32": [],
        "24/03/2020 21:53:23": []
    },
    "3820": {
        "24/03/2020 14:42:56": [],
        "24/03/2020 16:57:34": [],
        "24/03/2020 19:36:32": [],
        "24/03/2020 21:53:23": []
    },
    "3822": {
        "24/03/2020 14:42:56": [],
        "24/03/2020 16:57:35": [],
        "24/03/2020 19:36:33": [],
        "24/03/2020 21:53:24": []
    },
    "3823": {
        "24/03/2020 14:42:57": [],
        "24/03/2020 16:57:35": [],
        "24/03/2020 19:36:33": [],
        "24/03/2020 21:53:24": []
    },
    "3824": {
        "24/03/2020 14:42:58": [],
        "24/03/2020 16:57:36": [],
        "24/03/2020 19:36:33": [],
        "24/03/2020 21:53:25": []
    },
    "3825": {
        "24/03/2020 14:42:58": [],
        "24/03/2020 16:57:36": [],
        "24/03/2020 19:36:34": [],
        "24/03/2020 21:53:25": []
    },
    "3826": {
        "24/03/2020 14:42:59": [],
        "24/03/2020 16:57:37": [],
        "24/03/2020 19:36:34": [],
        "24/03/2020 21:53:26": []
    },
    "3827": {
        "24/03/2020 14:42:59": [],
        "24/03/2020 16:57:37": [],
        "24/03/2020 19:36:35": [],
        "24/03/2020 21:53:26": []
    },
    "3828": {
        "24/03/2020 14:43:00": [],
        "24/03/2020 16:57:38": [],
        "24/03/2020 19:36:35": [],
        "24/03/2020 21:53:27": []
    },
    "3829": {
        "24/03/2020 14:43:00": [],
        "24/03/2020 16:57:38": [],
        "24/03/2020 19:36:36": [],
        "24/03/2020 21:53:27": []
    },
    "3831": {
        "24/03/2020 14:43:01": [],
        "24/03/2020 16:57:38": [],
        "24/03/2020 19:36:36": [],
        "24/03/2020 21:53:28": []
    },
    "3832": {
        "24/03/2020 14:43:01": [],
        "24/03/2020 16:57:39": [],
        "24/03/2020 19:36:37": [],
        "24/03/2020 21:53:28": []
    },
    "3833": {
        "24/03/2020 14:43:02": [],
        "24/03/2020 16:57:39": [],
        "24/03/2020 19:36:37": [],
        "24/03/2020 21:53:29": []
    },
    "3834": {
        "24/03/2020 14:43:02": [],
        "24/03/2020 16:57:40": [],
        "24/03/2020 19:36:38": [],
        "24/03/2020 21:53:29": []
    },
    "3835": {
        "24/03/2020 14:43:02": [],
        "24/03/2020 16:57:41": [],
        "24/03/2020 19:36:38": [],
        "24/03/2020 21:53:30": []
    },
    "3836": {
        "24/03/2020 14:43:03": [],
        "24/03/2020 16:57:41": [],
        "24/03/2020 19:36:38": [],
        "24/03/2020 21:53:30": []
    },
    "3837": {
        "24/03/2020 14:43:03": [],
        "24/03/2020 16:57:42": [],
        "24/03/2020 19:36:39": [],
        "24/03/2020 21:53:31": []
    },
    "3838": {
        "24/03/2020 14:43:04": [],
        "24/03/2020 16:57:42": [],
        "24/03/2020 19:36:39": [],
        "24/03/2020 21:53:31": []
    },
    "3840": {
        "24/03/2020 14:43:04": [],
        "24/03/2020 16:57:43": [],
        "24/03/2020 19:36:40": [],
        "24/03/2020 21:53:32": []
    },
    "3842": {
        "24/03/2020 14:43:05": [],
        "24/03/2020 16:57:43": [],
        "24/03/2020 19:36:40": [],
        "24/03/2020 21:53:32": []
    },
    "3843": {
        "24/03/2020 14:43:05": [],
        "24/03/2020 16:57:44": [],
        "24/03/2020 19:36:41": [],
        "24/03/2020 21:53:33": []
    },
    "3844": {
        "24/03/2020 14:43:06": [],
        "24/03/2020 16:57:44": [],
        "24/03/2020 19:36:41": [],
        "24/03/2020 21:53:33": []
    },
    "3845": {
        "24/03/2020 14:43:06": [],
        "24/03/2020 16:57:45": [],
        "24/03/2020 19:36:42": [],
        "24/03/2020 21:53:34": []
    },
    "3846": {
        "24/03/2020 14:43:07": [],
        "24/03/2020 16:57:45": [],
        "24/03/2020 19:36:42": [],
        "24/03/2020 21:53:34": []
    },
    "3848": {
        "24/03/2020 14:43:07": [],
        "24/03/2020 16:57:46": [],
        "24/03/2020 19:36:43": [],
        "24/03/2020 21:53:35": []
    },
    "3849": {
        "24/03/2020 14:43:08": [],
        "24/03/2020 16:57:46": [],
        "24/03/2020 19:36:43": [],
        "24/03/2020 21:53:35": []
    },
    "3850": {
        "24/03/2020 14:43:08": [],
        "24/03/2020 16:57:46": [],
        "24/03/2020 19:36:44": [],
        "24/03/2020 21:53:36": []
    },
    "3851": {
        "24/03/2020 14:43:09": [],
        "24/03/2020 16:57:47": [],
        "24/03/2020 19:36:44": [],
        "24/03/2020 21:53:36": []
    },
    "3852": {
        "24/03/2020 14:43:09": [],
        "24/03/2020 16:57:47": [],
        "24/03/2020 19:36:45": [],
        "24/03/2020 21:53:37": []
    },
    "3853": {
        "24/03/2020 14:43:10": [],
        "24/03/2020 16:57:48": [],
        "24/03/2020 19:36:45": [],
        "24/03/2020 21:53:37": []
    },
    "3854": {
        "24/03/2020 14:43:10": [],
        "24/03/2020 16:57:48": [],
        "24/03/2020 19:36:46": [],
        "24/03/2020 21:53:37": []
    },
    "3855": {
        "24/03/2020 14:43:11": [],
        "24/03/2020 16:57:49": [],
        "24/03/2020 19:36:46": [],
        "24/03/2020 21:53:38": []
    },
    "3856": {
        "24/03/2020 14:43:11": [],
        "24/03/2020 16:57:49": [],
        "24/03/2020 19:36:47": [],
        "24/03/2020 21:53:38": []
    },
    "3857": {
        "24/03/2020 14:43:12": [],
        "24/03/2020 16:57:50": [],
        "24/03/2020 19:36:47": [],
        "24/03/2020 21:53:39": []
    },
    "3858": {
        "24/03/2020 14:43:12": [],
        "24/03/2020 16:57:50": [],
        "24/03/2020 19:36:48": [],
        "24/03/2020 21:53:39": []
    },
    "3859": {
        "24/03/2020 14:43:13": [],
        "24/03/2020 16:57:51": [],
        "24/03/2020 19:36:48": [],
        "24/03/2020 21:53:40": []
    },
    "7398": {
        "24/03/2020 14:43:13": [],
        "24/03/2020 16:57:51": [],
        "24/03/2020 19:36:48": [],
        "24/03/2020 21:53:40": []
    },
    "3860": {
        "24/03/2020 14:43:14": [],
        "24/03/2020 16:57:52": [],
        "24/03/2020 19:36:49": [],
        "24/03/2020 21:53:41": []
    },
    "3861": {
        "24/03/2020 14:43:14": [],
        "24/03/2020 16:57:52": [],
        "24/03/2020 19:36:49": [],
        "24/03/2020 21:53:41": []
    },
    "3862": {
        "24/03/2020 14:43:15": [],
        "24/03/2020 16:57:53": [],
        "24/03/2020 19:36:50": [],
        "24/03/2020 21:53:42": []
    },
    "3863": {
        "24/03/2020 14:43:15": [],
        "24/03/2020 16:57:53": [],
        "24/03/2020 19:36:50": [],
        "24/03/2020 21:53:42": []
    },
    "6050": {
        "24/03/2020 14:43:15": [],
        "24/03/2020 16:57:54": [],
        "24/03/2020 19:36:51": [],
        "24/03/2020 21:53:43": []
    },
    "333": {
        "24/03/2020 14:43:16": [],
        "24/03/2020 16:57:54": [],
        "24/03/2020 19:36:51": [],
        "24/03/2020 21:53:43": []
    },
    "3565": {
        "24/03/2020 14:43:16": [],
        "24/03/2020 16:57:55": [],
        "24/03/2020 19:36:52": [],
        "24/03/2020 21:53:44": []
    },
    "3566": {
        "24/03/2020 14:43:17": [],
        "24/03/2020 16:57:55": [],
        "24/03/2020 19:36:52": [],
        "24/03/2020 21:53:44": []
    },
    "3567": {
        "24/03/2020 14:43:17": [],
        "24/03/2020 16:57:56": [],
        "24/03/2020 19:36:52": [],
        "24/03/2020 21:53:45": []
    },
    "3748": {
        "24/03/2020 14:43:18": [],
        "24/03/2020 16:57:56": [],
        "24/03/2020 19:36:53": [],
        "24/03/2020 21:53:45": []
    },
    "7292": {
        "24/03/2020 14:43:18": [],
        "24/03/2020 16:57:57": [],
        "24/03/2020 19:36:53": [],
        "24/03/2020 21:53:46": []
    },
    "747": {
        "24/03/2020 14:43:19": [],
        "24/03/2020 16:57:57": [],
        "24/03/2020 19:36:54": [],
        "24/03/2020 21:53:46": []
    },
    "748": {
        "24/03/2020 14:43:19": [],
        "24/03/2020 16:57:58": [],
        "24/03/2020 19:36:54": [],
        "24/03/2020 21:53:47": []
    },
    "403": {
        "24/03/2020 14:43:20": [],
        "24/03/2020 16:57:58": [],
        "24/03/2020 19:36:55": [],
        "24/03/2020 21:53:47": []
    },
    "6252": {
        "24/03/2020 14:43:20": [],
        "24/03/2020 16:57:59": [],
        "24/03/2020 19:36:55": [],
        "24/03/2020 21:53:48": []
    }
}