{
    "10": {
        "22/03/2020 14:28:33": [],
        "22/03/2020 16:55:11": [],
        "22/03/2020 19:14:36": []
    },
    "7589": {
        "22/03/2020 14:28:33": [],
        "22/03/2020 16:55:11": [],
        "22/03/2020 19:14:37": []
    },
    "5171": {
        "22/03/2020 14:28:34": [
            0,
            0,
            0,
            0
        ],
        "22/03/2020 16:55:12": [
            0,
            0,
            0,
            0
        ],
        "22/03/2020 19:14:37": [
            0,
            0,
            0
        ]
    },
    "2976": {
        "22/03/2020 14:28:34": [
            2,
            2,
            2,
            2
        ],
        "22/03/2020 16:55:12": [
            -4,
            -4,
            -9,
            -9
        ],
        "22/03/2020 19:14:37": [
            11,
            11,
            11
        ]
    },
    "2977": {
        "22/03/2020 14:28:35": [
            -1,
            -1,
            -1,
            -1
        ],
        "22/03/2020 16:55:13": [
            -13,
            -13,
            -22,
            -22
        ],
        "22/03/2020 19:14:38": [
            16,
            16,
            16
        ]
    },
    "2978": {
        "22/03/2020 14:28:35": [
            21,
            21,
            21,
            21
        ],
        "22/03/2020 16:55:13": [
            1,
            1,
            -14,
            -14
        ],
        "22/03/2020 19:14:38": [
            -11,
            -11,
            -11
        ]
    },
    "2979": {
        "22/03/2020 14:28:36": [
            1,
            1,
            1,
            1
        ],
        "22/03/2020 16:55:14": [
            -23,
            -23,
            19,
            19
        ],
        "22/03/2020 19:14:39": [
            -25,
            -25,
            -25
        ]
    },
    "2980": {
        "22/03/2020 14:28:36": [
            -2,
            -2,
            -2,
            -2
        ],
        "22/03/2020 16:55:14": [
            29,
            29,
            6,
            6
        ],
        "22/03/2020 19:14:39": [
            -20,
            -20,
            -20
        ]
    },
    "2981": {
        "22/03/2020 14:28:37": [
            -17,
            -17,
            -17,
            -17
        ],
        "22/03/2020 16:55:15": [
            1,
            1,
            -22,
            -22
        ],
        "22/03/2020 19:14:40": [
            8,
            8,
            8
        ]
    },
    "2991": {
        "22/03/2020 14:28:37": [
            -28,
            -28,
            -28,
            -28
        ],
        "22/03/2020 16:55:15": [
            -13,
            -13,
            24,
            24
        ],
        "22/03/2020 19:14:40": [
            -21,
            -21,
            -21
        ]
    },
    "2992": {
        "22/03/2020 14:28:38": [
            9,
            9,
            9,
            9
        ],
        "22/03/2020 16:55:16": [
            22,
            22,
            -2,
            -2
        ],
        "22/03/2020 19:14:40": [
            2,
            2,
            2
        ]
    },
    "1325": {
        "22/03/2020 14:28:38": [
            -21,
            -21,
            -21,
            -21
        ],
        "22/03/2020 16:55:16": [
            -1,
            -1,
            27,
            27
        ],
        "22/03/2020 19:14:41": [
            26,
            26,
            26
        ]
    },
    "1326": {
        "22/03/2020 14:28:39": [
            15,
            15,
            15,
            15
        ],
        "22/03/2020 16:55:16": [
            -17,
            -17,
            2,
            2
        ],
        "22/03/2020 19:14:41": [
            -5,
            -5,
            -5
        ]
    },
    "1327": {
        "22/03/2020 14:28:39": [
            -9,
            -9,
            -9,
            -9
        ],
        "22/03/2020 16:55:17": [
            152,
            27,
            27,
            -23,
            -23
        ],
        "22/03/2020 19:14:42": [
            25,
            25,
            25
        ]
    },
    "1328": {
        "22/03/2020 14:28:39": [
            17,
            17,
            17,
            17
        ],
        "22/03/2020 16:55:18": [
            120,
            -5,
            -5,
            2,
            2
        ],
        "22/03/2020 19:14:42": [
            -15,
            -15,
            -15
        ]
    },
    "1329": {
        "22/03/2020 14:28:40": [
            -12,
            -12,
            -12,
            -12
        ],
        "22/03/2020 16:55:18": [
            100,
            -25,
            -25,
            -29
        ],
        "22/03/2020 19:14:43": [
            -4,
            -4,
            -4
        ]
    },
    "1330": {
        "22/03/2020 14:28:40": [
            -24,
            -24,
            -24,
            -24
        ],
        "22/03/2020 16:55:18": [
            142,
            17,
            17,
            11
        ],
        "22/03/2020 19:14:43": [
            29,
            29,
            29
        ]
    },
    "1331": {
        "22/03/2020 14:28:41": [
            -13,
            -13,
            -13
        ],
        "22/03/2020 16:55:19": [
            146,
            21,
            21,
            12
        ],
        "22/03/2020 19:14:43": [
            18,
            18,
            18
        ]
    },
    "1332": {
        "22/03/2020 14:28:41": [
            60,
            -16,
            -16,
            -16
        ],
        "22/03/2020 16:55:20": [
            135,
            10,
            10,
            -9
        ],
        "22/03/2020 19:14:44": [
            -2,
            -2,
            -2
        ]
    },
    "1333": {
        "22/03/2020 14:28:42": [
            46,
            -27,
            -27,
            -27
        ],
        "22/03/2020 16:55:20": [
            114,
            -11,
            -11,
            21
        ],
        "22/03/2020 19:14:44": [
            -24,
            -24,
            -24
        ]
    },
    "1334": {
        "22/03/2020 14:28:43": [
            81,
            12,
            12,
            12
        ],
        "22/03/2020 16:55:21": [
            145,
            20,
            20,
            -16
        ],
        "22/03/2020 19:14:45": [
            6,
            6,
            6
        ]
    },
    "7293": {
        "22/03/2020 14:28:43": [
            59,
            -1,
            -1,
            -1
        ],
        "22/03/2020 16:55:21": [
            124,
            -1,
            -1,
            14
        ],
        "22/03/2020 19:14:45": [
            -24,
            -24,
            -24
        ]
    },
    "1335": {
        "22/03/2020 14:28:44": [
            37,
            -15,
            -15,
            -15
        ],
        "22/03/2020 16:55:21": [
            102,
            -23,
            -23,
            -17
        ],
        "22/03/2020 19:14:46": [
            6,
            6,
            6
        ]
    },
    "1336": {
        "22/03/2020 14:28:45": [
            79,
            -25,
            -25,
            -25
        ],
        "22/03/2020 16:55:22": [
            145,
            20,
            20,
            15
        ],
        "22/03/2020 19:14:46": [
            -20,
            -20
        ]
    },
    "1337": {
        "22/03/2020 14:28:45": [
            106,
            -3,
            -3,
            -3
        ],
        "22/03/2020 16:55:22": [
            153,
            28,
            28,
            7
        ],
        "22/03/2020 19:14:46": [
            -27,
            -27
        ]
    },
    "1338": {
        "22/03/2020 14:28:46": [
            77,
            -30,
            -30,
            -30
        ],
        "22/03/2020 16:55:23": [
            124,
            -1,
            -1,
            -23
        ],
        "22/03/2020 19:14:47": [
            -5,
            -5
        ]
    },
    "1339": {
        "22/03/2020 14:28:47": [
            78,
            -24,
            -24,
            -24
        ],
        "22/03/2020 16:55:23": [
            125,
            0,
            0,
            -23
        ],
        "22/03/2020 19:14:47": [
            -22,
            -22
        ]
    },
    "1340": {
        "22/03/2020 14:28:47": [
            54,
            15,
            15,
            15
        ],
        "22/03/2020 16:55:24": [
            102,
            -23,
            -23,
            13
        ],
        "22/03/2020 19:14:48": [
            4,
            4
        ]
    },
    "1341": {
        "22/03/2020 14:28:48": [
            66,
            -28,
            -28,
            -28
        ],
        "22/03/2020 16:55:24": [
            114,
            -11,
            -11,
            23
        ],
        "22/03/2020 19:14:48": [
            -177,
            -5,
            -5
        ]
    },
    "1342": {
        "22/03/2020 14:28:48": [
            108,
            20,
            20,
            20
        ],
        "22/03/2020 16:55:25": [
            149,
            24,
            24,
            -2
        ],
        "22/03/2020 19:14:49": [
            -232,
            -29,
            -29
        ]
    },
    "1343": {
        "22/03/2020 14:28:49": [
            76,
            -8,
            -8,
            -8
        ],
        "22/03/2020 16:55:25": [
            112,
            -13,
            -13,
            22
        ],
        "22/03/2020 19:14:49": [
            -209,
            -6,
            -6
        ]
    },
    "1344": {
        "22/03/2020 14:28:49": [
            111,
            -20,
            -20,
            -20
        ],
        "22/03/2020 16:55:25": [
            131,
            6,
            6,
            -18
        ],
        "22/03/2020 19:14:49": [
            -188,
            15,
            15
        ]
    },
    "1345": {
        "22/03/2020 14:28:49": [
            197,
            52,
            26,
            26,
            26
        ],
        "22/03/2020 16:55:26": [
            140,
            15,
            15,
            -23
        ],
        "22/03/2020 19:14:50": [
            -205,
            -2,
            -2
        ]
    },
    "1347": {
        "22/03/2020 14:28:50": [
            227,
            82,
            -26,
            -26,
            -26
        ],
        "22/03/2020 16:55:26": [
            121,
            -4,
            -4,
            -2
        ],
        "22/03/2020 19:14:50": [
            -200,
            1,
            1
        ]
    },
    "1348": {
        "22/03/2020 14:28:50": [
            228,
            83,
            24,
            24,
            24
        ],
        "22/03/2020 16:55:27": [
            119,
            -6,
            -6,
            -8
        ],
        "22/03/2020 19:14:51": [
            -233,
            -13,
            -13
        ]
    },
    "1349": {
        "22/03/2020 14:28:51": [
            208,
            83,
            12,
            12
        ],
        "22/03/2020 16:55:27": [
            115,
            -10,
            -10
        ],
        "22/03/2020 19:14:51": [
            -248,
            -28,
            -28
        ]
    },
    "1350": {
        "22/03/2020 14:28:51": [
            215,
            90,
            7,
            7
        ],
        "22/03/2020 16:55:28": [
            -172,
            118,
            -7,
            -7
        ],
        "22/03/2020 19:14:52": [
            -181,
            22,
            22
        ]
    },
    "1352": {
        "22/03/2020 14:28:52": [
            232,
            67,
            23,
            23
        ],
        "22/03/2020 16:55:28": [
            -192,
            98,
            -27,
            -27
        ],
        "22/03/2020 19:14:52": [
            -153,
            -20,
            -20
        ]
    },
    "1353": {
        "22/03/2020 14:28:52": [
            217,
            52,
            -1,
            -1
        ],
        "22/03/2020 16:55:29": [
            -145,
            145,
            20,
            20
        ],
        "22/03/2020 19:14:52": [
            -117,
            16,
            16
        ]
    },
    "1355": {
        "22/03/2020 14:28:53": [
            226,
            61,
            -11,
            -11
        ],
        "22/03/2020 16:55:29": [
            -116,
            104,
            -21,
            -21
        ],
        "22/03/2020 19:14:53": [
            234,
            -134,
            -1,
            -1
        ]
    },
    "1357": {
        "22/03/2020 14:28:53": [
            226,
            61,
            2,
            2
        ],
        "22/03/2020 16:55:30": [
            -154,
            136,
            11,
            11
        ],
        "22/03/2020 19:14:53": [
            207,
            -161,
            -28,
            -28
        ]
    },
    "1359": {
        "22/03/2020 14:28:54": [
            239,
            74,
            11,
            11
        ],
        "22/03/2020 16:55:30": [
            -188,
            102,
            -23
        ],
        "22/03/2020 19:14:54": [
            209,
            -129,
            4,
            4
        ]
    },
    "320": {
        "22/03/2020 14:28:54": [
            248,
            83,
            17,
            17
        ],
        "22/03/2020 16:55:31": [
            -170,
            120,
            -5
        ],
        "22/03/2020 19:14:54": [
            130,
            -147,
            -14,
            -14
        ]
    },
    "278": {
        "22/03/2020 14:28:54": [
            233,
            68,
            -5
        ],
        "22/03/2020 16:55:31": [
            -161,
            129,
            4
        ],
        "22/03/2020 19:14:55": [
            163,
            -114,
            19,
            19
        ]
    },
    "8": {
        "22/03/2020 14:28:55": [
            269,
            104,
            8
        ],
        "22/03/2020 16:55:32": [
            -161,
            129,
            4
        ],
        "22/03/2020 19:14:55": [
            201,
            118,
            -159,
            -26
        ]
    },
    "12": {
        "22/03/2020 14:28:55": [
            269,
            104,
            19
        ],
        "22/03/2020 16:55:32": [
            -171,
            119
        ],
        "22/03/2020 19:14:55": [
            306,
            122,
            -155,
            -22
        ]
    },
    "14": {
        "22/03/2020 14:28:56": [
            263,
            98,
            -21
        ],
        "22/03/2020 16:55:33": [
            -180,
            110
        ],
        "22/03/2020 19:14:56": [
            310,
            126,
            -151,
            -18
        ]
    },
    "15": {
        "22/03/2020 14:28:56": [
            -656,
            257,
            92,
            -2
        ],
        "22/03/2020 16:55:33": [
            -189,
            101
        ],
        "22/03/2020 19:14:56": [
            314,
            130,
            -147,
            -14
        ]
    },
    "17": {
        "22/03/2020 14:28:58": [
            -693,
            220,
            55,
            -23
        ],
        "22/03/2020 16:55:34": [
            -176,
            114
        ],
        "22/03/2020 19:14:57": [
            269,
            166,
            -111,
            22
        ]
    },
    "18": {
        "22/03/2020 14:28:58": [
            77,
            -702,
            229,
            64,
            -13
        ],
        "22/03/2020 16:55:34": [
            -169,
            121
        ],
        "22/03/2020 19:14:57": [
            271,
            168,
            -109,
            24
        ]
    },
    "19": {
        "22/03/2020 14:28:59": [
            105,
            -636,
            257,
            92
        ],
        "22/03/2020 16:55:35": [
            -141,
            149
        ],
        "22/03/2020 19:14:58": [
            237,
            134,
            -143,
            -10
        ]
    },
    "21": {
        "22/03/2020 14:28:59": [
            113,
            -628,
            265,
            100
        ],
        "22/03/2020 16:55:35": [
            -195,
            95
        ],
        "22/03/2020 19:14:58": [
            238,
            135,
            -142,
            -9
        ]
    },
    "7602": {
        "22/03/2020 14:28:59": [
            107,
            -634,
            259,
            94
        ],
        "22/03/2020 16:55:35": [
            -189,
            101
        ],
        "22/03/2020 19:14:58": []
    },
    "85": {
        "22/03/2020 14:29:00": [
            117,
            -681,
            269,
            104
        ],
        "22/03/2020 16:55:36": [
            -164,
            126
        ],
        "22/03/2020 19:14:59": [
            266,
            163,
            -114,
            19
        ]
    },
    "203": {
        "22/03/2020 14:29:00": [
            82,
            -716,
            234,
            69
        ],
        "22/03/2020 16:55:36": [
            -180,
            110
        ],
        "22/03/2020 19:14:59": [
            267,
            164,
            -113,
            20
        ]
    },
    "204": {
        "22/03/2020 14:29:01": [
            85,
            -713,
            237,
            72
        ],
        "22/03/2020 16:55:37": [
            -153,
            137
        ],
        "22/03/2020 19:15:00": [
            222,
            119,
            -158,
            -25
        ]
    },
    "205": {
        "22/03/2020 14:29:01": [
            119,
            -679,
            271,
            106
        ],
        "22/03/2020 16:55:37": [
            -166,
            124
        ],
        "22/03/2020 19:15:00": [
            262,
            159,
            -118,
            15
        ]
    },
    "220": {
        "22/03/2020 14:29:02": [
            90,
            -708,
            242,
            77
        ],
        "22/03/2020 16:55:38": [
            -88,
            -844,
            -145
        ],
        "22/03/2020 19:15:01": [
            -411,
            235,
            132,
            -145
        ]
    },
    "1622": {
        "22/03/2020 14:29:02": [
            87,
            -711,
            239
        ],
        "22/03/2020 16:55:38": [
            -84,
            -770,
            -145
        ],
        "22/03/2020 19:15:01": [
            -423,
            220,
            117,
            -160
        ]
    },
    "1623": {
        "22/03/2020 14:29:03": [
            75,
            -723,
            227
        ],
        "22/03/2020 16:55:39": [
            -90,
            -776,
            -154
        ],
        "22/03/2020 19:15:02": [
            -442,
            258,
            155,
            -122
        ]
    },
    "1624": {
        "22/03/2020 14:29:03": [
            -19,
            95,
            -703,
            247
        ],
        "22/03/2020 16:55:39": [
            -67,
            -770,
            -184
        ],
        "22/03/2020 19:15:02": [
            -35,
            -354,
            272,
            169,
            -108
        ]
    },
    "1625": {
        "22/03/2020 14:29:04": [
            7,
            121,
            -677,
            273
        ],
        "22/03/2020 16:55:40": [
            -52,
            -667,
            -177
        ],
        "22/03/2020 19:15:03": [
            -22,
            -341,
            220,
            117,
            -160
        ]
    },
    "1626": {
        "22/03/2020 14:29:04": [
            6,
            120,
            -678,
            272
        ],
        "22/03/2020 16:55:40": [
            -61,
            -676,
            -191
        ],
        "22/03/2020 19:15:03": [
            -32,
            -351,
            267,
            164,
            -113
        ]
    },
    "1627": {
        "22/03/2020 14:29:04": [
            -40,
            74,
            -724,
            226
        ],
        "22/03/2020 16:55:41": [
            -57,
            -672,
            -194
        ],
        "22/03/2020 19:15:04": [
            -30,
            -349,
            265,
            162,
            -115
        ]
    },
    "1628": {
        "22/03/2020 14:29:05": [
            3,
            117,
            -681,
            269
        ],
        "22/03/2020 16:55:41": [
            -66,
            -681,
            -153
        ],
        "22/03/2020 19:15:04": [
            -47,
            -366,
            248,
            145,
            -132
        ]
    },
    "1629": {
        "22/03/2020 14:29:05": [
            -24,
            90,
            -708,
            242
        ],
        "22/03/2020 16:55:42": [
            -79,
            -694,
            -175
        ],
        "22/03/2020 19:15:04": [
            -67,
            -386,
            244,
            141,
            -136
        ]
    },
    "1630": {
        "22/03/2020 14:29:06": [
            6,
            120,
            -678,
            272
        ],
        "22/03/2020 16:55:42": [
            -46,
            -661,
            -164
        ],
        "22/03/2020 19:15:05": [
            -52,
            -371,
            266,
            163,
            -114
        ]
    },
    "208": {
        "22/03/2020 14:29:06": [],
        "22/03/2020 16:55:43": [],
        "22/03/2020 19:15:05": []
    },
    "209": {
        "22/03/2020 14:29:07": [],
        "22/03/2020 16:55:43": [],
        "22/03/2020 19:15:06": []
    },
    "210": {
        "22/03/2020 14:29:07": [],
        "22/03/2020 16:55:44": [],
        "22/03/2020 19:15:06": []
    },
    "211": {
        "22/03/2020 14:29:08": [],
        "22/03/2020 16:55:44": [],
        "22/03/2020 19:15:07": []
    },
    "212": {
        "22/03/2020 14:29:08": [],
        "22/03/2020 16:55:44": [],
        "22/03/2020 19:15:07": []
    },
    "215": {
        "22/03/2020 14:29:08": [
            122,
            -676,
            274,
            109
        ],
        "22/03/2020 16:55:45": [
            -154
        ],
        "22/03/2020 19:15:08": [
            256,
            153,
            -124,
            9
        ]
    },
    "216": {
        "22/03/2020 14:29:09": [
            89,
            -709,
            241,
            76
        ],
        "22/03/2020 16:55:46": [
            -175
        ],
        "22/03/2020 19:15:08": [
            -409,
            270,
            167,
            -110
        ]
    },
    "217": {
        "22/03/2020 14:29:09": [
            84,
            -714,
            236,
            71
        ],
        "22/03/2020 16:55:46": [
            -772,
            -173
        ],
        "22/03/2020 19:15:09": [
            -413,
            257,
            154,
            -123
        ]
    },
    "218": {
        "22/03/2020 14:29:10": [
            89,
            -709,
            241,
            76
        ],
        "22/03/2020 16:55:47": [
            -848,
            -158
        ],
        "22/03/2020 19:15:09": [
            -405,
            253,
            150,
            -127
        ]
    },
    "219": {
        "22/03/2020 14:29:10": [
            74,
            -724,
            226,
            61
        ],
        "22/03/2020 16:55:47": [
            -807,
            -159
        ],
        "22/03/2020 19:15:10": [
            -441,
            222,
            119,
            -158
        ]
    },
    "1641": {
        "22/03/2020 14:29:11": [],
        "22/03/2020 16:55:48": [],
        "22/03/2020 19:15:10": []
    },
    "1642": {
        "22/03/2020 14:29:11": [],
        "22/03/2020 16:55:48": [],
        "22/03/2020 19:15:10": []
    },
    "226": {
        "22/03/2020 14:29:11": [],
        "22/03/2020 16:55:48": [],
        "22/03/2020 19:15:11": []
    },
    "227": {
        "22/03/2020 14:29:12": [],
        "22/03/2020 16:55:49": [],
        "22/03/2020 19:15:11": []
    },
    "228": {
        "22/03/2020 14:29:12": [],
        "22/03/2020 16:55:49": [],
        "22/03/2020 19:15:12": []
    },
    "229": {
        "22/03/2020 14:29:13": [],
        "22/03/2020 16:55:50": [],
        "22/03/2020 19:15:12": []
    },
    "230": {
        "22/03/2020 14:29:13": [],
        "22/03/2020 16:55:50": [],
        "22/03/2020 19:15:13": []
    },
    "7347": {
        "22/03/2020 14:29:14": [
            0,
            0,
            0,
            0
        ],
        "22/03/2020 16:55:51": [
            0,
            0,
            0,
            0
        ],
        "22/03/2020 19:15:13": [
            0,
            0,
            0
        ]
    },
    "3669": {
        "22/03/2020 14:29:14": [
            16,
            16,
            16,
            16
        ],
        "22/03/2020 16:55:51": [
            25,
            25,
            21,
            21
        ],
        "22/03/2020 19:15:13": [
            22,
            22,
            22,
            22
        ]
    },
    "7349": {
        "22/03/2020 14:29:14": [
            13,
            13,
            13,
            13
        ],
        "22/03/2020 16:55:52": [
            22,
            22
        ],
        "22/03/2020 19:15:14": [
            23,
            23,
            23,
            23
        ]
    },
    "1631": {
        "22/03/2020 14:29:15": [
            11,
            11,
            11,
            11
        ],
        "22/03/2020 16:55:52": [
            -25,
            -25,
            25,
            25
        ],
        "22/03/2020 19:15:14": [
            26,
            26,
            26,
            26
        ]
    },
    "1632": {
        "22/03/2020 14:29:15": [
            -19,
            -19,
            -19,
            -19
        ],
        "22/03/2020 16:55:53": [
            8,
            8,
            -3,
            -3
        ],
        "22/03/2020 19:15:15": [
            -2,
            -2,
            -2,
            -2
        ]
    },
    "5053": {
        "22/03/2020 14:29:16": [
            6,
            6,
            6,
            6
        ],
        "22/03/2020 16:55:53": [
            -24,
            -24,
            23,
            23
        ],
        "22/03/2020 19:15:15": [
            24,
            24,
            24,
            24
        ]
    },
    "1633": {
        "22/03/2020 14:29:16": [],
        "22/03/2020 16:55:54": [
            2,
            2,
            -12,
            -12
        ],
        "22/03/2020 19:15:16": [
            -10,
            -10,
            -10,
            -10
        ]
    },
    "1634": {
        "22/03/2020 14:29:17": [
            27,
            27,
            27,
            27
        ],
        "22/03/2020 16:55:54": [
            7,
            7,
            -10,
            -10
        ],
        "22/03/2020 19:15:16": [
            -8,
            -8,
            -8,
            -8
        ]
    },
    "1635": {
        "22/03/2020 14:29:17": [
            -18,
            -18,
            -18,
            -18
        ],
        "22/03/2020 16:55:55": [
            25,
            25,
            9,
            9
        ],
        "22/03/2020 19:15:17": [
            8,
            8,
            8,
            8
        ]
    },
    "1636": {
        "22/03/2020 14:29:18": [
            13,
            13,
            13,
            13
        ],
        "22/03/2020 16:55:55": [
            2,
            2,
            -13,
            -13
        ],
        "22/03/2020 19:15:17": [
            -21,
            -21,
            -21,
            -21
        ]
    },
    "1637": {
        "22/03/2020 14:29:18": [
            20,
            20,
            20,
            20
        ],
        "22/03/2020 16:55:56": [
            15,
            15,
            -1,
            -1
        ],
        "22/03/2020 19:15:18": [
            -17,
            -17,
            -17,
            -17
        ]
    },
    "1638": {
        "22/03/2020 14:29:18": [
            5,
            5,
            5,
            5
        ],
        "22/03/2020 16:55:56": [
            -5,
            -5,
            -19,
            -19
        ],
        "22/03/2020 19:15:18": [
            18,
            18,
            18,
            18
        ]
    },
    "1639": {
        "22/03/2020 14:29:19": [
            -13,
            -13,
            -13,
            -13
        ],
        "22/03/2020 16:55:57": [
            11,
            -18,
            -18,
            -30
        ],
        "22/03/2020 19:15:19": [
            -10,
            -10,
            -10,
            -10
        ]
    },
    "1640": {
        "22/03/2020 14:29:19": [
            -18,
            -18,
            -18,
            -18
        ],
        "22/03/2020 16:55:57": [
            -19,
            -30,
            -30,
            -29
        ],
        "22/03/2020 19:15:19": [
            9,
            9,
            9,
            9
        ]
    },
    "231": {
        "22/03/2020 14:29:20": [
            -20,
            -20,
            -20,
            -20
        ],
        "22/03/2020 16:55:57": [
            -17,
            -28,
            -28,
            -27
        ],
        "22/03/2020 19:15:19": [
            2,
            2,
            2,
            2
        ]
    },
    "232": {
        "22/03/2020 14:29:20": [
            -1,
            -23,
            -23,
            -23
        ],
        "22/03/2020 16:55:58": [
            -23,
            -23,
            -23,
            -22
        ],
        "22/03/2020 19:15:20": [
            -9,
            -9,
            -9,
            -9
        ]
    },
    "233": {
        "22/03/2020 14:29:21": [
            -56,
            -26,
            -26,
            -26
        ],
        "22/03/2020 16:55:58": [
            -22,
            -22,
            -22,
            -21
        ],
        "22/03/2020 19:15:20": [
            -16,
            -16,
            -16
        ]
    },
    "234": {
        "22/03/2020 14:29:21": [
            -13,
            8,
            8,
            8
        ],
        "22/03/2020 16:55:59": [
            14,
            14,
            14,
            11
        ],
        "22/03/2020 19:15:21": [
            14,
            14,
            14
        ]
    },
    "235": {
        "22/03/2020 14:29:22": [
            1,
            5,
            5,
            5
        ],
        "22/03/2020 16:55:59": [
            14,
            14,
            14,
            4
        ],
        "22/03/2020 19:15:21": [
            6,
            6,
            6
        ]
    },
    "236": {
        "22/03/2020 14:29:22": [
            8,
            -24,
            -24,
            -24
        ],
        "22/03/2020 16:56:00": [
            -12,
            -12,
            -12,
            -26
        ],
        "22/03/2020 19:15:22": [
            -81,
            -26,
            -26,
            -26
        ]
    },
    "237": {
        "22/03/2020 14:29:23": [
            12,
            13,
            13,
            13
        ],
        "22/03/2020 16:56:00": [
            -29,
            -29,
            -29,
            4
        ],
        "22/03/2020 19:15:22": [
            -54,
            1,
            1,
            1
        ]
    },
    "213": {
        "22/03/2020 14:29:23": [
            9,
            -3,
            -3,
            -3
        ],
        "22/03/2020 16:56:01": [
            18,
            18,
            18,
            -14
        ],
        "22/03/2020 19:15:22": [
            -90,
            -19,
            -19,
            -19
        ]
    },
    "214": {
        "22/03/2020 14:29:23": [
            -6,
            -21,
            -21,
            -21
        ],
        "22/03/2020 16:56:01": [
            3,
            3,
            3,
            -29
        ],
        "22/03/2020 19:15:23": [
            -51,
            20,
            20,
            20
        ]
    },
    "4432": {
        "22/03/2020 14:29:24": [
            -20,
            22,
            22,
            22
        ],
        "22/03/2020 16:56:01": [
            -11,
            -11,
            -11,
            18
        ],
        "22/03/2020 19:15:24": [
            -71,
            0,
            0,
            0
        ]
    },
    "119": {
        "22/03/2020 14:29:24": [
            -30,
            8,
            8,
            8
        ],
        "22/03/2020 16:56:02": [
            -21,
            -21,
            -21,
            9
        ],
        "22/03/2020 19:15:24": [
            -141,
            -16,
            -16,
            -16
        ]
    },
    "44": {
        "22/03/2020 14:29:25": [
            23,
            -2,
            -2,
            -2
        ],
        "22/03/2020 16:56:02": [
            -27,
            -27,
            -27,
            1
        ],
        "22/03/2020 19:15:25": [
            -97,
            -26,
            -26,
            -26
        ]
    },
    "7603": {
        "22/03/2020 14:29:25": [
            1,
            -25,
            -25,
            -25
        ],
        "22/03/2020 16:56:03": [
            13,
            13,
            13,
            -22
        ],
        "22/03/2020 19:15:25": [
            -115,
            10,
            10,
            10
        ]
    },
    "45": {
        "22/03/2020 14:29:26": [
            -14,
            18,
            18,
            18
        ],
        "22/03/2020 16:56:03": [
            -1,
            -1,
            -1,
            22
        ],
        "22/03/2020 19:15:26": [
            -78,
            -7,
            -7,
            -7
        ]
    },
    "46": {
        "22/03/2020 14:29:26": [
            -2,
            8,
            8,
            8
        ],
        "22/03/2020 16:56:04": [
            5,
            5,
            5
        ],
        "22/03/2020 19:15:26": [
            -83,
            -12,
            -12,
            -12
        ]
    },
    "47": {
        "22/03/2020 14:29:27": [
            25,
            10,
            10,
            10
        ],
        "22/03/2020 16:56:04": [
            26,
            26,
            26
        ],
        "22/03/2020 19:15:26": [
            -75,
            -4,
            -4,
            -4
        ]
    },
    "48": {
        "22/03/2020 14:29:27": [
            6,
            6,
            6
        ],
        "22/03/2020 16:56:05": [
            -25,
            -25,
            -25
        ],
        "22/03/2020 19:15:27": [
            -7,
            -7,
            -7,
            -7
        ]
    },
    "49": {
        "22/03/2020 14:29:28": [
            0,
            3,
            27,
            27,
            27
        ],
        "22/03/2020 16:56:05": [
            15,
            15,
            15
        ],
        "22/03/2020 19:15:27": [
            15,
            15,
            15,
            15
        ]
    },
    "51": {
        "22/03/2020 14:29:28": [
            -4,
            -4
        ],
        "22/03/2020 16:56:05": [
            -321,
            0,
            0,
            0
        ],
        "22/03/2020 19:15:28": [
            -10,
            -10,
            -10,
            -10
        ]
    },
    "52": {
        "22/03/2020 14:29:28": [
            41,
            17,
            -15,
            -15
        ],
        "22/03/2020 16:56:06": [
            -323,
            -2,
            -2,
            -2
        ],
        "22/03/2020 19:15:28": [
            -18,
            -18,
            -18
        ]
    },
    "262": {
        "22/03/2020 14:29:29": [
            37,
            13,
            -4,
            -4
        ],
        "22/03/2020 16:56:06": [
            -216,
            24,
            24,
            24
        ],
        "22/03/2020 19:15:28": [
            -133,
            -8,
            -8
        ]
    },
    "270": {
        "22/03/2020 14:29:29": [
            -60,
            -10,
            -18,
            -18
        ],
        "22/03/2020 16:56:07": [
            -257,
            3,
            3,
            3
        ],
        "22/03/2020 19:15:29": [
            -115,
            10,
            10
        ]
    },
    "336": {
        "22/03/2020 14:29:30": [
            -46,
            4,
            -19,
            -19
        ],
        "22/03/2020 16:56:07": [
            -271,
            -11,
            -11
        ],
        "22/03/2020 19:15:29": [
            -252,
            -109,
            16,
            16
        ]
    },
    "1279": {
        "22/03/2020 14:29:30": [
            -72,
            -22,
            -9
        ],
        "22/03/2020 16:56:08": [
            -271,
            -11,
            -11
        ],
        "22/03/2020 19:15:30": [
            -212,
            -16,
            -16,
            -16
        ]
    },
    "1282": {
        "22/03/2020 14:29:31": [
            -138,
            -50,
            0,
            -14
        ],
        "22/03/2020 16:56:08": [
            -285,
            -25,
            -25
        ],
        "22/03/2020 19:15:30": [
            -226,
            1,
            1,
            1
        ]
    },
    "4456": {
        "22/03/2020 14:29:31": [
            -166,
            -78,
            -28,
            -15
        ],
        "22/03/2020 16:56:09": [
            -254,
            6,
            6
        ],
        "22/03/2020 19:15:31": [
            -237,
            -116,
            9,
            9
        ]
    },
    "1284": {
        "22/03/2020 14:29:32": [
            -126,
            -38,
            12,
            27
        ],
        "22/03/2020 16:56:09": [
            -272,
            -12,
            -12
        ],
        "22/03/2020 19:15:31": [
            -171,
            -11,
            -11,
            -11
        ]
    },
    "1285": {
        "22/03/2020 14:29:32": [
            -165,
            -77,
            -27,
            -8
        ],
        "22/03/2020 16:56:09": [
            -516,
            -247,
            13,
            13
        ],
        "22/03/2020 19:15:32": [
            43,
            -147,
            13,
            13
        ]
    },
    "1287": {
        "22/03/2020 14:29:33": [
            -121,
            -33,
            17,
            -15
        ],
        "22/03/2020 16:56:10": [
            -503,
            -254,
            6,
            6
        ],
        "22/03/2020 19:15:32": [
            31,
            -159,
            1,
            1
        ]
    },
    "1288": {
        "22/03/2020 14:29:33": [
            -118,
            -30,
            20,
            -20
        ],
        "22/03/2020 16:56:10": [
            -537,
            -255,
            5
        ],
        "22/03/2020 19:15:32": [
            19,
            -171,
            -11,
            -11
        ]
    },
    "1289": {
        "22/03/2020 14:29:34": [
            -117,
            -29,
            21,
            -26
        ],
        "22/03/2020 16:56:11": [
            -541,
            -257,
            3
        ],
        "22/03/2020 19:15:33": [
            6,
            -184,
            -24,
            -24
        ]
    },
    "1290": {
        "22/03/2020 14:29:34": [
            -154,
            -66,
            -16,
            -13
        ],
        "22/03/2020 16:56:11": [
            -523,
            -239,
            21
        ],
        "22/03/2020 19:15:33": [
            10,
            -180,
            -20,
            -20
        ]
    },
    "1291": {
        "22/03/2020 14:29:34": [
            -164,
            -76,
            -26
        ],
        "22/03/2020 16:56:12": [
            -66,
            -453,
            -264,
            -4
        ],
        "22/03/2020 19:15:34": [
            37,
            -153,
            7,
            7
        ]
    },
    "1292": {
        "22/03/2020 14:29:35": [
            -32,
            -145,
            -57,
            -7
        ],
        "22/03/2020 16:56:12": [
            -44,
            -431,
            -255,
            5
        ],
        "22/03/2020 19:15:34": [
            26,
            -164,
            -129,
            -4
        ]
    },
    "1293": {
        "22/03/2020 14:29:35": [
            -16,
            -129,
            -41,
            9
        ],
        "22/03/2020 16:56:13": [
            -25,
            -412,
            -249,
            11
        ],
        "22/03/2020 19:15:35": [
            13,
            -177,
            -17,
            -17
        ]
    },
    "1294": {
        "22/03/2020 14:29:36": [
            -16,
            -129,
            -41,
            9
        ],
        "22/03/2020 16:56:13": [
            -23,
            -410,
            -256,
            4
        ],
        "22/03/2020 19:15:35": [
            51,
            -139,
            21,
            21
        ]
    },
    "1295": {
        "22/03/2020 14:29:36": [
            -2,
            -115,
            -27,
            23
        ],
        "22/03/2020 16:56:14": [
            -66,
            -453,
            -252,
            8
        ],
        "22/03/2020 19:15:35": [
            37,
            -153,
            7,
            7
        ]
    },
    "1296": {
        "22/03/2020 14:29:37": [
            -10,
            -123,
            -35,
            15
        ],
        "22/03/2020 16:56:14": [
            -20,
            -407,
            -259,
            1
        ],
        "22/03/2020 19:15:36": [
            -35,
            23,
            -167,
            -7,
            -7
        ]
    },
    "1297": {
        "22/03/2020 14:29:37": [
            -5,
            -118,
            -30,
            20
        ],
        "22/03/2020 16:56:15": [
            -21,
            -408,
            -252,
            8
        ],
        "22/03/2020 19:15:36": [
            -32,
            21,
            -169,
            -9,
            -9
        ]
    },
    "1298": {
        "22/03/2020 14:29:38": [
            -29,
            -142,
            -54,
            -4
        ],
        "22/03/2020 16:56:15": [
            -49,
            -436,
            -276,
            -16
        ],
        "22/03/2020 19:15:37": [
            -57,
            53,
            -137,
            23,
            23
        ]
    },
    "1299": {
        "22/03/2020 14:29:38": [
            -55,
            -168,
            -80,
            -30
        ],
        "22/03/2020 16:56:16": [
            -38,
            -425,
            -263,
            -3
        ],
        "22/03/2020 19:15:37": [
            -47,
            41,
            -149,
            11,
            11
        ]
    },
    "1300": {
        "22/03/2020 14:29:39": [
            -27,
            -140,
            -52,
            -2
        ],
        "22/03/2020 16:56:16": [
            -2,
            -418,
            -254,
            6
        ],
        "22/03/2020 19:15:38": [
            -41,
            27,
            -163,
            -3,
            -3
        ]
    },
    "1301": {
        "22/03/2020 14:29:39": [
            -54,
            -167,
            -79,
            -29
        ],
        "22/03/2020 16:56:17": [
            8,
            -408,
            -242,
            18
        ],
        "22/03/2020 19:15:38": [
            -32,
            15,
            -175,
            -15
        ]
    },
    "1302": {
        "22/03/2020 14:29:40": [
            -24,
            -137,
            -49,
            1
        ],
        "22/03/2020 16:56:17": [
            -24,
            -440,
            -271
        ],
        "22/03/2020 19:15:39": [
            -5,
            45,
            -145,
            15
        ]
    },
    "1303": {
        "22/03/2020 14:29:40": [
            -34,
            -147,
            -59,
            -9
        ],
        "22/03/2020 16:56:18": [
            -46,
            -462,
            -286
        ],
        "22/03/2020 19:15:39": [
            -24,
            23,
            -167,
            -7
        ]
    },
    "1304": {
        "22/03/2020 14:29:41": [
            0,
            -113,
            -25,
            25
        ],
        "22/03/2020 16:56:18": [
            -21,
            -437,
            -256
        ],
        "22/03/2020 19:15:39": [
            -60,
            44,
            -146,
            14
        ]
    },
    "1305": {
        "22/03/2020 14:29:41": [
            -4,
            -54,
            -167,
            -79
        ],
        "22/03/2020 16:56:19": [
            -32,
            -448,
            -258
        ],
        "22/03/2020 19:15:40": [
            -14,
            24,
            -166,
            -6
        ]
    },
    "1320": {
        "22/03/2020 14:29:42": [
            46,
            -4,
            -117,
            -29
        ],
        "22/03/2020 16:56:19": [
            12,
            -404,
            -272
        ],
        "22/03/2020 19:15:40": [
            -28,
            4,
            -186,
            -26
        ]
    },
    "1321": {
        "22/03/2020 14:29:42": [
            30,
            -20,
            -133,
            -45
        ],
        "22/03/2020 16:56:20": [
            -10,
            -426,
            -231
        ],
        "22/03/2020 19:15:41": [
            -47,
            39,
            -151,
            9
        ]
    },
    "1322": {
        "22/03/2020 14:29:43": [
            4,
            -46,
            -159,
            -71
        ],
        "22/03/2020 16:56:20": [
            -41,
            -457,
            -261
        ],
        "22/03/2020 19:15:41": [
            -17,
            5,
            -185,
            -25
        ]
    },
    "1323": {
        "22/03/2020 14:29:43": [
            35,
            -15,
            -128,
            -40
        ],
        "22/03/2020 16:56:21": [
            -74,
            -14,
            -430,
            -232
        ],
        "22/03/2020 19:15:42": [
            -48,
            30,
            -160,
            0
        ]
    },
    "1324": {
        "22/03/2020 14:29:43": [
            9,
            -41,
            -154,
            -66
        ],
        "22/03/2020 16:56:21": [
            -124,
            -43,
            -459,
            -261
        ],
        "22/03/2020 19:15:42": [
            -16,
            57,
            -133,
            27
        ]
    },
    "7068": {
        "22/03/2020 14:29:44": [
            4,
            -46,
            -159,
            -71
        ],
        "22/03/2020 16:56:22": [
            -77,
            -25,
            -412,
            -271
        ],
        "22/03/2020 19:15:42": [
            -26,
            41,
            -149,
            -114
        ]
    },
    "2966": {
        "22/03/2020 14:29:44": [
            48,
            -2,
            -115,
            -27
        ],
        "22/03/2020 16:56:23": [
            -98,
            -46,
            -433,
            -290
        ],
        "22/03/2020 19:15:43": [
            -45,
            16,
            -174,
            -139
        ]
    },
    "2967": {
        "22/03/2020 14:29:45": [
            42,
            -8,
            -121,
            -33
        ],
        "22/03/2020 16:56:23": [
            -120,
            -68,
            -455,
            -254
        ],
        "22/03/2020 19:15:43": [
            -10,
            51,
            -139,
            -104
        ]
    },
    "2968": {
        "22/03/2020 14:29:45": [
            34,
            -16,
            -129,
            -41
        ],
        "22/03/2020 16:56:24": [
            -82,
            -30,
            -417,
            -278
        ],
        "22/03/2020 19:15:44": [
            -36,
            26,
            -164,
            -129
        ]
    },
    "2969": {
        "22/03/2020 14:29:46": [
            24,
            -26,
            -139,
            -51
        ],
        "22/03/2020 16:56:24": [
            -106,
            -54,
            -441,
            -244
        ],
        "22/03/2020 19:15:44": [
            -4
        ]
    },
    "2970": {
        "22/03/2020 14:29:46": [
            17,
            -33,
            -146,
            -58
        ],
        "22/03/2020 16:56:25": [
            -68,
            -16,
            -403,
            -268
        ],
        "22/03/2020 19:15:44": [
            -30,
            34,
            -156,
            -121
        ]
    },
    "2971": {
        "22/03/2020 14:29:47": [
            26,
            -24,
            -137,
            -49
        ],
        "22/03/2020 16:56:25": [
            -107,
            -75,
            -462,
            -274
        ],
        "22/03/2020 19:15:45": [
            -45,
            26,
            -164,
            -129
        ]
    },
    "5051": {
        "22/03/2020 14:29:47": [
            9,
            -41,
            -154,
            -66
        ],
        "22/03/2020 16:56:26": [
            -74,
            -14,
            -430,
            -252
        ],
        "22/03/2020 19:15:45": [
            -38,
            44,
            -146,
            -111
        ]
    },
    "5052": {
        "22/03/2020 14:29:48": [
            41,
            -9,
            -122,
            -34
        ],
        "22/03/2020 16:56:26": [
            -97,
            -37,
            -453,
            -270
        ],
        "22/03/2020 19:15:46": [
            -52,
            20,
            -170,
            -135
        ]
    },
    "2975": {
        "22/03/2020 14:29:48": [],
        "22/03/2020 16:56:27": [],
        "22/03/2020 19:15:46": []
    }
}