{
    "3346": {
        "24/03/2020 15:18:46": [],
        "24/03/2020 17:30:15": [],
        "24/03/2020 20:12:19": [],
        "24/03/2020 22:28:08": []
    },
    "3256": {
        "24/03/2020 15:18:46": [],
        "24/03/2020 17:30:16": [],
        "24/03/2020 20:12:19": [],
        "24/03/2020 22:28:08": []
    },
    "3265": {
        "24/03/2020 15:18:47": [],
        "24/03/2020 17:30:16": [],
        "24/03/2020 20:12:20": [],
        "24/03/2020 22:28:09": []
    },
    "3266": {
        "24/03/2020 15:18:47": [],
        "24/03/2020 17:30:16": [],
        "24/03/2020 20:12:20": [],
        "24/03/2020 22:28:09": []
    },
    "3267": {
        "24/03/2020 15:18:47": [],
        "24/03/2020 17:30:17": [],
        "24/03/2020 20:12:20": [],
        "24/03/2020 22:28:09": []
    },
    "3268": {
        "24/03/2020 15:18:48": [],
        "24/03/2020 17:30:17": [],
        "24/03/2020 20:12:21": [],
        "24/03/2020 22:28:10": []
    },
    "3269": {
        "24/03/2020 15:18:48": [],
        "24/03/2020 17:30:18": [],
        "24/03/2020 20:12:21": [],
        "24/03/2020 22:28:10": []
    },
    "3270": {
        "24/03/2020 15:18:49": [],
        "24/03/2020 17:30:18": [],
        "24/03/2020 20:12:22": [],
        "24/03/2020 22:28:11": []
    },
    "3271": {
        "24/03/2020 15:18:49": [],
        "24/03/2020 17:30:19": [],
        "24/03/2020 20:12:22": [],
        "24/03/2020 22:28:11": []
    },
    "3272": {
        "24/03/2020 15:18:50": [],
        "24/03/2020 17:30:19": [],
        "24/03/2020 20:12:23": [],
        "24/03/2020 22:28:12": []
    },
    "3273": {
        "24/03/2020 15:18:50": [],
        "24/03/2020 17:30:20": [],
        "24/03/2020 20:12:23": [],
        "24/03/2020 22:28:12": []
    },
    "3274": {
        "24/03/2020 15:18:51": [],
        "24/03/2020 17:30:21": [],
        "24/03/2020 20:12:24": [],
        "24/03/2020 22:28:12": []
    },
    "3275": {
        "24/03/2020 15:18:51": [],
        "24/03/2020 17:30:21": [],
        "24/03/2020 20:12:24": [],
        "24/03/2020 22:28:13": []
    },
    "2044": {
        "24/03/2020 15:18:52": [],
        "24/03/2020 17:30:22": [],
        "24/03/2020 20:12:25": [],
        "24/03/2020 22:28:13": []
    },
    "2045": {
        "24/03/2020 15:18:53": [],
        "24/03/2020 17:30:22": [],
        "24/03/2020 20:12:25": [],
        "24/03/2020 22:28:14": []
    },
    "2046": {
        "24/03/2020 15:18:53": [],
        "24/03/2020 17:30:22": [],
        "24/03/2020 20:12:26": [],
        "24/03/2020 22:28:14": []
    },
    "2047": {
        "24/03/2020 15:18:54": [],
        "24/03/2020 17:30:23": [],
        "24/03/2020 20:12:26": [],
        "24/03/2020 22:28:15": []
    },
    "2048": {
        "24/03/2020 15:18:54": [],
        "24/03/2020 17:30:23": [],
        "24/03/2020 20:12:26": [],
        "24/03/2020 22:28:15": []
    },
    "2049": {
        "24/03/2020 15:18:55": [],
        "24/03/2020 17:30:24": [],
        "24/03/2020 20:12:27": [],
        "24/03/2020 22:28:16": []
    },
    "2050": {
        "24/03/2020 15:18:55": [],
        "24/03/2020 17:30:24": [],
        "24/03/2020 20:12:27": [],
        "24/03/2020 22:28:16": []
    },
    "2051": {
        "24/03/2020 15:18:56": [],
        "24/03/2020 17:30:25": [],
        "24/03/2020 20:12:28": [],
        "24/03/2020 22:28:17": []
    },
    "2053": {
        "24/03/2020 15:18:56": [],
        "24/03/2020 17:30:25": [],
        "24/03/2020 20:12:28": [],
        "24/03/2020 22:28:17": []
    },
    "2054": {
        "24/03/2020 15:18:57": [],
        "24/03/2020 17:30:26": [],
        "24/03/2020 20:12:29": [],
        "24/03/2020 22:28:18": []
    },
    "2055": {
        "24/03/2020 15:18:57": [],
        "24/03/2020 17:30:26": [],
        "24/03/2020 20:12:29": [],
        "24/03/2020 22:28:18": []
    },
    "2056": {
        "24/03/2020 15:18:57": [],
        "24/03/2020 17:30:26": [],
        "24/03/2020 20:12:30": [],
        "24/03/2020 22:28:18": []
    },
    "3120": {
        "24/03/2020 15:18:58": [],
        "24/03/2020 17:30:27": [],
        "24/03/2020 20:12:30": [],
        "24/03/2020 22:28:19": []
    },
    "3122": {
        "24/03/2020 15:18:58": [],
        "24/03/2020 17:30:27": [],
        "24/03/2020 20:12:31": [],
        "24/03/2020 22:28:19": []
    },
    "3123": {
        "24/03/2020 15:18:59": [],
        "24/03/2020 17:30:28": [],
        "24/03/2020 20:12:31": [],
        "24/03/2020 22:28:20": []
    },
    "3124": {
        "24/03/2020 15:18:59": [],
        "24/03/2020 17:30:28": [],
        "24/03/2020 20:12:31": [],
        "24/03/2020 22:28:20": []
    },
    "3125": {
        "24/03/2020 15:19:00": [],
        "24/03/2020 17:30:29": [],
        "24/03/2020 20:12:32": [],
        "24/03/2020 22:28:21": []
    },
    "3126": {
        "24/03/2020 15:19:00": [],
        "24/03/2020 17:30:29": [],
        "24/03/2020 20:12:32": [],
        "24/03/2020 22:28:21": []
    },
    "2040": {
        "24/03/2020 15:19:01": [],
        "24/03/2020 17:30:30": [],
        "24/03/2020 20:12:33": [],
        "24/03/2020 22:28:22": []
    },
    "2041": {
        "24/03/2020 15:19:01": [],
        "24/03/2020 17:30:30": [],
        "24/03/2020 20:12:33": [],
        "24/03/2020 22:28:22": []
    },
    "2042": {
        "24/03/2020 15:19:02": [],
        "24/03/2020 17:30:31": [],
        "24/03/2020 20:12:34": [],
        "24/03/2020 22:28:23": []
    },
    "2043": {
        "24/03/2020 15:19:02": [],
        "24/03/2020 17:30:31": [],
        "24/03/2020 20:12:34": [],
        "24/03/2020 22:28:23": []
    },
    "3255": {
        "24/03/2020 15:19:03": [],
        "24/03/2020 17:30:31": [],
        "24/03/2020 20:12:34": [],
        "24/03/2020 22:28:24": []
    },
    "3276": {
        "24/03/2020 15:19:03": [],
        "24/03/2020 17:30:32": [],
        "24/03/2020 20:12:35": [],
        "24/03/2020 22:28:24": []
    },
    "3277": {
        "24/03/2020 15:19:04": [],
        "24/03/2020 17:30:33": [],
        "24/03/2020 20:12:35": [],
        "24/03/2020 22:28:24": []
    },
    "3278": {
        "24/03/2020 15:19:04": [],
        "24/03/2020 17:30:33": [],
        "24/03/2020 20:12:36": [],
        "24/03/2020 22:28:25": []
    },
    "3279": {
        "24/03/2020 15:19:04": [],
        "24/03/2020 17:30:33": [],
        "24/03/2020 20:12:36": [],
        "24/03/2020 22:28:25": []
    },
    "3280": {
        "24/03/2020 15:19:05": [],
        "24/03/2020 17:30:34": [],
        "24/03/2020 20:12:37": [],
        "24/03/2020 22:28:26": []
    },
    "3282": {
        "24/03/2020 15:19:05": [],
        "24/03/2020 17:30:34": [],
        "24/03/2020 20:12:37": [],
        "24/03/2020 22:28:26": []
    },
    "3306": {
        "24/03/2020 15:19:06": [],
        "24/03/2020 17:30:35": [],
        "24/03/2020 20:12:38": [],
        "24/03/2020 22:28:27": []
    },
    "3309": {
        "24/03/2020 15:19:06": [],
        "24/03/2020 17:30:35": [],
        "24/03/2020 20:12:38": [],
        "24/03/2020 22:28:27": []
    },
    "3478": {
        "24/03/2020 15:19:07": [],
        "24/03/2020 17:30:36": [],
        "24/03/2020 20:12:39": [],
        "24/03/2020 22:28:27": []
    },
    "7372": {
        "24/03/2020 15:19:07": [],
        "24/03/2020 17:30:36": [],
        "24/03/2020 20:12:39": [],
        "24/03/2020 22:28:28": []
    },
    "4772": {
        "24/03/2020 15:19:08": [],
        "24/03/2020 17:30:36": [],
        "24/03/2020 20:12:40": [],
        "24/03/2020 22:28:29": []
    },
    "3290": {
        "24/03/2020 15:19:08": [],
        "24/03/2020 17:30:37": [],
        "24/03/2020 20:12:40": [],
        "24/03/2020 22:28:29": []
    },
    "3291": {
        "24/03/2020 15:19:09": [],
        "24/03/2020 17:30:37": [],
        "24/03/2020 20:12:40": [],
        "24/03/2020 22:28:30": []
    },
    "3292": {
        "24/03/2020 15:19:09": [],
        "24/03/2020 17:30:38": [],
        "24/03/2020 20:12:41": [],
        "24/03/2020 22:28:30": []
    },
    "3293": {
        "24/03/2020 15:19:10": [],
        "24/03/2020 17:30:38": [],
        "24/03/2020 20:12:41": [],
        "24/03/2020 22:28:31": []
    },
    "3294": {
        "24/03/2020 15:19:10": [],
        "24/03/2020 17:30:38": [],
        "24/03/2020 20:12:42": [],
        "24/03/2020 22:28:31": []
    },
    "3295": {
        "24/03/2020 15:19:11": [],
        "24/03/2020 17:30:39": [],
        "24/03/2020 20:12:42": [],
        "24/03/2020 22:28:32": []
    },
    "3296": {
        "24/03/2020 15:19:11": [],
        "24/03/2020 17:30:39": [],
        "24/03/2020 20:12:43": [],
        "24/03/2020 22:28:32": []
    },
    "3297": {
        "24/03/2020 15:19:12": [],
        "24/03/2020 17:30:40": [],
        "24/03/2020 20:12:43": [],
        "24/03/2020 22:28:33": []
    },
    "3298": {
        "24/03/2020 15:19:12": [],
        "24/03/2020 17:30:40": [],
        "24/03/2020 20:12:44": [],
        "24/03/2020 22:28:33": []
    },
    "3260": {
        "24/03/2020 15:19:13": [],
        "24/03/2020 17:30:40": [],
        "24/03/2020 20:12:44": [],
        "24/03/2020 22:28:33": []
    },
    "3261": {
        "24/03/2020 15:19:13": [],
        "24/03/2020 17:30:41": [],
        "24/03/2020 20:12:44": [],
        "24/03/2020 22:28:34": []
    },
    "5168": {
        "24/03/2020 15:19:14": [],
        "24/03/2020 17:30:41": [],
        "24/03/2020 20:12:45": [],
        "24/03/2020 22:28:34": []
    },
    "2022": {
        "24/03/2020 15:19:14": [],
        "24/03/2020 17:30:42": [],
        "24/03/2020 20:12:45": [],
        "24/03/2020 22:28:35": []
    },
    "2023": {
        "24/03/2020 15:19:15": [],
        "24/03/2020 17:30:42": [],
        "24/03/2020 20:12:46": [],
        "24/03/2020 22:28:35": []
    },
    "2024": {
        "24/03/2020 15:19:15": [],
        "24/03/2020 17:30:42": [],
        "24/03/2020 20:12:46": [],
        "24/03/2020 22:28:36": []
    },
    "2025": {
        "24/03/2020 15:19:16": [],
        "24/03/2020 17:30:43": [],
        "24/03/2020 20:12:47": [],
        "24/03/2020 22:28:36": []
    },
    "2026": {
        "24/03/2020 15:19:16": [],
        "24/03/2020 17:30:43": [],
        "24/03/2020 20:12:47": [],
        "24/03/2020 22:28:36": []
    },
    "2027": {
        "24/03/2020 15:19:17": [],
        "24/03/2020 17:30:44": [],
        "24/03/2020 20:12:48": [],
        "24/03/2020 22:28:37": []
    },
    "2028": {
        "24/03/2020 15:19:17": [],
        "24/03/2020 17:30:44": [],
        "24/03/2020 20:12:48": [],
        "24/03/2020 22:28:37": []
    },
    "2029": {
        "24/03/2020 15:19:18": [],
        "24/03/2020 17:30:45": [],
        "24/03/2020 20:12:48": [],
        "24/03/2020 22:28:38": []
    },
    "2030": {
        "24/03/2020 15:19:18": [],
        "24/03/2020 17:30:45": [],
        "24/03/2020 20:12:49": [],
        "24/03/2020 22:28:38": []
    },
    "2031": {
        "24/03/2020 15:19:19": [],
        "24/03/2020 17:30:46": [],
        "24/03/2020 20:12:50": [],
        "24/03/2020 22:28:39": []
    },
    "2032": {
        "24/03/2020 15:19:19": [],
        "24/03/2020 17:30:46": [],
        "24/03/2020 20:12:50": [],
        "24/03/2020 22:28:39": []
    },
    "2033": {
        "24/03/2020 15:19:20": [],
        "24/03/2020 17:30:47": [],
        "24/03/2020 20:12:51": [],
        "24/03/2020 22:28:39": []
    },
    "2034": {
        "24/03/2020 15:19:20": [],
        "24/03/2020 17:30:47": [],
        "24/03/2020 20:12:51": [],
        "24/03/2020 22:28:40": []
    },
    "2035": {
        "24/03/2020 15:19:21": [],
        "24/03/2020 17:30:47": [],
        "24/03/2020 20:12:51": [],
        "24/03/2020 22:28:40": []
    },
    "2036": {
        "24/03/2020 15:19:22": [],
        "24/03/2020 17:30:48": [],
        "24/03/2020 20:12:52": [],
        "24/03/2020 22:28:41": []
    },
    "2039": {
        "24/03/2020 15:19:22": [],
        "24/03/2020 17:30:48": [],
        "24/03/2020 20:12:52": [],
        "24/03/2020 22:28:41": []
    },
    "3262": {
        "24/03/2020 15:19:23": [],
        "24/03/2020 17:30:49": [],
        "24/03/2020 20:12:53": [],
        "24/03/2020 22:28:42": []
    },
    "4393": {
        "24/03/2020 15:19:23": [],
        "24/03/2020 17:30:49": [],
        "24/03/2020 20:12:53": [],
        "24/03/2020 22:28:42": []
    },
    "2995": {
        "24/03/2020 15:19:24": [],
        "24/03/2020 17:30:50": [],
        "24/03/2020 20:12:54": [],
        "24/03/2020 22:28:43": []
    },
    "3152": {
        "24/03/2020 15:19:24": [],
        "24/03/2020 17:30:50": [],
        "24/03/2020 20:12:54": [],
        "24/03/2020 22:28:43": []
    },
    "3153": {
        "24/03/2020 15:19:24": [],
        "24/03/2020 17:30:51": [],
        "24/03/2020 20:12:55": [],
        "24/03/2020 22:28:44": []
    },
    "3154": {
        "24/03/2020 15:19:25": [],
        "24/03/2020 17:30:51": [],
        "24/03/2020 20:12:55": [],
        "24/03/2020 22:28:44": []
    },
    "3155": {
        "24/03/2020 15:19:25": [],
        "24/03/2020 17:30:51": [],
        "24/03/2020 20:12:56": [],
        "24/03/2020 22:28:45": []
    },
    "3156": {
        "24/03/2020 15:19:26": [],
        "24/03/2020 17:30:52": [],
        "24/03/2020 20:12:56": [],
        "24/03/2020 22:28:45": []
    },
    "5106": {
        "24/03/2020 15:19:26": [],
        "24/03/2020 17:30:52": [],
        "24/03/2020 20:12:57": [],
        "24/03/2020 22:28:46": []
    },
    "7373": {
        "24/03/2020 15:19:27": [],
        "24/03/2020 17:30:53": [],
        "24/03/2020 20:12:57": [],
        "24/03/2020 22:28:46": []
    },
    "3283": {
        "24/03/2020 15:19:27": [],
        "24/03/2020 17:30:53": [],
        "24/03/2020 20:12:57": [],
        "24/03/2020 22:28:47": []
    },
    "3284": {
        "24/03/2020 15:19:28": [],
        "24/03/2020 17:30:53": [],
        "24/03/2020 20:12:58": [],
        "24/03/2020 22:28:47": []
    },
    "3285": {
        "24/03/2020 15:19:28": [],
        "24/03/2020 17:30:54": [],
        "24/03/2020 20:12:58": [],
        "24/03/2020 22:28:48": []
    },
    "3289": {
        "24/03/2020 15:19:29": [],
        "24/03/2020 17:30:54": [],
        "24/03/2020 20:12:59": [],
        "24/03/2020 22:28:48": []
    },
    "3307": {
        "24/03/2020 15:19:29": [],
        "24/03/2020 17:30:55": [],
        "24/03/2020 20:12:59": [],
        "24/03/2020 22:28:48": []
    },
    "3312": {
        "24/03/2020 15:19:30": [],
        "24/03/2020 17:30:55": [],
        "24/03/2020 20:13:00": [],
        "24/03/2020 22:28:49": []
    },
    "4313": {
        "24/03/2020 15:19:30": [],
        "24/03/2020 17:30:56": [],
        "24/03/2020 20:13:00": [],
        "24/03/2020 22:28:49": []
    },
    "7324": {
        "24/03/2020 15:19:31": [],
        "24/03/2020 17:30:56": [],
        "24/03/2020 20:13:01": [],
        "24/03/2020 22:28:50": []
    },
    "7360": {
        "24/03/2020 15:19:31": [],
        "24/03/2020 17:30:56": [],
        "24/03/2020 20:13:01": [],
        "24/03/2020 22:28:50": []
    },
    "4395": {
        "24/03/2020 15:19:32": [],
        "24/03/2020 17:30:57": [],
        "24/03/2020 20:13:02": [],
        "24/03/2020 22:28:51": []
    },
    "4396": {
        "24/03/2020 15:19:32": [],
        "24/03/2020 17:30:57": [],
        "24/03/2020 20:13:02": [],
        "24/03/2020 22:28:51": []
    },
    "4771": {
        "24/03/2020 15:19:33": [],
        "24/03/2020 17:30:58": [],
        "24/03/2020 20:13:03": [],
        "24/03/2020 22:28:51": []
    },
    "4773": {
        "24/03/2020 15:19:33": [],
        "24/03/2020 17:30:58": [],
        "24/03/2020 20:13:03": [],
        "24/03/2020 22:28:52": []
    }
}