{
    "7270": {
        "20/03/2020 18:33:35": [],
        "20/03/2020 22:52:19": [],
        "20/03/2020 22:53:12": [],
        "20/03/2020 22:54:00": [],
        "20/03/2020 22:54:49": []
    },
    "7266": {
        "20/03/2020 18:29:43": [],
        "20/03/2020 22:52:20": [],
        "20/03/2020 22:53:11": []
    },
    "7265": {
        "20/03/2020 18:29:43": [],
        "20/03/2020 22:52:20": [],
        "20/03/2020 22:53:11": []
    },
    "7262": {
        "20/03/2020 18:29:43": [],
        "20/03/2020 22:52:20": [],
        "20/03/2020 22:53:11": []
    },
    "7261": {
        "20/03/2020 18:29:42": [],
        "20/03/2020 22:52:20": [],
        "20/03/2020 22:53:10": []
    },
    "7259": {
        "20/03/2020 18:29:42": [],
        "20/03/2020 22:52:21": [],
        "20/03/2020 22:53:10": []
    },
    "7256": {
        "20/03/2020 18:29:42": [],
        "20/03/2020 22:52:21": [],
        "20/03/2020 22:53:10": []
    },
    "7255": {
        "20/03/2020 18:29:41": [],
        "20/03/2020 22:52:21": [],
        "20/03/2020 22:53:09": []
    },
    "7249": {
        "20/03/2020 18:30:07": [],
        "20/03/2020 22:52:22": [],
        "20/03/2020 22:52:46": [],
        "20/03/2020 22:53:34": []
    },
    "7253": {
        "20/03/2020 18:30:08": [],
        "20/03/2020 22:52:22": [],
        "20/03/2020 22:52:46": [],
        "20/03/2020 22:53:35": []
    },
    "7251": {
        "20/03/2020 18:30:08": [],
        "20/03/2020 22:52:22": [],
        "20/03/2020 22:52:46": [],
        "20/03/2020 22:53:34": []
    },
    "4051": {
        "20/03/2020 18:30:10": [
            -18
        ],
        "20/03/2020 22:52:23": [
            -5
        ],
        "20/03/2020 22:52:47": [
            -5
        ],
        "20/03/2020 22:53:21": [
            -5
        ],
        "20/03/2020 22:53:37": [
            -5
        ]
    },
    "4052": {
        "20/03/2020 18:30:10": [
            -30
        ],
        "20/03/2020 22:52:23": [
            29
        ],
        "20/03/2020 22:52:47": [
            29
        ],
        "20/03/2020 22:53:22": [
            29
        ],
        "20/03/2020 22:53:37": [
            29
        ]
    },
    "4054": {
        "20/03/2020 18:30:11": [
            2
        ],
        "20/03/2020 22:52:23": [
            -11
        ],
        "20/03/2020 22:52:47": [
            -11
        ],
        "20/03/2020 22:53:22": [
            -11
        ],
        "20/03/2020 22:53:37": [
            -11
        ]
    },
    "4055": {
        "20/03/2020 18:30:11": [
            27
        ],
        "20/03/2020 22:52:23": [
            10
        ],
        "20/03/2020 22:52:48": [
            10
        ],
        "20/03/2020 22:53:22": [
            10
        ],
        "20/03/2020 22:53:38": [
            10
        ]
    },
    "4057": {
        "20/03/2020 18:30:11": [
            -4
        ],
        "20/03/2020 22:52:24": [
            -24
        ],
        "20/03/2020 22:52:48": [
            -24
        ],
        "20/03/2020 22:53:23": [
            -24
        ],
        "20/03/2020 22:53:38": [
            -24
        ]
    },
    "4101": {
        "20/03/2020 18:30:12": [
            21
        ],
        "20/03/2020 22:52:24": [
            -1
        ],
        "20/03/2020 22:52:48": [
            -1
        ],
        "20/03/2020 22:53:28": [
            -1
        ],
        "20/03/2020 22:53:38": [
            -1
        ]
    },
    "4102": {
        "20/03/2020 18:30:12": [
            -24
        ],
        "20/03/2020 22:52:24": [
            13
        ],
        "20/03/2020 22:52:48": [
            13
        ],
        "20/03/2020 22:53:28": [
            13
        ],
        "20/03/2020 22:53:38": [
            13
        ]
    },
    "4058": {
        "20/03/2020 18:30:12": [
            -8
        ],
        "20/03/2020 22:52:25": [
            28
        ],
        "20/03/2020 22:52:49": [
            28
        ],
        "20/03/2020 22:53:23": [
            28
        ],
        "20/03/2020 22:53:39": [
            28
        ]
    },
    "4059": {
        "20/03/2020 18:30:12": [
            22
        ],
        "20/03/2020 22:52:25": [
            -8
        ],
        "20/03/2020 22:52:49": [
            -8
        ],
        "20/03/2020 22:53:23": [
            -8
        ],
        "20/03/2020 22:53:39": [
            -8
        ]
    },
    "4060": {
        "20/03/2020 18:30:13": [
            -12
        ],
        "20/03/2020 22:52:25": [
            12
        ],
        "20/03/2020 22:52:49": [
            12
        ],
        "20/03/2020 22:53:24": [
            12
        ],
        "20/03/2020 22:53:39": [
            12
        ]
    },
    "4061": {
        "20/03/2020 18:30:13": [
            27
        ],
        "20/03/2020 22:52:25": [
            -13
        ],
        "20/03/2020 22:52:50": [
            -13
        ],
        "20/03/2020 22:53:24": [
            -13
        ],
        "20/03/2020 22:53:40": [
            -13
        ]
    },
    "4062": {
        "20/03/2020 18:30:13": [
            -17
        ],
        "20/03/2020 22:52:26": [
            -1
        ],
        "20/03/2020 22:52:50": [
            -1
        ],
        "20/03/2020 22:53:24": [
            -1
        ],
        "20/03/2020 22:53:40": [
            -1
        ]
    },
    "4063": {
        "20/03/2020 18:30:14": [
            10
        ],
        "20/03/2020 22:52:26": [
            19
        ],
        "20/03/2020 22:52:50": [
            19
        ],
        "20/03/2020 22:53:24": [
            19
        ],
        "20/03/2020 22:53:40": [
            19
        ]
    },
    "4064": {
        "20/03/2020 18:30:14": [
            18
        ],
        "20/03/2020 22:52:26": [
            26
        ],
        "20/03/2020 22:52:50": [
            26
        ],
        "20/03/2020 22:53:25": [
            26
        ],
        "20/03/2020 22:53:40": [
            26
        ]
    },
    "4056": {
        "20/03/2020 18:30:14": [
            -24
        ],
        "20/03/2020 22:52:27": [
            -16
        ],
        "20/03/2020 22:52:51": [
            -16
        ],
        "20/03/2020 22:53:22": [
            -16
        ],
        "20/03/2020 22:53:41": [
            -16
        ]
    },
    "4133": {
        "20/03/2020 18:30:15": [
            6
        ],
        "20/03/2020 22:52:27": [
            12
        ],
        "20/03/2020 22:52:51": [
            12
        ],
        "20/03/2020 22:53:31": [
            12
        ],
        "20/03/2020 22:53:41": [
            12
        ]
    },
    "4065": {
        "20/03/2020 18:30:15": [
            -19
        ],
        "20/03/2020 22:52:27": [
            -8
        ],
        "20/03/2020 22:52:51": [
            -8
        ],
        "20/03/2020 22:53:25": [
            -8
        ],
        "20/03/2020 22:53:41": [
            -8
        ]
    },
    "4066": {
        "20/03/2020 18:30:15": [
            1
        ],
        "20/03/2020 22:52:27": [
            10
        ],
        "20/03/2020 22:52:52": [
            10
        ],
        "20/03/2020 22:53:25": [
            10
        ],
        "20/03/2020 22:53:42": [
            10
        ]
    },
    "4067": {
        "20/03/2020 18:30:15": [
            21
        ],
        "20/03/2020 22:52:28": [
            29
        ],
        "20/03/2020 22:52:52": [
            29
        ],
        "20/03/2020 22:53:26": [
            29
        ],
        "20/03/2020 22:53:42": [
            29
        ]
    },
    "4068": {
        "20/03/2020 18:30:16": [
            -12
        ],
        "20/03/2020 22:52:28": [
            -4
        ],
        "20/03/2020 22:52:52": [
            -4
        ],
        "20/03/2020 22:53:26": [
            -4
        ],
        "20/03/2020 22:53:42": [
            -4
        ]
    },
    "4069": {
        "20/03/2020 18:30:16": [
            6
        ],
        "20/03/2020 22:52:28": [
            7
        ],
        "20/03/2020 22:52:52": [
            7
        ],
        "20/03/2020 22:53:26": [
            7
        ],
        "20/03/2020 22:53:42": [
            7
        ]
    },
    "4070": {
        "20/03/2020 18:30:16": [
            -18
        ],
        "20/03/2020 22:52:28": [
            -20
        ],
        "20/03/2020 22:52:53": [
            -20
        ],
        "20/03/2020 22:53:26": [
            -20
        ],
        "20/03/2020 22:53:43": [
            -20
        ]
    },
    "4071": {
        "20/03/2020 18:30:17": [
            17
        ],
        "20/03/2020 22:52:29": [
            6
        ],
        "20/03/2020 22:52:53": [
            6
        ],
        "20/03/2020 22:53:27": [
            6
        ],
        "20/03/2020 22:53:43": [
            6
        ]
    },
    "4072": {
        "20/03/2020 18:30:17": [
            7
        ],
        "20/03/2020 22:52:29": [
            -8
        ],
        "20/03/2020 22:52:53": [
            -8
        ],
        "20/03/2020 22:53:27": [
            -8
        ],
        "20/03/2020 22:53:43": [
            -8
        ]
    },
    "4073": {
        "20/03/2020 18:30:17": [
            19
        ],
        "20/03/2020 22:52:29": [
            5
        ],
        "20/03/2020 22:52:53": [
            5
        ],
        "20/03/2020 22:53:27": [
            5
        ],
        "20/03/2020 22:53:43": [
            5
        ]
    },
    "2583": {
        "20/03/2020 18:30:18": [
            0
        ],
        "20/03/2020 22:52:30": [
            -15
        ],
        "20/03/2020 22:52:54": [
            -15
        ],
        "20/03/2020 22:53:16": [
            -15
        ],
        "20/03/2020 22:53:44": [
            -15
        ]
    },
    "2584": {
        "20/03/2020 18:30:18": [
            17
        ],
        "20/03/2020 22:52:30": [
            3
        ],
        "20/03/2020 22:52:54": [
            3
        ],
        "20/03/2020 22:53:16": [
            3
        ],
        "20/03/2020 22:53:44": [
            3
        ]
    },
    "2585": {
        "20/03/2020 18:30:18": [
            9
        ],
        "20/03/2020 22:52:30": [
            -5
        ],
        "20/03/2020 22:52:54": [
            -5
        ],
        "20/03/2020 22:53:16": [
            -5
        ],
        "20/03/2020 22:53:44": [
            -5
        ]
    },
    "2586": {
        "20/03/2020 18:30:18": [
            -27
        ],
        "20/03/2020 22:52:31": [
            17
        ],
        "20/03/2020 22:52:55": [
            17
        ],
        "20/03/2020 22:53:17": [
            17
        ],
        "20/03/2020 22:53:45": [
            17
        ]
    },
    "2587": {
        "20/03/2020 18:30:19": [
            -4
        ],
        "20/03/2020 22:52:31": [
            -22
        ],
        "20/03/2020 22:52:55": [
            -22
        ],
        "20/03/2020 22:53:17": [
            -22
        ],
        "20/03/2020 22:53:45": [
            -22
        ]
    },
    "2588": {
        "20/03/2020 18:30:19": [
            5
        ],
        "20/03/2020 22:52:31": [
            -12
        ],
        "20/03/2020 22:52:55": [
            -12
        ],
        "20/03/2020 22:53:17": [
            -12
        ],
        "20/03/2020 22:53:45": [
            -12
        ]
    },
    "2589": {
        "20/03/2020 18:30:19": [
            -15
        ],
        "20/03/2020 22:52:31": [
            20
        ],
        "20/03/2020 22:52:55": [
            20
        ],
        "20/03/2020 22:53:17": [
            20
        ],
        "20/03/2020 22:53:45": [
            20
        ]
    },
    "2590": {
        "20/03/2020 18:30:20": [
            -10
        ],
        "20/03/2020 22:52:32": [
            14
        ],
        "20/03/2020 22:52:56": [
            14
        ],
        "20/03/2020 22:53:18": [
            14
        ],
        "20/03/2020 22:53:46": [
            14
        ]
    },
    "2591": {
        "20/03/2020 18:30:20": [
            20
        ],
        "20/03/2020 22:52:32": [
            -21
        ],
        "20/03/2020 22:52:56": [
            -21
        ],
        "20/03/2020 22:53:18": [
            -21
        ],
        "20/03/2020 22:53:46": [
            -21
        ]
    },
    "2592": {
        "20/03/2020 18:30:21": [
            -15
        ],
        "20/03/2020 22:52:32": [
            -2
        ],
        "20/03/2020 22:52:56": [
            -2
        ],
        "20/03/2020 22:53:18": [
            -2
        ],
        "20/03/2020 22:53:46": [
            -2
        ]
    },
    "2357": {
        "20/03/2020 18:30:21": [
            3
        ],
        "20/03/2020 22:52:33": [
            3
        ],
        "20/03/2020 22:52:56": [
            3
        ],
        "20/03/2020 22:53:29": [
            3
        ],
        "20/03/2020 22:53:47": [
            3
        ]
    },
    "2358": {
        "20/03/2020 18:30:21": [
            1
        ],
        "20/03/2020 22:52:33": [
            -9
        ],
        "20/03/2020 22:52:57": [
            -9
        ],
        "20/03/2020 22:53:30": [
            -9
        ],
        "20/03/2020 22:53:47": [
            -9
        ]
    },
    "2359": {
        "20/03/2020 18:30:22": [
            -9
        ],
        "20/03/2020 22:52:33": [
            -29
        ],
        "20/03/2020 22:52:57": [
            -29
        ],
        "20/03/2020 22:53:30": [
            -29
        ],
        "20/03/2020 22:53:47": [
            -29
        ]
    },
    "2360": {
        "20/03/2020 18:30:22": [
            0
        ],
        "20/03/2020 22:52:33": [
            17
        ],
        "20/03/2020 22:52:57": [
            17
        ],
        "20/03/2020 22:53:30": [
            17
        ],
        "20/03/2020 22:53:47": [
            17
        ]
    },
    "4348": {
        "20/03/2020 18:30:22": [
            20
        ],
        "20/03/2020 22:52:34": [
            11
        ],
        "20/03/2020 22:52:58": [
            11
        ],
        "20/03/2020 22:53:28": [
            11
        ],
        "20/03/2020 22:53:48": [
            11
        ]
    },
    "4646": {
        "20/03/2020 18:30:23": [
            -22
        ],
        "20/03/2020 22:52:34": [
            6
        ],
        "20/03/2020 22:52:58": [
            6
        ],
        "20/03/2020 22:53:28": [
            6
        ],
        "20/03/2020 22:53:48": [
            6
        ]
    },
    "4647": {
        "20/03/2020 18:30:23": [
            15
        ],
        "20/03/2020 22:52:34": [
            -27
        ],
        "20/03/2020 22:52:58": [
            -27
        ],
        "20/03/2020 22:53:32": [
            -27
        ],
        "20/03/2020 22:53:48": [
            -27
        ]
    },
    "2346": {
        "20/03/2020 18:30:23": [
            18
        ],
        "20/03/2020 22:52:35": [
            17
        ],
        "20/03/2020 22:52:58": [
            17
        ],
        "20/03/2020 22:53:15": [
            17
        ],
        "20/03/2020 22:53:48": [
            17
        ]
    },
    "4435": {
        "20/03/2020 18:30:23": [
            -21
        ],
        "20/03/2020 22:52:35": [
            15
        ],
        "20/03/2020 22:52:59": [
            15
        ],
        "20/03/2020 22:53:31": [
            15
        ],
        "20/03/2020 22:53:49": [
            15
        ]
    },
    "2594": {
        "20/03/2020 18:30:24": [
            24
        ],
        "20/03/2020 22:52:35": [
            29
        ],
        "20/03/2020 22:52:59": [
            29
        ],
        "20/03/2020 22:53:19": [
            29
        ],
        "20/03/2020 22:53:49": [
            29
        ]
    },
    "2595": {
        "20/03/2020 18:30:24": [
            11
        ],
        "20/03/2020 22:52:35": [
            12
        ],
        "20/03/2020 22:52:59": [
            12
        ],
        "20/03/2020 22:53:19": [
            12
        ],
        "20/03/2020 22:53:49": [
            12
        ]
    },
    "2596": {
        "20/03/2020 18:30:24": [
            26
        ],
        "20/03/2020 22:52:36": [
            6
        ],
        "20/03/2020 22:53:00": [
            6
        ],
        "20/03/2020 22:53:19": [
            6
        ],
        "20/03/2020 22:53:50": [
            6
        ]
    },
    "2597": {
        "20/03/2020 18:30:25": [
            25
        ],
        "20/03/2020 22:52:36": [
            -8
        ],
        "20/03/2020 22:53:00": [
            -8
        ],
        "20/03/2020 22:53:20": [
            -8
        ],
        "20/03/2020 22:53:50": [
            -8
        ]
    },
    "2599": {
        "20/03/2020 18:30:25": [
            1
        ],
        "20/03/2020 22:52:36": [
            20
        ],
        "20/03/2020 22:53:00": [
            20
        ],
        "20/03/2020 22:53:20": [
            20
        ],
        "20/03/2020 22:53:50": [
            20
        ]
    },
    "2600": {
        "20/03/2020 18:30:25": [
            7
        ],
        "20/03/2020 22:52:37": [
            9
        ],
        "20/03/2020 22:53:00": [
            9
        ],
        "20/03/2020 22:53:31": [
            9
        ],
        "20/03/2020 22:53:51": [
            9
        ]
    },
    "1155": {
        "20/03/2020 18:30:26": [
            -21
        ],
        "20/03/2020 22:52:37": [
            13
        ],
        "20/03/2020 22:53:01": [
            13
        ],
        "20/03/2020 22:53:12": [
            13
        ],
        "20/03/2020 22:53:51": [
            13
        ]
    },
    "1157": {
        "20/03/2020 18:30:26": [
            -17
        ],
        "20/03/2020 22:52:37": [
            -4
        ],
        "20/03/2020 22:53:01": [
            -4
        ],
        "20/03/2020 22:53:13": [
            -4
        ],
        "20/03/2020 22:53:51": [
            -4
        ]
    },
    "1158": {
        "20/03/2020 18:30:26": [
            28
        ],
        "20/03/2020 22:52:37": [
            28
        ],
        "20/03/2020 22:53:01": [
            28
        ],
        "20/03/2020 22:53:13": [
            28
        ],
        "20/03/2020 22:53:51": [
            28
        ]
    },
    "1159": {
        "20/03/2020 18:30:27": [
            24
        ],
        "20/03/2020 22:52:38": [
            -5
        ],
        "20/03/2020 22:53:02": [
            -5
        ],
        "20/03/2020 22:53:13": [
            -5
        ],
        "20/03/2020 22:53:52": [
            -5
        ]
    },
    "1160": {
        "20/03/2020 18:30:27": [
            -11
        ],
        "20/03/2020 22:52:38": [
            16
        ],
        "20/03/2020 22:53:02": [
            16
        ],
        "20/03/2020 22:53:13": [
            16
        ],
        "20/03/2020 22:53:52": [
            16
        ]
    },
    "1161": {
        "20/03/2020 18:30:27": [
            10
        ],
        "20/03/2020 22:52:38": [
            -26
        ],
        "20/03/2020 22:53:02": [
            -26
        ],
        "20/03/2020 22:53:14": [
            -26
        ],
        "20/03/2020 22:53:52": [
            -26
        ]
    },
    "1162": {
        "20/03/2020 18:30:28": [
            -28
        ],
        "20/03/2020 22:52:39": [
            -7
        ],
        "20/03/2020 22:53:02": [
            -7
        ],
        "20/03/2020 22:53:14": [
            -7
        ],
        "20/03/2020 22:53:52": [
            -7
        ]
    },
    "1163": {
        "20/03/2020 18:30:28": [
            25
        ],
        "20/03/2020 22:52:39": [
            15
        ],
        "20/03/2020 22:53:03": [
            15
        ],
        "20/03/2020 22:53:14": [
            15
        ],
        "20/03/2020 22:53:53": [
            15
        ]
    },
    "1164": {
        "20/03/2020 18:30:28": [
            0
        ],
        "20/03/2020 22:52:39": [
            -3
        ],
        "20/03/2020 22:53:03": [
            -3
        ],
        "20/03/2020 22:53:15": [
            -3
        ],
        "20/03/2020 22:53:53": [
            -3
        ]
    },
    "1165": {
        "20/03/2020 18:30:29": [
            2
        ],
        "20/03/2020 22:52:39": [
            -27
        ],
        "20/03/2020 22:53:03": [
            -27
        ],
        "20/03/2020 22:53:15": [
            -27
        ],
        "20/03/2020 22:53:53": [
            -27
        ]
    },
    "1166": {
        "20/03/2020 18:30:29": [
            5
        ],
        "20/03/2020 22:52:40": [
            9
        ],
        "20/03/2020 22:53:04": [
            9
        ],
        "20/03/2020 22:53:15": [
            9
        ],
        "20/03/2020 22:53:54": [
            9
        ]
    },
    "1167": {
        "20/03/2020 18:30:29": [
            -15
        ],
        "20/03/2020 22:52:40": [
            -28
        ],
        "20/03/2020 22:53:04": [
            -28
        ],
        "20/03/2020 22:53:33": [
            -28
        ],
        "20/03/2020 22:53:54": [
            -28
        ]
    },
    "1168": {
        "20/03/2020 18:30:29": [
            26
        ],
        "20/03/2020 22:52:40": [
            -4
        ],
        "20/03/2020 22:53:04": [
            -4
        ],
        "20/03/2020 22:53:33": [
            -4
        ],
        "20/03/2020 22:53:54": [
            -4
        ]
    },
    "1169": {
        "20/03/2020 18:30:30": [
            -1
        ],
        "20/03/2020 22:52:41": [
            19
        ],
        "20/03/2020 22:53:05": [
            19
        ],
        "20/03/2020 22:53:34": [
            19
        ],
        "20/03/2020 22:53:54": [
            19
        ]
    },
    "1170": {
        "20/03/2020 18:30:30": [
            -29
        ],
        "20/03/2020 22:52:41": [],
        "20/03/2020 22:53:05": [],
        "20/03/2020 22:53:34": [],
        "20/03/2020 22:53:55": []
    },
    "1069": {
        "20/03/2020 18:30:30": [],
        "20/03/2020 22:52:41": [],
        "20/03/2020 22:53:06": [],
        "20/03/2020 22:53:12": [],
        "20/03/2020 22:53:55": []
    },
    "1070": {
        "20/03/2020 18:30:31": [
            22
        ],
        "20/03/2020 22:52:41": [],
        "20/03/2020 22:53:06": [],
        "20/03/2020 22:53:32": [],
        "20/03/2020 22:53:55": []
    },
    "1071": {
        "20/03/2020 18:30:31": [
            -24
        ],
        "20/03/2020 22:52:42": [],
        "20/03/2020 22:53:07": [],
        "20/03/2020 22:53:33": [],
        "20/03/2020 22:53:56": []
    },
    "4528": {
        "20/03/2020 18:30:31": [
            15
        ],
        "20/03/2020 22:52:42": [],
        "20/03/2020 22:53:07": [],
        "20/03/2020 22:53:32": [],
        "20/03/2020 22:53:56": []
    },
    "1072": {
        "20/03/2020 18:30:32": [
            9
        ],
        "20/03/2020 22:52:42": [],
        "20/03/2020 22:53:07": [],
        "20/03/2020 22:53:33": [],
        "20/03/2020 22:53:56": []
    },
    "1352": {
        "20/03/2020 18:30:32": [
            -26
        ],
        "20/03/2020 22:52:43": [],
        "20/03/2020 22:53:07": [],
        "20/03/2020 22:53:29": [],
        "20/03/2020 22:53:56": []
    },
    "1353": {
        "20/03/2020 18:30:32": [
            14
        ],
        "20/03/2020 22:52:43": [],
        "20/03/2020 22:53:08": [],
        "20/03/2020 22:53:29": [],
        "20/03/2020 22:53:57": []
    },
    "1355": {
        "20/03/2020 18:30:32": [
            11
        ],
        "20/03/2020 22:52:43": [],
        "20/03/2020 22:53:08": [],
        "20/03/2020 22:53:20": [],
        "20/03/2020 22:53:57": []
    },
    "1357": {
        "20/03/2020 18:30:33": [
            -18
        ],
        "20/03/2020 22:52:43": [],
        "20/03/2020 22:53:08": [],
        "20/03/2020 22:53:21": [],
        "20/03/2020 22:53:57": []
    },
    "1358": {
        "20/03/2020 18:30:33": [],
        "20/03/2020 22:52:44": [],
        "20/03/2020 22:53:09": [],
        "20/03/2020 22:53:21": [],
        "20/03/2020 22:53:57": []
    },
    "7564": {
        "20/03/2020 18:34:00": [],
        "20/03/2020 22:52:44": [
            0
        ],
        "20/03/2020 22:53:09": [
            0
        ],
        "20/03/2020 22:53:32": [
            0
        ],
        "20/03/2020 22:53:58": [
            0
        ],
        "20/03/2020 22:54:19": [
            0
        ],
        "20/03/2020 22:54:25": [
            0
        ],
        "20/03/2020 22:54:49": [
            0
        ],
        "20/03/2020 22:55:12": [
            0
        ]
    },
    "7289": {
        "20/03/2020 18:34:00": [],
        "20/03/2020 22:52:44": [],
        "20/03/2020 22:53:36": [],
        "20/03/2020 22:54:19": [],
        "20/03/2020 22:55:12": []
    },
    "7280": {
        "20/03/2020 18:30:08": [],
        "20/03/2020 22:52:44": [],
        "20/03/2020 22:53:35": []
    },
    "7281": {
        "20/03/2020 18:30:09": [],
        "20/03/2020 22:52:45": [],
        "20/03/2020 22:53:35": []
    },
    "7284": {
        "20/03/2020 18:30:09": [],
        "20/03/2020 22:52:45": [],
        "20/03/2020 22:53:36": []
    },
    "7287": {
        "20/03/2020 18:30:09": [],
        "20/03/2020 22:52:45": [],
        "20/03/2020 22:53:36": []
    },
    "7208": {
        "20/03/2020 18:30:03": [],
        "20/03/2020 22:52:46": [],
        "20/03/2020 22:53:30": []
    },
    "5111": {
        "20/03/2020 18:30:10": [],
        "20/03/2020 22:53:09": [
            0
        ],
        "20/03/2020 22:53:36": [
            0
        ]
    },
    "7269": {
        "20/03/2020 18:29:43": [],
        "20/03/2020 22:53:11": []
    },
    "7252": {
        "20/03/2020 18:33:32": [
            -643
        ],
        "20/03/2020 22:53:58": [],
        "20/03/2020 22:54:46": []
    },
    "7254": {
        "20/03/2020 18:33:33": [
            -647
        ],
        "20/03/2020 22:53:58": [],
        "20/03/2020 22:54:47": []
    },
    "7257": {
        "20/03/2020 18:33:33": [
            -634
        ],
        "20/03/2020 22:53:59": [],
        "20/03/2020 22:54:47": []
    },
    "7258": {
        "20/03/2020 18:33:33": [
            -616
        ],
        "20/03/2020 22:53:59": [],
        "20/03/2020 22:54:47": []
    },
    "7260": {
        "20/03/2020 18:33:34": [
            -630
        ],
        "20/03/2020 22:53:59": [],
        "20/03/2020 22:54:48": []
    },
    "7263": {
        "20/03/2020 18:33:34": [
            -626
        ],
        "20/03/2020 22:53:59": [],
        "20/03/2020 22:54:48": []
    },
    "7264": {
        "20/03/2020 18:33:34": [
            -645
        ],
        "20/03/2020 22:54:00": [],
        "20/03/2020 22:54:48": []
    },
    "7268": {
        "20/03/2020 18:33:34": [
            -629
        ],
        "20/03/2020 22:54:00": [],
        "20/03/2020 22:54:48": []
    },
    "1016": {
        "20/03/2020 18:34:02": [
            4
        ],
        "20/03/2020 22:54:01": [
            21
        ],
        "20/03/2020 22:54:26": [
            21
        ],
        "20/03/2020 22:54:51": [
            21
        ],
        "20/03/2020 22:55:14": [
            21
        ]
    },
    "1017": {
        "20/03/2020 18:34:02": [
            -8
        ],
        "20/03/2020 22:54:01": [
            0
        ],
        "20/03/2020 22:54:27": [
            0
        ],
        "20/03/2020 22:54:51": [
            0
        ],
        "20/03/2020 22:55:14": [
            0
        ]
    },
    "1076": {
        "20/03/2020 18:34:04": [
            -23
        ],
        "20/03/2020 22:54:01": [
            10
        ],
        "20/03/2020 22:54:28": [
            10
        ],
        "20/03/2020 22:54:52": [
            10
        ],
        "20/03/2020 22:55:16": [
            10
        ]
    },
    "1077": {
        "20/03/2020 18:34:04": [
            -12
        ],
        "20/03/2020 22:54:02": [
            -13
        ],
        "20/03/2020 22:54:28": [
            -13
        ],
        "20/03/2020 22:54:52": [
            -13
        ],
        "20/03/2020 22:55:16": [
            -13
        ]
    },
    "1078": {
        "20/03/2020 18:34:04": [
            -21
        ],
        "20/03/2020 22:54:02": [
            18
        ],
        "20/03/2020 22:54:28": [
            18
        ],
        "20/03/2020 22:54:53": [
            18
        ],
        "20/03/2020 22:55:17": [
            18
        ]
    },
    "1079": {
        "20/03/2020 18:34:04": [
            -21
        ],
        "20/03/2020 22:54:02": [
            -5
        ],
        "20/03/2020 22:54:29": [
            -5
        ],
        "20/03/2020 22:54:53": [
            -5
        ],
        "20/03/2020 22:55:18": [
            -5
        ]
    },
    "1080": {
        "20/03/2020 18:34:05": [
            -14
        ],
        "20/03/2020 22:54:02": [
            15
        ],
        "20/03/2020 22:54:29": [
            15
        ],
        "20/03/2020 22:54:53": [
            15
        ],
        "20/03/2020 22:55:18": [
            15
        ]
    },
    "1283": {
        "20/03/2020 18:34:01": [
            -1
        ],
        "20/03/2020 22:54:03": [
            14
        ],
        "20/03/2020 22:54:25": [
            14
        ],
        "20/03/2020 22:54:50": [
            14
        ],
        "20/03/2020 22:55:13": [
            14
        ]
    },
    "1284": {
        "20/03/2020 18:34:02": [
            11
        ],
        "20/03/2020 22:54:03": [
            -26
        ],
        "20/03/2020 22:54:26": [
            -26
        ],
        "20/03/2020 22:54:50": [
            -26
        ],
        "20/03/2020 22:55:14": [
            -26
        ]
    },
    "1285": {
        "20/03/2020 18:34:02": [
            -20
        ],
        "20/03/2020 22:54:03": [
            9
        ],
        "20/03/2020 22:54:26": [
            9
        ],
        "20/03/2020 22:54:50": [
            9
        ],
        "20/03/2020 22:55:14": [
            9
        ]
    },
    "4004": {
        "20/03/2020 18:34:15": [
            -622
        ],
        "20/03/2020 22:54:04": [
            16
        ],
        "20/03/2020 22:54:39": [
            16
        ],
        "20/03/2020 22:55:03": [
            16
        ],
        "20/03/2020 22:55:29": [
            16
        ]
    },
    "4005": {
        "20/03/2020 18:34:15": [
            -664
        ],
        "20/03/2020 22:54:04": [
            -30
        ],
        "20/03/2020 22:54:39": [
            -30
        ],
        "20/03/2020 22:55:03": [
            -30
        ],
        "20/03/2020 22:55:29": [
            -30
        ]
    },
    "4006": {
        "20/03/2020 18:34:15": [
            -621
        ],
        "20/03/2020 22:54:04": [
            7
        ],
        "20/03/2020 22:54:39": [
            7
        ],
        "20/03/2020 22:55:04": [
            7
        ],
        "20/03/2020 22:55:29": [
            7
        ]
    },
    "4007": {
        "20/03/2020 18:34:15": [
            -656
        ],
        "20/03/2020 22:54:04": [
            29
        ],
        "20/03/2020 22:54:40": [
            29
        ],
        "20/03/2020 22:55:04": [
            29
        ],
        "20/03/2020 22:55:30": [
            29
        ]
    },
    "4008": {
        "20/03/2020 18:34:16": [
            -644
        ],
        "20/03/2020 22:54:05": [
            -18
        ],
        "20/03/2020 22:54:40": [
            -18
        ],
        "20/03/2020 22:55:04": [
            -18
        ],
        "20/03/2020 22:55:30": [
            -18
        ]
    },
    "4009": {
        "20/03/2020 18:34:16": [
            -666
        ],
        "20/03/2020 22:54:05": [
            19
        ],
        "20/03/2020 22:54:41": [
            19
        ],
        "20/03/2020 22:55:05": [
            19
        ],
        "20/03/2020 22:55:30": [
            19
        ]
    },
    "4010": {
        "20/03/2020 18:34:16": [
            -614
        ],
        "20/03/2020 22:54:05": [
            11
        ],
        "20/03/2020 22:54:41": [
            11
        ],
        "20/03/2020 22:55:04": [
            11
        ],
        "20/03/2020 22:55:30": [
            11
        ]
    },
    "4011": {
        "20/03/2020 18:34:17": [
            -659
        ],
        "20/03/2020 22:54:05": [
            18
        ],
        "20/03/2020 22:54:41": [
            18
        ],
        "20/03/2020 22:55:05": [
            18
        ],
        "20/03/2020 22:55:31": [
            18
        ]
    },
    "4012": {
        "20/03/2020 18:34:17": [
            -663
        ],
        "20/03/2020 22:54:06": [
            2
        ],
        "20/03/2020 22:54:42": [
            2
        ],
        "20/03/2020 22:55:06": [
            2
        ],
        "20/03/2020 22:55:31": [
            2
        ]
    },
    "4013": {
        "20/03/2020 18:34:18": [
            -632
        ],
        "20/03/2020 22:54:06": [
            24
        ],
        "20/03/2020 22:54:42": [
            24
        ],
        "20/03/2020 22:55:06": [
            24
        ],
        "20/03/2020 22:55:32": [
            24
        ]
    },
    "4014": {
        "20/03/2020 18:34:18": [
            -656
        ],
        "20/03/2020 22:54:06": [
            -3
        ],
        "20/03/2020 22:54:42": [
            -3
        ],
        "20/03/2020 22:55:06": [
            -3
        ],
        "20/03/2020 22:55:32": [
            -3
        ]
    },
    "4015": {
        "20/03/2020 18:34:19": [
            -610
        ],
        "20/03/2020 22:54:07": [
            -18
        ],
        "20/03/2020 22:54:43": [
            -18
        ],
        "20/03/2020 22:55:07": [
            -18
        ],
        "20/03/2020 22:55:32": [
            -18
        ]
    },
    "4017": {
        "20/03/2020 18:34:19": [
            -637
        ],
        "20/03/2020 22:54:07": [
            7
        ],
        "20/03/2020 22:54:43": [
            7
        ],
        "20/03/2020 22:55:07": [
            7
        ],
        "20/03/2020 22:55:33": [
            7
        ]
    },
    "4018": {
        "20/03/2020 18:34:19": [
            -643
        ],
        "20/03/2020 22:54:07": [
            -8
        ],
        "20/03/2020 22:54:43": [
            -8
        ],
        "20/03/2020 22:55:07": [
            -8
        ],
        "20/03/2020 22:55:33": [
            -8
        ]
    },
    "4019": {
        "20/03/2020 18:34:20": [
            -619
        ],
        "20/03/2020 22:54:07": [
            14
        ],
        "20/03/2020 22:54:44": [
            14
        ],
        "20/03/2020 22:55:08": [
            14
        ],
        "20/03/2020 22:55:33": [
            14
        ]
    },
    "4020": {
        "20/03/2020 18:34:20": [
            -655
        ],
        "20/03/2020 22:54:08": [
            -25
        ],
        "20/03/2020 22:54:44": [
            -25
        ],
        "20/03/2020 22:55:08": [
            -25
        ],
        "20/03/2020 22:55:34": [
            -25
        ]
    },
    "4021": {
        "20/03/2020 18:34:20": [
            -612
        ],
        "20/03/2020 22:54:08": [
            9
        ],
        "20/03/2020 22:54:45": [
            9
        ],
        "20/03/2020 22:55:09": [
            9
        ],
        "20/03/2020 22:55:34": [
            9
        ]
    },
    "4022": {
        "20/03/2020 18:34:21": [
            -650
        ],
        "20/03/2020 22:54:08": [],
        "20/03/2020 22:54:45": [],
        "20/03/2020 22:55:09": [],
        "20/03/2020 22:55:34": []
    },
    "1020": {
        "20/03/2020 18:34:03": [
            21
        ],
        "20/03/2020 22:54:09": [
            -29
        ],
        "20/03/2020 22:54:28": [
            -29
        ],
        "20/03/2020 22:54:52": [
            -29
        ],
        "20/03/2020 22:55:15": [
            -29
        ]
    },
    "1121": {
        "20/03/2020 18:34:06": [
            -1
        ],
        "20/03/2020 22:54:09": [
            17
        ],
        "20/03/2020 22:54:30": [
            17
        ],
        "20/03/2020 22:54:55": [
            17
        ],
        "20/03/2020 22:55:20": [
            17
        ]
    },
    "1122": {
        "20/03/2020 18:34:06": [
            -2
        ],
        "20/03/2020 22:54:09": [
            -13
        ],
        "20/03/2020 22:54:31": [
            -13
        ],
        "20/03/2020 22:54:55": [
            -13
        ],
        "20/03/2020 22:55:21": [
            -13
        ]
    },
    "1123": {
        "20/03/2020 18:34:07": [
            24
        ],
        "20/03/2020 22:54:10": [
            6
        ],
        "20/03/2020 22:54:31": [
            6
        ],
        "20/03/2020 22:54:55": [
            6
        ],
        "20/03/2020 22:55:21": [
            6
        ]
    },
    "1124": {
        "20/03/2020 18:34:07": [
            -12
        ],
        "20/03/2020 22:54:10": [
            24
        ],
        "20/03/2020 22:54:31": [
            24
        ],
        "20/03/2020 22:54:55": [
            24
        ],
        "20/03/2020 22:55:21": [
            24
        ]
    },
    "1125": {
        "20/03/2020 18:34:07": [
            26
        ],
        "20/03/2020 22:54:10": [
            9
        ],
        "20/03/2020 22:54:32": [
            9
        ],
        "20/03/2020 22:54:56": [
            9
        ],
        "20/03/2020 22:55:22": [
            9
        ]
    },
    "2349": {
        "20/03/2020 18:34:11": [
            -30
        ],
        "20/03/2020 22:54:11": [
            -10
        ],
        "20/03/2020 22:54:36": [
            -10
        ],
        "20/03/2020 22:55:00": [
            -10
        ],
        "20/03/2020 22:55:26": [
            -10
        ]
    },
    "2351": {
        "20/03/2020 18:34:12": [
            -15
        ],
        "20/03/2020 22:54:11": [
            0
        ],
        "20/03/2020 22:54:36": [
            0
        ],
        "20/03/2020 22:55:00": [
            0
        ],
        "20/03/2020 22:55:26": [
            0
        ]
    },
    "2352": {
        "20/03/2020 18:34:12": [
            -1
        ],
        "20/03/2020 22:54:12": [
            26
        ],
        "20/03/2020 22:54:36": [
            26
        ],
        "20/03/2020 22:55:01": [
            26
        ],
        "20/03/2020 22:55:26": [
            26
        ]
    },
    "2550": {
        "20/03/2020 18:34:08": [
            10
        ],
        "20/03/2020 22:54:12": [
            28
        ],
        "20/03/2020 22:54:32": [
            28
        ],
        "20/03/2020 22:54:57": [
            28
        ],
        "20/03/2020 22:55:22": [
            28
        ]
    },
    "2551": {
        "20/03/2020 18:34:08": [
            -8
        ],
        "20/03/2020 22:54:12": [
            18
        ],
        "20/03/2020 22:54:33": [
            18
        ],
        "20/03/2020 22:54:57": [
            18
        ],
        "20/03/2020 22:55:23": [
            18
        ]
    },
    "2553": {
        "20/03/2020 18:34:09": [
            -27
        ],
        "20/03/2020 22:54:12": [
            -17
        ],
        "20/03/2020 22:54:33": [
            -17
        ],
        "20/03/2020 22:54:57": [
            -17
        ],
        "20/03/2020 22:55:23": [
            -17
        ]
    },
    "2554": {
        "20/03/2020 18:34:09": [
            -22
        ],
        "20/03/2020 22:54:13": [
            28
        ],
        "20/03/2020 22:54:33": [
            28
        ],
        "20/03/2020 22:54:57": [
            28
        ],
        "20/03/2020 22:55:23": [
            28
        ]
    },
    "2555": {
        "20/03/2020 18:34:09": [
            20
        ],
        "20/03/2020 22:54:13": [
            28
        ],
        "20/03/2020 22:54:34": [
            28
        ],
        "20/03/2020 22:54:58": [
            28
        ],
        "20/03/2020 22:55:24": [
            28
        ]
    },
    "2556": {
        "20/03/2020 18:34:10": [
            -15
        ],
        "20/03/2020 22:54:13": [
            26
        ],
        "20/03/2020 22:54:34": [
            26
        ],
        "20/03/2020 22:54:58": [
            26
        ],
        "20/03/2020 22:55:24": [
            26
        ]
    },
    "2557": {
        "20/03/2020 18:34:10": [
            -17
        ],
        "20/03/2020 22:54:14": [
            -13
        ],
        "20/03/2020 22:54:34": [
            -13
        ],
        "20/03/2020 22:54:58": [
            -13
        ],
        "20/03/2020 22:55:24": [
            -13
        ]
    },
    "5110": {
        "20/03/2020 18:34:17": [
            -635
        ],
        "20/03/2020 22:54:14": [
            -20
        ],
        "20/03/2020 22:54:41": [
            -20
        ],
        "20/03/2020 22:55:05": [
            -20
        ],
        "20/03/2020 22:55:31": [
            -20
        ]
    },
    "7395": {
        "20/03/2020 18:34:14": [
            -646
        ],
        "20/03/2020 22:54:14": [
            18
        ],
        "20/03/2020 22:54:38": [
            18
        ],
        "20/03/2020 22:55:02": [
            18
        ],
        "20/03/2020 22:55:28": [
            18
        ]
    },
    "4023": {
        "20/03/2020 18:34:21": [
            -617
        ],
        "20/03/2020 22:54:14": [
            0
        ],
        "20/03/2020 22:54:45": [
            0
        ],
        "20/03/2020 22:55:09": [
            0
        ],
        "20/03/2020 22:55:35": [
            0
        ]
    },
    "4024": {
        "20/03/2020 18:34:21": [
            -643
        ],
        "20/03/2020 22:54:15": [
            -30
        ],
        "20/03/2020 22:54:45": [
            -30
        ],
        "20/03/2020 22:55:09": [
            -30
        ],
        "20/03/2020 22:55:35": [
            -30
        ]
    },
    "4027": {
        "20/03/2020 18:34:22": [
            -660
        ],
        "20/03/2020 22:54:15": [
            -30
        ],
        "20/03/2020 22:54:46": [
            -30
        ],
        "20/03/2020 22:55:10": [
            -30
        ],
        "20/03/2020 22:55:35": [
            -30
        ]
    },
    "4098": {
        "20/03/2020 18:34:18": [
            -631
        ],
        "20/03/2020 22:54:15": [
            21
        ],
        "20/03/2020 22:54:43": [
            21
        ],
        "20/03/2020 22:55:06": [
            21
        ],
        "20/03/2020 22:55:32": [
            21
        ]
    },
    "4100": {
        "20/03/2020 18:34:20": [
            -637
        ],
        "20/03/2020 22:54:16": [
            -11
        ],
        "20/03/2020 22:54:44": [
            -11
        ],
        "20/03/2020 22:55:08": [
            -11
        ],
        "20/03/2020 22:55:34": [
            -11
        ]
    },
    "4347": {
        "20/03/2020 18:34:11": [
            -17
        ],
        "20/03/2020 22:54:16": [
            6
        ],
        "20/03/2020 22:54:35": [
            6
        ],
        "20/03/2020 22:54:59": [
            6
        ],
        "20/03/2020 22:55:25": [
            6
        ]
    },
    "4521": {
        "20/03/2020 18:34:01": [
            29
        ],
        "20/03/2020 22:54:16": [
            -21
        ],
        "20/03/2020 22:54:25": [
            -21
        ],
        "20/03/2020 22:54:49": [
            -21
        ],
        "20/03/2020 22:55:13": [
            -21
        ]
    },
    "5008": {
        "20/03/2020 18:34:10": [
            -5
        ],
        "20/03/2020 22:54:16": [
            14
        ],
        "20/03/2020 22:54:35": [
            14
        ],
        "20/03/2020 22:54:59": [
            14
        ],
        "20/03/2020 22:55:25": [
            14
        ]
    },
    "7248": {
        "20/03/2020 18:33:58": [
            -626
        ],
        "20/03/2020 22:54:17": [],
        "20/03/2020 22:54:46": [],
        "20/03/2020 22:55:10": []
    },
    "7250": {
        "20/03/2020 18:33:58": [
            -641
        ],
        "20/03/2020 22:54:17": [
            29
        ],
        "20/03/2020 22:54:46": [
            29
        ],
        "20/03/2020 22:55:10": [
            29
        ]
    },
    "7278": {
        "20/03/2020 18:34:00": [],
        "20/03/2020 22:54:17": [],
        "20/03/2020 22:55:12": []
    },
    "7282": {
        "20/03/2020 18:34:00": [],
        "20/03/2020 22:54:17": [],
        "20/03/2020 22:55:12": []
    },
    "7283": {
        "20/03/2020 18:33:59": [],
        "20/03/2020 22:54:18": [],
        "20/03/2020 22:55:11": []
    },
    "7286": {
        "20/03/2020 18:33:59": [],
        "20/03/2020 22:54:18": [],
        "20/03/2020 22:55:11": []
    },
    "7288": {
        "20/03/2020 18:33:59": [],
        "20/03/2020 22:54:18": [],
        "20/03/2020 22:55:11": []
    },
    "1018": {
        "20/03/2020 18:34:03": [
            -17
        ],
        "20/03/2020 22:54:19": [
            -20
        ],
        "20/03/2020 22:54:27": [
            -20
        ],
        "20/03/2020 22:54:51": [
            -20
        ],
        "20/03/2020 22:55:15": [
            -20
        ]
    },
    "1019": {
        "20/03/2020 18:34:03": [
            27
        ],
        "20/03/2020 22:54:19": [
            2
        ],
        "20/03/2020 22:54:27": [
            2
        ],
        "20/03/2020 22:54:52": [
            2
        ],
        "20/03/2020 22:55:15": [
            2
        ]
    },
    "1081": {
        "20/03/2020 18:34:05": [
            22
        ],
        "20/03/2020 22:54:20": [
            -17
        ],
        "20/03/2020 22:54:29": [
            -17
        ],
        "20/03/2020 22:54:53": [
            -17
        ],
        "20/03/2020 22:55:19": [
            -17
        ]
    },
    "1082": {
        "20/03/2020 18:34:05": [
            26
        ],
        "20/03/2020 22:54:20": [
            2
        ],
        "20/03/2020 22:54:30": [
            2
        ],
        "20/03/2020 22:54:54": [
            2
        ],
        "20/03/2020 22:55:19": [
            2
        ]
    },
    "1083": {
        "20/03/2020 18:34:05": [
            26
        ],
        "20/03/2020 22:54:20": [
            20
        ],
        "20/03/2020 22:54:30": [
            20
        ],
        "20/03/2020 22:54:54": [
            20
        ],
        "20/03/2020 22:55:20": [
            20
        ]
    },
    "1085": {
        "20/03/2020 18:34:06": [
            8
        ],
        "20/03/2020 22:54:21": [
            -9
        ],
        "20/03/2020 22:54:30": [
            -9
        ],
        "20/03/2020 22:54:54": [
            -9
        ],
        "20/03/2020 22:55:20": [
            -9
        ]
    },
    "1127": {
        "20/03/2020 18:34:08": [
            4
        ],
        "20/03/2020 22:54:21": [
            -2
        ],
        "20/03/2020 22:54:32": [
            -2
        ],
        "20/03/2020 22:54:56": [
            -2
        ],
        "20/03/2020 22:55:22": [
            -2
        ]
    },
    "1130": {
        "20/03/2020 18:34:08": [
            27
        ],
        "20/03/2020 22:54:21": [
            -8
        ],
        "20/03/2020 22:54:32": [
            -8
        ],
        "20/03/2020 22:54:56": [
            -8
        ],
        "20/03/2020 22:55:22": [
            -8
        ]
    },
    "4436": {
        "20/03/2020 18:34:10": [
            -10
        ],
        "20/03/2020 22:54:21": [
            -29
        ],
        "20/03/2020 22:54:34": [
            -29
        ],
        "20/03/2020 22:54:59": [
            -29
        ],
        "20/03/2020 22:55:24": [
            -29
        ]
    },
    "4445": {
        "20/03/2020 18:34:12": [
            -20
        ],
        "20/03/2020 22:54:22": [
            -25
        ],
        "20/03/2020 22:54:36": [
            -25
        ],
        "20/03/2020 22:55:00": [
            -25
        ],
        "20/03/2020 22:55:26": [
            -25
        ]
    },
    "4456": {
        "20/03/2020 18:34:01": [
            7
        ],
        "20/03/2020 22:54:22": [
            -5
        ],
        "20/03/2020 22:54:26": [
            -5
        ],
        "20/03/2020 22:54:50": [
            -5
        ],
        "20/03/2020 22:55:13": [
            -5
        ]
    },
    "6124": {
        "20/03/2020 18:34:14": [
            -614
        ],
        "20/03/2020 22:54:22": [
            -26
        ],
        "20/03/2020 22:54:38": [
            -26
        ],
        "20/03/2020 22:55:03": [
            -26
        ],
        "20/03/2020 22:55:28": [
            -26
        ]
    },
    "2573": {
        "20/03/2020 18:34:12": [
            12
        ],
        "20/03/2020 22:54:23": [
            24
        ],
        "20/03/2020 22:54:37": [
            24
        ],
        "20/03/2020 22:55:01": [
            24
        ],
        "20/03/2020 22:55:27": [
            24
        ]
    },
    "2574": {
        "20/03/2020 18:34:13": [
            1
        ],
        "20/03/2020 22:54:23": [
            -16
        ],
        "20/03/2020 22:54:37": [
            -16
        ],
        "20/03/2020 22:55:01": [
            -16
        ],
        "20/03/2020 22:55:27": [
            -16
        ]
    },
    "2576": {
        "20/03/2020 18:31:09": [],
        "20/03/2020 22:54:23": []
    },
    "2577": {
        "20/03/2020 18:34:13": [
            -651
        ],
        "20/03/2020 22:54:23": [
            20
        ],
        "20/03/2020 22:54:37": [
            20
        ],
        "20/03/2020 22:55:02": [
            20
        ],
        "20/03/2020 22:55:27": [
            20
        ]
    },
    "2578": {
        "20/03/2020 18:34:13": [
            -636
        ],
        "20/03/2020 22:54:24": [
            -24
        ],
        "20/03/2020 22:54:38": [
            -24
        ],
        "20/03/2020 22:55:02": [
            -24
        ],
        "20/03/2020 22:55:28": [
            -24
        ]
    },
    "2579": {
        "20/03/2020 18:34:14": [
            -608
        ],
        "20/03/2020 22:54:24": [
            0
        ],
        "20/03/2020 22:54:38": [
            0
        ],
        "20/03/2020 22:55:02": [
            0
        ],
        "20/03/2020 22:55:28": [
            0
        ]
    },
    "4640": {
        "20/03/2020 18:34:11": [
            5
        ],
        "20/03/2020 22:54:24": [
            1
        ],
        "20/03/2020 22:54:35": [
            1
        ],
        "20/03/2020 22:54:59": [
            1
        ],
        "20/03/2020 22:55:25": [
            1
        ]
    },
    "7207": {
        "20/03/2020 18:33:58": [],
        "20/03/2020 22:54:24": [],
        "20/03/2020 22:55:10": []
    }
}