{
    "2124": {
        "24/03/2020 15:40:48": [],
        "24/03/2020 17:51:14": [],
        "24/03/2020 20:33:07": [],
        "24/03/2020 22:48:39": []
    },
    "2125": {
        "24/03/2020 15:40:49": [],
        "24/03/2020 17:51:14": [],
        "24/03/2020 20:33:07": [],
        "24/03/2020 22:48:40": []
    },
    "2126": {
        "24/03/2020 15:40:49": [],
        "24/03/2020 17:51:15": [],
        "24/03/2020 20:33:08": [],
        "24/03/2020 22:48:40": []
    },
    "2127": {
        "24/03/2020 15:40:50": [],
        "24/03/2020 17:51:15": [],
        "24/03/2020 20:33:08": [],
        "24/03/2020 22:48:41": []
    },
    "2128": {
        "24/03/2020 15:40:50": [],
        "24/03/2020 17:51:16": [],
        "24/03/2020 20:33:09": [],
        "24/03/2020 22:48:41": []
    },
    "2129": {
        "24/03/2020 15:40:50": [],
        "24/03/2020 17:51:16": [],
        "24/03/2020 20:33:09": [],
        "24/03/2020 22:48:42": []
    },
    "2158": {
        "24/03/2020 15:40:51": [],
        "24/03/2020 17:51:17": [],
        "24/03/2020 20:33:09": [],
        "24/03/2020 22:48:42": []
    },
    "2159": {
        "24/03/2020 15:40:51": [],
        "24/03/2020 17:51:17": [],
        "24/03/2020 20:33:10": [],
        "24/03/2020 22:48:43": []
    },
    "2243": {
        "24/03/2020 15:40:52": [],
        "24/03/2020 17:51:18": [],
        "24/03/2020 20:33:10": [],
        "24/03/2020 22:48:43": []
    },
    "2345": {
        "24/03/2020 15:40:52": [],
        "24/03/2020 17:51:18": [],
        "24/03/2020 20:33:11": [],
        "24/03/2020 22:48:44": []
    },
    "2763": {
        "24/03/2020 15:40:53": [],
        "24/03/2020 17:51:19": [],
        "24/03/2020 20:33:11": [],
        "24/03/2020 22:48:44": []
    },
    "2130": {
        "24/03/2020 15:40:53": [],
        "24/03/2020 17:51:20": [],
        "24/03/2020 20:33:12": [],
        "24/03/2020 22:48:45": []
    },
    "2619": {
        "24/03/2020 15:40:54": [],
        "24/03/2020 17:51:20": [],
        "24/03/2020 20:33:12": [],
        "24/03/2020 22:48:45": []
    },
    "2620": {
        "24/03/2020 15:40:54": [],
        "24/03/2020 17:51:20": [],
        "24/03/2020 20:33:13": [],
        "24/03/2020 22:48:46": []
    },
    "2173": {
        "24/03/2020 15:40:55": [],
        "24/03/2020 17:51:21": [],
        "24/03/2020 20:33:13": [],
        "24/03/2020 22:48:47": []
    },
    "2174": {
        "24/03/2020 15:40:55": [],
        "24/03/2020 17:51:21": [],
        "24/03/2020 20:33:14": [],
        "24/03/2020 22:48:47": []
    },
    "2655": {
        "24/03/2020 15:40:56": [],
        "24/03/2020 17:51:22": [],
        "24/03/2020 20:33:14": [],
        "24/03/2020 22:48:48": []
    },
    "2656": {
        "24/03/2020 15:40:56": [],
        "24/03/2020 17:51:22": [],
        "24/03/2020 20:33:14": [],
        "24/03/2020 22:48:48": []
    },
    "2668": {
        "24/03/2020 15:40:57": [],
        "24/03/2020 17:51:23": [],
        "24/03/2020 20:33:15": [],
        "24/03/2020 22:48:49": []
    },
    "5006": {
        "24/03/2020 15:40:57": [],
        "24/03/2020 17:51:23": [],
        "24/03/2020 20:33:15": [],
        "24/03/2020 22:48:50": []
    },
    "5007": {
        "24/03/2020 15:40:57": [],
        "24/03/2020 17:51:24": [],
        "24/03/2020 20:33:16": [],
        "24/03/2020 22:48:50": []
    },
    "5008": {
        "24/03/2020 15:40:58": [],
        "24/03/2020 17:51:24": [],
        "24/03/2020 20:33:16": [],
        "24/03/2020 22:48:51": []
    },
    "3425": {
        "24/03/2020 15:40:58": [],
        "24/03/2020 17:51:25": [],
        "24/03/2020 20:33:17": [],
        "24/03/2020 22:48:51": []
    },
    "4409": {
        "24/03/2020 15:40:59": [],
        "24/03/2020 17:51:25": [],
        "24/03/2020 20:33:17": [],
        "24/03/2020 22:48:52": []
    },
    "4640": {
        "24/03/2020 15:40:59": [],
        "24/03/2020 17:51:26": [],
        "24/03/2020 20:33:18": [],
        "24/03/2020 22:48:52": []
    },
    "2200": {
        "24/03/2020 15:41:00": [],
        "24/03/2020 17:51:26": [],
        "24/03/2020 20:33:18": [],
        "24/03/2020 22:48:53": []
    },
    "2206": {
        "24/03/2020 15:41:00": [],
        "24/03/2020 17:51:27": [],
        "24/03/2020 20:33:19": [],
        "24/03/2020 22:48:54": []
    },
    "2672": {
        "24/03/2020 15:41:01": [],
        "24/03/2020 17:51:27": [],
        "24/03/2020 20:33:19": [],
        "24/03/2020 22:48:54": []
    },
    "2673": {
        "24/03/2020 15:41:01": [],
        "24/03/2020 17:51:27": [],
        "24/03/2020 20:33:19": [],
        "24/03/2020 22:48:54": []
    },
    "2675": {
        "24/03/2020 15:41:02": [],
        "24/03/2020 17:51:28": [],
        "24/03/2020 20:33:20": [],
        "24/03/2020 22:48:55": []
    },
    "4347": {
        "24/03/2020 15:41:02": [],
        "24/03/2020 17:51:28": [],
        "24/03/2020 20:33:20": [],
        "24/03/2020 22:48:55": []
    },
    "4798": {
        "24/03/2020 15:41:03": [],
        "24/03/2020 17:51:29": [],
        "24/03/2020 20:33:21": [],
        "24/03/2020 22:48:56": []
    },
    "2110": {
        "24/03/2020 15:41:03": [],
        "24/03/2020 17:51:29": [],
        "24/03/2020 20:33:21": [],
        "24/03/2020 22:48:57": []
    },
    "2111": {
        "24/03/2020 15:41:04": [],
        "24/03/2020 17:51:30": [],
        "24/03/2020 20:33:22": [],
        "24/03/2020 22:48:57": []
    },
    "2112": {
        "24/03/2020 15:41:04": [],
        "24/03/2020 17:51:30": [],
        "24/03/2020 20:33:22": [],
        "24/03/2020 22:48:58": []
    },
    "2114": {
        "24/03/2020 15:41:05": [],
        "24/03/2020 17:51:31": [],
        "24/03/2020 20:33:23": [],
        "24/03/2020 22:48:58": []
    },
    "2115": {
        "24/03/2020 15:41:05": [],
        "24/03/2020 17:51:31": [],
        "24/03/2020 20:33:23": [],
        "24/03/2020 22:48:59": []
    },
    "2116": {
        "24/03/2020 15:41:06": [],
        "24/03/2020 17:51:32": [],
        "24/03/2020 20:33:24": [],
        "24/03/2020 22:49:00": []
    },
    "2117": {
        "24/03/2020 15:41:06": [],
        "24/03/2020 17:51:32": [],
        "24/03/2020 20:33:24": [],
        "24/03/2020 22:49:00": []
    },
    "2118": {
        "24/03/2020 15:41:07": [],
        "24/03/2020 17:51:33": [],
        "24/03/2020 20:33:25": [],
        "24/03/2020 22:49:01": []
    },
    "2119": {
        "24/03/2020 15:41:07": [],
        "24/03/2020 17:51:33": [],
        "24/03/2020 20:33:25": [],
        "24/03/2020 22:49:01": []
    },
    "2120": {
        "24/03/2020 15:41:08": [],
        "24/03/2020 17:51:34": [],
        "24/03/2020 20:33:26": [],
        "24/03/2020 22:49:02": []
    },
    "2121": {
        "24/03/2020 15:41:08": [],
        "24/03/2020 17:51:34": [],
        "24/03/2020 20:33:26": [],
        "24/03/2020 22:49:02": []
    },
    "2123": {
        "24/03/2020 15:41:09": [],
        "24/03/2020 17:51:35": [],
        "24/03/2020 20:33:27": [],
        "24/03/2020 22:49:02": []
    },
    "2685": {
        "24/03/2020 15:41:09": [],
        "24/03/2020 17:51:35": [],
        "24/03/2020 20:33:27": [],
        "24/03/2020 22:49:03": []
    },
    "2686": {
        "24/03/2020 15:41:10": [],
        "24/03/2020 17:51:36": [],
        "24/03/2020 20:33:28": [],
        "24/03/2020 22:49:03": []
    },
    "2687": {
        "24/03/2020 15:41:10": [],
        "24/03/2020 17:51:36": [],
        "24/03/2020 20:33:28": [],
        "24/03/2020 22:49:04": []
    },
    "2688": {
        "24/03/2020 15:41:11": [],
        "24/03/2020 17:51:37": [],
        "24/03/2020 20:33:29": [],
        "24/03/2020 22:49:04": []
    },
    "2689": {
        "24/03/2020 15:41:11": [],
        "24/03/2020 17:51:37": [],
        "24/03/2020 20:33:29": [],
        "24/03/2020 22:49:05": []
    },
    "2696": {
        "24/03/2020 15:41:12": [],
        "24/03/2020 17:51:38": [],
        "24/03/2020 20:33:30": [],
        "24/03/2020 22:49:05": []
    },
    "2363": {
        "24/03/2020 15:41:12": [],
        "24/03/2020 17:51:38": [],
        "24/03/2020 20:33:30": [],
        "24/03/2020 22:49:05": []
    },
    "2364": {
        "24/03/2020 15:41:12": [],
        "24/03/2020 17:51:39": [],
        "24/03/2020 20:33:30": [],
        "24/03/2020 22:49:06": []
    },
    "2618": {
        "24/03/2020 15:41:13": [],
        "24/03/2020 17:51:39": [],
        "24/03/2020 20:33:31": [],
        "24/03/2020 22:49:06": []
    },
    "2762": {
        "24/03/2020 15:41:13": [],
        "24/03/2020 17:51:40": [],
        "24/03/2020 20:33:31": [],
        "24/03/2020 22:49:07": []
    },
    "2697": {
        "24/03/2020 15:41:14": [],
        "24/03/2020 17:51:40": [],
        "24/03/2020 20:33:32": [],
        "24/03/2020 22:49:07": []
    },
    "4341": {
        "24/03/2020 15:41:14": [],
        "24/03/2020 17:51:41": [],
        "24/03/2020 20:33:32": [],
        "24/03/2020 22:49:08": []
    },
    "4646": {
        "24/03/2020 15:41:15": [],
        "24/03/2020 17:51:41": [],
        "24/03/2020 20:33:33": [],
        "24/03/2020 22:49:08": []
    },
    "4647": {
        "24/03/2020 15:41:15": [],
        "24/03/2020 17:51:42": [],
        "24/03/2020 20:33:33": [],
        "24/03/2020 22:49:09": []
    },
    "5009": {
        "24/03/2020 15:41:16": [],
        "24/03/2020 17:51:42": [],
        "24/03/2020 20:33:34": [],
        "24/03/2020 22:49:09": []
    },
    "5011": {
        "24/03/2020 15:41:16": [],
        "24/03/2020 17:51:43": [],
        "24/03/2020 20:33:34": [],
        "24/03/2020 22:49:10": []
    },
    "2199": {
        "24/03/2020 15:41:17": [],
        "24/03/2020 17:51:43": [],
        "24/03/2020 20:33:35": [],
        "24/03/2020 22:49:10": []
    },
    "2205": {
        "24/03/2020 15:41:17": [],
        "24/03/2020 17:51:44": [],
        "24/03/2020 20:33:35": [],
        "24/03/2020 22:49:11": []
    },
    "4348": {
        "24/03/2020 15:41:18": [],
        "24/03/2020 17:51:44": [],
        "24/03/2020 20:33:36": [],
        "24/03/2020 22:49:11": []
    },
    "4795": {
        "24/03/2020 15:41:18": [],
        "24/03/2020 17:51:45": [],
        "24/03/2020 20:33:36": [],
        "24/03/2020 22:49:11": []
    },
    "4799": {
        "24/03/2020 15:41:18": [],
        "24/03/2020 17:51:45": [],
        "24/03/2020 20:33:36": [],
        "24/03/2020 22:49:12": []
    },
    "4414": {
        "24/03/2020 15:41:19": [],
        "24/03/2020 17:51:45": [],
        "24/03/2020 20:33:37": [],
        "24/03/2020 22:49:12": []
    },
    "7510": {
        "24/03/2020 15:41:19": [],
        "24/03/2020 17:51:46": [],
        "24/03/2020 20:33:37": [],
        "24/03/2020 22:49:13": []
    }
}