{
    "4795": {
        "26/03/2020 13:06:07": [
            0,
            0
        ],
        "26/03/2020 15:29:00": [
            0,
            0
        ],
        "26/03/2020 18:09:08": [
            0,
            0
        ]
    },
    "2686": {
        "26/03/2020 13:06:08": [
            22,
            22
        ],
        "26/03/2020 15:29:01": [
            -29,
            -29
        ],
        "26/03/2020 18:09:08": [
            -2,
            10
        ]
    },
    "7510": {
        "26/03/2020 13:06:08": [
            -9,
            -9
        ],
        "26/03/2020 15:29:01": [
            3,
            3
        ],
        "26/03/2020 18:09:09": [
            19,
            -25
        ]
    },
    "2207": {
        "26/03/2020 13:06:09": [
            -16,
            -16
        ],
        "26/03/2020 15:29:02": [
            2,
            2
        ],
        "26/03/2020 18:09:09": [
            -3,
            21
        ]
    },
    "2208": {
        "26/03/2020 13:06:09": [
            24,
            24
        ],
        "26/03/2020 15:29:02": [
            -14,
            -14
        ],
        "26/03/2020 18:09:09": [
            25,
            -5
        ]
    },
    "2204": {
        "26/03/2020 13:06:10": [
            113,
            27
        ],
        "26/03/2020 15:29:03": [
            228,
            25
        ],
        "26/03/2020 18:09:10": [
            25,
            -29
        ]
    },
    "4888": {
        "26/03/2020 13:06:10": [
            83,
            -3
        ],
        "26/03/2020 15:29:03": [
            269,
            0
        ],
        "26/03/2020 18:09:10": [
            47,
            3
        ]
    },
    "4798": {
        "26/03/2020 13:06:11": [
            115,
            29
        ],
        "26/03/2020 15:29:04": [
            253,
            -24
        ],
        "26/03/2020 18:09:11": [
            78,
            -23
        ]
    },
    "4715": {
        "26/03/2020 13:06:11": [],
        "26/03/2020 15:29:04": [],
        "26/03/2020 18:09:11": []
    },
    "1444": {
        "26/03/2020 13:06:12": [
            5,
            5
        ],
        "26/03/2020 15:29:05": [
            213,
            -15,
            -15
        ],
        "26/03/2020 18:09:12": [
            26,
            23
        ]
    },
    "1445": {
        "26/03/2020 13:06:12": [
            -10,
            -10
        ],
        "26/03/2020 15:29:05": [
            202,
            29,
            29
        ],
        "26/03/2020 18:09:13": [
            18,
            1
        ]
    },
    "1449": {
        "26/03/2020 13:06:13": [
            -9,
            -9
        ],
        "26/03/2020 15:29:06": [
            190,
            4
        ],
        "26/03/2020 18:09:13": [
            -15,
            -5
        ]
    },
    "1450": {
        "26/03/2020 13:06:13": [
            26,
            26
        ],
        "26/03/2020 15:29:06": [
            225,
            -15
        ],
        "26/03/2020 18:09:13": [
            25,
            29
        ]
    },
    "1451": {
        "26/03/2020 13:06:14": [
            -4,
            -4
        ],
        "26/03/2020 15:29:07": [
            197,
            21
        ],
        "26/03/2020 18:09:14": [
            -1,
            -2
        ]
    },
    "2191": {
        "26/03/2020 13:06:14": [
            -20,
            -20
        ],
        "26/03/2020 15:29:08": [
            182,
            13
        ],
        "26/03/2020 18:09:14": [
            -11,
            -20
        ]
    },
    "2192": {
        "26/03/2020 13:06:15": [
            6,
            6
        ],
        "26/03/2020 15:29:08": [
            210,
            -19
        ],
        "26/03/2020 18:09:15": [
            10,
            3
        ]
    },
    "2193": {
        "26/03/2020 13:06:15": [
            -22,
            -22
        ],
        "26/03/2020 15:29:09": [
            182,
            15
        ],
        "26/03/2020 18:09:15": [
            -25,
            -26
        ]
    },
    "2194": {
        "26/03/2020 13:06:16": [
            -2,
            -2
        ],
        "26/03/2020 15:29:09": [
            202,
            -21
        ],
        "26/03/2020 18:09:16": [
            -6,
            -4
        ]
    },
    "2195": {
        "26/03/2020 13:06:16": [
            -24,
            -24
        ],
        "26/03/2020 15:29:09": [
            181,
            23
        ],
        "26/03/2020 18:09:16": [
            -29,
            -22
        ]
    },
    "2196": {
        "26/03/2020 13:06:17": [
            14,
            14
        ],
        "26/03/2020 15:29:10": [
            223,
            -1
        ],
        "26/03/2020 18:09:17": [
            11,
            9
        ]
    },
    "2200": {
        "26/03/2020 13:06:17": [
            145,
            23
        ],
        "26/03/2020 15:29:11": [
            183,
            -1
        ],
        "26/03/2020 18:09:17": [
            24,
            -7
        ]
    },
    "2201": {
        "26/03/2020 13:06:18": [
            57,
            -29
        ],
        "26/03/2020 15:29:11": [
            272,
            13
        ],
        "26/03/2020 18:09:18": [
            39,
            -25,
            2
        ]
    },
    "2202": {
        "26/03/2020 13:06:18": [
            74,
            -12
        ],
        "26/03/2020 15:29:11": [
            244,
            -26
        ],
        "26/03/2020 18:09:18": [
            52,
            -8,
            15
        ]
    },
    "2203": {
        "26/03/2020 13:06:19": [
            108,
            22
        ],
        "26/03/2020 15:29:12": [
            280,
            13
        ],
        "26/03/2020 18:09:19": [
            22,
            27,
            -17
        ]
    },
    "312": {
        "26/03/2020 13:06:19": [
            -7,
            -7
        ],
        "26/03/2020 15:29:12": [
            284,
            -24,
            -24
        ],
        "26/03/2020 18:09:19": [
            4,
            23
        ]
    },
    "346": {
        "26/03/2020 13:06:20": [
            20,
            20
        ],
        "26/03/2020 15:29:13": [
            -2,
            -2
        ],
        "26/03/2020 18:09:20": [
            15,
            5
        ]
    },
    "400": {
        "26/03/2020 13:06:20": [
            28,
            28
        ],
        "26/03/2020 15:29:13": [
            17,
            17
        ],
        "26/03/2020 18:09:20": [
            15,
            23
        ]
    },
    "4401": {
        "26/03/2020 13:06:21": [
            113,
            27
        ],
        "26/03/2020 15:29:14": [
            282,
            11
        ],
        "26/03/2020 18:09:21": [
            35,
            -28,
            -2
        ]
    },
    "493": {
        "26/03/2020 13:06:21": [
            -26,
            -26
        ],
        "26/03/2020 15:29:14": [
            14,
            14
        ],
        "26/03/2020 18:09:21": [
            -12,
            16
        ]
    },
    "494": {
        "26/03/2020 13:06:22": [
            -12,
            -12
        ],
        "26/03/2020 15:29:15": [
            11,
            11
        ],
        "26/03/2020 18:09:22": [
            12,
            14
        ]
    },
    "2197": {
        "26/03/2020 13:06:23": [
            107,
            3
        ],
        "26/03/2020 15:29:15": [
            216,
            -16
        ],
        "26/03/2020 18:09:22": [
            1,
            -12
        ]
    },
    "2198": {
        "26/03/2020 13:06:23": [
            117,
            -5
        ],
        "26/03/2020 15:29:16": [
            213,
            -27
        ],
        "26/03/2020 18:09:23": [
            -5,
            -30
        ]
    },
    "317": {
        "26/03/2020 13:06:24": [
            28,
            28
        ],
        "26/03/2020 15:29:16": [
            27,
            27
        ],
        "26/03/2020 18:09:23": [
            6,
            8
        ]
    },
    "7239": {
        "26/03/2020 13:06:24": [
            90,
            4
        ],
        "26/03/2020 15:29:17": [
            253,
            -13
        ],
        "26/03/2020 18:09:23": [
            72,
            8,
            -26
        ]
    },
    "7078": {
        "26/03/2020 13:06:25": [
            8,
            8
        ],
        "26/03/2020 15:29:17": [
            204,
            12
        ],
        "26/03/2020 18:09:24": [
            -5,
            13
        ]
    },
    "495": {
        "26/03/2020 13:06:25": [
            16,
            16
        ],
        "26/03/2020 15:29:18": [
            21,
            21
        ],
        "26/03/2020 18:09:24": [
            -7,
            26
        ]
    },
    "7391": {
        "26/03/2020 13:06:26": [
            0,
            0
        ],
        "26/03/2020 15:29:19": [
            0,
            0
        ],
        "26/03/2020 18:09:25": [
            0,
            0
        ]
    },
    "1472": {
        "26/03/2020 13:06:26": [
            -21,
            -21
        ],
        "26/03/2020 15:29:19": [
            107,
            -20,
            -20
        ],
        "26/03/2020 18:09:25": [
            -22,
            0
        ]
    },
    "1473": {
        "26/03/2020 13:06:27": [
            -20,
            -20
        ],
        "26/03/2020 15:29:20": [
            121,
            -19,
            -19
        ],
        "26/03/2020 18:09:26": [
            -30,
            -6
        ]
    },
    "1474": {
        "26/03/2020 13:06:27": [
            29,
            29
        ],
        "26/03/2020 15:29:20": [
            138,
            -30,
            -30
        ],
        "26/03/2020 18:09:26": [
            13,
            -23
        ]
    },
    "2241": {
        "26/03/2020 13:06:28": [
            26,
            26
        ],
        "26/03/2020 15:29:21": [
            2,
            2
        ],
        "26/03/2020 18:09:27": [
            -17,
            18
        ]
    },
    "2242": {
        "26/03/2020 13:06:28": [
            -5,
            -5
        ],
        "26/03/2020 15:29:21": [
            -26,
            -26
        ],
        "26/03/2020 18:09:27": [
            4,
            -13
        ]
    },
    "2243": {
        "26/03/2020 13:06:29": [
            7,
            7
        ],
        "26/03/2020 15:29:22": [
            -6,
            -6
        ],
        "26/03/2020 18:09:28": [
            -3,
            -1
        ]
    },
    "2244": {
        "26/03/2020 13:06:29": [
            -21,
            -21
        ],
        "26/03/2020 15:29:22": [],
        "26/03/2020 18:09:28": [
            19,
            -29
        ]
    },
    "2245": {
        "26/03/2020 13:06:30": [
            4,
            4
        ],
        "26/03/2020 15:29:23": [
            -3,
            -3
        ],
        "26/03/2020 18:09:29": [
            -22,
            -4
        ]
    },
    "2246": {
        "26/03/2020 13:06:30": [
            11,
            11
        ],
        "26/03/2020 15:29:23": [
            -1,
            -1
        ],
        "26/03/2020 18:09:29": [
            22,
            -14
        ]
    },
    "2247": {
        "26/03/2020 13:06:31": [
            3,
            3
        ],
        "26/03/2020 15:29:24": [
            3,
            3
        ],
        "26/03/2020 18:09:30": [
            12,
            -29
        ]
    },
    "2248": {
        "26/03/2020 13:06:31": [
            -25,
            -25
        ],
        "26/03/2020 15:29:24": [
            -24,
            -24
        ],
        "26/03/2020 18:09:30": [
            -16,
            4
        ]
    },
    "2249": {
        "26/03/2020 13:06:32": [
            0,
            0
        ],
        "26/03/2020 15:29:25": [
            112,
            1,
            1
        ],
        "26/03/2020 18:09:31": [
            9,
            29
        ]
    },
    "2250": {
        "26/03/2020 13:06:33": [
            24,
            24
        ],
        "26/03/2020 15:29:26": [
            136,
            25,
            25
        ],
        "26/03/2020 18:09:31": [
            -27,
            -7
        ]
    },
    "2251": {
        "26/03/2020 13:06:33": [
            -1,
            -1
        ],
        "26/03/2020 15:29:27": [
            118,
            0,
            0
        ],
        "26/03/2020 18:09:32": [
            3,
            24
        ]
    },
    "4408": {
        "26/03/2020 13:06:33": [
            18,
            18
        ],
        "26/03/2020 15:29:27": [
            154,
            19,
            19
        ],
        "26/03/2020 18:09:32": [
            11,
            -26
        ]
    },
    "2210": {
        "26/03/2020 13:06:34": [
            -7,
            -7
        ],
        "26/03/2020 15:29:28": [
            18,
            18
        ],
        "26/03/2020 18:09:33": [
            -14,
            20
        ]
    },
    "2211": {
        "26/03/2020 13:06:34": [
            12,
            12
        ],
        "26/03/2020 15:29:29": [
            13,
            13
        ],
        "26/03/2020 18:09:33": [
            17,
            21
        ]
    },
    "315": {
        "26/03/2020 13:06:35": [
            273,
            11
        ],
        "26/03/2020 15:29:29": [
            159,
            -8
        ],
        "26/03/2020 18:09:34": [
            9,
            24
        ]
    },
    "347": {
        "26/03/2020 13:06:36": [],
        "26/03/2020 15:29:30": [],
        "26/03/2020 18:09:34": []
    },
    "7453": {
        "26/03/2020 13:06:36": [
            309,
            -8,
            -8
        ],
        "26/03/2020 15:29:31": [
            159,
            -5
        ],
        "26/03/2020 18:09:35": [
            5,
            -25
        ]
    },
    "1476": {
        "26/03/2020 13:06:37": [
            -28,
            -28
        ],
        "26/03/2020 15:29:31": [
            154,
            -27,
            -27
        ],
        "26/03/2020 18:09:35": [
            7,
            -27
        ]
    },
    "1478": {
        "26/03/2020 13:06:37": [
            245,
            -1,
            -1
        ],
        "26/03/2020 15:29:32": [
            154,
            4
        ],
        "26/03/2020 18:09:36": [
            -7,
            28
        ]
    },
    "1479": {
        "26/03/2020 13:06:38": [
            231,
            -15,
            -15
        ],
        "26/03/2020 15:29:32": [
            132,
            -8
        ],
        "26/03/2020 18:09:36": [
            27,
            4
        ]
    },
    "2810": {
        "26/03/2020 13:06:38": [
            276,
            14
        ],
        "26/03/2020 15:29:33": [
            102,
            -5
        ],
        "26/03/2020 18:09:37": [
            505,
            -1
        ]
    },
    "406": {
        "26/03/2020 13:06:39": [
            290,
            28
        ],
        "26/03/2020 15:29:33": [
            116,
            9
        ],
        "26/03/2020 18:09:37": [
            523,
            17
        ]
    },
    "7387": {
        "26/03/2020 13:06:39": [],
        "26/03/2020 15:29:34": [],
        "26/03/2020 18:09:38": []
    }
}