{
    "4187": {
        "22/03/2020 14:37:03": [],
        "22/03/2020 17:01:48": [],
        "22/03/2020 19:20:50": []
    },
    "4188": {
        "22/03/2020 14:37:04": [],
        "22/03/2020 17:01:48": [],
        "22/03/2020 19:20:50": []
    },
    "4189": {
        "22/03/2020 14:37:04": [],
        "22/03/2020 17:01:49": [],
        "22/03/2020 19:20:51": []
    },
    "4190": {
        "22/03/2020 14:37:05": [],
        "22/03/2020 17:01:49": [],
        "22/03/2020 19:20:51": []
    },
    "6139": {
        "22/03/2020 14:37:05": [],
        "22/03/2020 17:01:50": [],
        "22/03/2020 19:20:52": []
    },
    "4097": {
        "22/03/2020 14:37:06": [],
        "22/03/2020 17:01:50": [],
        "22/03/2020 19:20:52": []
    },
    "4103": {
        "22/03/2020 14:37:06": [],
        "22/03/2020 17:01:51": [],
        "22/03/2020 19:20:53": []
    },
    "4104": {
        "22/03/2020 14:37:06": [],
        "22/03/2020 17:01:51": [],
        "22/03/2020 19:20:53": []
    },
    "4105": {
        "22/03/2020 14:37:07": [],
        "22/03/2020 17:01:52": [],
        "22/03/2020 19:20:54": []
    },
    "4106": {
        "22/03/2020 14:37:07": [],
        "22/03/2020 17:01:52": [],
        "22/03/2020 19:20:54": []
    },
    "4184": {
        "22/03/2020 14:37:08": [],
        "22/03/2020 17:01:53": [],
        "22/03/2020 19:20:55": []
    },
    "4185": {
        "22/03/2020 14:37:08": [],
        "22/03/2020 17:01:53": [],
        "22/03/2020 19:20:55": []
    },
    "4186": {
        "22/03/2020 14:37:09": [],
        "22/03/2020 17:01:54": [],
        "22/03/2020 19:20:56": []
    },
    "4153": {
        "22/03/2020 14:37:09": [],
        "22/03/2020 17:01:54": [],
        "22/03/2020 19:20:56": []
    },
    "4154": {
        "22/03/2020 14:37:10": [],
        "22/03/2020 17:01:55": [],
        "22/03/2020 19:20:57": []
    },
    "4170": {
        "22/03/2020 14:37:10": [],
        "22/03/2020 17:01:55": [],
        "22/03/2020 19:20:57": []
    },
    "4584": {
        "22/03/2020 14:37:11": [],
        "22/03/2020 17:01:56": [],
        "22/03/2020 19:20:58": []
    },
    "4416": {
        "22/03/2020 14:37:11": [],
        "22/03/2020 17:01:56": [],
        "22/03/2020 19:20:58": []
    },
    "4417": {
        "22/03/2020 14:37:12": [],
        "22/03/2020 17:01:57": [],
        "22/03/2020 19:20:58": []
    },
    "4419": {
        "22/03/2020 14:37:12": [],
        "22/03/2020 17:01:57": [],
        "22/03/2020 19:20:59": []
    },
    "4095": {
        "22/03/2020 14:37:13": [],
        "22/03/2020 17:01:58": [],
        "22/03/2020 19:20:59": []
    },
    "4108": {
        "22/03/2020 14:37:13": [],
        "22/03/2020 17:01:58": [],
        "22/03/2020 19:21:00": []
    },
    "4109": {
        "22/03/2020 14:37:14": [],
        "22/03/2020 17:01:59": [],
        "22/03/2020 19:21:00": []
    },
    "4110": {
        "22/03/2020 14:37:14": [],
        "22/03/2020 17:01:59": [],
        "22/03/2020 19:21:01": []
    },
    "4111": {
        "22/03/2020 14:37:14": [],
        "22/03/2020 17:01:59": [],
        "22/03/2020 19:21:01": []
    },
    "4112": {
        "22/03/2020 14:37:15": [],
        "22/03/2020 17:02:00": [],
        "22/03/2020 19:21:01": []
    },
    "4113": {
        "22/03/2020 14:37:15": [],
        "22/03/2020 17:02:00": [],
        "22/03/2020 19:21:02": []
    },
    "4192": {
        "22/03/2020 14:37:16": [],
        "22/03/2020 17:02:01": [],
        "22/03/2020 19:21:02": []
    },
    "4194": {
        "22/03/2020 14:37:16": [],
        "22/03/2020 17:02:01": [],
        "22/03/2020 19:21:03": []
    },
    "7295": {
        "22/03/2020 14:37:17": [],
        "22/03/2020 17:02:02": [],
        "22/03/2020 19:21:03": []
    },
    "4183": {
        "22/03/2020 14:37:17": [],
        "22/03/2020 17:02:02": [],
        "22/03/2020 19:21:04": []
    },
    "4196": {
        "22/03/2020 14:37:18": [],
        "22/03/2020 17:02:03": [],
        "22/03/2020 19:21:04": []
    },
    "4199": {
        "22/03/2020 14:37:18": [],
        "22/03/2020 17:02:03": [],
        "22/03/2020 19:21:04": []
    },
    "4422": {
        "22/03/2020 14:37:18": [],
        "22/03/2020 17:02:04": [],
        "22/03/2020 19:21:05": []
    },
    "7369": {
        "22/03/2020 14:37:19": [],
        "22/03/2020 17:02:04": [],
        "22/03/2020 19:21:05": []
    },
    "7294": {
        "22/03/2020 14:37:19": [],
        "22/03/2020 17:02:04": [],
        "22/03/2020 19:21:06": []
    },
    "2113": {
        "22/03/2020 14:37:20": [],
        "22/03/2020 17:02:05": [],
        "22/03/2020 19:21:06": []
    },
    "4131": {
        "22/03/2020 14:37:20": [],
        "22/03/2020 17:02:05": [],
        "22/03/2020 19:21:07": []
    },
    "4156": {
        "22/03/2020 14:37:21": [],
        "22/03/2020 17:02:06": [],
        "22/03/2020 19:21:07": []
    },
    "4167": {
        "22/03/2020 14:37:21": [],
        "22/03/2020 17:02:06": [],
        "22/03/2020 19:21:08": []
    },
    "4420": {
        "22/03/2020 14:37:21": [],
        "22/03/2020 17:02:07": [],
        "22/03/2020 19:21:08": []
    },
    "4421": {
        "22/03/2020 14:37:22": [],
        "22/03/2020 17:02:07": [],
        "22/03/2020 19:21:08": []
    }
}