{
    "6290": {
        "21/03/2020 13:53:30": [],
        "21/03/2020 13:53:45": [],
        "21/03/2020 16:48:08": [],
        "21/03/2020 19:15:41": [],
        "21/03/2020 21:17:32": []
    },
    "7120": {
        "21/03/2020 13:53:30": [],
        "21/03/2020 13:53:46": [],
        "21/03/2020 16:48:09": [],
        "21/03/2020 19:15:43": [],
        "21/03/2020 21:17:33": []
    },
    "7119": {
        "21/03/2020 13:53:31": [],
        "21/03/2020 13:53:45": [],
        "21/03/2020 16:48:08": [],
        "21/03/2020 19:15:42": [],
        "21/03/2020 21:17:33": []
    },
    "7127": {
        "21/03/2020 13:53:31": [],
        "21/03/2020 13:53:46": [],
        "21/03/2020 16:48:09": [],
        "21/03/2020 19:15:43": [],
        "21/03/2020 21:17:34": []
    },
    "7143": {
        "21/03/2020 13:53:31": [],
        "21/03/2020 13:53:42": [],
        "21/03/2020 16:48:04": [],
        "21/03/2020 19:15:36": [],
        "21/03/2020 21:17:28": []
    },
    "7168": {
        "21/03/2020 13:53:32": [],
        "21/03/2020 13:53:42": [],
        "21/03/2020 16:48:05": [],
        "21/03/2020 19:15:36": [],
        "21/03/2020 21:17:28": []
    },
    "4616": {
        "21/03/2020 13:53:33": [],
        "21/03/2020 13:53:44": [],
        "21/03/2020 16:48:07": [],
        "21/03/2020 19:15:41": [],
        "21/03/2020 21:17:32": []
    },
    "2227": {
        "21/03/2020 13:53:33": [],
        "21/03/2020 13:53:42": [],
        "21/03/2020 16:48:05": [],
        "21/03/2020 19:15:37": [],
        "21/03/2020 21:17:29": []
    },
    "7049": {
        "21/03/2020 13:53:34": [],
        "21/03/2020 13:53:45": [],
        "21/03/2020 16:48:08": [],
        "21/03/2020 19:15:42": [],
        "21/03/2020 21:17:33": []
    },
    "2236": {
        "21/03/2020 13:53:34": [],
        "21/03/2020 13:53:43": [],
        "21/03/2020 16:48:05": [],
        "21/03/2020 19:15:38": [],
        "21/03/2020 21:17:29": []
    },
    "2238": {
        "21/03/2020 13:53:34": [],
        "21/03/2020 13:53:39": [],
        "21/03/2020 16:48:02": [],
        "21/03/2020 19:15:32": [],
        "21/03/2020 21:17:24": []
    },
    "5056": {
        "21/03/2020 13:53:35": [],
        "21/03/2020 13:53:42": [],
        "21/03/2020 16:48:04": [],
        "21/03/2020 19:15:35": [],
        "21/03/2020 21:17:27": []
    },
    "2239": {
        "21/03/2020 13:53:35": [],
        "21/03/2020 13:53:40": [],
        "21/03/2020 16:48:02": [],
        "21/03/2020 19:15:33": [],
        "21/03/2020 21:17:25": []
    },
    "2241": {
        "21/03/2020 13:53:35": [],
        "21/03/2020 13:53:40": [],
        "21/03/2020 16:48:03": [],
        "21/03/2020 19:15:33": [],
        "21/03/2020 21:17:25": []
    },
    "2242": {
        "21/03/2020 13:53:35": [],
        "21/03/2020 13:53:40": [],
        "21/03/2020 16:48:03": [],
        "21/03/2020 19:15:33": [],
        "21/03/2020 21:17:26": []
    },
    "7435": {
        "21/03/2020 13:53:36": [],
        "21/03/2020 13:53:47": [],
        "21/03/2020 16:48:10": [],
        "21/03/2020 19:15:45": [],
        "21/03/2020 21:17:36": []
    },
    "2722": {
        "21/03/2020 13:53:36": [],
        "21/03/2020 13:53:43": [],
        "21/03/2020 16:48:06": [],
        "21/03/2020 19:15:38": [],
        "21/03/2020 21:17:30": []
    },
    "4413": {
        "21/03/2020 13:53:36": [],
        "21/03/2020 13:53:44": [],
        "21/03/2020 16:48:07": [],
        "21/03/2020 19:15:40": [],
        "21/03/2020 21:17:31": []
    },
    "1476": {
        "21/03/2020 13:53:37": [],
        "21/03/2020 13:53:47": [],
        "21/03/2020 16:48:10": [],
        "21/03/2020 19:15:44": [],
        "21/03/2020 21:17:35": []
    },
    "7453": {
        "21/03/2020 13:53:37": [],
        "21/03/2020 13:53:46": [],
        "21/03/2020 16:48:09": [],
        "21/03/2020 19:15:43": [],
        "21/03/2020 21:17:34": []
    },
    "1478": {
        "21/03/2020 13:53:37": [],
        "21/03/2020 13:53:43": [],
        "21/03/2020 16:48:06": [],
        "21/03/2020 19:15:39": [],
        "21/03/2020 21:17:30": []
    },
    "1479": {
        "21/03/2020 13:53:37": [],
        "21/03/2020 13:53:43": [],
        "21/03/2020 16:48:06": [],
        "21/03/2020 19:15:40": [],
        "21/03/2020 21:17:30": []
    },
    "315": {
        "21/03/2020 13:53:38": [],
        "21/03/2020 13:53:41": [],
        "21/03/2020 16:48:03": [],
        "21/03/2020 19:15:34": [],
        "21/03/2020 21:17:26": []
    },
    "406": {
        "21/03/2020 13:53:38": [],
        "21/03/2020 13:53:41": [],
        "21/03/2020 16:48:04": [],
        "21/03/2020 19:15:34": [],
        "21/03/2020 21:17:27": []
    },
    "4530": {
        "21/03/2020 13:53:38": [],
        "21/03/2020 13:53:41": [],
        "21/03/2020 16:48:04": [],
        "21/03/2020 19:15:35": [],
        "21/03/2020 21:17:27": []
    },
    "748": {
        "21/03/2020 13:53:39": [],
        "21/03/2020 13:53:46": [],
        "21/03/2020 16:48:09": [],
        "21/03/2020 19:15:44": [],
        "21/03/2020 21:17:35": []
    },
    "7390": {
        "21/03/2020 13:53:39": [],
        "21/03/2020 13:53:47": [],
        "21/03/2020 16:48:10": [],
        "21/03/2020 19:15:45": [],
        "21/03/2020 21:17:36": []
    },
    "2237": {
        "21/03/2020 13:53:39": [],
        "21/03/2020 16:48:02": [],
        "21/03/2020 19:15:32": [],
        "21/03/2020 21:17:24": []
    },
    "347": {
        "21/03/2020 13:53:44": [],
        "21/03/2020 16:48:07": [],
        "21/03/2020 19:15:40": [],
        "21/03/2020 21:17:31": []
    },
    "7391": {
        "21/03/2020 13:53:48": [],
        "21/03/2020 16:48:11": [],
        "21/03/2020 19:15:46": [],
        "21/03/2020 21:17:36": []
    },
    "493": {
        "21/03/2020 13:53:48": [],
        "21/03/2020 16:48:11": [],
        "21/03/2020 19:15:46": [],
        "21/03/2020 21:17:37": []
    },
    "494": {
        "21/03/2020 13:53:48": [],
        "21/03/2020 16:48:11": [],
        "21/03/2020 19:15:47": [],
        "21/03/2020 21:17:37": []
    },
    "495": {
        "21/03/2020 13:53:48": [],
        "21/03/2020 16:48:11": [],
        "21/03/2020 19:15:47": [],
        "21/03/2020 21:17:37": []
    },
    "400": {
        "21/03/2020 13:53:49": [],
        "21/03/2020 16:48:12": [],
        "21/03/2020 19:15:48": [],
        "21/03/2020 21:17:38": []
    },
    "7392": {
        "21/03/2020 13:53:49": [],
        "21/03/2020 16:48:12": [],
        "21/03/2020 19:15:48": [],
        "21/03/2020 21:17:38": []
    },
    "312": {
        "21/03/2020 13:53:49": [],
        "21/03/2020 16:48:12": [],
        "21/03/2020 19:15:49": [],
        "21/03/2020 21:17:39": []
    },
    "1444": {
        "21/03/2020 13:53:49": [],
        "21/03/2020 16:48:13": [],
        "21/03/2020 19:15:49": [],
        "21/03/2020 21:17:39": []
    },
    "1445": {
        "21/03/2020 13:53:50": [],
        "21/03/2020 16:48:13": [],
        "21/03/2020 19:15:50": [],
        "21/03/2020 21:17:40": []
    },
    "4407": {
        "21/03/2020 13:53:50": [],
        "21/03/2020 16:48:13": [],
        "21/03/2020 19:15:50": [],
        "21/03/2020 21:17:40": []
    },
    "2637": {
        "21/03/2020 13:53:50": [],
        "21/03/2020 16:48:13": [],
        "21/03/2020 19:15:51": [],
        "21/03/2020 21:17:40": []
    },
    "2721": {
        "21/03/2020 13:53:51": [],
        "21/03/2020 16:48:14": [],
        "21/03/2020 19:15:51": [],
        "21/03/2020 21:17:41": []
    },
    "7012": {
        "21/03/2020 13:53:51": [],
        "21/03/2020 16:48:14": [],
        "21/03/2020 19:15:52": [],
        "21/03/2020 21:17:41": []
    },
    "2201": {
        "21/03/2020 13:53:51": [],
        "21/03/2020 16:48:14": [],
        "21/03/2020 19:15:52": [],
        "21/03/2020 21:17:42": []
    },
    "7239": {
        "21/03/2020 13:53:51": [],
        "21/03/2020 16:48:15": [],
        "21/03/2020 19:15:52": [],
        "21/03/2020 21:17:42": []
    },
    "4401": {
        "21/03/2020 13:53:52": [],
        "21/03/2020 16:48:15": [],
        "21/03/2020 19:15:53": [],
        "21/03/2020 21:17:43": []
    },
    "2213": {
        "21/03/2020 13:53:52": [],
        "21/03/2020 16:48:15": [],
        "21/03/2020 19:15:53": [],
        "21/03/2020 21:17:43": []
    },
    "2214": {
        "21/03/2020 13:53:52": [],
        "21/03/2020 16:48:15": [],
        "21/03/2020 19:15:54": [],
        "21/03/2020 21:17:43": []
    },
    "2215": {
        "21/03/2020 13:53:53": [],
        "21/03/2020 16:48:16": [],
        "21/03/2020 19:15:54": [],
        "21/03/2020 21:17:44": []
    },
    "2216": {
        "21/03/2020 13:53:53": [],
        "21/03/2020 16:48:16": [],
        "21/03/2020 19:15:55": [],
        "21/03/2020 21:17:44": []
    },
    "4599": {
        "21/03/2020 13:53:53": [],
        "21/03/2020 16:48:16": [],
        "21/03/2020 19:15:55": [],
        "21/03/2020 21:17:45": []
    },
    "7184": {
        "21/03/2020 13:53:54": [],
        "21/03/2020 16:48:17": [],
        "21/03/2020 19:15:56": [],
        "21/03/2020 21:17:45": []
    },
    "2225": {
        "21/03/2020 13:53:54": [],
        "21/03/2020 16:48:17": [],
        "21/03/2020 19:15:56": [],
        "21/03/2020 21:17:46": []
    },
    "4620": {
        "21/03/2020 13:53:54": [],
        "21/03/2020 16:48:17": [],
        "21/03/2020 19:15:56": [],
        "21/03/2020 21:17:46": []
    },
    "7563": {
        "21/03/2020 13:53:54": [],
        "21/03/2020 16:48:17": [],
        "21/03/2020 19:15:57": [],
        "21/03/2020 21:17:46": []
    },
    "7231": {
        "21/03/2020 13:53:55": [],
        "21/03/2020 16:48:18": [],
        "21/03/2020 19:15:57": [],
        "21/03/2020 21:17:47": []
    },
    "7128": {
        "21/03/2020 13:53:55": [],
        "21/03/2020 16:48:18": [],
        "21/03/2020 19:15:58": [],
        "21/03/2020 21:17:47": []
    },
    "7117": {
        "21/03/2020 13:53:55": [],
        "21/03/2020 16:48:18": [],
        "21/03/2020 19:15:58": [],
        "21/03/2020 21:17:48": []
    },
    "7118": {
        "21/03/2020 13:53:55": [],
        "21/03/2020 16:48:19": [],
        "21/03/2020 19:15:59": [],
        "21/03/2020 21:17:48": []
    },
    "6289": {
        "21/03/2020 13:53:56": [],
        "21/03/2020 16:48:19": [],
        "21/03/2020 19:15:59": [],
        "21/03/2020 21:17:48": []
    }
}