{
    "2237": {
        "22/03/2020 14:41:44": [],
        "22/03/2020 17:08:19": [],
        "22/03/2020 19:27:15": []
    },
    "2238": {
        "22/03/2020 14:41:45": [],
        "22/03/2020 17:08:19": [],
        "22/03/2020 19:27:15": []
    },
    "2239": {
        "22/03/2020 14:41:45": [],
        "22/03/2020 17:08:20": [],
        "22/03/2020 19:27:15": []
    },
    "2241": {
        "22/03/2020 14:41:45": [],
        "22/03/2020 17:08:20": [],
        "22/03/2020 19:27:16": []
    },
    "2242": {
        "22/03/2020 14:41:46": [],
        "22/03/2020 17:08:21": [],
        "22/03/2020 19:27:16": []
    },
    "315": {
        "22/03/2020 14:41:46": [],
        "22/03/2020 17:08:21": [],
        "22/03/2020 19:27:17": []
    },
    "406": {
        "22/03/2020 14:41:47": [],
        "22/03/2020 17:08:22": [],
        "22/03/2020 19:27:17": []
    },
    "4530": {
        "22/03/2020 14:41:47": [],
        "22/03/2020 17:08:22": [],
        "22/03/2020 19:27:17": []
    },
    "5056": {
        "22/03/2020 14:41:48": [],
        "22/03/2020 17:08:23": [],
        "22/03/2020 19:27:18": []
    },
    "7143": {
        "22/03/2020 14:41:48": [],
        "22/03/2020 17:08:23": [],
        "22/03/2020 19:27:18": []
    },
    "7168": {
        "22/03/2020 14:41:49": [],
        "22/03/2020 17:08:23": [],
        "22/03/2020 19:27:19": []
    },
    "2227": {
        "22/03/2020 14:41:49": [],
        "22/03/2020 17:08:24": [],
        "22/03/2020 19:27:19": []
    },
    "2236": {
        "22/03/2020 14:41:50": [],
        "22/03/2020 17:08:24": [],
        "22/03/2020 19:27:20": []
    },
    "2722": {
        "22/03/2020 14:41:50": [],
        "22/03/2020 17:08:25": [],
        "22/03/2020 19:27:20": []
    },
    "1478": {
        "22/03/2020 14:41:51": [],
        "22/03/2020 17:08:26": [],
        "22/03/2020 19:27:20": []
    },
    "1479": {
        "22/03/2020 14:41:51": [],
        "22/03/2020 17:08:26": [],
        "22/03/2020 19:27:21": []
    },
    "347": {
        "22/03/2020 14:41:52": [],
        "22/03/2020 17:08:27": [],
        "22/03/2020 19:27:21": []
    },
    "4413": {
        "22/03/2020 14:41:52": [],
        "22/03/2020 17:08:27": [],
        "22/03/2020 19:27:22": []
    },
    "4616": {
        "22/03/2020 14:41:53": [],
        "22/03/2020 17:08:28": [],
        "22/03/2020 19:27:22": []
    },
    "6290": {
        "22/03/2020 14:41:53": [],
        "22/03/2020 17:08:28": [],
        "22/03/2020 19:27:23": []
    },
    "7049": {
        "22/03/2020 14:41:53": [],
        "22/03/2020 17:08:28": [],
        "22/03/2020 19:27:23": []
    },
    "7119": {
        "22/03/2020 14:41:54": [],
        "22/03/2020 17:08:29": [],
        "22/03/2020 19:27:24": []
    },
    "7120": {
        "22/03/2020 14:41:54": [],
        "22/03/2020 17:08:29": [],
        "22/03/2020 19:27:24": []
    },
    "7127": {
        "22/03/2020 14:41:55": [],
        "22/03/2020 17:08:30": [],
        "22/03/2020 19:27:24": []
    },
    "7453": {
        "22/03/2020 14:41:55": [],
        "22/03/2020 17:08:30": [],
        "22/03/2020 19:27:25": []
    },
    "748": {
        "22/03/2020 14:41:56": [],
        "22/03/2020 17:08:31": [],
        "22/03/2020 19:27:25": []
    },
    "1476": {
        "22/03/2020 14:41:56": [],
        "22/03/2020 17:08:31": [],
        "22/03/2020 19:27:26": []
    },
    "7390": {
        "22/03/2020 14:41:57": [],
        "22/03/2020 17:08:32": [],
        "22/03/2020 19:27:26": []
    },
    "7435": {
        "22/03/2020 14:41:57": [],
        "22/03/2020 17:08:32": [],
        "22/03/2020 19:27:27": []
    },
    "7391": {
        "22/03/2020 14:41:58": [],
        "22/03/2020 17:08:33": [],
        "22/03/2020 19:27:27": []
    },
    "493": {
        "22/03/2020 14:41:58": [],
        "22/03/2020 17:08:33": [],
        "22/03/2020 19:27:27": []
    },
    "494": {
        "22/03/2020 14:41:59": [],
        "22/03/2020 17:08:33": [],
        "22/03/2020 19:27:28": []
    },
    "495": {
        "22/03/2020 14:41:59": [],
        "22/03/2020 17:08:34": [],
        "22/03/2020 19:27:28": []
    },
    "400": {
        "22/03/2020 14:41:59": [],
        "22/03/2020 17:08:34": [],
        "22/03/2020 19:27:29": []
    },
    "7392": {
        "22/03/2020 14:42:00": [],
        "22/03/2020 17:08:35": [],
        "22/03/2020 19:27:29": []
    },
    "312": {
        "22/03/2020 14:42:00": [],
        "22/03/2020 17:08:35": [],
        "22/03/2020 19:27:30": []
    },
    "1444": {
        "22/03/2020 14:42:01": [],
        "22/03/2020 17:08:36": [],
        "22/03/2020 19:27:30": []
    },
    "1445": {
        "22/03/2020 14:42:01": [],
        "22/03/2020 17:08:36": [],
        "22/03/2020 19:27:31": []
    },
    "4407": {
        "22/03/2020 14:42:02": [],
        "22/03/2020 17:08:37": [],
        "22/03/2020 19:27:32": []
    },
    "2637": {
        "22/03/2020 14:42:03": [],
        "22/03/2020 17:08:37": [],
        "22/03/2020 19:27:32": []
    },
    "2721": {
        "22/03/2020 14:42:03": [],
        "22/03/2020 17:08:38": [],
        "22/03/2020 19:27:32": []
    },
    "7012": {
        "22/03/2020 14:42:04": [],
        "22/03/2020 17:08:38": [],
        "22/03/2020 19:27:33": []
    },
    "2201": {
        "22/03/2020 14:42:04": [],
        "22/03/2020 17:08:39": [],
        "22/03/2020 19:27:33": []
    },
    "7239": {
        "22/03/2020 14:42:05": [],
        "22/03/2020 17:08:39": [],
        "22/03/2020 19:27:34": []
    },
    "4401": {
        "22/03/2020 14:42:05": [],
        "22/03/2020 17:08:40": [],
        "22/03/2020 19:27:34": []
    },
    "2213": {
        "22/03/2020 14:42:05": [],
        "22/03/2020 17:08:40": [],
        "22/03/2020 19:27:35": []
    },
    "2214": {
        "22/03/2020 14:42:06": [],
        "22/03/2020 17:08:40": [],
        "22/03/2020 19:27:35": []
    },
    "2215": {
        "22/03/2020 14:42:06": [],
        "22/03/2020 17:08:41": [],
        "22/03/2020 19:27:36": []
    },
    "2216": {
        "22/03/2020 14:42:07": [],
        "22/03/2020 17:08:41": [],
        "22/03/2020 19:27:36": []
    },
    "4599": {
        "22/03/2020 14:42:07": [],
        "22/03/2020 17:08:42": [],
        "22/03/2020 19:27:36": []
    },
    "7184": {
        "22/03/2020 14:42:08": [],
        "22/03/2020 17:08:42": [],
        "22/03/2020 19:27:37": []
    },
    "2225": {
        "22/03/2020 14:42:08": [],
        "22/03/2020 17:08:43": [],
        "22/03/2020 19:27:37": []
    },
    "4620": {
        "22/03/2020 14:42:09": [],
        "22/03/2020 17:08:43": [],
        "22/03/2020 19:27:38": []
    },
    "7563": {
        "22/03/2020 14:42:09": [],
        "22/03/2020 17:08:44": [],
        "22/03/2020 19:27:38": []
    },
    "7231": {
        "22/03/2020 14:42:10": [],
        "22/03/2020 17:08:44": [],
        "22/03/2020 19:27:38": []
    },
    "7128": {
        "22/03/2020 14:42:10": [],
        "22/03/2020 17:08:45": [],
        "22/03/2020 19:27:39": []
    },
    "7117": {
        "22/03/2020 14:42:10": [],
        "22/03/2020 17:08:45": [],
        "22/03/2020 19:27:39": []
    },
    "7118": {
        "22/03/2020 14:42:11": [],
        "22/03/2020 17:08:46": [],
        "22/03/2020 19:27:40": []
    },
    "6289": {
        "22/03/2020 14:42:11": [],
        "22/03/2020 17:08:46": [],
        "22/03/2020 19:27:40": []
    }
}