{
    "overall_punctuality": 504,
    "overall_num": 23,
    "overall_avg": 22,
    "daily_punctuality": {
        "Sunday": {
            "num_results": 0,
            "total": 0,
            "avg:": 0
        },
        "Monday": {
            "num_results": 0,
            "total": 0,
            "avg:": 0
        },
        "Tuesday": {
            "num_results": 16,
            "total": -9,
            "avg:": 0,
            "avg": 0
        },
        "Wednesday": {
            "num_results": 7,
            "total": 513,
            "avg:": 0,
            "avg": 74
        },
        "Thursday": {
            "num_results": 0,
            "total": 0,
            "avg:": 0
        },
        "Friday": {
            "num_results": 0,
            "total": 0,
            "avg:": 0
        },
        "Saturday": {
            "num_results": 0,
            "total": 0,
            "avg:": 0
        }
    }
}