{
    "1171": {
        "22/03/2020 15:17:16": [
            -5,
            -5
        ],
        "22/03/2020 17:41:26": [
            6,
            6
        ],
        "22/03/2020 19:59:26": [
            -16,
            -16
        ]
    },
    "1172": {
        "22/03/2020 15:17:17": [
            -22
        ],
        "22/03/2020 17:41:27": [
            -3,
            -3
        ],
        "22/03/2020 19:59:27": [
            18,
            18
        ]
    },
    "1173": {
        "22/03/2020 15:17:18": [
            29,
            -21
        ],
        "22/03/2020 17:41:27": [
            10,
            10
        ],
        "22/03/2020 19:59:27": [
            7,
            7
        ]
    },
    "1174": {
        "22/03/2020 15:17:18": [
            -18,
            -2
        ],
        "22/03/2020 17:41:28": [
            -16,
            -16
        ],
        "22/03/2020 19:59:28": [
            10,
            10
        ]
    },
    "15": {
        "22/03/2020 15:17:19": [
            27,
            -10
        ],
        "22/03/2020 17:41:28": [
            -28,
            -28
        ],
        "22/03/2020 19:59:28": [
            8,
            8
        ]
    },
    "1620": {
        "22/03/2020 15:17:19": [
            -1,
            27
        ],
        "22/03/2020 17:41:28": [
            16,
            16
        ],
        "22/03/2020 19:59:28": [
            5,
            5
        ]
    },
    "1622": {
        "22/03/2020 15:17:20": [
            3,
            2
        ],
        "22/03/2020 17:41:29": [
            -14,
            -14
        ],
        "22/03/2020 19:59:29": [
            -141,
            9
        ]
    },
    "1623": {
        "22/03/2020 15:17:20": [
            -9,
            -15
        ],
        "22/03/2020 17:41:29": [
            25,
            25
        ],
        "22/03/2020 19:59:29": [
            -162,
            -20
        ]
    },
    "1624": {
        "22/03/2020 15:17:20": [
            1,
            29
        ],
        "22/03/2020 17:41:30": [
            -7,
            -7
        ],
        "22/03/2020 19:59:30": [
            -143,
            -23
        ]
    },
    "1625": {
        "22/03/2020 15:17:21": [
            -13,
            -23
        ],
        "22/03/2020 17:41:30": [
            19,
            19
        ],
        "22/03/2020 19:59:30": [
            -148,
            -11
        ]
    },
    "1626": {
        "22/03/2020 15:17:21": [
            -22,
            -21
        ],
        "22/03/2020 17:41:31": [
            24,
            24
        ],
        "22/03/2020 19:59:31": [
            -155,
            -21
        ]
    },
    "1627": {
        "22/03/2020 15:17:22": [
            -17,
            -4
        ],
        "22/03/2020 17:41:31": [
            -15,
            -15
        ],
        "22/03/2020 19:59:32": [
            -153,
            -18
        ]
    },
    "1628": {
        "22/03/2020 15:17:22": [
            -26,
            -19
        ],
        "22/03/2020 17:41:32": [
            -28,
            -28
        ],
        "22/03/2020 19:59:32": [
            -163,
            24
        ]
    },
    "1629": {
        "22/03/2020 15:17:23": [
            22,
            12
        ],
        "22/03/2020 17:41:32": [
            6,
            6
        ],
        "22/03/2020 19:59:32": [
            -133,
            -3
        ]
    },
    "18": {
        "22/03/2020 15:17:23": [
            -20
        ],
        "22/03/2020 17:41:32": [
            -20,
            -20
        ],
        "22/03/2020 19:59:33": [
            11,
            11
        ]
    },
    "203": {
        "22/03/2020 15:17:24": [
            -10,
            -28
        ],
        "22/03/2020 17:41:33": [
            8,
            8
        ],
        "22/03/2020 19:59:33": [
            20,
            20
        ]
    },
    "204": {
        "22/03/2020 15:17:24": [
            -17,
            22
        ],
        "22/03/2020 17:41:33": [
            6,
            6
        ],
        "22/03/2020 19:59:34": [
            7,
            7
        ]
    },
    "1175": {
        "22/03/2020 15:17:24": [
            15,
            -25
        ],
        "22/03/2020 17:41:34": [
            19,
            19
        ],
        "22/03/2020 19:59:34": [
            17,
            17
        ]
    },
    "205": {
        "22/03/2020 15:17:25": [
            11,
            -11
        ],
        "22/03/2020 17:41:34": [
            -22,
            -22
        ],
        "22/03/2020 19:59:35": [
            -27,
            -27
        ]
    },
    "3708": {
        "22/03/2020 15:17:25": [
            4
        ],
        "22/03/2020 17:41:35": [
            -92,
            11
        ],
        "22/03/2020 19:59:35": [
            -136,
            16
        ]
    },
    "3709": {
        "22/03/2020 15:17:26": [
            -367,
            -28
        ],
        "22/03/2020 17:41:35": [
            -123,
            -17
        ],
        "22/03/2020 19:59:35": [
            -19
        ]
    },
    "3089": {
        "22/03/2020 15:17:26": [
            8
        ],
        "22/03/2020 17:41:36": [
            -195,
            -4
        ],
        "22/03/2020 19:59:36": [
            -132,
            -20
        ]
    },
    "3090": {
        "22/03/2020 15:17:27": [],
        "22/03/2020 17:41:36": [
            -175,
            19
        ],
        "22/03/2020 19:59:36": [
            -111,
            -1
        ]
    },
    "3670": {
        "22/03/2020 15:17:27": [
            6,
            -8
        ],
        "22/03/2020 17:41:37": [
            10
        ],
        "22/03/2020 19:59:37": [
            -116,
            -4
        ]
    },
    "3671": {
        "22/03/2020 15:17:28": [
            29,
            12
        ],
        "22/03/2020 17:41:37": [
            -127,
            13
        ],
        "22/03/2020 19:59:37": [
            -167,
            -4
        ]
    },
    "3672": {
        "22/03/2020 15:17:28": [
            -9,
            -24
        ],
        "22/03/2020 17:41:38": [
            -102,
            -28
        ],
        "22/03/2020 19:59:38": [
            -138,
            19
        ]
    },
    "3674": {
        "22/03/2020 15:17:28": [
            13,
            11
        ],
        "22/03/2020 17:41:39": [
            -140,
            -12
        ],
        "22/03/2020 19:59:38": [
            -119,
            -30
        ]
    },
    "3675": {
        "22/03/2020 15:17:29": [
            -11
        ],
        "22/03/2020 17:41:39": [
            -104,
            21
        ],
        "22/03/2020 19:59:39": [
            -149,
            -2
        ]
    },
    "3678": {
        "22/03/2020 15:17:30": [
            -275,
            10
        ],
        "22/03/2020 17:41:40": [
            -126,
            -22
        ],
        "22/03/2020 19:59:39": [
            -164,
            2
        ]
    },
    "17": {
        "22/03/2020 15:17:30": [
            22,
            -11
        ],
        "22/03/2020 17:41:40": [
            -27,
            -27
        ],
        "22/03/2020 19:59:39": [
            22,
            22
        ]
    },
    "19": {
        "22/03/2020 15:17:30": [
            -2,
            1
        ],
        "22/03/2020 17:41:40": [
            9,
            9
        ],
        "22/03/2020 19:59:40": [
            -28,
            -28
        ]
    },
    "220": {
        "22/03/2020 15:17:31": [
            7,
            10
        ],
        "22/03/2020 17:41:41": [
            -1,
            -1
        ],
        "22/03/2020 19:59:40": [
            -106,
            -27
        ]
    },
    "4910": {
        "22/03/2020 15:17:31": [
            -283,
            2
        ],
        "22/03/2020 17:41:41": [
            -140,
            25
        ],
        "22/03/2020 19:59:41": [
            -36,
            -142,
            -4
        ]
    },
    "4911": {
        "22/03/2020 15:17:32": [
            -272,
            13
        ],
        "22/03/2020 17:41:42": [
            -128,
            -24
        ],
        "22/03/2020 19:59:41": [
            -25,
            -131,
            7
        ]
    },
    "4912": {
        "22/03/2020 15:17:32": [
            -258,
            27
        ],
        "22/03/2020 17:41:42": [
            -115,
            -10
        ],
        "22/03/2020 19:59:42": [
            -11,
            -117,
            21
        ]
    },
    "4913": {
        "22/03/2020 15:17:33": [
            -294,
            -9
        ],
        "22/03/2020 17:41:43": [
            -90,
            14
        ],
        "22/03/2020 19:59:42": [
            -47,
            -153,
            -15
        ]
    },
    "4914": {
        "22/03/2020 15:17:33": [
            -277,
            8
        ],
        "22/03/2020 17:41:43": [
            -133,
            -29
        ],
        "22/03/2020 19:59:43": [
            -30,
            -136,
            1
        ]
    },
    "4915": {
        "22/03/2020 15:17:34": [],
        "22/03/2020 17:41:44": [
            -112,
            -7
        ],
        "22/03/2020 19:59:43": [
            -8,
            -114,
            22
        ]
    },
    "1630": {
        "22/03/2020 15:17:34": [
            20,
            6
        ],
        "22/03/2020 17:41:44": [
            -25
        ],
        "22/03/2020 19:59:43": [
            -155,
            22
        ]
    },
    "21": {
        "22/03/2020 15:17:34": [
            4,
            -8
        ],
        "22/03/2020 17:41:45": [
            15,
            15
        ],
        "22/03/2020 19:59:44": [
            20,
            20
        ]
    },
    "4925": {
        "22/03/2020 15:17:35": [
            -317,
            22
        ],
        "22/03/2020 17:41:45": [
            -129,
            -18
        ],
        "22/03/2020 19:59:44": [
            -127,
            7
        ]
    },
    "4926": {
        "22/03/2020 15:17:35": [
            -327,
            12
        ],
        "22/03/2020 17:41:46": [
            -129,
            -23
        ],
        "22/03/2020 19:59:45": [
            -153,
            22
        ]
    },
    "4957": {
        "22/03/2020 15:17:36": [],
        "22/03/2020 17:41:46": [],
        "22/03/2020 19:59:45": []
    },
    "7602": {
        "22/03/2020 15:17:36": [
            -13,
            -27
        ],
        "22/03/2020 17:41:46": [
            -1,
            -1
        ],
        "22/03/2020 19:59:46": [
            -9,
            -9
        ]
    },
    "3679": {
        "22/03/2020 15:17:37": [
            -268,
            17
        ],
        "22/03/2020 17:41:47": [
            -107,
            -9
        ],
        "22/03/2020 19:59:46": [
            -116,
            -30
        ]
    },
    "3706": {
        "22/03/2020 15:17:37": [
            27
        ],
        "22/03/2020 17:41:47": [
            -127,
            23
        ],
        "22/03/2020 19:59:47": [
            -113,
            -10
        ]
    },
    "3707": {
        "22/03/2020 15:17:37": [
            -14
        ],
        "22/03/2020 17:41:48": [
            -108,
            -15
        ],
        "22/03/2020 19:59:47": [
            -154,
            7
        ]
    },
    "5030": {
        "22/03/2020 15:17:38": [
            8
        ],
        "22/03/2020 17:41:48": [
            -160,
            -18
        ],
        "22/03/2020 19:59:47": [
            -132,
            -6
        ]
    },
    "5031": {
        "22/03/2020 15:17:38": [
            -14
        ],
        "22/03/2020 17:41:49": [
            -122,
            25
        ],
        "22/03/2020 19:59:48": [
            -154,
            28
        ]
    },
    "3710": {
        "22/03/2020 15:17:39": [
            -314,
            25
        ],
        "22/03/2020 17:41:49": [
            -131,
            -18
        ],
        "22/03/2020 19:59:48": [
            -115,
            28
        ]
    },
    "3711": {
        "22/03/2020 15:17:39": [
            -262,
            23
        ],
        "22/03/2020 17:41:49": [
            -120,
            -14
        ],
        "22/03/2020 19:59:49": [
            -121,
            21
        ]
    },
    "3712": {
        "22/03/2020 15:17:40": [
            -297,
            -12
        ],
        "22/03/2020 17:41:50": [
            -95,
            11
        ],
        "22/03/2020 19:59:49": [
            -156,
            -15
        ]
    },
    "6033": {
        "22/03/2020 15:17:40": [
            -19
        ],
        "22/03/2020 17:41:50": [
            -162,
            26
        ],
        "22/03/2020 19:59:50": [
            -159,
            17
        ]
    },
    "85": {
        "22/03/2020 15:17:41": [
            -18,
            27
        ],
        "22/03/2020 17:41:51": [
            -3,
            -3
        ],
        "22/03/2020 19:59:50": [
            -29,
            -29
        ]
    },
    "4916": {
        "22/03/2020 15:17:41": [
            -277,
            8
        ],
        "22/03/2020 17:41:51": [
            -134,
            -29
        ],
        "22/03/2020 19:59:50": [
            -136,
            6
        ]
    },
    "4917": {
        "22/03/2020 15:17:42": [
            -281,
            4
        ],
        "22/03/2020 17:41:52": [
            -139,
            27
        ],
        "22/03/2020 19:59:51": [
            -34,
            -140,
            0
        ]
    },
    "4918": {
        "22/03/2020 15:17:42": [
            -302,
            -17
        ],
        "22/03/2020 17:41:52": [
            -99,
            6
        ],
        "22/03/2020 19:59:51": [
            -55,
            -161,
            -21
        ]
    },
    "4919": {
        "22/03/2020 15:17:43": [
            -282,
            3
        ],
        "22/03/2020 17:41:53": [
            -139,
            26
        ],
        "22/03/2020 19:59:52": [
            -35,
            -141,
            -1
        ]
    },
    "4920": {
        "22/03/2020 15:17:43": [
            -182,
            -20
        ],
        "22/03/2020 17:41:53": [
            -102,
            3
        ],
        "22/03/2020 19:59:52": [
            -58,
            -164,
            -26
        ]
    },
    "119": {
        "22/03/2020 15:17:43": [
            20,
            -27
        ],
        "22/03/2020 17:41:53": [
            7,
            7
        ],
        "22/03/2020 19:59:53": [
            -304,
            -27
        ]
    },
    "1631": {
        "22/03/2020 15:17:44": [
            -29,
            -22
        ],
        "22/03/2020 17:41:54": [
            20,
            20
        ],
        "22/03/2020 19:59:53": [
            7,
            -14
        ]
    },
    "1632": {
        "22/03/2020 15:17:44": [
            -1,
            4
        ],
        "22/03/2020 17:41:54": [
            -16,
            -16
        ],
        "22/03/2020 19:59:53": [
            -28,
            7
        ]
    },
    "1633": {
        "22/03/2020 15:17:45": [
            -15,
            -14
        ],
        "22/03/2020 17:41:55": [
            24,
            24
        ],
        "22/03/2020 19:59:54": [
            12,
            -19
        ]
    },
    "1634": {
        "22/03/2020 15:17:45": [
            -20,
            -23
        ],
        "22/03/2020 17:41:55": [
            11,
            11
        ],
        "22/03/2020 19:59:54": [
            0,
            21
        ]
    },
    "1635": {
        "22/03/2020 15:17:46": [
            -5,
            -12
        ],
        "22/03/2020 17:41:56": [
            -28,
            -28
        ],
        "22/03/2020 19:59:55": [
            12,
            -26
        ]
    },
    "1636": {
        "22/03/2020 15:17:46": [
            -27,
            25
        ],
        "22/03/2020 17:41:56": [
            11,
            11
        ],
        "22/03/2020 19:59:55": [
            -15,
            7
        ]
    },
    "1637": {
        "22/03/2020 15:17:47": [
            13,
            29
        ],
        "22/03/2020 17:42:01": [
            9,
            9
        ],
        "22/03/2020 19:59:56": [
            -16,
            -3
        ]
    },
    "1638": {
        "22/03/2020 15:17:47": [
            -1,
            20
        ],
        "22/03/2020 17:42:06": [
            -12,
            -12
        ],
        "22/03/2020 19:59:56": [
            22,
            26
        ]
    },
    "213": {
        "22/03/2020 15:17:48": [
            6,
            14
        ],
        "22/03/2020 17:42:11": [
            7,
            7
        ],
        "22/03/2020 19:59:56": [
            -301,
            -24
        ]
    },
    "214": {
        "22/03/2020 15:17:48": [
            -11,
            -2
        ],
        "22/03/2020 17:42:17": [
            -15,
            -15
        ],
        "22/03/2020 19:59:57": [
            -264,
            13
        ]
    },
    "3572": {
        "22/03/2020 15:17:48": [
            1,
            1
        ],
        "22/03/2020 17:42:21": [
            -23,
            15
        ],
        "22/03/2020 19:59:57": [
            15,
            -17
        ]
    },
    "3689": {
        "22/03/2020 15:17:49": [
            -26,
            -26
        ],
        "22/03/2020 17:42:26": [
            28,
            1
        ],
        "22/03/2020 19:59:58": [
            1,
            4
        ]
    },
    "1639": {
        "22/03/2020 15:17:49": [
            -16,
            16
        ],
        "22/03/2020 17:42:31": [
            17,
            17
        ],
        "22/03/2020 19:59:58": [
            -10,
            -27
        ]
    },
    "1640": {
        "22/03/2020 15:17:50": [
            -25,
            -27
        ],
        "22/03/2020 17:42:36": [
            -22,
            -22
        ],
        "22/03/2020 19:59:59": [
            -6,
            20
        ]
    },
    "1641": {
        "22/03/2020 15:17:50": [
            11,
            20
        ],
        "22/03/2020 17:42:40": [
            10,
            10
        ],
        "22/03/2020 19:59:59": [
            2,
            6
        ]
    },
    "1642": {
        "22/03/2020 15:17:51": [
            8,
            16
        ],
        "22/03/2020 17:42:45": [
            7,
            7
        ],
        "22/03/2020 20:00:00": [
            -289,
            -12
        ]
    },
    "231": {
        "22/03/2020 15:17:51": [
            -18,
            -9
        ],
        "22/03/2020 17:42:50": [
            -22,
            -22
        ],
        "22/03/2020 20:00:00": [
            -12,
            -3
        ]
    },
    "3691": {
        "22/03/2020 15:17:52": [
            -3,
            -3
        ],
        "22/03/2020 17:42:55": [
            -20,
            17
        ],
        "22/03/2020 20:00:02": [
            17,
            0
        ]
    },
    "3696": {
        "22/03/2020 15:17:53": [
            92,
            -1
        ],
        "22/03/2020 17:42:59": [
            22,
            22
        ],
        "22/03/2020 20:00:02": [
            -23,
            14
        ]
    },
    "3697": {
        "22/03/2020 15:17:53": [
            79,
            -9
        ],
        "22/03/2020 17:43:03": [
            22,
            22
        ],
        "22/03/2020 20:00:03": [
            25,
            -11
        ]
    },
    "3698": {
        "22/03/2020 15:17:53": [
            51,
            17
        ],
        "22/03/2020 17:43:08": [
            -9,
            -9
        ],
        "22/03/2020 20:00:03": [
            -5,
            16
        ]
    },
    "3699": {
        "22/03/2020 15:17:54": [
            69,
            -19
        ],
        "22/03/2020 17:43:14": [
            10,
            10
        ],
        "22/03/2020 20:00:04": [
            19,
            26
        ]
    },
    "3701": {
        "22/03/2020 15:17:54": [
            8,
            8
        ],
        "22/03/2020 17:43:18": [
            16,
            -25
        ],
        "22/03/2020 20:00:04": [
            17,
            28
        ]
    },
    "3702": {
        "22/03/2020 15:17:55": [
            -25,
            -25
        ],
        "22/03/2020 17:43:22": [
            32,
            -9
        ],
        "22/03/2020 20:00:04": [
            -24,
            27
        ]
    },
    "3704": {
        "22/03/2020 15:17:55": [
            18
        ],
        "22/03/2020 17:43:26": [
            47,
            25
        ],
        "22/03/2020 20:00:05": [
            12,
            -19
        ]
    },
    "3705": {
        "22/03/2020 15:17:56": [
            57,
            18
        ],
        "22/03/2020 17:43:31": [
            67,
            26
        ],
        "22/03/2020 20:00:05": [
            9,
            -30
        ]
    },
    "3751": {
        "22/03/2020 15:17:56": [
            -8,
            -8
        ],
        "22/03/2020 17:43:36": [
            -4,
            -22
        ],
        "22/03/2020 20:00:06": [
            -22,
            -11
        ]
    },
    "3088": {
        "22/03/2020 15:17:57": [
            -7,
            -7
        ],
        "22/03/2020 17:43:40": [
            22,
            0
        ],
        "22/03/2020 20:00:06": [
            -12,
            20
        ]
    },
    "3885": {
        "22/03/2020 15:17:57": [
            -13,
            -2
        ],
        "22/03/2020 17:43:44": [
            -17,
            -17
        ],
        "22/03/2020 20:00:07": [
            29,
            14
        ]
    },
    "4958": {
        "22/03/2020 15:17:58": [
            -24,
            -24
        ],
        "22/03/2020 17:43:49": [
            -12,
            -27
        ],
        "22/03/2020 20:00:07": [
            -27,
            -9
        ]
    },
    "5028": {
        "22/03/2020 15:17:58": [
            93,
            -6
        ],
        "22/03/2020 17:43:54": [
            7,
            7
        ],
        "22/03/2020 20:00:07": [
            -24,
            -30
        ]
    },
    "3752": {
        "22/03/2020 15:17:58": [
            -30,
            -30
        ],
        "22/03/2020 17:43:57": [
            -24,
            19
        ],
        "22/03/2020 20:00:08": [
            19,
            -28
        ]
    },
    "46": {
        "22/03/2020 15:17:59": [
            9,
            -1
        ],
        "22/03/2020 17:43:58": [
            -7
        ],
        "22/03/2020 20:00:08": [
            -265,
            -18
        ]
    },
    "47": {
        "22/03/2020 15:17:59": [
            13
        ],
        "22/03/2020 17:43:58": [
            -4
        ],
        "22/03/2020 20:00:09": [
            -280,
            -3
        ]
    },
    "48": {
        "22/03/2020 15:18:00": [
            15
        ],
        "22/03/2020 17:43:58": [
            -3
        ],
        "22/03/2020 20:00:09": [
            -289,
            -12
        ]
    },
    "4843": {
        "22/03/2020 15:18:00": [
            0,
            0
        ],
        "22/03/2020 17:43:59": [
            0,
            0
        ],
        "22/03/2020 20:00:09": [
            0
        ]
    },
    "49": {
        "22/03/2020 15:18:01": [
            -15
        ],
        "22/03/2020 17:43:59": [
            -405,
            25
        ],
        "22/03/2020 20:00:10": [
            -274,
            3
        ]
    },
    "4905": {
        "22/03/2020 15:18:01": [
            -15,
            -15
        ],
        "22/03/2020 17:44:00": [
            -19,
            -21
        ],
        "22/03/2020 20:00:10": [
            -21,
            -25
        ]
    },
    "4906": {
        "22/03/2020 15:18:01": [],
        "22/03/2020 17:44:00": [
            20,
            17
        ],
        "22/03/2020 20:00:11": [
            17,
            9
        ]
    },
    "4907": {
        "22/03/2020 15:18:02": [
            1,
            1
        ],
        "22/03/2020 17:44:01": [
            -11,
            -16
        ],
        "22/03/2020 20:00:11": [
            -16,
            -27
        ]
    },
    "4908": {
        "22/03/2020 15:18:03": [
            21,
            21
        ],
        "22/03/2020 17:44:01": [
            6,
            2
        ],
        "22/03/2020 20:00:12": [
            2,
            -11
        ]
    },
    "4909": {
        "22/03/2020 15:18:03": [
            -12,
            -12
        ],
        "22/03/2020 17:44:02": [
            -30,
            25
        ],
        "22/03/2020 20:00:12": [
            25,
            9
        ]
    },
    "4921": {
        "22/03/2020 15:18:03": [
            -26,
            -26
        ],
        "22/03/2020 17:44:02": [
            11,
            4
        ],
        "22/03/2020 20:00:12": [
            4,
            -16
        ]
    },
    "4922": {
        "22/03/2020 15:18:04": [
            -11,
            -11
        ],
        "22/03/2020 17:44:03": [
            18,
            9
        ],
        "22/03/2020 20:00:13": [
            9,
            -18
        ]
    },
    "4923": {
        "22/03/2020 15:18:04": [
            18,
            18
        ],
        "22/03/2020 17:44:03": [
            -16,
            -27
        ],
        "22/03/2020 20:00:13": [
            -27,
            4
        ]
    },
    "44": {
        "22/03/2020 15:18:05": [
            5,
            -27
        ],
        "22/03/2020 17:44:03": [
            -9,
            -9
        ],
        "22/03/2020 20:00:14": [
            -255,
            22
        ]
    },
    "4432": {
        "22/03/2020 15:18:05": [
            -27,
            -16
        ],
        "22/03/2020 17:44:04": [
            25,
            25
        ],
        "22/03/2020 20:00:14": [
            -255,
            -8
        ]
    },
    "45": {
        "22/03/2020 15:18:05": [
            17,
            7
        ],
        "22/03/2020 17:44:04": [
            1,
            1
        ],
        "22/03/2020 20:00:15": [
            -247,
            -20
        ]
    },
    "4924": {
        "22/03/2020 15:18:06": [
            22,
            22
        ],
        "22/03/2020 17:44:05": [
            -19,
            28
        ],
        "22/03/2020 20:00:15": [
            28,
            -7
        ]
    },
    "6015": {
        "22/03/2020 15:18:06": [
            50,
            10
        ],
        "22/03/2020 17:44:05": [
            7,
            21
        ],
        "22/03/2020 20:00:15": [
            -3,
            4
        ]
    },
    "733": {
        "22/03/2020 15:18:07": [
            84,
            -15
        ],
        "22/03/2020 17:44:05": [
            -19,
            -5
        ],
        "22/03/2020 20:00:16": [
            -28,
            -17
        ]
    },
    "5029": {
        "22/03/2020 15:18:07": [
            46,
            7
        ],
        "22/03/2020 17:44:06": [
            19,
            19
        ],
        "22/03/2020 20:00:16": [
            -9,
            -10
        ]
    },
    "5053": {
        "22/03/2020 15:18:08": [
            22,
            26
        ],
        "22/03/2020 17:44:06": [
            4,
            4
        ],
        "22/03/2020 20:00:17": [
            -8,
            24
        ]
    },
    "51": {
        "22/03/2020 15:18:08": [
            5
        ],
        "22/03/2020 17:44:07": [
            -380,
            -23
        ],
        "22/03/2020 20:00:17": [
            -262,
            15
        ]
    },
    "52": {
        "22/03/2020 15:18:08": [
            -12
        ],
        "22/03/2020 17:44:07": [
            -394,
            16
        ],
        "22/03/2020 20:00:18": [
            -283,
            -6
        ]
    },
    "277": {
        "22/03/2020 15:18:09": [
            21
        ],
        "22/03/2020 17:44:08": [
            -407,
            27
        ],
        "22/03/2020 20:00:18": [
            -271,
            6
        ]
    },
    "288": {
        "22/03/2020 15:18:09": [
            0,
            0
        ],
        "22/03/2020 17:44:08": [
            0,
            0
        ],
        "22/03/2020 20:00:18": [
            0,
            0
        ]
    },
    "7603": {
        "22/03/2020 15:18:10": [
            -22,
            16
        ],
        "22/03/2020 17:44:08": [
            23,
            23
        ],
        "22/03/2020 20:00:19": [
            -279,
            -2
        ]
    }
}