{
    "6290": {
        "27/03/2020 13:34:17": [
            0,
            0
        ],
        "27/03/2020 17:26:32": [
            0,
            0
        ]
    },
    "7120": {
        "27/03/2020 13:34:18": [
            -11,
            -11
        ],
        "27/03/2020 17:26:33": [
            -15,
            -5
        ]
    },
    "7119": {
        "27/03/2020 13:34:18": [
            20,
            20
        ],
        "27/03/2020 17:26:33": [
            15,
            28
        ]
    },
    "7127": {
        "27/03/2020 13:34:19": [
            -12,
            -12
        ],
        "27/03/2020 17:26:34": [
            -19,
            -3
        ]
    },
    "7143": {
        "27/03/2020 13:34:19": [
            -28,
            -28
        ],
        "27/03/2020 17:26:34": [
            24,
            -16
        ]
    },
    "3368": {
        "27/03/2020 13:34:19": [
            5,
            5
        ],
        "27/03/2020 17:26:35": [
            -6,
            23
        ]
    },
    "7137": {
        "27/03/2020 13:34:20": [
            -28,
            -28
        ],
        "27/03/2020 17:26:35": [
            10,
            -22
        ]
    },
    "7139": {
        "27/03/2020 13:34:20": [
            -19,
            -19
        ],
        "27/03/2020 17:26:35": [
            8,
            9
        ]
    },
    "4623": {
        "27/03/2020 13:34:21": [
            -7,
            -7
        ],
        "27/03/2020 17:26:36": [
            8,
            -16
        ]
    },
    "4619": {
        "27/03/2020 13:34:21": [
            -23,
            -23
        ],
        "27/03/2020 17:26:36": [
            -16,
            -19
        ]
    },
    "4561": {
        "27/03/2020 13:34:22": [
            27,
            27
        ],
        "27/03/2020 17:26:37": [
            -30,
            26
        ]
    },
    "4629": {
        "27/03/2020 13:34:22": [
            4,
            4
        ],
        "27/03/2020 17:26:37": [
            3,
            -1
        ]
    },
    "4630": {
        "27/03/2020 13:34:23": [
            -1,
            -1
        ],
        "27/03/2020 17:26:38": [
            -7,
            -13
        ]
    },
    "4631": {
        "27/03/2020 13:34:23": [
            -5,
            -5
        ],
        "27/03/2020 17:26:38": [
            -16,
            -22
        ]
    },
    "4632": {
        "27/03/2020 13:34:24": [
            28,
            28
        ],
        "27/03/2020 17:26:38": [
            15,
            8
        ]
    },
    "5164": {
        "27/03/2020 13:34:24": [
            20,
            20
        ],
        "27/03/2020 17:26:39": [
            2,
            -5
        ]
    },
    "4633": {
        "27/03/2020 13:34:25": [
            -16,
            -16
        ],
        "27/03/2020 17:26:39": [
            19,
            12
        ]
    },
    "2234": {
        "27/03/2020 13:34:26": [
            24,
            24
        ],
        "27/03/2020 17:26:40": [
            -4,
            27
        ]
    },
    "2235": {
        "27/03/2020 13:34:27": [
            -16,
            -16
        ],
        "27/03/2020 17:26:40": [
            17,
            -11
        ]
    },
    "2236": {
        "27/03/2020 13:34:27": [
            -24,
            -24
        ],
        "27/03/2020 17:26:41": [
            11,
            -14
        ]
    },
    "2238": {
        "27/03/2020 13:34:28": [
            0,
            0
        ],
        "27/03/2020 17:26:41": [
            -24,
            15
        ]
    },
    "5056": {
        "27/03/2020 13:34:28": [
            18,
            18
        ],
        "27/03/2020 17:26:42": [
            -6,
            -22
        ]
    },
    "2239": {
        "27/03/2020 13:34:29": [
            -9,
            -9
        ],
        "27/03/2020 17:26:42": [
            100,
            25
        ]
    },
    "2241": {
        "27/03/2020 13:34:29": [
            -18,
            -18
        ],
        "27/03/2020 17:26:43": [
            13,
            15
        ]
    },
    "2242": {
        "27/03/2020 13:34:30": [
            3,
            3
        ],
        "27/03/2020 17:26:43": [
            37,
            -25
        ]
    },
    "7435": {
        "27/03/2020 13:34:30": [
            -29
        ],
        "27/03/2020 17:26:43": [
            144,
            -8
        ]
    },
    "2722": {
        "27/03/2020 13:34:31": [
            -10
        ],
        "27/03/2020 17:26:44": [
            106,
            10
        ]
    },
    "4413": {
        "27/03/2020 13:34:31": [
            -30,
            2
        ],
        "27/03/2020 17:26:44": [
            153,
            -30
        ]
    },
    "1476": {
        "27/03/2020 13:34:32": [
            25,
            25
        ],
        "27/03/2020 17:26:45": [
            111,
            9
        ]
    },
    "7453": {
        "27/03/2020 13:34:32": [
            -20,
            -20
        ],
        "27/03/2020 17:26:45": [
            113,
            24
        ]
    },
    "1478": {
        "27/03/2020 13:34:33": [
            -16,
            -16
        ],
        "27/03/2020 17:26:46": [
            165,
            28
        ]
    },
    "1479": {
        "27/03/2020 13:34:33": [
            28,
            28
        ],
        "27/03/2020 17:26:46": [
            141,
            12
        ]
    },
    "315": {
        "27/03/2020 13:34:34": [
            6,
            6
        ],
        "27/03/2020 17:26:47": [
            149,
            19
        ]
    },
    "406": {
        "27/03/2020 13:34:34": [
            8,
            8
        ],
        "27/03/2020 17:26:47": [
            -65,
            126,
            -24
        ]
    },
    "4530": {
        "27/03/2020 13:34:35": [
            28,
            28
        ],
        "27/03/2020 17:26:47": [
            -17,
            116,
            1
        ]
    },
    "748": {
        "27/03/2020 13:34:35": [
            26,
            26
        ],
        "27/03/2020 17:26:48": [
            16,
            149,
            10
        ]
    },
    "7390": {
        "27/03/2020 13:34:36": [],
        "27/03/2020 17:26:49": []
    },
    "7391": {
        "27/03/2020 13:34:36": [
            0,
            0
        ],
        "27/03/2020 17:26:49": [
            0,
            0,
            0,
            0,
            0
        ]
    },
    "493": {
        "27/03/2020 13:34:37": [
            22,
            22
        ],
        "27/03/2020 17:26:49": [
            25,
            19,
            19,
            19,
            25,
            19
        ]
    },
    "494": {
        "27/03/2020 13:34:37": [
            27,
            27
        ],
        "27/03/2020 17:26:50": [
            21,
            21,
            21,
            -28,
            21
        ]
    },
    "495": {
        "27/03/2020 13:34:38": [
            -5,
            -5,
            -5
        ],
        "27/03/2020 17:26:50": [
            -5,
            16,
            16,
            16,
            16,
            16
        ]
    },
    "400": {
        "27/03/2020 13:34:38": [
            6,
            6,
            6
        ],
        "27/03/2020 17:26:51": [
            -8,
            -10,
            -10,
            -10,
            -19
        ]
    },
    "7392": {
        "27/03/2020 13:34:39": [
            -1,
            -1
        ],
        "27/03/2020 17:26:51": [
            -150,
            -23,
            -23,
            -23,
            8
        ]
    },
    "312": {
        "27/03/2020 13:34:41": [
            -3,
            -3
        ],
        "27/03/2020 17:26:52": [
            -160,
            -11,
            -18,
            -18,
            -18,
            8
        ]
    },
    "1444": {
        "27/03/2020 13:34:41": [
            16,
            16
        ],
        "27/03/2020 17:26:52": [
            219,
            -121,
            10,
            10
        ]
    },
    "1445": {
        "27/03/2020 13:34:42": [
            9,
            9
        ],
        "27/03/2020 17:26:53": [
            272,
            -89,
            -2,
            -2
        ]
    },
    "4407": {
        "27/03/2020 13:34:42": [
            16,
            16
        ],
        "27/03/2020 17:26:53": [
            210,
            -168,
            -19,
            14,
            14,
            14,
            -18
        ]
    },
    "2637": {
        "27/03/2020 13:34:43": [
            27,
            27
        ],
        "27/03/2020 17:26:54": [
            233,
            -149,
            -27,
            -27,
            -27,
            5
        ]
    },
    "2721": {
        "27/03/2020 13:34:43": [
            20,
            20
        ],
        "27/03/2020 17:26:54": [
            240,
            -141,
            -23,
            -23,
            -23,
            12
        ]
    },
    "7012": {
        "27/03/2020 13:34:44": [
            -10,
            -10
        ],
        "27/03/2020 17:26:55": [
            211,
            -171,
            -22,
            9,
            9,
            9,
            -17
        ]
    },
    "2201": {
        "27/03/2020 13:34:44": [
            12,
            12
        ],
        "27/03/2020 17:26:55": [
            138,
            -125,
            24,
            15,
            15,
            15
        ]
    },
    "7239": {
        "27/03/2020 13:34:45": [
            -28,
            -28
        ],
        "27/03/2020 17:26:56": [
            161,
            -162,
            -13,
            -21,
            -21,
            -21
        ]
    },
    "4401": {
        "27/03/2020 13:34:45": [
            -13,
            -13
        ],
        "27/03/2020 17:26:56": [
            177,
            -146,
            3,
            -4,
            -4,
            -4
        ]
    },
    "2213": {
        "27/03/2020 13:34:46": [
            -21,
            -21
        ],
        "27/03/2020 17:26:57": [
            -123,
            165,
            -130,
            19,
            4,
            4,
            4
        ]
    },
    "2214": {
        "27/03/2020 13:34:46": [
            24,
            24
        ],
        "27/03/2020 17:26:57": [
            -142,
            146,
            -148,
            1,
            -18,
            -18,
            -18
        ]
    },
    "2215": {
        "27/03/2020 13:34:47": [
            11,
            11
        ],
        "27/03/2020 17:26:57": [
            -45,
            -149,
            194,
            -159,
            -10,
            29,
            29,
            29
        ]
    },
    "2216": {
        "27/03/2020 13:34:47": [
            -17,
            -17
        ],
        "27/03/2020 17:26:58": [
            -10,
            -174,
            169,
            -124,
            25,
            6,
            6,
            6
        ]
    },
    "4599": {
        "27/03/2020 13:34:48": [
            29,
            29
        ],
        "27/03/2020 17:26:58": [
            14,
            -182,
            161,
            -128,
            21,
            -2,
            -2
        ]
    },
    "4601": {
        "27/03/2020 13:34:48": [
            5,
            5
        ],
        "27/03/2020 17:26:59": [
            -11,
            -149,
            194,
            -153,
            -4,
            -27,
            -27
        ]
    },
    "5058": {
        "27/03/2020 13:34:49": [
            13,
            13
        ],
        "27/03/2020 17:26:59": [
            11,
            -198,
            145,
            -131,
            18,
            -20,
            -20
        ]
    },
    "4602": {
        "27/03/2020 13:34:49": [
            1,
            1
        ],
        "27/03/2020 17:27:00": [
            9,
            -133,
            16,
            27,
            27
        ]
    },
    "4603": {
        "27/03/2020 13:34:50": [
            -8,
            -8
        ],
        "27/03/2020 17:27:00": [
            10,
            -101,
            187,
            -132,
            17,
            17,
            17
        ]
    },
    "4604": {
        "27/03/2020 13:34:50": [
            23,
            23
        ],
        "27/03/2020 17:27:01": [
            -16,
            -129,
            159,
            -158,
            -9,
            -9
        ]
    },
    "4605": {
        "27/03/2020 13:34:52": [
            172,
            12,
            12
        ],
        "27/03/2020 17:27:01": [
            -22,
            -138,
            150,
            -164,
            -15,
            -15
        ]
    },
    "4562": {
        "27/03/2020 13:34:52": [
            167,
            7,
            7
        ],
        "27/03/2020 17:27:02": [
            -14,
            -140,
            148,
            -163,
            -14,
            -14
        ]
    },
    "7386": {
        "27/03/2020 13:34:53": [
            151,
            -9,
            -9
        ],
        "27/03/2020 17:27:02": [
            -162,
            -26,
            -175,
            -30,
            -30
        ]
    },
    "4607": {
        "27/03/2020 13:34:53": [
            181,
            21,
            21
        ],
        "27/03/2020 17:27:03": [
            -129,
            0,
            -123,
            165,
            -142,
            -1,
            -1
        ]
    },
    "7140": {
        "27/03/2020 13:34:53": [
            136,
            -24,
            -24
        ],
        "27/03/2020 17:27:03": [
            -104,
            184,
            14,
            14
        ]
    },
    "7141": {
        "27/03/2020 13:34:54": [
            173,
            13,
            13
        ],
        "27/03/2020 17:27:04": [
            -112,
            3,
            -125,
            163,
            -139,
            10,
            -9,
            -9
        ]
    },
    "7138": {
        "27/03/2020 13:34:55": [
            146,
            -14,
            -14
        ],
        "27/03/2020 17:27:04": [
            74,
            -137,
            -22,
            -150,
            138,
            -164,
            -15
        ]
    },
    "3370": {
        "27/03/2020 13:34:55": [
            150,
            -10,
            -10
        ],
        "27/03/2020 17:27:05": [
            55,
            -129,
            -14,
            -141,
            147,
            -156,
            -7,
            -17
        ]
    },
    "7231": {
        "27/03/2020 13:34:56": [
            180,
            20,
            20
        ],
        "27/03/2020 17:27:05": [
            38,
            -146,
            -31,
            -107,
            181,
            -173,
            -24,
            29
        ]
    },
    "7128": {
        "27/03/2020 13:34:56": [
            181,
            21
        ],
        "27/03/2020 17:27:06": [
            74,
            -137,
            -22,
            -104,
            184,
            -164,
            -15,
            -20
        ]
    },
    "7117": {
        "27/03/2020 13:34:57": [
            157,
            -3
        ],
        "27/03/2020 17:27:06": [
            116,
            -95,
            20,
            -126,
            162,
            -122,
            23
        ]
    },
    "7118": {
        "27/03/2020 13:34:58": [
            245,
            23
        ],
        "27/03/2020 17:27:07": [
            86,
            -125,
            -10,
            -99,
            189,
            -152,
            -3,
            -6
        ]
    },
    "6289": {
        "27/03/2020 13:34:58": [],
        "27/03/2020 17:27:07": []
    }
}