{
    "6290": {
        "21/03/2020 13:53:07": [
            0,
            0,
            0
        ],
        "21/03/2020 16:47:42": [
            0,
            0,
            0
        ],
        "21/03/2020 19:14:59": [
            0,
            0
        ],
        "21/03/2020 21:16:51": [
            0,
            0
        ]
    },
    "7120": {
        "21/03/2020 13:53:08": [
            -5,
            -5,
            -10
        ],
        "21/03/2020 16:47:42": [
            -5,
            -5,
            -5
        ],
        "21/03/2020 19:14:59": [
            -15,
            -15
        ],
        "21/03/2020 21:16:52": [
            -17,
            -17
        ]
    },
    "7119": {
        "21/03/2020 13:53:08": [
            28,
            28,
            21
        ],
        "21/03/2020 16:47:43": [
            28,
            28,
            28
        ],
        "21/03/2020 19:15:00": [
            14,
            14
        ],
        "21/03/2020 21:16:52": [
            12,
            12
        ]
    },
    "7127": {
        "21/03/2020 13:53:08": [
            -3,
            -3,
            -11
        ],
        "21/03/2020 16:47:43": [
            -3,
            -3,
            -3
        ],
        "21/03/2020 19:15:00": [
            -19,
            -19
        ],
        "21/03/2020 21:16:52": [
            -22,
            -22
        ]
    },
    "7143": {
        "21/03/2020 13:53:08": [
            -16,
            -16,
            -26
        ],
        "21/03/2020 16:47:43": [
            -17,
            -17,
            -17
        ],
        "21/03/2020 19:15:01": [
            23,
            23
        ],
        "21/03/2020 21:16:53": [
            20,
            20
        ]
    },
    "3368": {
        "21/03/2020 13:53:09": [
            23,
            23,
            8
        ],
        "21/03/2020 16:47:43": [
            22,
            22,
            22
        ],
        "21/03/2020 19:15:01": [
            -7,
            -7
        ],
        "21/03/2020 21:16:53": [
            -12,
            -12
        ]
    },
    "7137": {
        "21/03/2020 13:53:09": [
            43,
            -2,
            -2,
            -16
        ],
        "21/03/2020 16:47:44": [
            -4,
            -4,
            -4
        ],
        "21/03/2020 19:15:02": [
            -29,
            -29
        ],
        "21/03/2020 21:16:54": [
            19,
            19
        ]
    },
    "7139": {
        "21/03/2020 13:53:09": [
            58,
            13,
            13
        ],
        "21/03/2020 16:47:44": [
            12,
            12,
            12
        ],
        "21/03/2020 19:15:02": [
            -21,
            -21
        ],
        "21/03/2020 21:16:55": [
            20,
            20
        ]
    },
    "4623": {
        "21/03/2020 13:53:10": [
            15,
            -30,
            -30
        ],
        "21/03/2020 16:47:44": [
            -30,
            -30,
            -30
        ],
        "21/03/2020 19:15:02": [
            -10,
            -10
        ],
        "21/03/2020 21:16:55": [
            23,
            23
        ]
    },
    "4619": {
        "21/03/2020 13:53:10": [
            62,
            17,
            17
        ],
        "21/03/2020 16:47:44": [
            18,
            18,
            18
        ],
        "21/03/2020 19:15:03": [
            -27,
            -27
        ],
        "21/03/2020 21:16:56": [
            2,
            2
        ]
    },
    "4561": {
        "21/03/2020 13:53:10": [
            81,
            16,
            16
        ],
        "21/03/2020 16:47:45": [
            17,
            17,
            17
        ],
        "21/03/2020 19:15:03": [
            -13,
            29,
            29
        ],
        "21/03/2020 21:16:56": [
            -9,
            -9
        ]
    },
    "4629": {
        "21/03/2020 13:53:11": [
            64,
            -1,
            -1
        ],
        "21/03/2020 16:47:45": [
            0,
            0,
            0
        ],
        "21/03/2020 19:15:04": [
            3,
            9,
            9
        ],
        "21/03/2020 21:16:57": [
            26,
            26
        ]
    },
    "4630": {
        "21/03/2020 13:53:11": [
            69,
            4,
            4
        ],
        "21/03/2020 16:47:45": [
            3,
            3,
            3
        ],
        "21/03/2020 19:15:04": [
            -32,
            10,
            10
        ],
        "21/03/2020 21:16:57": [
            19,
            19
        ]
    },
    "4631": {
        "21/03/2020 13:53:11": [
            10,
            10,
            10
        ],
        "21/03/2020 16:47:45": [
            9,
            9,
            9
        ],
        "21/03/2020 19:15:05": [
            -48,
            12,
            12
        ],
        "21/03/2020 21:16:57": [
            13,
            13
        ]
    },
    "4632": {
        "21/03/2020 13:53:12": [
            -1,
            -1,
            -1
        ],
        "21/03/2020 16:47:46": [
            -9,
            -9,
            -9
        ],
        "21/03/2020 19:15:05": [
            -67,
            -7,
            -7
        ],
        "21/03/2020 21:16:58": [
            -14,
            -14
        ]
    },
    "5164": {
        "21/03/2020 13:53:12": [
            13,
            13,
            13
        ],
        "21/03/2020 16:47:46": [
            -6,
            -6,
            -6
        ],
        "21/03/2020 19:15:06": [
            -46,
            -4,
            -4
        ],
        "21/03/2020 21:16:58": [
            -24,
            -24
        ]
    },
    "4633": {
        "21/03/2020 13:53:12": [
            15,
            15,
            15
        ],
        "21/03/2020 16:47:46": [
            -21,
            -21,
            -21
        ],
        "21/03/2020 19:15:06": [
            -21,
            -21,
            -21
        ],
        "21/03/2020 21:16:59": [
            -2,
            -2
        ]
    },
    "2234": {
        "21/03/2020 13:53:12": [
            -13,
            -13,
            -13
        ],
        "21/03/2020 16:47:46": [
            -14,
            -14,
            -14
        ],
        "21/03/2020 19:15:06": [
            -26,
            -26
        ],
        "21/03/2020 21:16:59": [
            28,
            28
        ]
    },
    "2235": {
        "21/03/2020 13:53:13": [
            9,
            9,
            9
        ],
        "21/03/2020 16:47:47": [
            10,
            10,
            10
        ],
        "21/03/2020 19:15:07": [
            -5,
            -5
        ],
        "21/03/2020 21:17:00": [
            -11,
            -11
        ]
    },
    "2236": {
        "21/03/2020 13:53:13": [
            8,
            8,
            8
        ],
        "21/03/2020 16:47:47": [
            12,
            12
        ],
        "21/03/2020 19:15:07": [
            -8,
            -8
        ],
        "21/03/2020 21:17:00": [
            -17,
            -17
        ]
    },
    "2238": {
        "21/03/2020 13:53:13": [
            -24,
            -24,
            -24
        ],
        "21/03/2020 16:47:47": [
            51,
            -21,
            -21
        ],
        "21/03/2020 19:15:08": [
            19,
            19
        ],
        "21/03/2020 21:17:00": [
            7,
            7
        ]
    },
    "5056": {
        "21/03/2020 13:53:14": [
            -4,
            -4,
            -4
        ],
        "21/03/2020 16:47:47": [
            12,
            -2,
            -2
        ],
        "21/03/2020 19:15:08": [
            -22,
            -22
        ],
        "21/03/2020 21:17:01": [
            23,
            23
        ]
    },
    "2239": {
        "21/03/2020 13:53:14": [
            -22,
            -22,
            -22
        ],
        "21/03/2020 16:47:48": [
            62,
            -25,
            -25
        ],
        "21/03/2020 19:15:09": [
            19,
            19
        ],
        "21/03/2020 21:17:01": [
            -11,
            -11
        ]
    },
    "2241": {
        "21/03/2020 13:53:14": [
            -10,
            -10
        ],
        "21/03/2020 16:47:48": [
            64,
            -18,
            -18
        ],
        "21/03/2020 19:15:09": [
            27,
            27
        ],
        "21/03/2020 21:17:02": [
            -2,
            -2
        ]
    },
    "2242": {
        "21/03/2020 13:53:14": [
            17,
            17
        ],
        "21/03/2020 16:47:48": [
            26,
            3,
            3
        ],
        "21/03/2020 19:15:10": [
            -13,
            -13
        ],
        "21/03/2020 21:17:02": [
            17,
            17
        ]
    },
    "7435": {
        "21/03/2020 13:53:15": [
            -226,
            13,
            13
        ],
        "21/03/2020 16:47:49": [
            -22,
            -22
        ],
        "21/03/2020 19:15:10": [
            9,
            9
        ],
        "21/03/2020 21:17:02": [
            -27
        ]
    },
    "2722": {
        "21/03/2020 13:53:15": [
            -228,
            -22,
            -22
        ],
        "21/03/2020 16:47:49": [
            117,
            -3,
            -3
        ],
        "21/03/2020 19:15:10": [
            27,
            27
        ],
        "21/03/2020 21:17:03": [
            -9
        ]
    },
    "4413": {
        "21/03/2020 13:53:15": [
            -249,
            -10,
            -10
        ],
        "21/03/2020 16:47:49": [
            106,
            -25,
            -25
        ],
        "21/03/2020 19:15:11": [
            -10,
            -10
        ],
        "21/03/2020 21:17:03": [
            17
        ]
    },
    "1476": {
        "21/03/2020 13:53:16": [
            -124,
            -14,
            -14
        ],
        "21/03/2020 16:47:49": [
            101,
            12,
            12
        ],
        "21/03/2020 19:15:11": [
            -21,
            -21
        ],
        "21/03/2020 21:17:04": [
            -284,
            -28
        ]
    },
    "7453": {
        "21/03/2020 13:53:16": [
            -111,
            28,
            28
        ],
        "21/03/2020 16:47:50": [
            140,
            -9,
            -9
        ],
        "21/03/2020 19:15:12": [
            -319,
            25,
            25
        ],
        "21/03/2020 21:17:04": [
            -240,
            -6
        ]
    },
    "1478": {
        "21/03/2020 13:53:16": [
            -145,
            -6,
            -6
        ],
        "21/03/2020 16:47:50": [
            104,
            15,
            15
        ],
        "21/03/2020 19:15:12": [
            -380,
            -6,
            -6
        ],
        "21/03/2020 21:17:05": [
            -254,
            2
        ]
    },
    "1479": {
        "21/03/2020 13:53:16": [
            -146,
            -7,
            -7
        ],
        "21/03/2020 16:47:50": [
            102,
            13,
            13
        ],
        "21/03/2020 19:15:13": [
            -378,
            -4,
            -4
        ],
        "21/03/2020 21:17:05": [
            -266,
            -10
        ]
    },
    "315": {
        "21/03/2020 13:53:17": [
            -111,
            28
        ],
        "21/03/2020 16:47:50": [
            151,
            7
        ],
        "21/03/2020 19:15:13": [
            -341,
            2,
            2
        ],
        "21/03/2020 21:17:05": [
            -284,
            -30
        ]
    },
    "406": {
        "21/03/2020 13:53:17": [
            -122,
            17
        ],
        "21/03/2020 16:47:51": [
            -391,
            99,
            25
        ],
        "21/03/2020 19:15:13": [
            -231,
            26,
            26
        ],
        "21/03/2020 21:17:06": [
            -274,
            -18
        ]
    },
    "4530": {
        "21/03/2020 13:53:17": [
            -127,
            12
        ],
        "21/03/2020 16:47:51": [
            -330,
            140,
            29
        ],
        "21/03/2020 19:15:14": [
            -285,
            -28
        ],
        "21/03/2020 21:17:06": [
            54,
            -231,
            25
        ]
    },
    "748": {
        "21/03/2020 13:53:17": [
            -162,
            -23
        ],
        "21/03/2020 16:47:51": [
            -319,
            151,
            -4
        ],
        "21/03/2020 19:15:14": [
            -235,
            22
        ],
        "21/03/2020 21:17:07": [
            104,
            -251,
            5
        ]
    },
    "7390": {
        "21/03/2020 13:53:18": [],
        "21/03/2020 16:47:51": [],
        "21/03/2020 19:15:15": [],
        "21/03/2020 21:17:07": []
    },
    "7391": {
        "21/03/2020 13:53:18": [
            0,
            0,
            0
        ],
        "21/03/2020 16:47:52": [
            0,
            0,
            0
        ],
        "21/03/2020 19:15:15": [
            0,
            0
        ],
        "21/03/2020 21:17:08": [
            0
        ]
    },
    "493": {
        "21/03/2020 13:53:18": [
            -30,
            -30,
            24
        ],
        "21/03/2020 16:47:52": [
            -29,
            -29,
            29
        ],
        "21/03/2020 19:15:16": [
            27,
            27
        ],
        "21/03/2020 21:17:08": [
            22,
            22
        ]
    },
    "494": {
        "21/03/2020 13:53:19": [
            -19,
            -19,
            -30
        ],
        "21/03/2020 16:47:52": [
            -18,
            -18,
            -22
        ],
        "21/03/2020 19:15:16": [
            -25,
            -25
        ],
        "21/03/2020 21:17:09": [
            27,
            27
        ]
    },
    "495": {
        "21/03/2020 13:53:19": [
            -20,
            -20,
            -29
        ],
        "21/03/2020 16:47:52": [
            6,
            6,
            -6
        ],
        "21/03/2020 19:15:16": [
            -30,
            -30
        ],
        "21/03/2020 21:17:09": [
            12,
            12
        ]
    },
    "400": {
        "21/03/2020 13:53:19": [
            16,
            16,
            9
        ],
        "21/03/2020 16:47:53": [
            2,
            2,
            -16
        ],
        "21/03/2020 19:15:17": [
            4,
            4
        ],
        "21/03/2020 21:17:09": [
            -22,
            -22
        ]
    },
    "7392": {
        "21/03/2020 13:53:19": [
            11,
            11,
            7
        ],
        "21/03/2020 16:47:53": [
            -14,
            -14
        ],
        "21/03/2020 19:15:17": [
            -8,
            -8
        ],
        "21/03/2020 21:17:10": [
            6,
            6
        ]
    },
    "312": {
        "21/03/2020 13:53:20": [
            25,
            25,
            17
        ],
        "21/03/2020 16:47:53": [
            11,
            11
        ],
        "21/03/2020 19:15:18": [
            9,
            9
        ],
        "21/03/2020 21:17:10": [
            25,
            25
        ]
    },
    "1444": {
        "21/03/2020 13:53:20": [
            7,
            7,
            -6
        ],
        "21/03/2020 16:47:53": [
            -123,
            7,
            7
        ],
        "21/03/2020 19:15:18": [
            -6,
            -6
        ],
        "21/03/2020 21:17:11": [
            14,
            14
        ]
    },
    "1445": {
        "21/03/2020 13:53:20": [
            -29,
            -29,
            11
        ],
        "21/03/2020 16:47:54": [
            -116,
            14,
            14
        ],
        "21/03/2020 19:15:19": [
            5,
            5
        ],
        "21/03/2020 21:17:11": [
            19,
            19
        ]
    },
    "4407": {
        "21/03/2020 13:53:21": [
            5,
            5,
            -14
        ],
        "21/03/2020 16:47:54": [
            -175,
            8,
            8
        ],
        "21/03/2020 19:15:19": [
            -26,
            -26
        ],
        "21/03/2020 21:17:11": [
            -27,
            -27
        ]
    },
    "2637": {
        "21/03/2020 13:53:21": [
            -62,
            -17,
            -17
        ],
        "21/03/2020 16:47:54": [
            -135,
            7,
            7
        ],
        "21/03/2020 19:15:19": [
            7,
            7
        ],
        "21/03/2020 21:17:12": [
            -9,
            -9
        ]
    },
    "2721": {
        "21/03/2020 13:53:21": [
            -61,
            -17,
            -17
        ],
        "21/03/2020 16:47:54": [
            -138,
            4,
            4
        ],
        "21/03/2020 19:15:20": [
            16,
            16
        ],
        "21/03/2020 21:17:12": [
            -17,
            -17
        ]
    },
    "7012": {
        "21/03/2020 13:53:22": [
            -86,
            21,
            21
        ],
        "21/03/2020 16:47:55": [
            -153,
            -11,
            -11
        ],
        "21/03/2020 19:15:20": [
            -10,
            -10
        ],
        "21/03/2020 21:17:13": [
            14,
            14
        ]
    },
    "2201": {
        "21/03/2020 13:53:22": [
            31,
            29,
            29
        ],
        "21/03/2020 16:47:55": [
            -148,
            -6,
            -6
        ],
        "21/03/2020 19:15:21": [
            -336,
            -15,
            -15
        ],
        "21/03/2020 21:17:13": [
            -5,
            -5
        ]
    },
    "7239": {
        "21/03/2020 13:53:23": [
            -114,
            -7,
            -7
        ],
        "21/03/2020 16:47:55": [
            -124,
            18,
            18
        ],
        "21/03/2020 19:15:21": [
            -313,
            8,
            8
        ],
        "21/03/2020 21:17:13": [
            17,
            17
        ]
    },
    "4401": {
        "21/03/2020 13:53:23": [
            12,
            10,
            10
        ],
        "21/03/2020 16:47:55": [
            -167,
            -25,
            -25
        ],
        "21/03/2020 19:15:22": [
            -296,
            25,
            25
        ],
        "21/03/2020 21:17:14": [
            -27,
            -27
        ]
    },
    "2213": {
        "21/03/2020 13:53:23": [
            27,
            25,
            25
        ],
        "21/03/2020 16:47:56": [
            5,
            -142,
            0
        ],
        "21/03/2020 19:15:22": [
            -324,
            -3,
            -3
        ],
        "21/03/2020 21:17:14": [
            -22,
            -22
        ]
    },
    "2214": {
        "21/03/2020 13:53:24": [
            16,
            14,
            14
        ],
        "21/03/2020 16:47:56": [
            -5,
            -141,
            1
        ],
        "21/03/2020 19:15:22": [
            -281,
            -8
        ],
        "21/03/2020 21:17:15": [
            28
        ]
    },
    "2215": {
        "21/03/2020 13:53:24": [
            12,
            10,
            10
        ],
        "21/03/2020 16:47:56": [
            -6,
            -135,
            7
        ],
        "21/03/2020 19:15:23": [
            -284,
            -11
        ],
        "21/03/2020 21:17:15": [
            26
        ]
    },
    "2216": {
        "21/03/2020 13:53:24": [
            -6,
            -8,
            -8
        ],
        "21/03/2020 16:47:56": [
            -20,
            -143,
            -1
        ],
        "21/03/2020 19:15:23": [
            -300,
            -27
        ],
        "21/03/2020 21:17:16": [
            11
        ]
    },
    "4599": {
        "21/03/2020 13:53:24": [
            -7,
            -9,
            -9
        ],
        "21/03/2020 16:47:57": [
            -15,
            -143,
            -1
        ],
        "21/03/2020 19:15:24": [
            -302,
            -29
        ],
        "21/03/2020 21:17:16": [
            9
        ]
    },
    "4601": {
        "21/03/2020 13:53:25": [
            -16,
            -18,
            -18
        ],
        "21/03/2020 16:47:57": [
            -22,
            -147,
            -5
        ],
        "21/03/2020 19:15:24": [
            -251,
            22
        ],
        "21/03/2020 21:17:16": [
            -9
        ]
    },
    "5058": {
        "21/03/2020 13:53:25": [
            6,
            4,
            4
        ],
        "21/03/2020 16:47:57": [
            4,
            -170,
            -28
        ],
        "21/03/2020 19:15:25": [
            -285,
            -12
        ],
        "21/03/2020 21:17:17": []
    },
    "4602": {
        "21/03/2020 13:53:25": [
            3,
            1
        ],
        "21/03/2020 16:47:57": [
            4,
            -161,
            -19
        ],
        "21/03/2020 19:15:25": [
            -284,
            -11
        ],
        "21/03/2020 21:17:17": [
            -2
        ]
    },
    "4603": {
        "21/03/2020 13:53:26": [
            4,
            2
        ],
        "21/03/2020 16:47:58": [
            8,
            -149,
            -7
        ],
        "21/03/2020 19:15:25": [
            -280,
            -7
        ],
        "21/03/2020 21:17:18": [
            -6
        ]
    },
    "4604": {
        "21/03/2020 13:53:26": [
            -18,
            -20
        ],
        "21/03/2020 16:47:58": [
            -10,
            -168,
            -26
        ],
        "21/03/2020 19:15:26": [
            -299,
            -26
        ],
        "21/03/2020 21:17:18": [
            -25
        ]
    },
    "4605": {
        "21/03/2020 13:53:26": [
            -18,
            -20
        ],
        "21/03/2020 16:47:58": [
            -4,
            -164,
            -22
        ],
        "21/03/2020 19:15:26": [
            -296,
            -23
        ],
        "21/03/2020 21:17:18": [
            -234,
            -21
        ]
    },
    "4562": {
        "21/03/2020 13:53:27": [
            -11,
            -13
        ],
        "21/03/2020 16:47:58": [
            10,
            -151,
            -9
        ],
        "21/03/2020 19:15:27": [
            -284,
            -11
        ],
        "21/03/2020 21:17:19": [
            -222
        ]
    },
    "7386": {
        "21/03/2020 13:53:27": [
            -17,
            -19
        ],
        "21/03/2020 16:47:59": [
            6,
            -155,
            -13
        ],
        "21/03/2020 19:15:27": [
            -290,
            -17
        ],
        "21/03/2020 21:17:19": [
            -231,
            -18
        ]
    },
    "4607": {
        "21/03/2020 13:53:27": [
            19,
            17
        ],
        "21/03/2020 16:47:59": [
            -17,
            -118,
            24
        ],
        "21/03/2020 19:15:28": [
            -254,
            19
        ],
        "21/03/2020 21:17:20": [
            -197,
            16
        ]
    },
    "7140": {
        "21/03/2020 13:53:27": [
            -8,
            -10
        ],
        "21/03/2020 16:47:59": [
            18,
            -143,
            -1
        ],
        "21/03/2020 19:15:28": [
            -281,
            -8
        ],
        "21/03/2020 21:17:20": [
            -230,
            -17
        ]
    },
    "7141": {
        "21/03/2020 13:53:28": [
            -395,
            -23,
            -25
        ],
        "21/03/2020 16:48:00": [
            305,
            4,
            -157,
            -15
        ],
        "21/03/2020 19:15:28": [
            -296,
            -23
        ],
        "21/03/2020 21:17:20": [
            -187,
            26
        ]
    },
    "7138": {
        "21/03/2020 13:53:28": [
            -381,
            13,
            11
        ],
        "21/03/2020 16:48:00": [
            287,
            -14,
            -116,
            26
        ],
        "21/03/2020 19:15:29": [
            -255,
            18
        ],
        "21/03/2020 21:17:21": [
            -207,
            6
        ]
    },
    "3370": {
        "21/03/2020 13:53:28": [
            -370,
            24,
            22
        ],
        "21/03/2020 16:48:00": [
            308,
            7,
            -156,
            -14
        ],
        "21/03/2020 19:15:29": [
            -296,
            -23
        ],
        "21/03/2020 21:17:21": [
            -190,
            23
        ]
    },
    "7231": {
        "21/03/2020 13:53:29": [
            -416,
            -22,
            -24
        ],
        "21/03/2020 16:48:01": [
            314,
            13,
            -148
        ],
        "21/03/2020 19:15:30": [
            -289,
            -16
        ],
        "21/03/2020 21:17:22": [
            -191,
            22
        ]
    },
    "7128": {
        "21/03/2020 13:53:29": [
            -386,
            8,
            6
        ],
        "21/03/2020 16:48:01": [
            279,
            -22,
            -121
        ],
        "21/03/2020 19:15:30": [
            -559,
            -263,
            10
        ],
        "21/03/2020 21:17:22": [
            -284,
            -17
        ]
    },
    "7117": {
        "21/03/2020 13:53:29": [
            -392,
            2,
            0
        ],
        "21/03/2020 16:48:01": [
            -130
        ],
        "21/03/2020 19:15:30": [
            -568,
            -272,
            1
        ],
        "21/03/2020 21:17:23": [
            -296,
            -29
        ]
    },
    "7118": {
        "21/03/2020 13:53:30": [
            -413,
            -19,
            -21
        ],
        "21/03/2020 16:48:01": [
            307,
            6,
            -152
        ],
        "21/03/2020 19:15:31": [
            -591,
            -295,
            -22
        ],
        "21/03/2020 21:17:23": [
            -261,
            6
        ]
    },
    "6289": {
        "21/03/2020 13:53:30": [],
        "21/03/2020 16:48:02": [],
        "21/03/2020 19:15:31": [],
        "21/03/2020 21:17:23": []
    }
}