{
    "overall_punctuality": -20744,
    "overall_num": 163,
    "overall_avg": -127,
    "daily_punctuality": {
        "Sunday": {
            "num_results": 0,
            "total": 0,
            "avg:": 0
        },
        "Monday": {
            "num_results": 0,
            "total": 0,
            "avg:": 0
        },
        "Tuesday": {
            "num_results": 75,
            "total": -14800,
            "avg:": 0,
            "avg": -197
        },
        "Wednesday": {
            "num_results": 40,
            "total": -2607,
            "avg:": 0,
            "avg": -65
        },
        "Thursday": {
            "num_results": 26,
            "total": -43,
            "avg:": 0,
            "avg": -1
        },
        "Friday": {
            "num_results": 22,
            "total": -3294,
            "avg:": 0,
            "avg": -149
        },
        "Saturday": {
            "num_results": 0,
            "total": 0,
            "avg:": 0
        }
    }
}