{
    "overall_punctuality": -17107,
    "overall_num": 53,
    "overall_avg": -322,
    "daily_punctuality": {
        "Sunday": {
            "num_results": 0,
            "total": 0,
            "avg:": 0
        },
        "Monday": {
            "num_results": 0,
            "total": 0,
            "avg:": 0
        },
        "Tuesday": {
            "num_results": 30,
            "total": -17155,
            "avg:": 0,
            "avg": -571
        },
        "Wednesday": {
            "num_results": 0,
            "total": 0,
            "avg:": 0
        },
        "Thursday": {
            "num_results": 23,
            "total": 48,
            "avg:": 0,
            "avg": 3
        },
        "Friday": {
            "num_results": 0,
            "total": 0,
            "avg:": 0
        },
        "Saturday": {
            "num_results": 0,
            "total": 0,
            "avg:": 0
        }
    }
}