{
    "5192": {
        "25/03/2020 15:27:57": [],
        "25/03/2020 18:12:57": [],
        "25/03/2020 20:29:39": [],
        "25/03/2020 21:56:19": []
    },
    "7589": {
        "25/03/2020 15:27:57": [],
        "25/03/2020 18:12:57": [],
        "25/03/2020 20:29:39": [],
        "25/03/2020 21:56:19": []
    },
    "1376": {
        "25/03/2020 15:27:58": [],
        "25/03/2020 18:12:57": [],
        "25/03/2020 20:29:39": [],
        "25/03/2020 21:56:19": []
    },
    "1377": {
        "25/03/2020 15:27:58": [],
        "25/03/2020 18:12:58": [],
        "25/03/2020 20:29:39": [],
        "25/03/2020 21:56:20": []
    },
    "1378": {
        "25/03/2020 15:27:58": [],
        "25/03/2020 18:12:58": [],
        "25/03/2020 20:29:40": [],
        "25/03/2020 21:56:20": []
    },
    "1379": {
        "25/03/2020 15:27:59": [],
        "25/03/2020 18:12:58": [],
        "25/03/2020 20:29:40": [],
        "25/03/2020 21:56:21": []
    },
    "1380": {
        "25/03/2020 15:27:59": [],
        "25/03/2020 18:12:59": [],
        "25/03/2020 20:29:40": [],
        "25/03/2020 21:56:21": []
    },
    "1381": {
        "25/03/2020 15:27:59": [],
        "25/03/2020 18:12:59": [],
        "25/03/2020 20:29:41": [],
        "25/03/2020 21:56:21": []
    },
    "1382": {
        "25/03/2020 15:28:00": [],
        "25/03/2020 18:12:59": [],
        "25/03/2020 20:29:41": [],
        "25/03/2020 21:56:21": []
    },
    "1383": {
        "25/03/2020 15:28:00": [],
        "25/03/2020 18:13:00": [],
        "25/03/2020 20:29:41": [],
        "25/03/2020 21:56:22": []
    },
    "1384": {
        "25/03/2020 15:28:00": [],
        "25/03/2020 18:13:00": [],
        "25/03/2020 20:29:42": [],
        "25/03/2020 21:56:22": []
    },
    "1385": {
        "25/03/2020 15:28:01": [],
        "25/03/2020 18:13:00": [],
        "25/03/2020 20:29:42": [],
        "25/03/2020 21:56:22": []
    },
    "1348": {
        "25/03/2020 15:28:01": [],
        "25/03/2020 18:13:01": [],
        "25/03/2020 20:29:42": [],
        "25/03/2020 21:56:23": []
    },
    "1349": {
        "25/03/2020 15:28:01": [],
        "25/03/2020 18:13:01": [],
        "25/03/2020 20:29:42": [],
        "25/03/2020 21:56:23": []
    },
    "1350": {
        "25/03/2020 15:28:02": [],
        "25/03/2020 18:13:01": [],
        "25/03/2020 20:29:43": [],
        "25/03/2020 21:56:23": []
    },
    "1352": {
        "25/03/2020 15:28:02": [],
        "25/03/2020 18:13:01": [],
        "25/03/2020 20:29:43": [],
        "25/03/2020 21:56:23": []
    },
    "1353": {
        "25/03/2020 15:28:02": [],
        "25/03/2020 18:13:02": [],
        "25/03/2020 20:29:43": [],
        "25/03/2020 21:56:24": []
    },
    "1355": {
        "25/03/2020 15:28:02": [],
        "25/03/2020 18:13:02": [],
        "25/03/2020 20:29:44": [],
        "25/03/2020 21:56:24": []
    },
    "1357": {
        "25/03/2020 15:28:03": [],
        "25/03/2020 18:13:02": [],
        "25/03/2020 20:29:44": [],
        "25/03/2020 21:56:24": []
    },
    "1358": {
        "25/03/2020 15:28:03": [],
        "25/03/2020 18:13:03": [],
        "25/03/2020 20:29:44": [],
        "25/03/2020 21:56:25": []
    },
    "7665": {
        "25/03/2020 15:28:03": [],
        "25/03/2020 18:13:03": [],
        "25/03/2020 20:29:45": [],
        "25/03/2020 21:56:25": []
    },
    "337": {
        "25/03/2020 15:28:04": [],
        "25/03/2020 18:13:03": [],
        "25/03/2020 20:29:45": [],
        "25/03/2020 21:56:25": []
    },
    "339": {
        "25/03/2020 15:28:04": [],
        "25/03/2020 18:13:04": [],
        "25/03/2020 20:29:45": [],
        "25/03/2020 21:56:26": []
    },
    "4495": {
        "25/03/2020 15:28:04": [
            0
        ],
        "25/03/2020 18:13:04": [],
        "25/03/2020 20:29:46": [],
        "25/03/2020 21:56:26": []
    },
    "1278": {
        "25/03/2020 15:28:05": [
            -6
        ],
        "25/03/2020 18:13:04": [],
        "25/03/2020 20:29:46": [],
        "25/03/2020 21:56:26": []
    },
    "1282": {
        "25/03/2020 15:28:05": [
            -10
        ],
        "25/03/2020 18:13:04": [],
        "25/03/2020 20:29:46": [],
        "25/03/2020 21:56:27": []
    },
    "4456": {
        "25/03/2020 15:28:05": [
            28
        ],
        "25/03/2020 18:13:05": [],
        "25/03/2020 20:29:46": [],
        "25/03/2020 21:56:27": []
    },
    "1284": {
        "25/03/2020 15:28:06": [
            6
        ],
        "25/03/2020 18:13:05": [],
        "25/03/2020 20:29:47": [],
        "25/03/2020 21:56:27": []
    },
    "1285": {
        "25/03/2020 15:28:06": [
            24
        ],
        "25/03/2020 18:13:05": [],
        "25/03/2020 20:29:47": [],
        "25/03/2020 21:56:27": []
    },
    "1286": {
        "25/03/2020 15:28:06": [
            6
        ],
        "25/03/2020 18:13:06": [],
        "25/03/2020 20:29:47": [],
        "25/03/2020 21:56:28": []
    },
    "1288": {
        "25/03/2020 15:28:07": [
            -1
        ],
        "25/03/2020 18:13:06": [],
        "25/03/2020 20:29:48": [],
        "25/03/2020 21:56:28": []
    },
    "1289": {
        "25/03/2020 15:28:07": [
            -17
        ],
        "25/03/2020 18:13:06": [],
        "25/03/2020 20:29:48": [],
        "25/03/2020 21:56:28": []
    },
    "1360": {
        "25/03/2020 15:28:07": [
            -12
        ],
        "25/03/2020 18:13:07": [],
        "25/03/2020 20:29:48": [],
        "25/03/2020 21:56:29": []
    },
    "1362": {
        "25/03/2020 15:28:08": [
            -8
        ],
        "25/03/2020 18:13:07": [],
        "25/03/2020 20:29:49": [],
        "25/03/2020 21:56:29": []
    },
    "1363": {
        "25/03/2020 15:28:08": [
            -27
        ],
        "25/03/2020 18:13:07": [],
        "25/03/2020 20:29:49": [],
        "25/03/2020 21:56:29": []
    },
    "1364": {
        "25/03/2020 15:28:08": [
            9
        ],
        "25/03/2020 18:13:08": [],
        "25/03/2020 20:29:49": [],
        "25/03/2020 21:56:29": []
    },
    "1365": {
        "25/03/2020 15:28:08": [
            -17
        ],
        "25/03/2020 18:13:08": [],
        "25/03/2020 20:29:50": [],
        "25/03/2020 21:56:30": []
    },
    "1366": {
        "25/03/2020 15:28:09": [
            -20
        ],
        "25/03/2020 18:13:08": [],
        "25/03/2020 20:29:50": [],
        "25/03/2020 21:56:30": []
    },
    "1367": {
        "25/03/2020 15:28:09": [
            4
        ],
        "25/03/2020 18:13:08": [],
        "25/03/2020 20:29:50": [],
        "25/03/2020 21:56:30": []
    },
    "1369": {
        "25/03/2020 15:28:10": [
            -20
        ],
        "25/03/2020 18:13:09": [],
        "25/03/2020 20:29:51": [],
        "25/03/2020 21:56:31": []
    },
    "1370": {
        "25/03/2020 15:28:10": [
            12
        ],
        "25/03/2020 18:13:09": [],
        "25/03/2020 20:29:51": [],
        "25/03/2020 21:56:31": []
    },
    "1371": {
        "25/03/2020 15:28:10": [
            -12
        ],
        "25/03/2020 18:13:09": [],
        "25/03/2020 20:29:51": [],
        "25/03/2020 21:56:31": []
    },
    "1372": {
        "25/03/2020 15:28:11": [
            16
        ],
        "25/03/2020 18:13:10": [],
        "25/03/2020 20:29:52": [],
        "25/03/2020 21:56:32": []
    },
    "1373": {
        "25/03/2020 15:28:11": [
            -21
        ],
        "25/03/2020 18:13:10": [],
        "25/03/2020 20:29:52": [],
        "25/03/2020 21:56:32": []
    },
    "1374": {
        "25/03/2020 15:28:11": [
            13
        ],
        "25/03/2020 18:13:10": [],
        "25/03/2020 20:29:52": [],
        "25/03/2020 21:56:32": []
    },
    "1375": {
        "25/03/2020 15:28:12": [],
        "25/03/2020 18:13:11": [],
        "25/03/2020 20:29:53": [],
        "25/03/2020 21:56:32": []
    }
}