{
    "2637": {
        "20/03/2020 19:03:26": [
            -5,
            -5
        ],
        "20/03/2020 23:25:26": [
            3
        ],
        "20/03/2020 23:25:36": [
            3
        ]
    },
    "2638": {
        "20/03/2020 19:03:26": [
            -27,
            -27
        ],
        "20/03/2020 23:25:26": [
            24
        ],
        "20/03/2020 23:25:36": [
            24
        ]
    },
    "2644": {
        "20/03/2020 19:03:27": [
            -21,
            -21
        ],
        "20/03/2020 23:25:26": [
            -24
        ],
        "20/03/2020 23:25:37": [
            -24
        ]
    },
    "2645": {
        "20/03/2020 19:03:28": [
            -11
        ],
        "20/03/2020 23:25:26": [
            -28
        ],
        "20/03/2020 23:25:37": [
            -28
        ]
    },
    "2646": {
        "20/03/2020 19:03:28": [
            25,
            25
        ],
        "20/03/2020 23:25:27": [
            1
        ],
        "20/03/2020 23:25:38": [
            1
        ]
    },
    "2647": {
        "20/03/2020 19:03:28": [
            28
        ],
        "20/03/2020 23:25:27": [
            -6
        ],
        "20/03/2020 23:25:38": [
            -6
        ]
    },
    "2648": {
        "20/03/2020 19:03:29": [
            -28
        ],
        "20/03/2020 23:25:27": [
            -11
        ],
        "20/03/2020 23:25:38": [
            -11
        ]
    },
    "2649": {
        "20/03/2020 19:03:29": [
            15
        ],
        "20/03/2020 23:25:27": [
            26
        ],
        "20/03/2020 23:25:38": [
            26
        ]
    },
    "2650": {
        "20/03/2020 19:03:29": [
            -3
        ],
        "20/03/2020 23:25:28": [
            2
        ],
        "20/03/2020 23:25:39": [
            2
        ]
    },
    "2652": {
        "20/03/2020 19:03:29": [
            -19
        ],
        "20/03/2020 23:25:28": [
            -21
        ],
        "20/03/2020 23:25:39": [
            -21
        ]
    },
    "2653": {
        "20/03/2020 19:03:30": [
            13
        ],
        "20/03/2020 23:25:28": [
            6
        ],
        "20/03/2020 23:25:39": [
            6
        ]
    },
    "2654": {
        "20/03/2020 19:03:30": [
            -25
        ],
        "20/03/2020 23:25:29": [
            25
        ],
        "20/03/2020 23:25:40": [
            25
        ]
    },
    "2655": {
        "20/03/2020 19:03:30": [
            8
        ],
        "20/03/2020 23:25:29": [
            -20
        ],
        "20/03/2020 23:25:40": [
            -20
        ]
    },
    "2656": {
        "20/03/2020 19:03:31": [
            -16
        ],
        "20/03/2020 23:25:29": [
            -2
        ],
        "20/03/2020 23:25:40": [
            -2
        ]
    },
    "2657": {
        "20/03/2020 19:03:31": [
            -6
        ],
        "20/03/2020 23:25:29": [
            -2
        ],
        "20/03/2020 23:25:40": [
            -2
        ]
    },
    "2658": {
        "20/03/2020 19:03:31": [
            -26
        ],
        "20/03/2020 23:25:30": [
            -23
        ],
        "20/03/2020 23:25:41": [
            -23
        ]
    },
    "2659": {
        "20/03/2020 19:03:31": [
            14
        ],
        "20/03/2020 23:25:30": [
            16
        ],
        "20/03/2020 23:25:41": [
            16
        ]
    },
    "2660": {
        "20/03/2020 19:03:32": [
            -17
        ],
        "20/03/2020 23:25:30": [
            -16
        ],
        "20/03/2020 23:25:41": [
            -16
        ]
    },
    "2909": {
        "20/03/2020 19:03:33": [
            18
        ],
        "20/03/2020 23:25:31": [
            15
        ],
        "20/03/2020 23:25:42": [
            15
        ]
    },
    "1443": {
        "20/03/2020 19:03:25": [
            16,
            16
        ],
        "20/03/2020 23:25:31": [
            -4
        ],
        "20/03/2020 23:25:35": [
            -4
        ]
    },
    "1444": {
        "20/03/2020 19:03:25": [
            11,
            11
        ],
        "20/03/2020 23:25:31": [
            -17
        ],
        "20/03/2020 23:25:35": [
            -17
        ]
    },
    "1445": {
        "20/03/2020 19:03:26": [
            12,
            12
        ],
        "20/03/2020 23:25:31": [
            -24
        ],
        "20/03/2020 23:25:35": [
            -24
        ]
    },
    "2721": {
        "20/03/2020 19:03:27": [
            9,
            9
        ],
        "20/03/2020 23:25:32": [
            -17
        ],
        "20/03/2020 23:25:36": [
            -17
        ]
    },
    "7012": {
        "20/03/2020 19:03:27": [
            -6,
            -6
        ],
        "20/03/2020 23:25:32": [
            14
        ],
        "20/03/2020 23:25:37": [
            14
        ]
    },
    "2661": {
        "20/03/2020 19:03:32": [
            -27
        ],
        "20/03/2020 23:25:32": [
            -27
        ],
        "20/03/2020 23:25:42": [
            -27
        ]
    },
    "2662": {
        "20/03/2020 19:03:32": [
            -25
        ],
        "20/03/2020 23:25:32": [
            -27
        ],
        "20/03/2020 23:25:42": [
            -27
        ]
    },
    "326": {
        "20/03/2020 19:03:53": [
            0,
            0
        ],
        "20/03/2020 23:25:33": [
            0
        ],
        "20/03/2020 23:25:35": [
            0
        ],
        "20/03/2020 23:25:48": [
            0
        ],
        "20/03/2020 23:26:01": [
            0
        ]
    },
    "6020": {
        "20/03/2020 19:03:33": [
            -7
        ],
        "20/03/2020 23:25:33": [
            -11
        ],
        "20/03/2020 23:25:42": [
            -11
        ]
    },
    "6023": {
        "20/03/2020 19:03:33": [
            -29
        ],
        "20/03/2020 23:25:33": [
            26
        ],
        "20/03/2020 23:25:43": [
            26
        ]
    },
    "6026": {
        "20/03/2020 19:03:34": [
            14
        ],
        "20/03/2020 23:25:33": [
            7
        ],
        "20/03/2020 23:25:43": [
            7
        ]
    },
    "6027": {
        "20/03/2020 19:03:34": [
            -17
        ],
        "20/03/2020 23:25:34": [
            -24
        ],
        "20/03/2020 23:25:43": [
            -24
        ]
    },
    "6029": {
        "20/03/2020 19:03:34": [],
        "20/03/2020 23:25:34": [],
        "20/03/2020 23:25:44": []
    },
    "4407": {
        "20/03/2020 19:03:26": [
            -29,
            -29
        ],
        "20/03/2020 23:25:34": [
            -12
        ],
        "20/03/2020 23:25:36": [
            -12
        ]
    },
    "1480": {
        "20/03/2020 19:03:52": [
            6,
            6
        ],
        "20/03/2020 23:25:44": [
            -5
        ],
        "20/03/2020 23:26:00": [
            -5
        ]
    },
    "2696": {
        "20/03/2020 19:03:47": [
            -12
        ],
        "20/03/2020 23:25:44": [
            -28
        ],
        "20/03/2020 23:25:56": []
    },
    "2697": {
        "20/03/2020 19:03:47": [
            97,
            8
        ],
        "20/03/2020 23:25:44": [
            -34
        ],
        "20/03/2020 23:25:56": [
            -107
        ]
    },
    "2700": {
        "20/03/2020 19:03:47": [
            100,
            -10
        ],
        "20/03/2020 23:25:45": [
            -76
        ],
        "20/03/2020 23:25:56": [
            -76
        ]
    },
    "2701": {
        "20/03/2020 19:03:48": [
            118,
            8
        ],
        "20/03/2020 23:25:45": [
            -62
        ],
        "20/03/2020 23:25:56": [
            -62
        ]
    },
    "2702": {
        "20/03/2020 19:03:48": [
            95,
            -15
        ],
        "20/03/2020 23:25:45": [
            -93
        ],
        "20/03/2020 23:25:57": [
            -93
        ]
    },
    "2703": {
        "20/03/2020 19:03:48": [
            124,
            14
        ],
        "20/03/2020 23:25:46": [
            -70
        ],
        "20/03/2020 23:25:57": [
            -70
        ]
    },
    "2704": {
        "20/03/2020 19:03:49": [
            91,
            -19
        ],
        "20/03/2020 23:25:46": [
            -49
        ],
        "20/03/2020 23:25:57": [
            -49
        ]
    },
    "2663": {
        "20/03/2020 19:03:45": [
            -24,
            -24
        ],
        "20/03/2020 23:25:46": [],
        "20/03/2020 23:25:54": []
    },
    "2664": {
        "20/03/2020 19:03:46": [
            20,
            20
        ],
        "20/03/2020 23:25:46": [],
        "20/03/2020 23:25:55": []
    },
    "2665": {
        "20/03/2020 19:03:46": [
            -6
        ],
        "20/03/2020 23:25:47": [],
        "20/03/2020 23:25:55": []
    },
    "2666": {
        "20/03/2020 19:03:46": [
            21
        ],
        "20/03/2020 23:25:47": [],
        "20/03/2020 23:25:55": []
    },
    "2667": {
        "20/03/2020 19:03:46": [
            -2
        ],
        "20/03/2020 23:25:47": [],
        "20/03/2020 23:25:55": []
    },
    "2912": {
        "20/03/2020 19:03:52": [
            -25,
            -25
        ],
        "20/03/2020 23:25:47": [
            4
        ],
        "20/03/2020 23:26:01": [
            4
        ]
    },
    "4413": {
        "20/03/2020 19:03:51": [
            12,
            12
        ],
        "20/03/2020 23:25:48": [
            -6
        ],
        "20/03/2020 23:26:00": [
            -6
        ]
    },
    "6070": {
        "20/03/2020 19:03:49": [
            93,
            24
        ],
        "20/03/2020 23:25:48": [
            -85
        ],
        "20/03/2020 23:25:58": [
            -85
        ]
    },
    "1476": {
        "20/03/2020 19:03:51": [
            -25,
            -25
        ],
        "20/03/2020 23:25:48": [
            3
        ],
        "20/03/2020 23:26:00": [
            3
        ]
    },
    "2718": {
        "20/03/2020 19:03:50": [
            40,
            -29
        ],
        "20/03/2020 23:25:49": [
            -101
        ],
        "20/03/2020 23:25:59": [
            -101
        ]
    },
    "2722": {
        "20/03/2020 19:03:51": [
            -15,
            -15
        ],
        "20/03/2020 23:25:49": [
            -117
        ],
        "20/03/2020 23:25:59": [
            -117
        ]
    },
    "6021": {
        "20/03/2020 19:03:45": [
            -17,
            -17
        ],
        "20/03/2020 23:25:49": [],
        "20/03/2020 23:25:54": []
    },
    "6024": {
        "20/03/2020 19:03:44": [
            18,
            18
        ],
        "20/03/2020 23:25:50": [],
        "20/03/2020 23:25:53": []
    },
    "6025": {
        "20/03/2020 19:03:44": [
            -2,
            -2
        ],
        "20/03/2020 23:25:50": [],
        "20/03/2020 23:25:53": []
    },
    "6028": {
        "20/03/2020 19:03:44": [
            -25,
            -25
        ],
        "20/03/2020 23:25:50": [],
        "20/03/2020 23:25:53": []
    },
    "6030": {
        "20/03/2020 19:03:43": [
            0,
            0
        ],
        "20/03/2020 23:25:50": [],
        "20/03/2020 23:25:53": []
    },
    "7507": {
        "20/03/2020 19:03:45": [
            13,
            13
        ],
        "20/03/2020 23:25:51": [],
        "20/03/2020 23:25:54": []
    },
    "7453": {
        "20/03/2020 19:03:51": [
            10,
            10
        ],
        "20/03/2020 23:25:51": [
            21
        ],
        "20/03/2020 23:26:00": [
            21
        ]
    },
    "2706": {
        "20/03/2020 19:03:49": [
            95,
            26
        ],
        "20/03/2020 23:25:51": [
            -72
        ],
        "20/03/2020 23:25:58": [
            -72
        ]
    },
    "2708": {
        "20/03/2020 19:03:49": [
            87,
            18
        ],
        "20/03/2020 23:25:51": [
            -101
        ],
        "20/03/2020 23:25:58": [
            -101
        ]
    },
    "7435": {
        "20/03/2020 19:03:50": [
            13,
            13
        ],
        "20/03/2020 23:25:52": [
            -66
        ],
        "20/03/2020 23:25:59": [
            -66
        ]
    },
    "1358": {
        "20/03/2020 19:03:52": [
            3,
            3
        ],
        "20/03/2020 23:25:52": [
            11
        ],
        "20/03/2020 23:26:01": [
            11
        ]
    },
    "5134": {
        "20/03/2020 19:03:50": [
            61,
            -8
        ],
        "20/03/2020 23:25:52": [
            -73
        ],
        "20/03/2020 23:25:58": [
            -73
        ]
    }
}