{
    "395": {
        "25/03/2020 15:16:41": [
            0
        ],
        "25/03/2020 18:02:24": [
            0
        ],
        "25/03/2020 20:19:35": [
            0
        ],
        "25/03/2020 21:46:31": [
            0
        ]
    },
    "396": {
        "25/03/2020 15:16:41": [
            -15
        ],
        "25/03/2020 18:02:25": [
            -2
        ],
        "25/03/2020 20:19:36": [
            -26
        ],
        "25/03/2020 21:46:31": [
            -26
        ]
    },
    "397": {
        "25/03/2020 15:16:41": [
            11
        ],
        "25/03/2020 18:02:25": [
            -30
        ],
        "25/03/2020 20:19:36": [
            -6
        ],
        "25/03/2020 21:46:32": [
            -6
        ]
    },
    "398": {
        "25/03/2020 15:16:42": [
            6
        ],
        "25/03/2020 18:02:25": [
            0
        ],
        "25/03/2020 20:19:36": [
            19
        ],
        "25/03/2020 21:46:32": [
            19
        ]
    },
    "399": {
        "25/03/2020 15:16:42": [
            -9
        ],
        "25/03/2020 18:02:26": [
            25
        ],
        "25/03/2020 20:19:37": [
            -21
        ],
        "25/03/2020 21:46:32": [
            -21
        ]
    },
    "400": {
        "25/03/2020 15:16:42": [
            13
        ],
        "25/03/2020 18:02:26": [
            10
        ],
        "25/03/2020 20:19:37": [
            17
        ],
        "25/03/2020 21:46:33": [
            17
        ]
    },
    "4522": {
        "25/03/2020 15:16:43": [
            26
        ],
        "25/03/2020 18:02:26": [
            -8
        ],
        "25/03/2020 20:19:37": [
            -25
        ],
        "25/03/2020 21:46:33": [
            -25
        ]
    },
    "1934": {
        "25/03/2020 15:16:43": [
            -15
        ],
        "25/03/2020 18:02:26": [
            -2
        ],
        "25/03/2020 20:19:38": [
            22
        ],
        "25/03/2020 21:46:33": [
            22
        ]
    },
    "2310": {
        "25/03/2020 15:16:43": [
            -30
        ],
        "25/03/2020 18:02:27": [
            25
        ],
        "25/03/2020 20:19:38": [
            26
        ],
        "25/03/2020 21:46:33": [
            26
        ]
    },
    "2311": {
        "25/03/2020 15:16:44": [
            19
        ],
        "25/03/2020 18:02:27": [
            -18
        ],
        "25/03/2020 20:19:38": [
            -14
        ],
        "25/03/2020 21:46:34": [
            -14
        ]
    },
    "2312": {
        "25/03/2020 15:16:44": [
            1
        ],
        "25/03/2020 18:02:27": [
            -24
        ],
        "25/03/2020 20:19:39": [
            26
        ],
        "25/03/2020 21:46:34": [
            26
        ]
    },
    "2313": {
        "25/03/2020 15:16:44": [
            -2
        ],
        "25/03/2020 18:02:28": [
            7
        ],
        "25/03/2020 20:19:39": [
            -11
        ],
        "25/03/2020 21:46:34": [
            -11
        ]
    },
    "2314": {
        "25/03/2020 15:16:45": [
            13
        ],
        "25/03/2020 18:02:28": [
            25
        ],
        "25/03/2020 20:19:39": [
            12
        ],
        "25/03/2020 21:46:34": [
            12
        ]
    },
    "2315": {
        "25/03/2020 15:16:45": [],
        "25/03/2020 18:02:28": [
            1
        ],
        "25/03/2020 20:19:40": [
            -1
        ],
        "25/03/2020 21:46:35": [
            -1
        ]
    },
    "2094": {
        "25/03/2020 15:16:45": [],
        "25/03/2020 18:02:28": [
            3
        ],
        "25/03/2020 20:19:40": [
            -14
        ],
        "25/03/2020 21:46:35": [
            -14
        ]
    },
    "1406": {
        "25/03/2020 15:16:46": [],
        "25/03/2020 18:02:29": [
            -14
        ],
        "25/03/2020 20:19:40": [
            23
        ],
        "25/03/2020 21:46:35": [
            23
        ]
    },
    "1407": {
        "25/03/2020 15:16:46": [],
        "25/03/2020 18:02:29": [
            21
        ],
        "25/03/2020 20:19:40": [
            -11
        ],
        "25/03/2020 21:46:36": [
            -11
        ]
    },
    "1409": {
        "25/03/2020 15:16:46": [],
        "25/03/2020 18:02:29": [
            -7
        ],
        "25/03/2020 20:19:41": [
            14
        ],
        "25/03/2020 21:46:36": [
            14
        ]
    },
    "2095": {
        "25/03/2020 15:16:47": [],
        "25/03/2020 18:02:29": [
            29
        ],
        "25/03/2020 20:19:41": [
            -16
        ],
        "25/03/2020 21:46:36": [
            -16
        ]
    },
    "2096": {
        "25/03/2020 15:16:47": [],
        "25/03/2020 18:02:30": [
            -1
        ],
        "25/03/2020 20:19:41": [
            9
        ],
        "25/03/2020 21:46:36": [
            9
        ]
    },
    "2097": {
        "25/03/2020 15:16:47": [],
        "25/03/2020 18:02:30": [
            18
        ],
        "25/03/2020 20:19:42": [
            -29
        ],
        "25/03/2020 21:46:37": [
            -29
        ]
    },
    "2099": {
        "25/03/2020 15:16:48": [],
        "25/03/2020 18:02:30": [
            23
        ],
        "25/03/2020 20:19:42": [
            15
        ],
        "25/03/2020 21:46:37": [
            15
        ]
    },
    "2101": {
        "25/03/2020 15:16:48": [],
        "25/03/2020 18:02:31": [
            -22
        ],
        "25/03/2020 20:19:42": [
            26
        ],
        "25/03/2020 21:46:37": [
            26
        ]
    },
    "2102": {
        "25/03/2020 15:16:49": [],
        "25/03/2020 18:02:31": [
            -12
        ],
        "25/03/2020 20:19:43": [
            14
        ],
        "25/03/2020 21:46:38": [
            14
        ]
    },
    "2726": {
        "25/03/2020 15:16:49": [],
        "25/03/2020 18:02:31": [
            18
        ],
        "25/03/2020 20:19:43": [
            -25
        ],
        "25/03/2020 21:46:38": [
            -25
        ]
    },
    "2727": {
        "25/03/2020 15:16:49": [],
        "25/03/2020 18:02:32": [
            -25
        ],
        "25/03/2020 20:19:43": [
            -12
        ],
        "25/03/2020 21:46:38": [
            -12
        ]
    },
    "2105": {
        "25/03/2020 15:16:50": [],
        "25/03/2020 18:02:32": [
            9
        ],
        "25/03/2020 20:19:44": [
            12
        ],
        "25/03/2020 21:46:39": [
            12
        ]
    },
    "2728": {
        "25/03/2020 15:16:50": [],
        "25/03/2020 18:02:32": [
            5
        ],
        "25/03/2020 20:19:44": [
            -8
        ],
        "25/03/2020 21:46:39": [
            -8
        ]
    },
    "2729": {
        "25/03/2020 15:16:50": [],
        "25/03/2020 18:02:33": [
            -25
        ],
        "25/03/2020 20:19:44": [
            17
        ],
        "25/03/2020 21:46:39": [
            17
        ]
    },
    "2730": {
        "25/03/2020 15:16:50": [],
        "25/03/2020 18:02:33": [
            -9
        ],
        "25/03/2020 20:19:45": [
            -30
        ],
        "25/03/2020 21:46:39": [
            -30
        ]
    },
    "6083": {
        "25/03/2020 15:16:51": [],
        "25/03/2020 18:02:33": [
            -28
        ],
        "25/03/2020 20:19:45": [
            4
        ],
        "25/03/2020 21:46:40": [
            4
        ]
    },
    "2733": {
        "25/03/2020 15:16:51": [],
        "25/03/2020 18:02:34": [
            7
        ],
        "25/03/2020 20:19:45": [],
        "25/03/2020 21:46:40": [
            -28
        ]
    },
    "2734": {
        "25/03/2020 15:16:51": [],
        "25/03/2020 18:02:34": [
            24
        ],
        "25/03/2020 20:19:45": [],
        "25/03/2020 21:46:40": [
            -14
        ]
    },
    "5169": {
        "25/03/2020 15:16:51": [
            -46
        ],
        "25/03/2020 18:02:34": [
            22
        ],
        "25/03/2020 20:19:46": [],
        "25/03/2020 21:46:41": [
            -19
        ]
    },
    "2735": {
        "25/03/2020 15:16:52": [
            4
        ],
        "25/03/2020 18:02:34": [
            -13
        ],
        "25/03/2020 20:19:46": [],
        "25/03/2020 21:46:41": [
            3
        ]
    },
    "2736": {
        "25/03/2020 15:16:52": [
            -48
        ],
        "25/03/2020 18:02:35": [
            13
        ],
        "25/03/2020 20:19:46": [],
        "25/03/2020 21:46:41": [
            28
        ]
    },
    "2725": {
        "25/03/2020 15:16:52": [
            -17
        ],
        "25/03/2020 18:02:35": [
            -20
        ],
        "25/03/2020 20:19:46": [],
        "25/03/2020 21:46:41": [
            -7
        ]
    },
    "2737": {
        "25/03/2020 15:16:53": [
            -3
        ],
        "25/03/2020 18:02:35": [
            9
        ],
        "25/03/2020 20:19:47": [],
        "25/03/2020 21:46:42": [
            13
        ]
    },
    "2738": {
        "25/03/2020 15:16:53": [
            21
        ],
        "25/03/2020 18:02:36": [
            -29
        ],
        "25/03/2020 20:19:47": [],
        "25/03/2020 21:46:42": [
            -24
        ]
    },
    "2739": {
        "25/03/2020 15:16:53": [
            -6
        ],
        "25/03/2020 18:02:36": [
            1
        ],
        "25/03/2020 20:19:47": [],
        "25/03/2020 21:46:42": [
            7
        ]
    },
    "7177": {
        "25/03/2020 15:16:54": [
            20
        ],
        "25/03/2020 18:02:36": [
            26
        ],
        "25/03/2020 20:19:48": [],
        "25/03/2020 21:46:42": [
            -29
        ]
    },
    "2740": {
        "25/03/2020 15:16:54": [
            -25
        ],
        "25/03/2020 18:02:36": [
            25
        ],
        "25/03/2020 20:19:48": [],
        "25/03/2020 21:46:43": [
            -28
        ]
    },
    "2741": {
        "25/03/2020 15:16:54": [
            13
        ],
        "25/03/2020 18:02:37": [
            16
        ],
        "25/03/2020 20:19:48": [],
        "25/03/2020 21:46:43": [
            13
        ]
    },
    "2742": {
        "25/03/2020 15:16:54": [
            -20
        ],
        "25/03/2020 18:02:37": [],
        "25/03/2020 20:19:49": [
            171
        ],
        "25/03/2020 21:46:43": [
            -24
        ]
    },
    "2743": {
        "25/03/2020 15:16:55": [
            2
        ],
        "25/03/2020 18:02:37": [],
        "25/03/2020 20:19:49": [
            196
        ],
        "25/03/2020 21:46:44": [
            -4
        ]
    },
    "2745": {
        "25/03/2020 15:16:55": [
            -17
        ],
        "25/03/2020 18:02:38": [],
        "25/03/2020 20:19:49": [
            205
        ],
        "25/03/2020 21:46:44": [
            18
        ]
    },
    "2746": {
        "25/03/2020 15:16:56": [
            8
        ],
        "25/03/2020 18:02:38": [],
        "25/03/2020 20:19:50": [
            224
        ],
        "25/03/2020 21:46:44": [
            -25
        ]
    },
    "2747": {
        "25/03/2020 15:16:56": [
            33
        ],
        "25/03/2020 18:02:38": [],
        "25/03/2020 20:19:50": [
            191
        ],
        "25/03/2020 21:46:45": [
            -5
        ]
    },
    "2748": {
        "25/03/2020 15:16:56": [
            15
        ],
        "25/03/2020 18:02:39": [],
        "25/03/2020 20:19:50": [
            176
        ],
        "25/03/2020 21:46:45": [
            -30
        ]
    },
    "7062": {
        "25/03/2020 15:16:57": [
            -22
        ],
        "25/03/2020 18:02:39": [
            259
        ],
        "25/03/2020 20:19:51": [
            186
        ],
        "25/03/2020 21:46:45": [
            23
        ]
    },
    "6075": {
        "25/03/2020 15:16:57": [
            25
        ],
        "25/03/2020 18:02:39": [
            230
        ],
        "25/03/2020 20:19:51": [
            208
        ],
        "25/03/2020 21:46:45": []
    },
    "2631": {
        "25/03/2020 15:16:57": [
            0
        ],
        "25/03/2020 18:02:39": [
            254
        ],
        "25/03/2020 20:19:51": [
            225
        ],
        "25/03/2020 21:46:46": [
            -5
        ]
    },
    "2359": {
        "25/03/2020 15:16:57": [
            -4
        ],
        "25/03/2020 18:02:40": [
            246
        ],
        "25/03/2020 20:19:52": [
            219
        ],
        "25/03/2020 21:46:46": [
            -24
        ]
    },
    "2360": {
        "25/03/2020 15:16:58": [
            -13
        ],
        "25/03/2020 18:02:40": [
            234
        ],
        "25/03/2020 20:19:52": [
            208
        ],
        "25/03/2020 21:46:46": []
    },
    "4340": {
        "25/03/2020 15:16:58": [],
        "25/03/2020 18:02:40": [],
        "25/03/2020 20:19:52": [],
        "25/03/2020 21:46:47": []
    },
    "4344": {
        "25/03/2020 15:16:58": [
            0
        ],
        "25/03/2020 18:02:41": [
            0
        ],
        "25/03/2020 20:19:53": [
            0
        ],
        "25/03/2020 21:46:47": [
            0
        ]
    },
    "2349": {
        "25/03/2020 15:16:59": [
            -30
        ],
        "25/03/2020 18:02:41": [
            11
        ],
        "25/03/2020 20:19:53": [
            -5
        ],
        "25/03/2020 21:46:47": [
            -5
        ]
    },
    "2351": {
        "25/03/2020 15:16:59": [
            -7
        ],
        "25/03/2020 18:02:41": [
            17
        ],
        "25/03/2020 20:19:53": [
            -14
        ],
        "25/03/2020 21:46:47": [
            -14
        ]
    },
    "2621": {
        "25/03/2020 15:16:59": [
            9
        ],
        "25/03/2020 18:02:41": [
            18
        ],
        "25/03/2020 20:19:53": [
            -27
        ],
        "25/03/2020 21:46:48": [
            -27
        ]
    },
    "2622": {
        "25/03/2020 15:17:00": [
            -17
        ],
        "25/03/2020 18:02:42": [
            -14
        ],
        "25/03/2020 20:19:54": [
            -13
        ],
        "25/03/2020 21:46:48": [
            -13
        ]
    },
    "2750": {
        "25/03/2020 15:17:00": [
            21
        ],
        "25/03/2020 18:02:42": [
            13
        ],
        "25/03/2020 20:19:54": [
            -6
        ],
        "25/03/2020 21:46:48": [
            -6
        ]
    },
    "2751": {
        "25/03/2020 15:17:01": [
            -16
        ],
        "25/03/2020 18:02:42": [
            -24
        ],
        "25/03/2020 20:19:54": [
            16
        ],
        "25/03/2020 21:46:48": [
            16
        ]
    },
    "2752": {
        "25/03/2020 15:17:01": [
            3
        ],
        "25/03/2020 18:02:43": [
            -5
        ],
        "25/03/2020 20:19:55": [
            -26
        ],
        "25/03/2020 21:46:49": [
            -26
        ]
    },
    "2753": {
        "25/03/2020 15:17:01": [
            -18
        ],
        "25/03/2020 18:02:43": [
            -24
        ],
        "25/03/2020 20:19:55": [
            11
        ],
        "25/03/2020 21:46:49": [
            11
        ]
    },
    "2754": {
        "25/03/2020 15:17:02": [
            -14
        ],
        "25/03/2020 18:02:43": [
            20
        ],
        "25/03/2020 20:19:55": [
            -12
        ],
        "25/03/2020 21:46:49": [
            -12
        ]
    },
    "2755": {
        "25/03/2020 15:17:02": [
            14
        ],
        "25/03/2020 18:02:43": [
            -17
        ],
        "25/03/2020 20:19:56": [
            9
        ],
        "25/03/2020 21:46:50": [
            9
        ]
    },
    "2756": {
        "25/03/2020 15:17:02": [
            -11
        ],
        "25/03/2020 18:02:44": [
            11
        ],
        "25/03/2020 20:19:56": [
            -26
        ],
        "25/03/2020 21:46:50": [
            -26
        ]
    },
    "2764": {
        "25/03/2020 15:17:03": [
            4
        ],
        "25/03/2020 18:02:44": [
            14
        ],
        "25/03/2020 20:19:56": [
            23
        ],
        "25/03/2020 21:46:50": [
            23
        ]
    },
    "7178": {
        "25/03/2020 15:17:03": [
            -3
        ],
        "25/03/2020 18:02:44": [
            9
        ],
        "25/03/2020 20:19:57": [
            15
        ],
        "25/03/2020 21:46:50": [
            15
        ]
    },
    "2765": {
        "25/03/2020 15:17:04": [
            -22
        ],
        "25/03/2020 18:02:45": [
            -9
        ],
        "25/03/2020 20:19:57": [
            -4
        ],
        "25/03/2020 21:46:51": [
            -4
        ]
    },
    "2766": {
        "25/03/2020 15:17:04": [
            21
        ],
        "25/03/2020 18:02:45": [
            -25
        ],
        "25/03/2020 20:19:57": [
            -22
        ],
        "25/03/2020 21:46:51": [
            -22
        ]
    },
    "2767": {
        "25/03/2020 15:17:05": [],
        "25/03/2020 18:02:45": [
            -13
        ],
        "25/03/2020 20:19:58": [
            -18
        ],
        "25/03/2020 21:46:51": [
            -18
        ]
    },
    "2772": {
        "25/03/2020 15:17:05": [],
        "25/03/2020 18:02:46": [
            17
        ],
        "25/03/2020 20:19:58": [
            10
        ],
        "25/03/2020 21:46:51": [
            10
        ]
    },
    "2768": {
        "25/03/2020 15:17:05": [],
        "25/03/2020 18:02:46": [
            -16
        ],
        "25/03/2020 20:19:58": [
            -24
        ],
        "25/03/2020 21:46:52": [
            -24
        ]
    },
    "2769": {
        "25/03/2020 15:17:06": [],
        "25/03/2020 18:02:46": [
            13
        ],
        "25/03/2020 20:19:59": [
            3
        ],
        "25/03/2020 21:46:52": [
            3
        ]
    },
    "2770": {
        "25/03/2020 15:17:06": [],
        "25/03/2020 18:02:46": [
            5
        ],
        "25/03/2020 20:19:59": [
            -8
        ],
        "25/03/2020 21:46:52": [
            -8
        ]
    },
    "2771": {
        "25/03/2020 15:17:06": [],
        "25/03/2020 18:02:47": [
            24
        ],
        "25/03/2020 20:19:59": [
            8
        ],
        "25/03/2020 21:46:53": [
            8
        ]
    },
    "2773": {
        "25/03/2020 15:17:07": [],
        "25/03/2020 18:02:47": [
            -3
        ],
        "25/03/2020 20:19:59": [
            -25
        ],
        "25/03/2020 21:46:53": [
            -25
        ]
    },
    "2774": {
        "25/03/2020 15:17:07": [],
        "25/03/2020 18:02:48": [
            -26
        ],
        "25/03/2020 20:20:00": [
            7
        ],
        "25/03/2020 21:46:53": [
            7
        ]
    },
    "2777": {
        "25/03/2020 15:17:08": [],
        "25/03/2020 18:02:48": [
            -13
        ],
        "25/03/2020 20:20:00": [
            18
        ],
        "25/03/2020 21:46:53": [
            18
        ]
    },
    "2775": {
        "25/03/2020 15:17:08": [],
        "25/03/2020 18:02:48": [
            -28
        ],
        "25/03/2020 20:20:00": [
            -4
        ],
        "25/03/2020 21:46:54": [
            -4
        ]
    },
    "2181": {
        "25/03/2020 15:17:08": [],
        "25/03/2020 18:02:48": [
            2
        ],
        "25/03/2020 20:20:01": [
            16
        ],
        "25/03/2020 21:46:54": [
            16
        ]
    },
    "2182": {
        "25/03/2020 15:17:09": [],
        "25/03/2020 18:02:49": [
            -22
        ],
        "25/03/2020 20:20:01": [
            -20
        ],
        "25/03/2020 21:46:55": [
            -20
        ]
    },
    "2778": {
        "25/03/2020 15:17:09": [],
        "25/03/2020 18:02:49": [
            6
        ],
        "25/03/2020 20:20:01": [
            0
        ],
        "25/03/2020 21:46:55": [
            0
        ]
    },
    "2185": {
        "25/03/2020 15:17:09": [],
        "25/03/2020 18:02:49": [
            -14
        ],
        "25/03/2020 20:20:02": [
            27
        ],
        "25/03/2020 21:46:55": [
            27
        ]
    },
    "7043": {
        "25/03/2020 15:17:10": [],
        "25/03/2020 18:02:50": [
            19
        ],
        "25/03/2020 20:20:02": [
            16
        ],
        "25/03/2020 21:46:55": [
            16
        ]
    },
    "1424": {
        "25/03/2020 15:17:10": [],
        "25/03/2020 18:02:50": [
            -17
        ],
        "25/03/2020 20:20:02": [],
        "25/03/2020 21:46:56": [
            29
        ]
    },
    "2186": {
        "25/03/2020 15:17:10": [],
        "25/03/2020 18:02:50": [
            14
        ],
        "25/03/2020 20:20:03": [
            -9
        ],
        "25/03/2020 21:46:56": [
            -9
        ]
    },
    "2187": {
        "25/03/2020 15:17:11": [],
        "25/03/2020 18:02:51": [
            -9
        ],
        "25/03/2020 20:20:03": [],
        "25/03/2020 21:46:56": [
            19
        ]
    },
    "2188": {
        "25/03/2020 15:17:11": [],
        "25/03/2020 18:02:51": [
            24
        ],
        "25/03/2020 20:20:03": [],
        "25/03/2020 21:46:57": [
            -17
        ]
    },
    "2189": {
        "25/03/2020 15:17:11": [],
        "25/03/2020 18:02:51": [
            -14
        ],
        "25/03/2020 20:20:03": [],
        "25/03/2020 21:46:57": [
            -1
        ]
    },
    "1436": {
        "25/03/2020 15:17:12": [],
        "25/03/2020 18:02:52": [
            16
        ],
        "25/03/2020 20:20:04": [],
        "25/03/2020 21:46:57": [
            21
        ]
    },
    "3952": {
        "25/03/2020 15:17:12": [],
        "25/03/2020 18:02:52": [
            -22
        ],
        "25/03/2020 20:20:04": [],
        "25/03/2020 21:46:58": [
            -23
        ]
    },
    "2190": {
        "25/03/2020 15:17:12": [
            140
        ],
        "25/03/2020 18:02:52": [
            8
        ],
        "25/03/2020 20:20:04": [],
        "25/03/2020 21:46:58": [
            -2
        ]
    },
    "4434": {
        "25/03/2020 15:17:12": [
            137
        ],
        "25/03/2020 18:02:53": [
            20
        ],
        "25/03/2020 20:20:05": [],
        "25/03/2020 21:46:58": [
            -19
        ]
    },
    "2379": {
        "25/03/2020 15:17:13": [
            153
        ],
        "25/03/2020 18:02:53": [
            24
        ],
        "25/03/2020 20:20:05": [],
        "25/03/2020 21:46:58": [
            17
        ]
    },
    "2380": {
        "25/03/2020 15:17:13": [
            146
        ],
        "25/03/2020 18:02:53": [
            2
        ],
        "25/03/2020 20:20:05": [],
        "25/03/2020 21:46:59": [
            -17
        ]
    },
    "2382": {
        "25/03/2020 15:17:14": [
            113
        ],
        "25/03/2020 18:02:54": [
            22
        ],
        "25/03/2020 20:20:06": [],
        "25/03/2020 21:46:59": [
            -2
        ]
    },
    "5099": {
        "25/03/2020 15:17:14": [
            152
        ],
        "25/03/2020 18:02:54": [
            -10
        ],
        "25/03/2020 20:20:06": [],
        "25/03/2020 21:46:59": [
            19
        ]
    },
    "2383": {
        "25/03/2020 15:17:14": [
            151
        ],
        "25/03/2020 18:02:54": [],
        "25/03/2020 20:20:06": [],
        "25/03/2020 21:46:59": [
            -8
        ]
    },
    "2003": {
        "25/03/2020 15:17:15": [
            117
        ],
        "25/03/2020 18:02:54": [],
        "25/03/2020 20:20:06": [],
        "25/03/2020 21:47:00": [
            11
        ]
    },
    "1358": {
        "25/03/2020 15:17:15": [
            162
        ],
        "25/03/2020 18:02:55": [],
        "25/03/2020 20:20:07": [],
        "25/03/2020 21:47:00": [
            24
        ]
    },
    "340": {
        "25/03/2020 15:17:16": [
            150
        ],
        "25/03/2020 18:02:55": [],
        "25/03/2020 20:20:07": [
            -105
        ],
        "25/03/2020 21:47:00": [
            21
        ]
    },
    "350": {
        "25/03/2020 15:17:16": [
            152
        ],
        "25/03/2020 18:02:55": [],
        "25/03/2020 20:20:08": [
            -113
        ],
        "25/03/2020 21:47:01": [
            1
        ]
    },
    "351": {
        "25/03/2020 15:17:17": [
            141
        ],
        "25/03/2020 18:02:56": [],
        "25/03/2020 20:20:08": [
            -108
        ],
        "25/03/2020 21:47:01": [
            -10
        ]
    },
    "352": {
        "25/03/2020 15:17:17": [
            131
        ],
        "25/03/2020 18:02:56": [],
        "25/03/2020 20:20:08": [
            -138
        ],
        "25/03/2020 21:47:01": [
            13
        ]
    },
    "353": {
        "25/03/2020 15:17:17": [
            120
        ],
        "25/03/2020 18:02:56": [],
        "25/03/2020 20:20:09": [
            -108
        ],
        "25/03/2020 21:47:02": [
            -25
        ]
    },
    "354": {
        "25/03/2020 15:17:18": [],
        "25/03/2020 18:02:57": [],
        "25/03/2020 20:20:09": [],
        "25/03/2020 21:47:02": []
    }
}