{
    "292": {
        "23/03/2020 13:12:27": [],
        "23/03/2020 15:18:47": [],
        "23/03/2020 18:26:34": []
    },
    "1171": {
        "23/03/2020 13:12:28": [],
        "23/03/2020 15:18:56": [],
        "23/03/2020 18:26:35": []
    },
    "1172": {
        "23/03/2020 13:12:28": [],
        "23/03/2020 15:19:04": [],
        "23/03/2020 18:26:35": []
    },
    "1173": {
        "23/03/2020 13:12:29": [],
        "23/03/2020 15:19:13": [],
        "23/03/2020 18:26:36": []
    },
    "1174": {
        "23/03/2020 13:12:30": [],
        "23/03/2020 15:19:22": [],
        "23/03/2020 18:26:37": []
    },
    "1175": {
        "23/03/2020 13:12:30": [],
        "23/03/2020 15:19:32": [],
        "23/03/2020 18:26:38": []
    },
    "15": {
        "23/03/2020 13:12:31": [],
        "23/03/2020 15:19:41": [],
        "23/03/2020 18:26:38": []
    },
    "17": {
        "23/03/2020 13:12:31": [],
        "23/03/2020 15:19:49": [],
        "23/03/2020 18:26:39": []
    },
    "18": {
        "23/03/2020 13:12:32": [],
        "23/03/2020 15:19:57": [],
        "23/03/2020 18:26:40": []
    },
    "19": {
        "23/03/2020 13:12:33": [],
        "23/03/2020 15:20:05": [],
        "23/03/2020 18:26:40": []
    },
    "21": {
        "23/03/2020 13:12:33": [],
        "23/03/2020 15:20:13": [],
        "23/03/2020 18:26:41": []
    },
    "7602": {
        "23/03/2020 13:12:34": [],
        "23/03/2020 15:20:22": [],
        "23/03/2020 18:26:41": []
    },
    "85": {
        "23/03/2020 13:12:34": [],
        "23/03/2020 15:20:31": [],
        "23/03/2020 18:26:42": []
    },
    "203": {
        "23/03/2020 13:12:35": [],
        "23/03/2020 15:20:39": [],
        "23/03/2020 18:26:43": []
    },
    "204": {
        "23/03/2020 13:12:36": [],
        "23/03/2020 15:20:48": [],
        "23/03/2020 18:26:43": []
    },
    "205": {
        "23/03/2020 13:12:36": [],
        "23/03/2020 15:21:00": [],
        "23/03/2020 18:26:44": []
    },
    "1620": {
        "23/03/2020 13:12:37": [],
        "23/03/2020 15:21:01": [],
        "23/03/2020 18:26:45": []
    },
    "220": {
        "23/03/2020 13:12:38": [],
        "23/03/2020 15:21:02": [],
        "23/03/2020 18:26:45": []
    },
    "1622": {
        "23/03/2020 13:12:39": [],
        "23/03/2020 15:21:03": [],
        "23/03/2020 18:26:46": []
    },
    "1623": {
        "23/03/2020 13:12:40": [],
        "23/03/2020 15:21:03": [],
        "23/03/2020 18:26:46": []
    },
    "1624": {
        "23/03/2020 13:12:40": [],
        "23/03/2020 15:21:04": [],
        "23/03/2020 18:26:47": []
    },
    "1625": {
        "23/03/2020 13:12:41": [],
        "23/03/2020 15:21:05": [],
        "23/03/2020 18:26:48": []
    },
    "1626": {
        "23/03/2020 13:12:42": [],
        "23/03/2020 15:21:05": [],
        "23/03/2020 18:26:48": []
    },
    "1627": {
        "23/03/2020 13:12:42": [],
        "23/03/2020 15:21:06": [],
        "23/03/2020 18:26:49": []
    },
    "1628": {
        "23/03/2020 13:12:51": [],
        "23/03/2020 15:21:07": [],
        "23/03/2020 18:26:50": []
    },
    "1629": {
        "23/03/2020 13:13:00": [],
        "23/03/2020 15:21:08": [],
        "23/03/2020 18:26:50": []
    },
    "1630": {
        "23/03/2020 13:13:10": [],
        "23/03/2020 15:21:08": [],
        "23/03/2020 18:26:51": []
    },
    "3670": {
        "23/03/2020 13:13:19": [],
        "23/03/2020 15:21:09": [],
        "23/03/2020 18:26:51": []
    },
    "3671": {
        "23/03/2020 13:13:29": [],
        "23/03/2020 15:21:09": [],
        "23/03/2020 18:26:52": []
    },
    "3672": {
        "23/03/2020 13:13:39": [],
        "23/03/2020 15:21:10": [],
        "23/03/2020 18:26:53": []
    },
    "3674": {
        "23/03/2020 13:13:49": [],
        "23/03/2020 15:21:10": [],
        "23/03/2020 18:26:53": []
    },
    "3675": {
        "23/03/2020 13:13:58": [],
        "23/03/2020 15:21:11": [],
        "23/03/2020 18:26:54": []
    },
    "3676": {
        "23/03/2020 13:14:07": [],
        "23/03/2020 15:21:11": [],
        "23/03/2020 18:26:54": []
    },
    "3677": {
        "23/03/2020 13:14:16": [],
        "23/03/2020 15:21:12": [],
        "23/03/2020 18:26:55": []
    },
    "3678": {
        "23/03/2020 13:14:24": [],
        "23/03/2020 15:21:13": [],
        "23/03/2020 18:26:56": []
    },
    "3679": {
        "23/03/2020 13:14:35": [],
        "23/03/2020 15:21:13": [],
        "23/03/2020 18:26:56": []
    },
    "3711": {
        "23/03/2020 13:14:42": [],
        "23/03/2020 15:21:14": [],
        "23/03/2020 18:26:57": []
    },
    "3712": {
        "23/03/2020 13:14:58": [],
        "23/03/2020 15:21:14": [],
        "23/03/2020 18:26:57": []
    },
    "3713": {
        "23/03/2020 13:14:59": [],
        "23/03/2020 15:21:15": [],
        "23/03/2020 18:26:58": []
    },
    "3714": {
        "23/03/2020 13:14:59": [],
        "23/03/2020 15:21:15": [],
        "23/03/2020 18:26:59": []
    },
    "3719": {
        "23/03/2020 13:15:00": [],
        "23/03/2020 15:21:16": [],
        "23/03/2020 18:26:59": []
    },
    "3718": {
        "23/03/2020 13:15:01": [],
        "23/03/2020 15:21:17": [],
        "23/03/2020 18:27:00": []
    },
    "3720": {
        "23/03/2020 13:15:02": [],
        "23/03/2020 15:21:17": [],
        "23/03/2020 18:27:01": []
    },
    "7691": {
        "23/03/2020 13:15:02": [],
        "23/03/2020 15:21:18": [],
        "23/03/2020 18:27:01": []
    },
    "3721": {
        "23/03/2020 13:15:03": [],
        "23/03/2020 15:21:19": [],
        "23/03/2020 18:27:12": []
    },
    "3722": {
        "23/03/2020 13:15:03": [],
        "23/03/2020 15:21:19": [],
        "23/03/2020 18:27:24": []
    },
    "5069": {
        "23/03/2020 13:15:04": [],
        "23/03/2020 15:21:20": [],
        "23/03/2020 18:27:35": []
    },
    "3723": {
        "23/03/2020 13:15:05": [],
        "23/03/2020 15:21:20": [],
        "23/03/2020 18:27:45": []
    },
    "3724": {
        "23/03/2020 13:15:06": [],
        "23/03/2020 15:21:21": [],
        "23/03/2020 18:27:55": []
    },
    "3725": {
        "23/03/2020 13:15:06": [],
        "23/03/2020 15:21:22": [],
        "23/03/2020 18:28:04": []
    },
    "3738": {
        "23/03/2020 13:15:07": [],
        "23/03/2020 15:21:22": [],
        "23/03/2020 18:28:12": []
    },
    "7170": {
        "23/03/2020 13:15:07": [],
        "23/03/2020 15:21:23": [],
        "23/03/2020 18:28:22": []
    },
    "3740": {
        "23/03/2020 13:15:08": [],
        "23/03/2020 15:21:24": [],
        "23/03/2020 18:28:30": []
    },
    "3741": {
        "23/03/2020 13:15:09": [],
        "23/03/2020 15:21:25": [],
        "23/03/2020 18:28:39": []
    },
    "5165": {
        "23/03/2020 13:15:09": [],
        "23/03/2020 15:21:26": [],
        "23/03/2020 18:28:50": []
    },
    "7169": {
        "23/03/2020 13:15:10": [],
        "23/03/2020 15:21:26": [],
        "23/03/2020 18:28:58": []
    },
    "3743": {
        "23/03/2020 13:15:11": [],
        "23/03/2020 15:21:27": [],
        "23/03/2020 18:29:14": []
    },
    "3780": {
        "23/03/2020 13:15:11": [],
        "23/03/2020 15:21:28": [],
        "23/03/2020 18:29:18": []
    },
    "3744": {
        "23/03/2020 13:15:12": [],
        "23/03/2020 15:21:28": [],
        "23/03/2020 18:29:19": []
    },
    "3755": {
        "23/03/2020 13:15:12": [],
        "23/03/2020 15:21:29": [],
        "23/03/2020 18:29:20": []
    },
    "3756": {
        "23/03/2020 13:15:13": [],
        "23/03/2020 15:21:30": [],
        "23/03/2020 18:29:20": []
    },
    "3757": {
        "23/03/2020 13:15:13": [],
        "23/03/2020 15:21:30": [],
        "23/03/2020 18:29:21": []
    },
    "3758": {
        "23/03/2020 13:15:14": [],
        "23/03/2020 15:21:31": [],
        "23/03/2020 18:29:21": []
    },
    "3759": {
        "23/03/2020 13:15:15": [],
        "23/03/2020 15:21:31": [],
        "23/03/2020 18:29:22": []
    },
    "3760": {
        "23/03/2020 13:15:15": [],
        "23/03/2020 15:21:32": [],
        "23/03/2020 18:29:23": []
    },
    "3761": {
        "23/03/2020 13:15:16": [],
        "23/03/2020 15:21:33": [],
        "23/03/2020 18:29:23": []
    },
    "3762": {
        "23/03/2020 13:15:16": [],
        "23/03/2020 15:21:33": [],
        "23/03/2020 18:29:24": []
    },
    "3763": {
        "23/03/2020 13:15:17": [],
        "23/03/2020 15:21:34": [],
        "23/03/2020 18:29:24": []
    },
    "3764": {
        "23/03/2020 13:15:17": [],
        "23/03/2020 15:21:35": [],
        "23/03/2020 18:29:25": []
    },
    "3765": {
        "23/03/2020 13:15:18": [],
        "23/03/2020 15:21:35": [],
        "23/03/2020 18:29:26": []
    },
    "3766": {
        "23/03/2020 13:15:18": [],
        "23/03/2020 15:21:36": [],
        "23/03/2020 18:29:27": []
    },
    "3767": {
        "23/03/2020 13:15:19": [],
        "23/03/2020 15:21:36": [],
        "23/03/2020 18:29:27": []
    },
    "3768": {
        "23/03/2020 13:15:20": [],
        "23/03/2020 15:21:37": [],
        "23/03/2020 18:29:28": []
    },
    "3770": {
        "23/03/2020 13:15:20": [],
        "23/03/2020 15:21:37": []
    },
    "3769": {
        "23/03/2020 13:15:21": [],
        "23/03/2020 15:21:38": [],
        "23/03/2020 18:29:29": []
    },
    "3771": {
        "23/03/2020 13:15:21": [],
        "23/03/2020 15:21:39": [],
        "23/03/2020 18:29:29": []
    },
    "3772": {
        "23/03/2020 13:15:22": [],
        "23/03/2020 15:21:39": [],
        "23/03/2020 18:29:30": []
    },
    "3773": {
        "23/03/2020 13:15:22": [],
        "23/03/2020 15:21:40": [],
        "23/03/2020 18:29:30": []
    },
    "5176": {
        "23/03/2020 13:15:23": [],
        "23/03/2020 15:21:40": [],
        "23/03/2020 18:29:31": []
    },
    "3774": {
        "23/03/2020 13:15:24": [],
        "23/03/2020 15:21:41": [],
        "23/03/2020 18:29:32": []
    },
    "7172": {
        "23/03/2020 13:15:24": [],
        "23/03/2020 15:21:42": [],
        "23/03/2020 18:29:32": []
    },
    "3775": {
        "23/03/2020 13:15:25": [],
        "23/03/2020 15:21:43": [],
        "23/03/2020 18:29:33": []
    },
    "3777": {
        "23/03/2020 13:15:26": [],
        "23/03/2020 15:21:43": [],
        "23/03/2020 18:29:34": []
    },
    "3778": {
        "23/03/2020 13:15:26": [],
        "23/03/2020 15:21:44": [],
        "23/03/2020 18:29:34": []
    },
    "7690": {
        "23/03/2020 13:15:27": [],
        "23/03/2020 15:21:45": [],
        "23/03/2020 18:29:35": []
    },
    "3781": {
        "23/03/2020 13:15:27": [],
        "23/03/2020 15:21:45": [],
        "23/03/2020 18:29:35": []
    },
    "3782": {
        "23/03/2020 13:15:28": [],
        "23/03/2020 15:21:46": [],
        "23/03/2020 18:29:36": []
    },
    "3783": {
        "23/03/2020 13:15:28": [],
        "23/03/2020 15:21:47": [],
        "23/03/2020 18:29:37": []
    },
    "3784": {
        "23/03/2020 13:15:29": [],
        "23/03/2020 15:21:47": [],
        "23/03/2020 18:29:37": []
    },
    "3785": {
        "23/03/2020 13:15:30": [],
        "23/03/2020 15:21:48": [],
        "23/03/2020 18:29:38": []
    },
    "3786": {
        "23/03/2020 13:15:30": [],
        "23/03/2020 15:21:48": [],
        "23/03/2020 18:29:39": []
    },
    "3787": {
        "23/03/2020 13:15:31": [],
        "23/03/2020 15:21:49": [],
        "23/03/2020 18:29:39": []
    },
    "3788": {
        "23/03/2020 13:15:31": [],
        "23/03/2020 15:21:49": [],
        "23/03/2020 18:29:40": []
    },
    "3789": {
        "23/03/2020 13:15:32": [],
        "23/03/2020 15:21:50": [],
        "23/03/2020 18:29:41": []
    },
    "3790": {
        "23/03/2020 13:15:32": [],
        "23/03/2020 15:21:51": [],
        "23/03/2020 18:29:42": []
    },
    "3791": {
        "23/03/2020 13:15:33": [],
        "23/03/2020 15:21:52": [],
        "23/03/2020 18:29:42": []
    },
    "3792": {
        "23/03/2020 13:15:34": [],
        "23/03/2020 15:21:52": [],
        "23/03/2020 18:29:43": []
    },
    "3793": {
        "23/03/2020 13:15:34": [],
        "23/03/2020 15:21:53": [],
        "23/03/2020 18:29:43": []
    },
    "3794": {
        "23/03/2020 13:15:35": [],
        "23/03/2020 15:21:54": [],
        "23/03/2020 18:29:44": []
    },
    "3795": {
        "23/03/2020 13:15:35": [],
        "23/03/2020 15:21:54": [],
        "23/03/2020 18:29:45": []
    },
    "3797": {
        "23/03/2020 13:15:36": [],
        "23/03/2020 15:21:55": [],
        "23/03/2020 18:29:45": []
    },
    "3798": {
        "23/03/2020 13:15:36": [],
        "23/03/2020 15:21:56": [],
        "23/03/2020 18:29:46": []
    },
    "6076": {
        "23/03/2020 13:15:37": [],
        "23/03/2020 15:21:56": [],
        "23/03/2020 18:29:46": []
    },
    "6077": {
        "23/03/2020 13:15:38": [],
        "23/03/2020 15:21:57": [],
        "23/03/2020 18:29:48": []
    },
    "3569": {
        "23/03/2020 13:15:38": [],
        "23/03/2020 15:21:58": [],
        "23/03/2020 18:29:49": []
    },
    "3571": {
        "23/03/2020 13:15:39": [],
        "23/03/2020 15:21:58": [],
        "23/03/2020 18:29:50": []
    },
    "3801": {
        "23/03/2020 13:15:39": [],
        "23/03/2020 15:21:59": [],
        "23/03/2020 18:29:51": []
    },
    "3802": {
        "23/03/2020 13:15:40": [],
        "23/03/2020 15:22:00": [],
        "23/03/2020 18:29:51": []
    }
}