{
    "4917": {
        "24/03/2020 15:05:20": [],
        "24/03/2020 17:17:44": [],
        "24/03/2020 19:59:13": [],
        "24/03/2020 22:15:18": []
    },
    "4918": {
        "24/03/2020 15:05:20": [],
        "24/03/2020 17:17:44": [],
        "24/03/2020 19:59:13": [],
        "24/03/2020 22:15:19": []
    },
    "4919": {
        "24/03/2020 15:05:21": [],
        "24/03/2020 17:17:44": [],
        "24/03/2020 19:59:13": [],
        "24/03/2020 22:15:19": []
    },
    "4923": {
        "24/03/2020 15:05:21": [],
        "24/03/2020 17:17:45": [],
        "24/03/2020 19:59:14": [],
        "24/03/2020 22:15:20": []
    },
    "4924": {
        "24/03/2020 15:05:22": [],
        "24/03/2020 17:17:46": [],
        "24/03/2020 19:59:14": [],
        "24/03/2020 22:15:20": []
    },
    "4958": {
        "24/03/2020 15:05:22": [],
        "24/03/2020 17:17:46": [],
        "24/03/2020 19:59:15": [],
        "24/03/2020 22:15:21": []
    },
    "1212": {
        "24/03/2020 15:05:23": [
            -12
        ],
        "24/03/2020 17:17:46": [
            -29,
            -1
        ],
        "24/03/2020 19:59:15": [
            14
        ],
        "24/03/2020 22:15:21": [
            -4
        ]
    },
    "1213": {
        "24/03/2020 15:05:23": [
            17
        ],
        "24/03/2020 17:17:47": [
            -4,
            25
        ],
        "24/03/2020 19:59:16": [
            -22
        ],
        "24/03/2020 22:15:22": []
    },
    "1214": {
        "24/03/2020 15:05:24": [
            -22
        ],
        "24/03/2020 17:17:47": [
            14,
            -15
        ],
        "24/03/2020 19:59:16": [
            -4
        ],
        "24/03/2020 22:15:22": [
            37
        ]
    },
    "1215": {
        "24/03/2020 15:05:24": [
            11
        ],
        "24/03/2020 17:17:48": [
            -17,
            24
        ],
        "24/03/2020 19:59:17": [
            24
        ],
        "24/03/2020 22:15:23": [
            65
        ]
    },
    "1216": {
        "24/03/2020 15:05:25": [
            5
        ],
        "24/03/2020 17:17:48": [
            -220,
            -28,
            28
        ],
        "24/03/2020 19:59:17": [
            11
        ],
        "24/03/2020 22:15:23": [
            51
        ]
    },
    "1217": {
        "24/03/2020 15:05:25": [
            -18
        ],
        "24/03/2020 17:17:49": [
            -187,
            5,
            11
        ],
        "24/03/2020 19:59:18": [
            -17
        ],
        "24/03/2020 22:15:23": [
            83
        ]
    },
    "1218": {
        "24/03/2020 15:05:25": [
            -64,
            20
        ],
        "24/03/2020 17:17:49": [
            -108,
            15,
            -25
        ],
        "24/03/2020 19:59:18": [
            4
        ],
        "24/03/2020 22:15:24": [
            75
        ]
    },
    "1219": {
        "24/03/2020 15:05:26": [],
        "24/03/2020 17:17:50": [
            -146,
            -23
        ],
        "24/03/2020 19:59:19": [
            24
        ],
        "24/03/2020 22:15:25": [
            90
        ]
    },
    "1220": {
        "24/03/2020 15:05:26": [
            27
        ],
        "24/03/2020 17:17:50": [
            -146,
            -23
        ],
        "24/03/2020 19:59:19": [
            7
        ],
        "24/03/2020 22:15:25": [
            74
        ]
    },
    "1221": {
        "24/03/2020 15:05:27": [
            -23
        ],
        "24/03/2020 17:17:50": [
            -136,
            -13
        ],
        "24/03/2020 19:59:20": [
            23
        ],
        "24/03/2020 22:15:26": [
            56
        ]
    },
    "3647": {
        "24/03/2020 15:05:27": [
            -18
        ],
        "24/03/2020 17:17:51": [
            -8,
            14
        ],
        "24/03/2020 19:59:20": [
            20
        ],
        "24/03/2020 22:15:26": [
            19
        ]
    },
    "1272": {
        "24/03/2020 15:05:28": [
            -60,
            24
        ],
        "24/03/2020 17:17:51": [
            -99,
            24,
            -24
        ],
        "24/03/2020 19:59:20": [
            -8,
            -8
        ],
        "24/03/2020 22:15:27": [
            53
        ]
    },
    "1273": {
        "24/03/2020 15:05:28": [
            -64,
            -25
        ],
        "24/03/2020 17:17:52": [
            -153,
            -30,
            -13
        ],
        "24/03/2020 19:59:21": [
            -3
        ],
        "24/03/2020 22:15:27": [
            101
        ]
    },
    "1274": {
        "24/03/2020 15:05:29": [
            -20,
            -14
        ],
        "24/03/2020 17:17:52": [
            -147,
            -24,
            -2
        ],
        "24/03/2020 19:59:21": [
            3
        ],
        "24/03/2020 22:15:28": [
            89
        ]
    },
    "1275": {
        "24/03/2020 15:05:29": [
            -11
        ],
        "24/03/2020 17:17:53": [
            -133,
            -10,
            13
        ],
        "24/03/2020 19:59:22": [
            3
        ],
        "24/03/2020 22:15:28": [
            78
        ]
    },
    "1276": {
        "24/03/2020 15:05:30": [
            13
        ],
        "24/03/2020 17:17:53": [
            -107,
            16,
            -21
        ],
        "24/03/2020 19:59:22": [
            23
        ],
        "24/03/2020 22:15:29": [
            95
        ]
    },
    "1277": {
        "24/03/2020 15:05:30": [
            -3
        ],
        "24/03/2020 17:17:53": [
            -120,
            3
        ],
        "24/03/2020 19:59:23": [
            1
        ],
        "24/03/2020 22:15:29": [
            66
        ]
    },
    "3751": {
        "24/03/2020 15:05:31": [
            -10,
            -10
        ],
        "24/03/2020 17:17:54": [
            26,
            29,
            29
        ],
        "24/03/2020 19:59:23": [
            -23,
            -4
        ],
        "24/03/2020 22:15:29": [
            -4
        ]
    },
    "3752": {
        "24/03/2020 15:05:31": [
            21,
            21
        ],
        "24/03/2020 17:17:54": [
            -7,
            -4,
            -4
        ],
        "24/03/2020 19:59:24": [
            17,
            -19
        ],
        "24/03/2020 22:15:30": [
            -19
        ]
    },
    "4433": {
        "24/03/2020 15:05:31": [
            4,
            4
        ],
        "24/03/2020 17:17:55": [
            15,
            15
        ],
        "24/03/2020 19:59:24": [
            -17,
            -28
        ],
        "24/03/2020 22:15:30": [
            -28
        ]
    },
    "3656": {
        "24/03/2020 15:05:32": [
            -13,
            -13
        ],
        "24/03/2020 17:17:55": [
            12,
            -14,
            -14
        ],
        "24/03/2020 19:59:25": [
            -6
        ],
        "24/03/2020 22:15:31": [
            12
        ]
    },
    "3657": {
        "24/03/2020 15:05:32": [
            28
        ],
        "24/03/2020 17:17:56": [
            10,
            24,
            24
        ],
        "24/03/2020 19:59:25": [
            21
        ],
        "24/03/2020 22:15:31": [
            19
        ]
    },
    "3658": {
        "24/03/2020 15:05:33": [
            -5
        ],
        "24/03/2020 17:17:56": [
            -20,
            -5,
            -5
        ],
        "24/03/2020 19:59:26": [
            -14
        ],
        "24/03/2020 22:15:32": [
            -22
        ]
    },
    "3659": {
        "24/03/2020 15:05:33": [
            22
        ],
        "24/03/2020 17:17:57": [
            17,
            -26
        ],
        "24/03/2020 19:59:26": [
            8
        ],
        "24/03/2020 22:15:32": [
            -20
        ]
    },
    "3660": {
        "24/03/2020 15:05:34": [
            -29
        ],
        "24/03/2020 17:17:57": [
            -27,
            -7
        ],
        "24/03/2020 19:59:27": [
            13
        ],
        "24/03/2020 22:15:33": [
            29
        ]
    },
    "3661": {
        "24/03/2020 15:05:34": [
            28
        ],
        "24/03/2020 17:17:57": [
            28,
            -1
        ],
        "24/03/2020 19:59:27": [
            -8
        ],
        "24/03/2020 22:15:33": [
            -13
        ]
    },
    "3662": {
        "24/03/2020 15:05:35": [
            -1
        ],
        "24/03/2020 17:17:58": [
            -15,
            20
        ],
        "24/03/2020 19:59:27": [
            -12
        ],
        "24/03/2020 22:15:34": [
            -25
        ]
    },
    "3689": {
        "24/03/2020 15:05:35": [
            1,
            1
        ],
        "24/03/2020 17:17:58": [
            17,
            19,
            19
        ],
        "24/03/2020 19:59:28": [
            17,
            4
        ],
        "24/03/2020 22:15:34": [
            4
        ]
    },
    "3690": {
        "24/03/2020 15:05:36": [
            -4,
            -4
        ],
        "24/03/2020 17:17:59": [
            16,
            9,
            9
        ],
        "24/03/2020 19:59:28": [
            2,
            -20
        ],
        "24/03/2020 22:15:35": [
            -20
        ]
    },
    "6117": {
        "24/03/2020 15:05:36": [
            5,
            5
        ],
        "24/03/2020 17:17:59": [
            -14,
            14,
            14
        ],
        "24/03/2020 19:59:29": [
            -7
        ],
        "24/03/2020 22:15:35": [
            5
        ]
    },
    "3655": {
        "24/03/2020 15:05:37": [
            19,
            19
        ],
        "24/03/2020 17:18:00": [
            12,
            26,
            26
        ],
        "24/03/2020 19:59:29": [
            -4
        ],
        "24/03/2020 22:15:35": [
            -6
        ]
    },
    "4563": {
        "24/03/2020 15:05:37": [
            -78,
            16
        ],
        "24/03/2020 17:18:00": [
            -185,
            6,
            19
        ],
        "24/03/2020 19:59:30": [
            -7
        ],
        "24/03/2020 22:15:36": [
            92
        ]
    },
    "5086": {
        "24/03/2020 15:05:37": [
            -14,
            -14
        ],
        "24/03/2020 17:18:01": [
            2,
            -12,
            -12
        ],
        "24/03/2020 19:59:30": [
            2
        ],
        "24/03/2020 22:15:37": [
            -28
        ]
    },
    "615": {
        "24/03/2020 15:05:38": [
            23
        ],
        "24/03/2020 17:18:01": [
            -105,
            18
        ],
        "24/03/2020 19:59:31": [
            5
        ],
        "24/03/2020 22:15:37": [
            73
        ]
    },
    "616": {
        "24/03/2020 15:05:38": [
            0
        ],
        "24/03/2020 17:18:02": [
            -121,
            2
        ],
        "24/03/2020 19:59:31": [
            -13
        ],
        "24/03/2020 22:15:38": [
            46
        ]
    },
    "617": {
        "24/03/2020 15:05:39": [
            -23
        ],
        "24/03/2020 17:18:02": [
            -128,
            -5
        ],
        "24/03/2020 19:59:32": [
            25
        ],
        "24/03/2020 22:15:38": [
            78
        ]
    },
    "618": {
        "24/03/2020 15:05:39": [
            14
        ],
        "24/03/2020 17:18:03": [
            -135,
            -12
        ],
        "24/03/2020 19:59:32": [
            4
        ],
        "24/03/2020 22:15:38": [
            51
        ]
    },
    "619": {
        "24/03/2020 15:05:40": [
            17
        ],
        "24/03/2020 17:18:03": [
            -122,
            1
        ],
        "24/03/2020 19:59:33": [
            -4
        ],
        "24/03/2020 22:15:39": [
            94
        ]
    },
    "675": {
        "24/03/2020 15:05:40": [
            -9
        ],
        "24/03/2020 17:18:03": [
            -281,
            -20
        ],
        "24/03/2020 19:59:33": [
            24
        ],
        "24/03/2020 22:15:39": [
            57
        ]
    },
    "614": {
        "24/03/2020 15:05:41": [
            -21
        ],
        "24/03/2020 17:18:04": [
            -96,
            27
        ],
        "24/03/2020 19:59:34": [
            16
        ],
        "24/03/2020 22:15:40": [
            94
        ]
    },
    "664": {
        "24/03/2020 15:05:41": [
            -13
        ],
        "24/03/2020 17:18:04": [
            -263,
            -2
        ],
        "24/03/2020 19:59:34": [
            -21
        ],
        "24/03/2020 22:15:40": [
            98
        ]
    },
    "665": {
        "24/03/2020 15:05:42": [
            23
        ],
        "24/03/2020 17:18:05": [
            -281,
            -20
        ],
        "24/03/2020 19:59:34": [
            11
        ],
        "24/03/2020 22:15:41": [
            65
        ]
    },
    "666": {
        "24/03/2020 15:05:42": [
            -1
        ],
        "24/03/2020 17:18:05": [
            -238,
            23
        ],
        "24/03/2020 19:59:35": [
            -16
        ],
        "24/03/2020 22:15:41": [
            92
        ]
    },
    "667": {
        "24/03/2020 15:05:43": [
            -23
        ],
        "24/03/2020 17:18:06": [
            -254,
            7
        ],
        "24/03/2020 19:59:35": [
            18
        ],
        "24/03/2020 22:15:42": [
            60
        ]
    },
    "668": {
        "24/03/2020 15:05:43": [
            -13
        ],
        "24/03/2020 17:18:06": [
            -234,
            27
        ],
        "24/03/2020 19:59:36": [
            26
        ],
        "24/03/2020 22:15:42": [
            54
        ]
    },
    "7329": {
        "24/03/2020 15:05:44": [
            -4
        ],
        "24/03/2020 17:18:07": [
            -12,
            5,
            5
        ],
        "24/03/2020 19:59:36": [
            -16
        ],
        "24/03/2020 22:15:43": [
            21
        ]
    },
    "7594": {
        "24/03/2020 15:05:44": [],
        "24/03/2020 17:18:07": [],
        "24/03/2020 19:59:37": [],
        "24/03/2020 22:15:43": []
    },
    "1270": {
        "24/03/2020 15:05:45": [
            -101,
            -21
        ],
        "24/03/2020 17:18:08": [
            -146,
            -23,
            -13
        ],
        "24/03/2020 19:59:38": [
            11
        ],
        "24/03/2020 22:15:43": [
            70
        ]
    },
    "3573": {
        "24/03/2020 15:05:45": [
            17
        ],
        "24/03/2020 17:18:08": [
            7,
            -12
        ],
        "24/03/2020 19:59:38": [
            26
        ],
        "24/03/2020 22:15:44": [
            18
        ]
    },
    "5044": {
        "24/03/2020 15:05:46": [
            0,
            0
        ],
        "24/03/2020 17:18:09": [
            0,
            0
        ],
        "24/03/2020 19:59:39": [
            0,
            0
        ],
        "24/03/2020 22:15:44": [
            0
        ]
    },
    "1184": {
        "24/03/2020 15:05:46": [
            0,
            0,
            0
        ],
        "24/03/2020 17:18:09": [
            0,
            0,
            0
        ],
        "24/03/2020 19:59:39": [
            0
        ],
        "24/03/2020 22:15:45": [
            0
        ]
    },
    "497": {
        "24/03/2020 15:05:47": [
            -10,
            -20,
            -20
        ],
        "24/03/2020 17:18:09": [
            -11,
            -26
        ],
        "24/03/2020 19:59:40": [
            17
        ],
        "24/03/2020 22:15:45": [
            2
        ]
    },
    "515": {
        "24/03/2020 15:05:47": [
            19,
            17,
            17
        ],
        "24/03/2020 17:18:10": [
            -4,
            -13,
            -13
        ],
        "24/03/2020 19:59:40": [
            -17
        ],
        "24/03/2020 22:15:46": [
            7
        ]
    },
    "516": {
        "24/03/2020 15:05:48": [
            27,
            -28
        ],
        "24/03/2020 17:18:10": [
            -26,
            29,
            29
        ],
        "24/03/2020 19:59:41": [
            -10
        ],
        "24/03/2020 22:15:46": [
            -2
        ]
    },
    "4384": {
        "24/03/2020 15:05:48": [
            14,
            24
        ],
        "24/03/2020 17:18:11": [
            -18,
            -24,
            -24
        ],
        "24/03/2020 19:59:41": [
            -26
        ],
        "24/03/2020 22:15:47": [
            -28
        ]
    },
    "519": {
        "24/03/2020 15:05:49": [
            13,
            29
        ],
        "24/03/2020 17:18:11": [
            6,
            -1,
            -1
        ],
        "24/03/2020 19:59:42": [
            28
        ],
        "24/03/2020 22:15:47": [
            14
        ]
    },
    "521": {
        "24/03/2020 15:05:49": [
            -6,
            6
        ],
        "24/03/2020 17:18:12": [
            -7,
            -17,
            -17
        ],
        "24/03/2020 19:59:42": [
            0
        ],
        "24/03/2020 22:15:48": [
            -22
        ]
    },
    "522": {
        "24/03/2020 15:05:50": [
            -8,
            -2
        ],
        "24/03/2020 17:18:12": [
            -1,
            -15
        ],
        "24/03/2020 19:59:43": [
            -15
        ],
        "24/03/2020 22:15:48": [
            13
        ]
    },
    "523": {
        "24/03/2020 15:05:50": [
            -11,
            11
        ],
        "24/03/2020 17:18:13": [
            -23,
            18
        ],
        "24/03/2020 19:59:43": [
            -25
        ],
        "24/03/2020 22:15:49": [
            -10
        ]
    },
    "669": {
        "24/03/2020 15:05:50": [
            -8,
            17
        ],
        "24/03/2020 17:18:13": [
            28,
            3
        ],
        "24/03/2020 19:59:44": [
            -18
        ],
        "24/03/2020 22:15:49": [
            -21
        ]
    },
    "670": {
        "24/03/2020 15:05:51": [
            -6,
            19
        ],
        "24/03/2020 17:18:13": [
            14,
            -16
        ],
        "24/03/2020 19:59:44": [
            -12
        ],
        "24/03/2020 22:15:50": [
            27
        ]
    },
    "671": {
        "24/03/2020 15:05:51": [
            -30,
            3
        ],
        "24/03/2020 17:18:14": [
            -84,
            0,
            28
        ],
        "24/03/2020 19:59:45": [
            23
        ],
        "24/03/2020 22:15:50": [
            -6
        ]
    },
    "672": {
        "24/03/2020 15:05:52": [
            14
        ],
        "24/03/2020 17:18:14": [
            -71,
            13,
            -22
        ],
        "24/03/2020 19:59:45": [
            18
        ],
        "24/03/2020 22:15:50": [
            -22
        ]
    },
    "4382": {
        "24/03/2020 15:05:52": [
            -1,
            -10
        ],
        "24/03/2020 17:18:15": [
            -94,
            -10,
            14
        ],
        "24/03/2020 19:59:45": [
            -13
        ],
        "24/03/2020 22:15:51": [
            0
        ]
    },
    "1196": {
        "24/03/2020 15:05:53": [
            -30,
            21
        ],
        "24/03/2020 17:18:20": [
            -114,
            -30,
            -20
        ],
        "24/03/2020 19:59:46": [
            16
        ],
        "24/03/2020 22:15:51": [
            4
        ]
    },
    "1197": {
        "24/03/2020 15:05:53": [
            15,
            6
        ],
        "24/03/2020 17:18:21": [
            -65,
            19,
            22
        ],
        "24/03/2020 19:59:46": [
            0
        ],
        "24/03/2020 22:15:52": [
            -24
        ]
    },
    "1198": {
        "24/03/2020 15:05:54": [
            29,
            0
        ],
        "24/03/2020 17:18:21": [
            -94,
            -10,
            -9
        ],
        "24/03/2020 19:59:47": [
            12
        ],
        "24/03/2020 22:15:52": [
            -26
        ]
    },
    "1199": {
        "24/03/2020 15:05:54": [
            -20,
            23
        ],
        "24/03/2020 17:18:21": [
            -71,
            13,
            9
        ],
        "24/03/2020 19:59:47": [
            11
        ],
        "24/03/2020 22:15:53": [
            17
        ]
    },
    "1200": {
        "24/03/2020 15:05:55": [
            23,
            14
        ],
        "24/03/2020 17:18:22": [
            -81,
            3,
            -3
        ],
        "24/03/2020 19:59:48": [
            -13
        ],
        "24/03/2020 22:15:53": [
            -16
        ]
    },
    "4385": {
        "24/03/2020 15:05:55": [
            15,
            4
        ],
        "24/03/2020 17:18:22": [
            -90,
            -6,
            -16
        ],
        "24/03/2020 19:59:48": [
            27
        ],
        "24/03/2020 22:15:54": [
            14
        ]
    },
    "1201": {
        "24/03/2020 15:05:56": [
            -27
        ],
        "24/03/2020 17:18:23": [
            -74,
            10,
            -6
        ],
        "24/03/2020 19:59:49": [
            26
        ],
        "24/03/2020 22:15:54": [
            0
        ]
    },
    "1202": {
        "24/03/2020 15:05:56": [
            -27
        ],
        "24/03/2020 17:18:23": [
            -75,
            9,
            -12
        ],
        "24/03/2020 19:59:50": [
            12
        ],
        "24/03/2020 22:15:55": [
            -25
        ]
    },
    "1203": {
        "24/03/2020 15:05:56": [
            -26
        ],
        "24/03/2020 17:18:24": [
            -110,
            -26,
            16
        ],
        "24/03/2020 19:59:50": [
            -27
        ],
        "24/03/2020 22:15:55": []
    },
    "6115": {
        "24/03/2020 15:05:57": [
            -13
        ],
        "24/03/2020 17:18:24": [
            -83,
            1,
            -20
        ],
        "24/03/2020 19:59:50": [
            -16
        ],
        "24/03/2020 22:15:56": []
    },
    "1205": {
        "24/03/2020 15:05:57": [
            -24
        ],
        "24/03/2020 17:18:25": [
            -78,
            6,
            23
        ],
        "24/03/2020 19:59:51": [
            22
        ],
        "24/03/2020 22:15:57": [
            -113
        ]
    },
    "1206": {
        "24/03/2020 15:05:58": [
            -17
        ],
        "24/03/2020 17:18:25": [
            -92,
            -8,
            -6
        ],
        "24/03/2020 19:59:52": [
            18
        ],
        "24/03/2020 22:15:58": [
            -107
        ]
    },
    "1207": {
        "24/03/2020 15:05:58": [
            16
        ],
        "24/03/2020 17:18:26": [
            -67,
            17,
            20
        ],
        "24/03/2020 19:59:52": [
            -14
        ],
        "24/03/2020 22:15:58": [
            -85
        ]
    },
    "1208": {
        "24/03/2020 15:05:59": [
            5
        ],
        "24/03/2020 17:18:26": [
            -91,
            -7,
            -2
        ],
        "24/03/2020 19:59:53": [
            27
        ],
        "24/03/2020 22:15:59": [
            -113
        ]
    },
    "1209": {
        "24/03/2020 15:06:00": [
            24
        ],
        "24/03/2020 17:18:27": [
            -68,
            16,
            18
        ],
        "24/03/2020 19:59:53": [
            -13
        ],
        "24/03/2020 22:15:59": [
            -96
        ]
    },
    "1210": {
        "24/03/2020 15:06:01": [
            -21
        ],
        "24/03/2020 17:18:27": [
            -110,
            -26
        ],
        "24/03/2020 19:59:54": [
            3
        ],
        "24/03/2020 22:15:59": [
            -82
        ]
    },
    "3575": {
        "24/03/2020 15:06:01": [
            -22
        ],
        "24/03/2020 17:18:28": [
            -86,
            -2
        ],
        "24/03/2020 19:59:54": [
            6
        ],
        "24/03/2020 22:16:00": [
            -65
        ]
    },
    "3576": {
        "24/03/2020 15:06:02": [
            27
        ],
        "24/03/2020 17:18:28": [
            -79,
            5
        ],
        "24/03/2020 19:59:55": [
            -6
        ],
        "24/03/2020 22:16:00": [
            -89
        ]
    },
    "3648": {
        "24/03/2020 15:06:02": [
            25
        ],
        "24/03/2020 17:18:29": [
            -74,
            10
        ],
        "24/03/2020 19:59:55": [
            -9
        ],
        "24/03/2020 22:16:01": [
            -100
        ]
    },
    "3649": {
        "24/03/2020 15:06:03": [
            28
        ],
        "24/03/2020 17:18:29": [
            -62,
            22
        ],
        "24/03/2020 19:59:56": [
            -7
        ],
        "24/03/2020 22:16:01": [
            -107
        ]
    },
    "3650": {
        "24/03/2020 15:06:03": [
            24
        ],
        "24/03/2020 17:18:30": [
            -60,
            24
        ],
        "24/03/2020 19:59:56": [
            -14
        ],
        "24/03/2020 22:16:02": [
            -91
        ]
    },
    "7328": {
        "24/03/2020 15:06:04": [
            -7
        ],
        "24/03/2020 17:18:30": [
            -87,
            -3
        ],
        "24/03/2020 19:59:57": [
            15
        ],
        "24/03/2020 22:16:02": [
            -126
        ]
    },
    "3651": {
        "24/03/2020 15:06:04": [
            -8
        ],
        "24/03/2020 17:18:31": [
            -81,
            3
        ],
        "24/03/2020 19:59:57": [
            13
        ],
        "24/03/2020 22:16:03": [
            -25
        ]
    },
    "3652": {
        "24/03/2020 15:06:05": [
            21
        ],
        "24/03/2020 17:18:31": [
            -108,
            -24
        ],
        "24/03/2020 19:59:58": [
            -19
        ],
        "24/03/2020 22:16:03": [
            -1
        ]
    },
    "3653": {
        "24/03/2020 15:06:05": [
            -13
        ],
        "24/03/2020 17:18:32": [
            -91,
            -7
        ],
        "24/03/2020 19:59:58": [
            -9
        ],
        "24/03/2020 22:16:04": [
            -1
        ]
    },
    "3654": {
        "24/03/2020 15:06:06": [
            -6
        ],
        "24/03/2020 17:18:32": [
            -866,
            -90,
            -6
        ],
        "24/03/2020 19:59:59": [
            -13
        ],
        "24/03/2020 22:16:04": [
            -14
        ]
    },
    "5084": {
        "24/03/2020 15:06:06": [
            -6
        ],
        "24/03/2020 17:18:33": [
            -873,
            -97,
            -13
        ],
        "24/03/2020 19:59:59": [
            -25
        ],
        "24/03/2020 22:16:04": [
            27
        ]
    },
    "6054": {
        "24/03/2020 15:06:07": [
            18
        ],
        "24/03/2020 17:18:33": [
            -857,
            -81,
            3
        ],
        "24/03/2020 20:00:00": [
            -16
        ],
        "24/03/2020 22:16:05": [
            26
        ]
    },
    "4330": {
        "24/03/2020 15:06:07": [
            -1
        ],
        "24/03/2020 17:18:33": [
            -880,
            -104,
            -20
        ],
        "24/03/2020 20:00:00": [
            18
        ],
        "24/03/2020 22:16:05": [
            -5
        ]
    },
    "3679": {
        "24/03/2020 15:06:08": [
            -26
        ],
        "24/03/2020 17:18:34": [
            -1038,
            -68
        ],
        "24/03/2020 20:00:01": [
            13
        ],
        "24/03/2020 22:16:06": [
            19
        ]
    },
    "3711": {
        "24/03/2020 15:06:08": [
            -12
        ],
        "24/03/2020 17:18:34": [
            -1057,
            -87
        ],
        "24/03/2020 20:00:02": [
            -10
        ],
        "24/03/2020 22:16:06": [
            1
        ]
    },
    "3712": {
        "24/03/2020 15:06:09": [
            -24
        ],
        "24/03/2020 17:18:35": [
            -1095,
            -108
        ],
        "24/03/2020 20:00:03": [
            25
        ],
        "24/03/2020 22:16:07": [
            -27
        ]
    },
    "6359": {
        "24/03/2020 15:06:10": [
            25
        ],
        "24/03/2020 17:18:35": [
            -853,
            -77
        ],
        "24/03/2020 20:00:04": [
            -14
        ],
        "24/03/2020 22:16:07": [
            -12
        ]
    },
    "7189": {
        "24/03/2020 15:06:10": [],
        "24/03/2020 17:18:36": [],
        "24/03/2020 20:00:04": [],
        "24/03/2020 22:16:08": []
    }
}