{
    "928": {
        "26/03/2020 13:17:13": [],
        "26/03/2020 15:40:25": [],
        "26/03/2020 18:19:52": []
    },
    "929": {
        "26/03/2020 13:17:13": [],
        "26/03/2020 15:40:26": [],
        "26/03/2020 18:19:52": []
    },
    "930": {
        "26/03/2020 13:17:14": [],
        "26/03/2020 15:40:26": [],
        "26/03/2020 18:19:53": []
    },
    "931": {
        "26/03/2020 13:17:14": [],
        "26/03/2020 15:40:27": [],
        "26/03/2020 18:19:53": []
    },
    "587": {
        "26/03/2020 13:17:15": [],
        "26/03/2020 15:40:27": [],
        "26/03/2020 18:19:54": []
    },
    "588": {
        "26/03/2020 13:17:16": [],
        "26/03/2020 15:40:28": [],
        "26/03/2020 18:19:54": []
    },
    "589": {
        "26/03/2020 13:17:16": [],
        "26/03/2020 15:40:28": [],
        "26/03/2020 18:19:55": []
    },
    "590": {
        "26/03/2020 13:17:17": [],
        "26/03/2020 15:40:29": [],
        "26/03/2020 18:19:55": []
    },
    "591": {
        "26/03/2020 13:17:17": [],
        "26/03/2020 15:40:29": [],
        "26/03/2020 18:19:56": []
    },
    "592": {
        "26/03/2020 13:17:18": [],
        "26/03/2020 15:40:30": [],
        "26/03/2020 18:19:56": []
    },
    "593": {
        "26/03/2020 13:17:19": [],
        "26/03/2020 15:40:30": [],
        "26/03/2020 18:19:57": []
    },
    "594": {
        "26/03/2020 13:17:19": [],
        "26/03/2020 15:40:31": [],
        "26/03/2020 18:19:57": []
    },
    "595": {
        "26/03/2020 13:17:20": [],
        "26/03/2020 15:40:31": [],
        "26/03/2020 18:19:58": []
    },
    "596": {
        "26/03/2020 13:17:20": [],
        "26/03/2020 15:40:32": [],
        "26/03/2020 18:19:58": []
    },
    "597": {
        "26/03/2020 13:17:21": [],
        "26/03/2020 15:40:32": [],
        "26/03/2020 18:19:59": []
    },
    "598": {
        "26/03/2020 13:17:21": [],
        "26/03/2020 15:40:33": [],
        "26/03/2020 18:19:59": []
    },
    "599": {
        "26/03/2020 13:17:22": [],
        "26/03/2020 15:40:33": [],
        "26/03/2020 18:20:00": []
    },
    "600": {
        "26/03/2020 13:17:22": [],
        "26/03/2020 15:40:34": [],
        "26/03/2020 18:20:00": []
    },
    "601": {
        "26/03/2020 13:17:23": [],
        "26/03/2020 15:40:34": [],
        "26/03/2020 18:20:01": []
    },
    "602": {
        "26/03/2020 13:17:23": [],
        "26/03/2020 15:40:35": [],
        "26/03/2020 18:20:02": []
    },
    "603": {
        "26/03/2020 13:17:24": [],
        "26/03/2020 15:40:35": [],
        "26/03/2020 18:20:02": []
    },
    "604": {
        "26/03/2020 13:17:25": [],
        "26/03/2020 15:40:36": [],
        "26/03/2020 18:20:03": []
    },
    "605": {
        "26/03/2020 13:17:25": [],
        "26/03/2020 15:40:36": [],
        "26/03/2020 18:20:03": []
    },
    "606": {
        "26/03/2020 13:17:26": [],
        "26/03/2020 15:40:37": [],
        "26/03/2020 18:20:04": []
    },
    "607": {
        "26/03/2020 13:17:26": [],
        "26/03/2020 15:40:37": [],
        "26/03/2020 18:20:04": []
    },
    "608": {
        "26/03/2020 13:17:27": [],
        "26/03/2020 15:40:38": [],
        "26/03/2020 18:20:04": []
    },
    "4791": {
        "26/03/2020 13:17:28": [],
        "26/03/2020 15:40:38": [],
        "26/03/2020 18:20:05": []
    },
    "4792": {
        "26/03/2020 13:17:28": [],
        "26/03/2020 15:40:39": [],
        "26/03/2020 18:20:06": []
    },
    "1185": {
        "26/03/2020 13:17:29": [],
        "26/03/2020 15:40:40": [],
        "26/03/2020 18:20:06": []
    },
    "1186": {
        "26/03/2020 13:17:29": [],
        "26/03/2020 15:40:40": [],
        "26/03/2020 18:20:07": []
    },
    "1187": {
        "26/03/2020 13:17:30": [],
        "26/03/2020 15:40:41": [],
        "26/03/2020 18:20:07": []
    },
    "1188": {
        "26/03/2020 13:17:30": [],
        "26/03/2020 15:40:41": [],
        "26/03/2020 18:20:08": []
    },
    "237": {
        "26/03/2020 13:17:31": [],
        "26/03/2020 15:40:42": [],
        "26/03/2020 18:20:08": []
    },
    "206": {
        "26/03/2020 13:17:31": [],
        "26/03/2020 15:40:42": [],
        "26/03/2020 18:20:09": []
    },
    "1643": {
        "26/03/2020 13:17:32": [],
        "26/03/2020 15:40:43": [],
        "26/03/2020 18:20:09": []
    },
    "7571": {
        "26/03/2020 13:17:32": [],
        "26/03/2020 15:40:43": [],
        "26/03/2020 18:20:10": []
    },
    "1190": {
        "26/03/2020 13:17:33": [],
        "26/03/2020 15:40:44": [],
        "26/03/2020 18:20:11": []
    },
    "1191": {
        "26/03/2020 13:17:33": [],
        "26/03/2020 15:40:44": [],
        "26/03/2020 18:20:11": []
    },
    "1192": {
        "26/03/2020 13:17:34": [],
        "26/03/2020 15:40:45": [],
        "26/03/2020 18:20:11": []
    },
    "1193": {
        "26/03/2020 13:17:35": [],
        "26/03/2020 15:40:45": [],
        "26/03/2020 18:20:12": []
    },
    "1194": {
        "26/03/2020 13:17:35": [],
        "26/03/2020 15:40:46": [],
        "26/03/2020 18:20:12": []
    },
    "1195": {
        "26/03/2020 13:17:36": [],
        "26/03/2020 15:40:46": [],
        "26/03/2020 18:20:13": []
    },
    "674": {
        "26/03/2020 13:17:36": [],
        "26/03/2020 15:40:47": [],
        "26/03/2020 18:20:13": []
    },
    "4389": {
        "26/03/2020 13:17:37": [],
        "26/03/2020 15:40:47": [],
        "26/03/2020 18:20:14": []
    },
    "4390": {
        "26/03/2020 13:17:38": [],
        "26/03/2020 15:40:48": [],
        "26/03/2020 18:20:15": []
    },
    "530": {
        "26/03/2020 13:17:38": [],
        "26/03/2020 15:40:49": [],
        "26/03/2020 18:20:15": []
    },
    "531": {
        "26/03/2020 13:17:39": [],
        "26/03/2020 15:40:49": [],
        "26/03/2020 18:20:16": []
    },
    "709": {
        "26/03/2020 13:17:39": [],
        "26/03/2020 15:40:50": [],
        "26/03/2020 18:20:16": []
    },
    "532": {
        "26/03/2020 13:17:40": [],
        "26/03/2020 15:40:50": [],
        "26/03/2020 18:20:17": []
    },
    "533": {
        "26/03/2020 13:17:40": [],
        "26/03/2020 15:40:51": [],
        "26/03/2020 18:20:17": []
    },
    "534": {
        "26/03/2020 13:17:41": [],
        "26/03/2020 15:40:51": [],
        "26/03/2020 18:20:18": []
    },
    "535": {
        "26/03/2020 13:17:41": [],
        "26/03/2020 15:40:52": [],
        "26/03/2020 18:20:18": []
    },
    "536": {
        "26/03/2020 13:17:42": [],
        "26/03/2020 15:40:52": [],
        "26/03/2020 18:20:19": []
    },
    "537": {
        "26/03/2020 13:17:42": [],
        "26/03/2020 15:40:53": [],
        "26/03/2020 18:20:19": []
    },
    "538": {
        "26/03/2020 13:17:43": [],
        "26/03/2020 15:40:53": [],
        "26/03/2020 18:20:20": []
    },
    "539": {
        "26/03/2020 13:17:43": [],
        "26/03/2020 15:40:54": [],
        "26/03/2020 18:20:20": []
    },
    "540": {
        "26/03/2020 13:17:44": [],
        "26/03/2020 15:40:54": [],
        "26/03/2020 18:20:21": []
    },
    "541": {
        "26/03/2020 13:17:45": [],
        "26/03/2020 15:40:55": [],
        "26/03/2020 18:20:21": []
    },
    "542": {
        "26/03/2020 13:17:45": [],
        "26/03/2020 15:40:55": [],
        "26/03/2020 18:20:22": []
    },
    "543": {
        "26/03/2020 13:17:45": [],
        "26/03/2020 15:40:56": [],
        "26/03/2020 18:20:22": []
    },
    "544": {
        "26/03/2020 13:17:46": [],
        "26/03/2020 15:40:56": [],
        "26/03/2020 18:20:23": []
    },
    "545": {
        "26/03/2020 13:17:46": [],
        "26/03/2020 15:40:56": [],
        "26/03/2020 18:20:23": []
    },
    "546": {
        "26/03/2020 13:17:47": [],
        "26/03/2020 15:40:57": [],
        "26/03/2020 18:20:24": []
    },
    "910": {
        "26/03/2020 13:17:48": [],
        "26/03/2020 15:40:58": [],
        "26/03/2020 18:20:24": []
    },
    "911": {
        "26/03/2020 13:17:48": [],
        "26/03/2020 15:40:58": [],
        "26/03/2020 18:20:25": []
    },
    "912": {
        "26/03/2020 13:17:49": [],
        "26/03/2020 15:40:58": [],
        "26/03/2020 18:20:25": []
    },
    "913": {
        "26/03/2020 13:17:49": [],
        "26/03/2020 15:40:59": [],
        "26/03/2020 18:20:26": []
    }
}