{
    "7186": {
        "21/03/2020 15:21:30": [
            -167,
            -29
        ],
        "21/03/2020 15:22:14": [
            -167,
            -29
        ],
        "21/03/2020 15:22:27": [
            -167,
            -29
        ],
        "21/03/2020 17:27:35": [
            -869,
            -21
        ],
        "21/03/2020 20:13:53": [
            -563,
            27
        ],
        "21/03/2020 22:16:37": [
            -11,
            1821
        ]
    },
    "7187": {
        "21/03/2020 15:21:31": [
            -152,
            -14
        ],
        "21/03/2020 15:22:14": [
            -152,
            -14
        ],
        "21/03/2020 15:22:28": [
            -152,
            -14
        ],
        "21/03/2020 17:27:36": [
            -847,
            1
        ],
        "21/03/2020 20:13:54": [
            -607,
            -17
        ],
        "21/03/2020 22:16:38": [
            1,
            1833
        ]
    },
    "3947": {
        "21/03/2020 15:21:31": [
            -117,
            21
        ],
        "21/03/2020 15:22:11": [
            -117,
            21
        ],
        "21/03/2020 15:22:28": [
            -117,
            21
        ],
        "21/03/2020 17:27:36": [
            -868,
            -20
        ],
        "21/03/2020 20:13:54": [
            -570,
            20
        ],
        "21/03/2020 22:16:38": [
            -24,
            1808
        ]
    },
    "3892": {
        "21/03/2020 15:21:31": [
            -149,
            -11
        ],
        "21/03/2020 15:22:07": [
            -149,
            -11
        ],
        "21/03/2020 15:22:28": [
            -149,
            -11
        ],
        "21/03/2020 17:27:36": [
            -837,
            11
        ],
        "21/03/2020 20:13:54": [
            -601,
            -11
        ],
        "21/03/2020 22:16:39": [
            3,
            1835
        ]
    },
    "3893": {
        "21/03/2020 15:21:31": [
            -163,
            -25
        ],
        "21/03/2020 15:22:07": [
            -163,
            -25
        ],
        "21/03/2020 15:22:28": [
            -163,
            -25
        ],
        "21/03/2020 17:27:36": [
            -836,
            3
        ],
        "21/03/2020 20:13:55": [
            -612,
            -22
        ],
        "21/03/2020 22:16:39": [
            -11,
            1821
        ]
    },
    "3895": {
        "21/03/2020 15:21:32": [
            -114,
            24
        ],
        "21/03/2020 15:22:08": [
            -114,
            24
        ],
        "21/03/2020 15:22:29": [
            -114,
            24
        ],
        "21/03/2020 17:27:37": [
            -845,
            -6
        ],
        "21/03/2020 20:13:55": [
            -561
        ],
        "21/03/2020 22:16:40": [
            -22,
            1810
        ]
    },
    "3896": {
        "21/03/2020 15:21:32": [
            -155,
            -17
        ],
        "21/03/2020 15:22:08": [
            -155,
            -17
        ],
        "21/03/2020 15:22:29": [
            -155,
            -17
        ],
        "21/03/2020 17:27:37": [
            -825,
            14
        ],
        "21/03/2020 20:13:56": [
            -601
        ],
        "21/03/2020 22:16:40": [
            -3,
            1829
        ]
    },
    "3897": {
        "21/03/2020 15:21:32": [
            -134,
            4
        ],
        "21/03/2020 15:22:08": [
            -134,
            4
        ],
        "21/03/2020 15:22:29": [
            -134,
            4
        ],
        "21/03/2020 17:27:37": [
            -787,
            -20
        ],
        "21/03/2020 20:13:56": [
            -579
        ],
        "21/03/2020 22:16:40": [
            19,
            1851
        ]
    },
    "3898": {
        "21/03/2020 15:21:33": [
            -123,
            15
        ],
        "21/03/2020 15:22:09": [
            -123,
            15
        ],
        "21/03/2020 15:22:29": [
            -123,
            15
        ],
        "21/03/2020 17:27:38": [
            -846,
            -7
        ],
        "21/03/2020 20:13:56": [
            -567
        ],
        "21/03/2020 22:16:41": [
            -29,
            1803
        ]
    },
    "3899": {
        "21/03/2020 15:21:33": [
            -138,
            0
        ],
        "21/03/2020 15:22:15": [
            -138,
            0
        ],
        "21/03/2020 15:22:30": [
            -138,
            0
        ],
        "21/03/2020 17:27:38": [
            -783,
            -16
        ],
        "21/03/2020 20:13:57": [
            -581
        ],
        "21/03/2020 22:16:41": [
            9,
            1841
        ]
    },
    "3900": {
        "21/03/2020 15:21:33": [
            -117,
            21
        ],
        "21/03/2020 15:22:15": [
            -117,
            21
        ],
        "21/03/2020 15:22:30": [
            -117,
            21
        ],
        "21/03/2020 17:27:38": [
            -761,
            6
        ],
        "21/03/2020 20:13:57": [
            -563
        ],
        "21/03/2020 22:16:42": [
            26,
            1858
        ]
    },
    "3901": {
        "21/03/2020 15:21:33": [
            -148,
            -10
        ],
        "21/03/2020 15:22:15": [
            -148,
            -10
        ],
        "21/03/2020 15:22:30": [
            -148,
            -10
        ],
        "21/03/2020 17:27:39": [
            -788,
            -21
        ],
        "21/03/2020 20:13:58": [
            -599
        ],
        "21/03/2020 22:16:42": [
            -10,
            1822
        ]
    },
    "3902": {
        "21/03/2020 15:21:34": [
            -128,
            10
        ],
        "21/03/2020 15:22:16": [
            -128,
            10
        ],
        "21/03/2020 15:22:31": [
            -128,
            10
        ],
        "21/03/2020 17:27:39": [
            -761,
            6
        ],
        "21/03/2020 20:13:58": [
            -582
        ],
        "21/03/2020 22:16:43": [
            8,
            1840
        ]
    },
    "3904": {
        "21/03/2020 15:21:34": [
            -121,
            17
        ],
        "21/03/2020 15:22:02": [
            -121,
            17
        ],
        "21/03/2020 15:22:31": [
            -121,
            17
        ],
        "21/03/2020 17:27:39": [
            -753,
            14
        ],
        "21/03/2020 20:13:59": [
            -581
        ],
        "21/03/2020 22:16:43": [
            9,
            1841
        ]
    },
    "3905": {
        "21/03/2020 15:21:34": [
            -162,
            -24
        ],
        "21/03/2020 15:22:03": [
            -162,
            -24
        ],
        "21/03/2020 15:22:31": [
            -162,
            -24
        ],
        "21/03/2020 17:27:39": [
            -792,
            -25
        ],
        "21/03/2020 20:13:59": [
            -580
        ],
        "21/03/2020 22:16:44": [
            -3,
            1829
        ]
    },
    "3906": {
        "21/03/2020 15:21:35": [
            -112,
            26
        ],
        "21/03/2020 15:22:03": [
            -112,
            26
        ],
        "21/03/2020 15:22:31": [
            -112,
            26
        ],
        "21/03/2020 17:27:40": [
            -741
        ],
        "21/03/2020 20:14:00": [
            -597
        ],
        "21/03/2020 22:16:44": [
            -23,
            1809
        ]
    },
    "3907": {
        "21/03/2020 15:21:35": [
            -128
        ],
        "21/03/2020 15:22:03": [
            -128
        ],
        "21/03/2020 15:22:32": [
            -128,
            10
        ],
        "21/03/2020 17:27:40": [
            -757
        ],
        "21/03/2020 20:14:00": [
            -619
        ],
        "21/03/2020 22:16:44": [
            11,
            1843
        ]
    },
    "3908": {
        "21/03/2020 15:21:35": [
            -118
        ],
        "21/03/2020 15:22:03": [
            -118
        ],
        "21/03/2020 15:22:32": [
            -118,
            20
        ],
        "21/03/2020 17:27:40": [
            -747
        ],
        "21/03/2020 20:14:00": [
            -618
        ],
        "21/03/2020 22:16:45": [
            6,
            1838
        ]
    },
    "3909": {
        "21/03/2020 15:21:35": [
            -142
        ],
        "21/03/2020 15:22:04": [
            -142
        ],
        "21/03/2020 15:22:32": [
            -142
        ],
        "21/03/2020 17:27:41": [
            -769
        ],
        "21/03/2020 20:14:01": [
            -515,
            -594
        ],
        "21/03/2020 22:16:45": [
            21,
            1853
        ]
    },
    "5118": {
        "21/03/2020 15:21:36": [
            -121
        ],
        "21/03/2020 15:22:14": [
            -121
        ],
        "21/03/2020 15:22:33": [
            -121
        ],
        "21/03/2020 17:27:41": [
            -796
        ],
        "21/03/2020 20:14:01": [
            -486,
            -565
        ],
        "21/03/2020 22:16:46": [
            -26,
            1806
        ]
    },
    "3910": {
        "21/03/2020 15:21:36": [
            -140
        ],
        "21/03/2020 15:22:05": [
            -140
        ],
        "21/03/2020 15:22:33": [
            -140
        ],
        "21/03/2020 17:27:41": [
            -750
        ],
        "21/03/2020 20:14:02": [
            -502,
            -581
        ],
        "21/03/2020 22:16:46": [
            10,
            1842
        ]
    },
    "3911": {
        "21/03/2020 15:21:36": [
            -117
        ],
        "21/03/2020 15:22:06": [
            -117
        ],
        "21/03/2020 15:22:33": [
            -117
        ],
        "21/03/2020 17:27:41": [
            -785
        ],
        "21/03/2020 20:14:02": [
            -539,
            -618
        ],
        "21/03/2020 22:16:47": [
            -29,
            1803
        ]
    },
    "3912": {
        "21/03/2020 15:21:37": [
            -167
        ],
        "21/03/2020 15:22:06": [
            -167
        ],
        "21/03/2020 15:22:33": [
            -167
        ],
        "21/03/2020 17:27:42": [
            -769
        ],
        "21/03/2020 20:14:02": [
            -527,
            -606
        ],
        "21/03/2020 22:16:47": [
            -23
        ]
    },
    "3913": {
        "21/03/2020 15:21:37": [
            -128
        ],
        "21/03/2020 15:22:06": [
            -128
        ],
        "21/03/2020 15:22:34": [
            -128
        ],
        "21/03/2020 17:27:42": [
            -789
        ],
        "21/03/2020 20:14:03": [
            -489,
            -568
        ],
        "21/03/2020 22:16:47": []
    },
    "3914": {
        "21/03/2020 15:21:37": [
            -163
        ],
        "21/03/2020 15:22:06": [
            -163
        ],
        "21/03/2020 15:22:34": [
            -163
        ],
        "21/03/2020 17:27:42": [
            -760
        ],
        "21/03/2020 20:14:03": [
            -538,
            -604
        ],
        "21/03/2020 22:16:48": []
    },
    "7075": {
        "21/03/2020 15:21:37": [
            -146
        ],
        "21/03/2020 15:22:12": [
            -146
        ],
        "21/03/2020 15:22:35": [
            -146
        ],
        "21/03/2020 17:27:43": [
            -739
        ],
        "21/03/2020 20:14:04": [
            -506,
            -588
        ],
        "21/03/2020 22:16:48": []
    },
    "3925": {
        "21/03/2020 15:21:38": [
            -109
        ],
        "21/03/2020 15:22:07": [
            -109
        ],
        "21/03/2020 15:22:35": [
            -109
        ],
        "21/03/2020 17:27:43": [
            -761
        ],
        "21/03/2020 20:14:04": [
            -560,
            -612
        ],
        "21/03/2020 22:16:49": []
    },
    "3008": {
        "21/03/2020 15:21:38": [
            -138
        ],
        "21/03/2020 15:22:10": [
            -138
        ],
        "21/03/2020 15:22:36": [
            -138
        ],
        "21/03/2020 17:27:43": [
            -788
        ],
        "21/03/2020 20:14:05": [
            -534,
            -586
        ],
        "21/03/2020 22:16:49": [
            -235
        ]
    },
    "6089": {
        "21/03/2020 15:21:38": [],
        "21/03/2020 15:22:10": [],
        "21/03/2020 15:22:36": [],
        "21/03/2020 17:27:43": [],
        "21/03/2020 20:14:05": [],
        "21/03/2020 22:16:50": []
    },
    "1478": {
        "21/03/2020 15:21:38": [
            -24,
            -24
        ],
        "21/03/2020 15:22:53": [
            -24,
            -24
        ],
        "21/03/2020 17:28:01": [
            81,
            -5
        ],
        "21/03/2020 20:14:29": [
            -149
        ],
        "21/03/2020 22:17:16": [
            -128,
            4
        ]
    },
    "1479": {
        "21/03/2020 15:21:39": [
            -24,
            -24
        ],
        "21/03/2020 15:22:53": [
            -24,
            -24
        ],
        "21/03/2020 17:28:01": [
            98,
            12
        ],
        "21/03/2020 20:14:30": [
            -148
        ],
        "21/03/2020 22:17:16": [
            -137,
            -5
        ]
    },
    "2237": {
        "21/03/2020 15:21:39": [],
        "21/03/2020 17:27:23": [],
        "21/03/2020 20:13:35": [],
        "21/03/2020 22:16:19": []
    },
    "2238": {
        "21/03/2020 15:21:39": [
            44,
            -24
        ],
        "21/03/2020 15:22:47": [
            44,
            -24
        ],
        "21/03/2020 17:27:55": [
            74,
            -12
        ],
        "21/03/2020 20:14:21": [
            -191,
            27
        ],
        "21/03/2020 22:17:06": [
            -173,
            4
        ]
    },
    "2239": {
        "21/03/2020 15:21:40": [
            -24,
            -24
        ],
        "21/03/2020 15:22:48": [
            -24,
            -24
        ],
        "21/03/2020 17:27:55": [
            84,
            -2
        ],
        "21/03/2020 20:14:22": [
            -108,
            16
        ],
        "21/03/2020 22:17:07": [
            -217,
            -17
        ]
    },
    "2241": {
        "21/03/2020 15:21:40": [
            -14,
            -14
        ],
        "21/03/2020 15:22:48": [
            -14,
            -14
        ],
        "21/03/2020 17:27:56": [
            89,
            3
        ],
        "21/03/2020 20:14:22": [
            -102,
            22
        ],
        "21/03/2020 22:17:08": [
            -221,
            -21
        ]
    },
    "2242": {
        "21/03/2020 15:21:40": [
            22,
            22
        ],
        "21/03/2020 15:22:48": [
            22,
            22
        ],
        "21/03/2020 17:27:56": [
            75,
            -11
        ],
        "21/03/2020 20:14:23": [
            -123,
            1
        ],
        "21/03/2020 22:17:08": [
            -191,
            9
        ]
    },
    "2243": {
        "21/03/2020 15:21:40": [
            -7,
            -7
        ],
        "21/03/2020 15:22:49": [
            -7,
            -7
        ],
        "21/03/2020 17:27:56": [
            70,
            -16
        ],
        "21/03/2020 20:14:23": [
            -145,
            -21
        ],
        "21/03/2020 22:17:09": [
            -174,
            26
        ]
    },
    "2244": {
        "21/03/2020 15:21:41": [
            -28,
            -28
        ],
        "21/03/2020 15:22:49": [
            -28,
            -28
        ],
        "21/03/2020 17:27:57": [
            60,
            -26
        ],
        "21/03/2020 20:14:23": [
            -103,
            21
        ],
        "21/03/2020 22:17:09": [
            -201,
            -1
        ]
    },
    "2245": {
        "21/03/2020 15:21:41": [
            4,
            4
        ],
        "21/03/2020 15:22:49": [
            4,
            4
        ],
        "21/03/2020 17:27:57": [
            100,
            14
        ],
        "21/03/2020 20:14:24": [
            -129,
            -5
        ],
        "21/03/2020 22:17:10": [
            -106,
            26
        ]
    },
    "2246": {
        "21/03/2020 15:21:41": [
            26,
            26
        ],
        "21/03/2020 15:22:49": [
            26,
            26
        ],
        "21/03/2020 17:27:57": [
            57,
            -29
        ],
        "21/03/2020 20:14:24": [
            -128,
            -4
        ],
        "21/03/2020 22:17:10": [
            -114,
            18
        ]
    },
    "2247": {
        "21/03/2020 15:21:42": [
            -29,
            -29
        ],
        "21/03/2020 15:22:50": [
            -29,
            -29
        ],
        "21/03/2020 17:27:57": [
            66,
            -20
        ],
        "21/03/2020 20:14:25": [
            -134,
            -10
        ],
        "21/03/2020 22:17:10": [
            -126,
            6
        ]
    },
    "2248": {
        "21/03/2020 15:21:42": [
            9,
            9
        ],
        "21/03/2020 15:22:50": [
            9,
            9
        ],
        "21/03/2020 17:27:58": [
            104,
            18
        ],
        "21/03/2020 20:14:25": [
            -100,
            24
        ],
        "21/03/2020 22:17:11": [
            -150,
            -18
        ]
    },
    "2249": {
        "21/03/2020 15:21:42": [
            -22,
            -22
        ],
        "21/03/2020 15:22:50": [
            -22,
            -22
        ],
        "21/03/2020 17:27:58": [
            73,
            -13
        ],
        "21/03/2020 20:14:26": [
            -134,
            -10
        ],
        "21/03/2020 22:17:11": [
            -123,
            9
        ]
    },
    "2250": {
        "21/03/2020 15:21:42": [
            6,
            6
        ],
        "21/03/2020 15:22:51": [
            6,
            6
        ],
        "21/03/2020 17:27:58": [
            97,
            11
        ],
        "21/03/2020 20:14:26": [
            -111,
            13
        ],
        "21/03/2020 22:17:12": [
            -157,
            -25
        ]
    },
    "1472": {
        "21/03/2020 15:21:43": [
            -24,
            -24
        ],
        "21/03/2020 15:22:51": [
            -24,
            -24
        ],
        "21/03/2020 17:27:59": [
            70,
            -16
        ],
        "21/03/2020 20:14:27": [
            -96,
            28
        ],
        "21/03/2020 22:17:13": [
            -148,
            -16
        ]
    },
    "1473": {
        "21/03/2020 15:21:43": [
            -28,
            -28
        ],
        "21/03/2020 15:22:52": [
            -28,
            -28
        ],
        "21/03/2020 17:27:59": [
            62,
            -24
        ],
        "21/03/2020 20:14:28": [
            -114,
            10
        ],
        "21/03/2020 22:17:13": [
            -107,
            25
        ]
    },
    "1474": {
        "21/03/2020 15:21:43": [
            10,
            10
        ],
        "21/03/2020 15:22:52": [
            10,
            10
        ],
        "21/03/2020 17:28:00": [
            57,
            -29
        ],
        "21/03/2020 20:14:28": [
            -106,
            18
        ],
        "21/03/2020 22:17:14": [
            -107,
            25
        ]
    },
    "1476": {
        "21/03/2020 15:21:44": [
            24,
            24
        ],
        "21/03/2020 15:22:52": [
            24,
            24
        ],
        "21/03/2020 17:28:00": [
            78,
            -8
        ],
        "21/03/2020 20:14:28": [
            -103,
            21
        ],
        "21/03/2020 22:17:14": [
            -108,
            24
        ]
    },
    "2232": {
        "21/03/2020 15:21:44": [
            77,
            9
        ],
        "21/03/2020 15:22:46": [
            77,
            9
        ],
        "21/03/2020 17:27:54": [
            -7,
            10
        ],
        "21/03/2020 20:14:19": [
            -194,
            -7
        ],
        "21/03/2020 22:17:05": [
            -216,
            -16
        ]
    },
    "2233": {
        "21/03/2020 15:21:44": [
            53,
            -15
        ],
        "21/03/2020 15:22:46": [
            53,
            -15
        ],
        "21/03/2020 17:27:53": [
            -29,
            -21
        ],
        "21/03/2020 20:14:19": [
            -216,
            -29
        ],
        "21/03/2020 22:17:04": [
            21
        ]
    },
    "315": {
        "21/03/2020 15:21:44": [
            -30
        ],
        "21/03/2020 15:22:53": [
            -30
        ],
        "21/03/2020 17:28:01": [
            74,
            -12
        ],
        "21/03/2020 20:14:30": [
            -140
        ],
        "21/03/2020 22:17:17": [
            -135,
            -3
        ]
    },
    "3372": {
        "21/03/2020 15:21:45": [
            60,
            -8
        ],
        "21/03/2020 15:22:45": [
            60,
            -8
        ],
        "21/03/2020 17:27:52": [
            20,
            -30
        ],
        "21/03/2020 20:14:18": [
            -207,
            -20
        ],
        "21/03/2020 22:17:03": [
            -20
        ]
    },
    "3373": {
        "21/03/2020 15:21:45": [
            50,
            -18
        ],
        "21/03/2020 15:22:45": [
            50,
            -18
        ],
        "21/03/2020 17:27:53": [
            8,
            21
        ],
        "21/03/2020 20:14:18": [
            -215,
            -28
        ],
        "21/03/2020 22:17:03": [
            26
        ]
    },
    "3374": {
        "21/03/2020 15:21:45": [
            82,
            14
        ],
        "21/03/2020 15:22:45": [
            82,
            14
        ],
        "21/03/2020 17:27:53": [
            -16,
            -2
        ],
        "21/03/2020 20:14:18": [
            -240,
            3
        ],
        "21/03/2020 22:17:04": [
            -6
        ]
    },
    "3917": {
        "21/03/2020 15:21:45": [
            0,
            0
        ],
        "21/03/2020 15:22:36": [
            0,
            0
        ],
        "21/03/2020 17:27:44": [
            0,
            0
        ],
        "21/03/2020 20:14:06": [
            0,
            0
        ],
        "21/03/2020 22:16:50": [
            0,
            0
        ]
    },
    "3918": {
        "21/03/2020 15:21:46": [
            13,
            -20
        ],
        "21/03/2020 15:22:37": [
            13,
            -20
        ],
        "21/03/2020 17:27:44": [
            0
        ],
        "21/03/2020 20:14:06": [
            28,
            29
        ],
        "21/03/2020 22:16:50": [
            29,
            29
        ]
    },
    "3919": {
        "21/03/2020 15:21:46": [
            -25,
            4
        ],
        "21/03/2020 15:22:38": [
            -25,
            4
        ],
        "21/03/2020 17:27:45": [
            14,
            5
        ],
        "21/03/2020 20:14:07": [
            -16,
            21
        ],
        "21/03/2020 22:16:52": [
            21,
            21
        ]
    },
    "3920": {
        "21/03/2020 15:21:46": [
            -8,
            25
        ],
        "21/03/2020 15:22:38": [
            -8,
            25
        ],
        "21/03/2020 17:27:45": [
            -29,
            22
        ],
        "21/03/2020 20:14:08": [
            3,
            -25
        ],
        "21/03/2020 22:16:52": [
            -25,
            -25
        ]
    },
    "3921": {
        "21/03/2020 15:21:47": [
            -28,
            8
        ],
        "21/03/2020 15:22:38": [
            -28,
            8
        ],
        "21/03/2020 17:27:45": [
            12,
            2
        ],
        "21/03/2020 20:14:08": [
            -16,
            14
        ],
        "21/03/2020 22:16:53": [
            14,
            14
        ]
    },
    "3922": {
        "21/03/2020 15:21:47": [
            22,
            9
        ],
        "21/03/2020 15:22:39": [
            22,
            9
        ],
        "21/03/2020 17:27:46": [
            6,
            -9
        ],
        "21/03/2020 20:14:08": [
            -28,
            2
        ],
        "21/03/2020 22:16:53": [
            2,
            2
        ]
    },
    "3923": {
        "21/03/2020 15:21:47": [
            19,
            5
        ],
        "21/03/2020 15:22:39": [
            19,
            5
        ],
        "21/03/2020 17:27:46": [
            2,
            -16
        ],
        "21/03/2020 20:14:09": [
            22,
            -10
        ],
        "21/03/2020 22:16:54": [
            -10,
            -10
        ]
    },
    "3924": {
        "21/03/2020 15:21:47": [
            -19,
            24
        ],
        "21/03/2020 15:22:39": [
            -19,
            24
        ],
        "21/03/2020 17:27:47": [
            20,
            -5
        ],
        "21/03/2020 20:14:10": [
            26,
            -12
        ],
        "21/03/2020 22:16:55": [
            -12,
            -12
        ]
    },
    "3926": {
        "21/03/2020 15:21:48": [
            18,
            -21
        ],
        "21/03/2020 15:22:37": [
            18,
            -21
        ],
        "21/03/2020 17:27:44": [
            -4,
            -10
        ],
        "21/03/2020 20:14:06": [
            24,
            9
        ],
        "21/03/2020 22:16:51": [
            9,
            9
        ]
    },
    "3927": {
        "21/03/2020 15:21:48": [
            0,
            -18
        ],
        "21/03/2020 15:22:40": [
            0,
            -18
        ],
        "21/03/2020 17:27:47": [
            -23,
            9
        ],
        "21/03/2020 20:14:10": [
            -25,
            -6
        ],
        "21/03/2020 22:16:55": [
            -6,
            -6
        ]
    },
    "3928": {
        "21/03/2020 15:21:48": [
            -7,
            -26
        ],
        "21/03/2020 15:22:40": [
            -7,
            -26
        ],
        "21/03/2020 17:27:47": [
            29,
            -2
        ],
        "21/03/2020 20:14:10": [
            21,
            -22
        ],
        "21/03/2020 22:16:56": [
            -22,
            -22
        ]
    },
    "3929": {
        "21/03/2020 15:21:49": [
            -17,
            -26
        ],
        "21/03/2020 15:22:40": [
            -17,
            -26
        ],
        "21/03/2020 17:27:48": [
            19,
            -14
        ],
        "21/03/2020 20:14:11": [
            -1,
            14
        ],
        "21/03/2020 22:16:56": [
            14
        ]
    },
    "3935": {
        "21/03/2020 15:21:49": [
            -5,
            28
        ],
        "21/03/2020 15:22:41": [
            -5,
            28
        ],
        "21/03/2020 17:27:48": [
            -29,
            -5
        ],
        "21/03/2020 20:14:12": [
            28,
            -24
        ],
        "21/03/2020 22:16:57": [
            -24,
            -24
        ]
    },
    "3936": {
        "21/03/2020 15:21:49": [
            3,
            -25
        ],
        "21/03/2020 15:22:41": [
            3,
            -25
        ],
        "21/03/2020 17:27:48": [
            -25,
            0
        ],
        "21/03/2020 20:14:12": [
            28,
            -23
        ],
        "21/03/2020 22:16:57": [
            -23,
            -23
        ]
    },
    "3938": {
        "21/03/2020 15:21:49": [
            -17,
            21
        ],
        "21/03/2020 15:22:42": [
            -17,
            21
        ],
        "21/03/2020 17:27:49": [
            15,
            -16
        ],
        "21/03/2020 20:14:13": [
            8,
            8
        ],
        "21/03/2020 22:16:58": [
            8,
            8
        ]
    },
    "3939": {
        "21/03/2020 15:21:50": [
            27,
            17
        ],
        "21/03/2020 15:22:42": [
            27,
            17
        ],
        "21/03/2020 17:27:49": [
            15,
            20
        ],
        "21/03/2020 20:14:13": [
            -7,
            -16
        ],
        "21/03/2020 22:16:59": [
            -16,
            -16
        ]
    },
    "3940": {
        "21/03/2020 15:21:50": [
            -14,
            -22
        ],
        "21/03/2020 15:22:42": [
            -14,
            -22
        ],
        "21/03/2020 17:27:50": [
            -24,
            -18
        ],
        "21/03/2020 20:14:14": [
            14,
            2
        ],
        "21/03/2020 22:16:59": [
            2,
            2
        ]
    },
    "3941": {
        "21/03/2020 15:21:50": [
            -4,
            -12
        ],
        "21/03/2020 15:22:43": [
            -4,
            -12
        ],
        "21/03/2020 17:27:50": [
            -15,
            -7
        ],
        "21/03/2020 20:14:14": [
            25,
            12
        ],
        "21/03/2020 22:16:59": [
            12,
            12
        ]
    },
    "3943": {
        "21/03/2020 15:21:51": [
            19,
            9
        ],
        "21/03/2020 15:22:43": [
            19,
            9
        ],
        "21/03/2020 17:27:50": [
            5,
            16
        ],
        "21/03/2020 20:14:15": [
            -12,
            -26
        ],
        "21/03/2020 22:17:00": [
            -26,
            -26
        ]
    },
    "3944": {
        "21/03/2020 15:21:51": [
            -19,
            -29
        ],
        "21/03/2020 15:22:43": [
            -19,
            -29
        ],
        "21/03/2020 17:27:51": [
            26,
            -21
        ],
        "21/03/2020 20:14:15": [
            12
        ],
        "21/03/2020 22:17:00": [
            -2,
            -2
        ]
    },
    "3945": {
        "21/03/2020 15:21:51": [
            27,
            29
        ],
        "21/03/2020 15:22:43": [
            27,
            29
        ],
        "21/03/2020 17:27:51": [
            18,
            -26
        ],
        "21/03/2020 20:14:15": [
            3
        ],
        "21/03/2020 22:17:01": [
            -10,
            -10
        ]
    },
    "3946": {
        "21/03/2020 15:21:51": [
            13,
            19
        ],
        "21/03/2020 15:22:44": [
            13,
            19
        ],
        "21/03/2020 17:27:51": [
            5,
            26
        ],
        "21/03/2020 20:14:16": [
            -11
        ],
        "21/03/2020 22:17:01": [
            -27,
            -27
        ]
    },
    "3949": {
        "21/03/2020 15:21:52": [
            -17
        ],
        "21/03/2020 15:22:44": [
            -17,
            -5
        ],
        "21/03/2020 17:27:52": [
            -16,
            -2
        ],
        "21/03/2020 20:14:17": [
            -194,
            24
        ],
        "21/03/2020 22:17:02": [
            -7
        ]
    },
    "3950": {
        "21/03/2020 15:21:52": [
            70,
            22
        ],
        "21/03/2020 15:22:45": [
            22,
            -30
        ],
        "21/03/2020 17:27:52": [
            -30,
            -12
        ],
        "21/03/2020 20:14:17": [
            -181,
            6
        ],
        "21/03/2020 22:17:02": [
            24
        ]
    },
    "5056": {
        "21/03/2020 15:21:52": [
            63,
            -5
        ],
        "21/03/2020 15:22:47": [
            63,
            -5
        ],
        "21/03/2020 17:27:55": [
            95,
            9
        ],
        "21/03/2020 20:14:21": [
            -233,
            -15
        ],
        "21/03/2020 22:17:07": [
            -157,
            20
        ]
    },
    "2234": {
        "21/03/2020 15:21:53": [
            57,
            -11
        ],
        "21/03/2020 15:22:46": [
            57,
            -11
        ],
        "21/03/2020 17:27:54": [
            67,
            -19,
            -6
        ],
        "21/03/2020 20:14:20": [
            -226,
            -24
        ],
        "21/03/2020 22:17:05": [
            -178,
            22
        ]
    },
    "2235": {
        "21/03/2020 15:21:53": [
            80,
            12
        ],
        "21/03/2020 15:22:47": [
            80,
            12
        ],
        "21/03/2020 17:27:54": [
            94,
            8
        ],
        "21/03/2020 20:14:20": [
            -202,
            0
        ],
        "21/03/2020 22:17:05": [
            -193,
            -16
        ]
    },
    "2236": {
        "21/03/2020 15:21:53": [
            80,
            12
        ],
        "21/03/2020 15:22:47": [
            80,
            12
        ],
        "21/03/2020 17:27:54": [
            105,
            19
        ],
        "21/03/2020 20:14:21": [
            -214,
            4
        ],
        "21/03/2020 22:17:06": [
            -197,
            -20
        ]
    },
    "2810": {
        "21/03/2020 15:21:53": [
            4
        ],
        "21/03/2020 15:22:54": [
            4
        ],
        "21/03/2020 17:28:02": [
            104
        ],
        "21/03/2020 20:14:31": [
            -684,
            -133
        ],
        "21/03/2020 22:17:18": [
            -131
        ]
    },
    "347": {
        "21/03/2020 15:21:54": [],
        "21/03/2020 17:27:24": [],
        "21/03/2020 20:13:36": [],
        "21/03/2020 22:16:20": []
    },
    "4001": {
        "21/03/2020 15:21:54": [
            12,
            25
        ],
        "21/03/2020 15:22:44": [
            12,
            25
        ],
        "21/03/2020 17:27:51": [
            7,
            -27
        ],
        "21/03/2020 20:14:16": [
            -10
        ],
        "21/03/2020 22:17:02": [
            -30,
            -30
        ]
    },
    "406": {
        "21/03/2020 15:21:54": [
            4
        ],
        "21/03/2020 15:22:54": [
            4
        ],
        "21/03/2020 17:28:02": [
            84
        ],
        "21/03/2020 20:14:31": [
            -315,
            -145
        ],
        "21/03/2020 22:17:17": [
            -121
        ]
    },
    "4408": {
        "21/03/2020 15:21:54": [
            11,
            11
        ],
        "21/03/2020 15:22:51": [
            11,
            11
        ],
        "21/03/2020 17:27:59": [
            103,
            17
        ],
        "21/03/2020 20:14:27": [
            -130,
            -6
        ],
        "21/03/2020 22:17:13": [
            -122,
            10
        ]
    },
    "7074": {
        "21/03/2020 15:21:55": [
            12,
            -24
        ],
        "21/03/2020 15:22:37": [
            12,
            -24
        ],
        "21/03/2020 17:27:45": [
            -10,
            -16
        ],
        "21/03/2020 20:14:07": [
            19,
            1
        ],
        "21/03/2020 22:16:51": [
            1,
            1
        ]
    },
    "7108": {
        "21/03/2020 15:21:55": [
            -21,
            -17
        ],
        "21/03/2020 15:22:41": [
            -21,
            -17
        ],
        "21/03/2020 17:27:48": [
            15,
            -18
        ],
        "21/03/2020 20:14:11": [
            -17,
            -4
        ],
        "21/03/2020 22:16:56": [
            -4,
            -4
        ]
    },
    "7110": {
        "21/03/2020 15:21:55": [
            28,
            1
        ],
        "21/03/2020 15:22:41": [
            28,
            1
        ],
        "21/03/2020 17:27:49": [
            -7,
            -30
        ],
        "21/03/2020 20:14:12": [
            -10,
            -5
        ],
        "21/03/2020 22:16:58": [
            -5,
            -5
        ]
    },
    "7453": {
        "21/03/2020 15:21:56": [
            8,
            8
        ],
        "21/03/2020 15:22:52": [
            8,
            8
        ],
        "21/03/2020 17:28:00": [
            90,
            4
        ],
        "21/03/2020 20:14:29": [
            -118,
            6
        ],
        "21/03/2020 22:17:15": [
            -141,
            -9
        ]
    },
    "2251": {
        "21/03/2020 15:21:56": [
            -12,
            -12
        ],
        "21/03/2020 15:22:51": [
            -12,
            -12
        ],
        "21/03/2020 17:27:59": [
            80,
            -6
        ],
        "21/03/2020 20:14:26": [
            -136,
            -12
        ],
        "21/03/2020 22:17:12": [
            -125,
            7
        ]
    },
    "3112": {
        "21/03/2020 15:21:56": [
            5,
            -10
        ],
        "21/03/2020 15:22:39": [
            5,
            -10
        ],
        "21/03/2020 17:27:46": [
            -13,
            27
        ],
        "21/03/2020 20:14:09": [
            2,
            28
        ],
        "21/03/2020 22:16:54": [
            28,
            28
        ]
    },
    "7385": {
        "21/03/2020 15:21:56": [],
        "21/03/2020 15:22:54": [],
        "21/03/2020 17:28:02": [],
        "21/03/2020 20:14:31": [],
        "21/03/2020 22:17:19": []
    },
    "2191": {
        "21/03/2020 15:21:57": [
            -5,
            26
        ],
        "21/03/2020 15:22:20": [
            -5,
            26
        ],
        "21/03/2020 17:27:28": [
            -14,
            2
        ],
        "21/03/2020 20:13:42": [
            3,
            11
        ],
        "21/03/2020 22:16:26": [
            11,
            11
        ]
    },
    "2192": {
        "21/03/2020 15:21:57": [
            26,
            -5
        ],
        "21/03/2020 15:22:20": [
            26,
            -5
        ],
        "21/03/2020 17:27:28": [
            17,
            -28
        ],
        "21/03/2020 20:13:42": [
            -26,
            -19
        ],
        "21/03/2020 22:16:27": [
            -19,
            -19
        ]
    },
    "2193": {
        "21/03/2020 15:21:57": [
            2,
            29
        ],
        "21/03/2020 15:22:21": [
            2,
            29
        ],
        "21/03/2020 17:27:28": [
            -9,
            11
        ],
        "21/03/2020 20:13:43": [
            9
        ],
        "21/03/2020 22:16:27": [
            14,
            14
        ]
    },
    "2194": {
        "21/03/2020 15:21:58": [
            25,
            -10
        ],
        "21/03/2020 15:22:21": [
            25,
            -10
        ],
        "21/03/2020 17:27:29": [
            12,
            -26
        ],
        "21/03/2020 20:13:43": [
            -29
        ],
        "21/03/2020 22:16:27": [
            -25,
            -25
        ]
    },
    "2195": {
        "21/03/2020 15:21:58": [
            9
        ],
        "21/03/2020 15:22:21": [
            9
        ],
        "21/03/2020 17:27:29": [
            -9,
            18
        ],
        "21/03/2020 20:13:44": [
            13
        ],
        "21/03/2020 22:16:28": [
            14,
            14
        ]
    },
    "2200": {
        "21/03/2020 15:21:58": [
            -21
        ],
        "21/03/2020 15:22:22": [
            -21
        ],
        "21/03/2020 17:27:30": [
            24,
            16
        ],
        "21/03/2020 20:13:45": [
            29
        ],
        "21/03/2020 22:16:29": [
            1,
            1833
        ]
    },
    "2201": {
        "21/03/2020 15:21:58": [
            -3
        ],
        "21/03/2020 15:22:23": [
            -3
        ],
        "21/03/2020 17:27:30": [
            2,
            1
        ],
        "21/03/2020 20:13:46": [
            -649,
            -13
        ],
        "21/03/2020 22:16:30": [
            8,
            1840
        ]
    },
    "2213": {
        "21/03/2020 15:21:59": [
            -194,
            23
        ],
        "21/03/2020 15:22:23": [
            -194,
            23
        ],
        "21/03/2020 17:27:31": [
            -11
        ],
        "21/03/2020 20:13:47": [
            -578,
            12
        ],
        "21/03/2020 22:16:31": [
            -1,
            1831
        ]
    },
    "2214": {
        "21/03/2020 15:21:59": [
            -203,
            14
        ],
        "21/03/2020 15:22:24": [
            -203,
            14
        ],
        "21/03/2020 17:27:31": [
            -9
        ],
        "21/03/2020 20:13:47": [
            -591,
            -1
        ],
        "21/03/2020 22:16:32": [
            -17,
            1815
        ]
    },
    "2215": {
        "21/03/2020 15:21:59": [
            -212,
            5
        ],
        "21/03/2020 15:22:24": [
            -212,
            5
        ],
        "21/03/2020 17:27:32": [
            -8
        ],
        "21/03/2020 20:13:48": [
            -598,
            -8
        ],
        "21/03/2020 22:16:32": [
            -28,
            1804
        ]
    },
    "1444": {
        "21/03/2020 15:22:00": [
            13,
            -12
        ],
        "21/03/2020 15:22:18": [
            13,
            -12
        ],
        "21/03/2020 17:27:26": [
            12,
            -4
        ],
        "21/03/2020 20:13:39": [
            -16,
            -3
        ],
        "21/03/2020 22:16:23": [
            -3,
            -3
        ]
    },
    "1445": {
        "21/03/2020 15:22:00": [
            13,
            -2
        ],
        "21/03/2020 15:22:19": [
            13,
            -2
        ],
        "21/03/2020 17:27:26": [
            10,
            1
        ],
        "21/03/2020 20:13:40": [
            -20,
            -11
        ],
        "21/03/2020 22:16:24": [
            -11,
            -11
        ]
    },
    "1449": {
        "21/03/2020 15:22:00": [
            -6,
            22
        ],
        "21/03/2020 15:22:19": [
            -6,
            22
        ],
        "21/03/2020 17:27:27": [
            -30,
            10
        ],
        "21/03/2020 20:13:41": [
            1,
            -20
        ],
        "21/03/2020 22:16:25": [
            -20,
            -20
        ]
    },
    "1450": {
        "21/03/2020 15:22:00": [
            24,
            -4
        ],
        "21/03/2020 15:22:19": [
            24,
            -4
        ],
        "21/03/2020 17:27:27": [
            7,
            -21
        ],
        "21/03/2020 20:13:41": [
            -24,
            4
        ],
        "21/03/2020 22:16:25": [
            4,
            4
        ]
    },
    "1451": {
        "21/03/2020 15:22:01": [
            -9,
            26
        ],
        "21/03/2020 15:22:20": [
            -9,
            26
        ],
        "21/03/2020 17:27:27": [
            -20,
            6
        ],
        "21/03/2020 20:13:42": [
            8,
            27
        ],
        "21/03/2020 22:16:26": [
            27,
            27
        ]
    },
    "2216": {
        "21/03/2020 15:22:01": [
            -231,
            -14
        ],
        "21/03/2020 15:22:24": [
            -231,
            -14
        ],
        "21/03/2020 17:27:32": [
            -30
        ],
        "21/03/2020 20:13:48": [
            -616,
            -26
        ],
        "21/03/2020 22:16:33": [
            11,
            1843
        ]
    },
    "2217": {
        "21/03/2020 15:22:01": [
            -247,
            9
        ],
        "21/03/2020 15:22:25": [
            -247,
            9
        ],
        "21/03/2020 17:27:33": [
            -12
        ],
        "21/03/2020 20:13:49": [
            -610,
            -20
        ],
        "21/03/2020 22:16:34": [
            -2,
            1830
        ]
    },
    "2218": {
        "21/03/2020 15:22:01": [
            -265,
            -9
        ],
        "21/03/2020 15:22:25": [
            -265,
            -9
        ],
        "21/03/2020 17:27:33": [
            26
        ],
        "21/03/2020 20:13:49": [
            -574,
            16
        ],
        "21/03/2020 22:16:34": [
            -25,
            1807
        ]
    },
    "2219": {
        "21/03/2020 15:22:02": [],
        "21/03/2020 15:22:25": [],
        "21/03/2020 17:27:33": [
            1
        ],
        "21/03/2020 20:13:50": [
            -602,
            -12
        ],
        "21/03/2020 22:16:34": [
            5,
            1837
        ]
    },
    "346": {
        "21/03/2020 15:22:02": [
            -20,
            21
        ],
        "21/03/2020 15:22:17": [
            -20,
            21
        ],
        "21/03/2020 17:27:25": [
            -157,
            -21
        ],
        "21/03/2020 20:13:38": [
            10,
            -10
        ],
        "21/03/2020 22:16:22": [
            -10,
            -10
        ]
    },
    "317": {
        "21/03/2020 15:22:04": [
            -26,
            27
        ],
        "21/03/2020 15:22:18": [
            -26,
            27
        ],
        "21/03/2020 17:27:25": [
            -197,
            -16
        ],
        "21/03/2020 20:13:39": [
            -15,
            -21
        ],
        "21/03/2020 22:16:23": [
            -21,
            -21
        ]
    },
    "3367": {
        "21/03/2020 15:22:04": [
            -156,
            -18
        ],
        "21/03/2020 15:22:26": [
            -156,
            -18
        ],
        "21/03/2020 17:27:34": [
            -808,
            2
        ],
        "21/03/2020 20:13:51": [
            -608,
            -18
        ],
        "21/03/2020 22:16:36": [
            -7,
            1825
        ]
    },
    "3886": {
        "21/03/2020 15:22:05": [
            -130,
            8
        ],
        "21/03/2020 15:22:26": [
            -130,
            8
        ],
        "21/03/2020 17:27:34": [
            -848,
            0
        ],
        "21/03/2020 20:13:52": [
            -590,
            0
        ],
        "21/03/2020 22:16:36": [
            -16,
            1816
        ]
    },
    "3887": {
        "21/03/2020 15:22:05": [
            -150,
            -12
        ],
        "21/03/2020 15:22:27": [
            -150,
            -12
        ],
        "21/03/2020 17:27:35": [
            -867,
            -19
        ],
        "21/03/2020 20:13:52": [
            -609,
            -19
        ],
        "21/03/2020 22:16:36": [
            18,
            1850
        ]
    },
    "3888": {
        "21/03/2020 15:22:05": [
            -116,
            22
        ],
        "21/03/2020 15:22:27": [
            -116,
            22
        ],
        "21/03/2020 17:27:35": [
            -833,
            15
        ],
        "21/03/2020 20:13:53": [
            -574,
            16
        ],
        "21/03/2020 22:16:37": [
            -14,
            1818
        ]
    },
    "2196": {
        "21/03/2020 15:22:09": [
            -3
        ],
        "21/03/2020 15:22:21": [
            -3
        ],
        "21/03/2020 17:27:29": [
            -20,
            -1
        ],
        "21/03/2020 20:13:44": [
            -2
        ],
        "21/03/2020 22:16:28": [
            -8,
            1824,
            -8
        ]
    },
    "2197": {
        "21/03/2020 15:22:09": [
            -1
        ],
        "21/03/2020 15:22:22": [
            -1
        ],
        "21/03/2020 17:27:29": [
            -18,
            -9
        ],
        "21/03/2020 20:13:44": [
            -5
        ],
        "21/03/2020 22:16:29": [
            -19,
            1813
        ]
    },
    "2198": {
        "21/03/2020 15:22:09": [
            4
        ],
        "21/03/2020 15:22:22": [
            4
        ],
        "21/03/2020 17:27:30": [
            -11,
            -14
        ],
        "21/03/2020 20:13:45": [
            -4
        ],
        "21/03/2020 22:16:29": [
            -27,
            1805
        ]
    },
    "400": {
        "21/03/2020 15:22:10": [
            29,
            12
        ],
        "21/03/2020 15:22:17": [
            29,
            12
        ],
        "21/03/2020 17:27:25": [
            -88,
            -24
        ],
        "21/03/2020 20:13:38": [
            3,
            2
        ],
        "21/03/2020 22:16:22": [
            2,
            2
        ]
    },
    "4401": {
        "21/03/2020 15:22:11": [
            -3
        ],
        "21/03/2020 15:22:23": [
            -3
        ],
        "21/03/2020 17:27:31": [
            -166,
            13
        ],
        "21/03/2020 20:13:46": [
            -627,
            -13
        ],
        "21/03/2020 22:16:31": [
            3,
            1835
        ]
    },
    "4599": {
        "21/03/2020 15:22:11": [
            -205,
            12
        ],
        "21/03/2020 15:22:25": [
            -205,
            12
        ],
        "21/03/2020 17:27:32": [
            -7
        ],
        "21/03/2020 20:13:49": [
            -600,
            -10
        ],
        "21/03/2020 22:16:33": [
            16,
            1848
        ]
    },
    "493": {
        "21/03/2020 15:22:11": [
            9,
            4
        ],
        "21/03/2020 15:22:16": [
            9,
            4
        ],
        "21/03/2020 17:27:24": [
            -6,
            -6
        ],
        "21/03/2020 20:13:37": [
            2,
            27
        ],
        "21/03/2020 22:16:20": [
            27,
            27
        ]
    },
    "494": {
        "21/03/2020 15:22:12": [
            -10,
            -19
        ],
        "21/03/2020 15:22:17": [
            -10,
            -19
        ],
        "21/03/2020 17:27:24": [
            23,
            23
        ],
        "21/03/2020 20:13:37": [
            -24,
            -26
        ],
        "21/03/2020 22:16:21": [
            -26,
            -26
        ]
    },
    "495": {
        "21/03/2020 15:22:12": [
            -9,
            -22
        ],
        "21/03/2020 15:22:17": [
            -9,
            -22
        ],
        "21/03/2020 17:27:25": [
            -115,
            10
        ],
        "21/03/2020 20:13:37": [
            -30,
            -4
        ],
        "21/03/2020 22:16:21": [
            -4,
            -4
        ]
    },
    "7078": {
        "21/03/2020 15:22:13": [
            11,
            25
        ],
        "21/03/2020 15:22:19": [
            11,
            25
        ],
        "21/03/2020 17:27:27": [
            18,
            3
        ],
        "21/03/2020 20:13:40": [
            7,
            -3
        ],
        "21/03/2020 22:16:24": [
            -3,
            -3
        ]
    },
    "312": {
        "21/03/2020 15:22:13": [
            -24,
            -3
        ],
        "21/03/2020 15:22:18": [
            -24,
            -3
        ],
        "21/03/2020 17:27:26": [
            -197,
            12
        ],
        "21/03/2020 20:13:39": [
            14,
            -27
        ],
        "21/03/2020 22:16:23": [
            -27,
            -27
        ]
    },
    "3365": {
        "21/03/2020 15:22:13": [
            -263,
            -7
        ],
        "21/03/2020 15:22:26": [
            -263,
            -7
        ],
        "21/03/2020 17:27:33": [
            -154
        ],
        "21/03/2020 20:13:50": [
            -582,
            8
        ],
        "21/03/2020 22:16:35": [
            23,
            1855
        ]
    },
    "3366": {
        "21/03/2020 15:22:13": [
            -115,
            23
        ],
        "21/03/2020 15:22:26": [
            -115,
            23
        ],
        "21/03/2020 17:27:34": [
            -9
        ],
        "21/03/2020 20:13:51": [
            -616,
            -26
        ],
        "21/03/2020 22:16:35": [
            -13,
            1819
        ]
    },
    "7239": {
        "21/03/2020 15:22:15": [
            -28
        ],
        "21/03/2020 15:22:23": [
            -28
        ],
        "21/03/2020 17:27:31": [
            -18
        ],
        "21/03/2020 20:13:46": [
            -614,
            22
        ],
        "21/03/2020 22:16:30": [
            -20,
            1812
        ]
    },
    "7391": {
        "21/03/2020 15:22:16": [
            0,
            0
        ],
        "21/03/2020 17:27:24": [
            0,
            0
        ],
        "21/03/2020 20:13:36": [
            0,
            0
        ],
        "21/03/2020 22:16:20": [
            0,
            0
        ]
    }
}