{
    "4576": {
        "23/03/2020 12:13:18": [
            16,
            13,
            16,
            13
        ],
        "23/03/2020 14:44:35": [
            -30,
            3,
            -30,
            3,
            26,
            -23
        ],
        "23/03/2020 17:43:08": [
            4,
            21
        ]
    },
    "3415": {
        "23/03/2020 12:13:19": [],
        "23/03/2020 14:44:36": [],
        "23/03/2020 17:43:09": []
    },
    "3416": {
        "23/03/2020 12:13:19": [],
        "23/03/2020 14:44:36": [],
        "23/03/2020 17:43:11": []
    },
    "3417": {
        "23/03/2020 12:13:20": [],
        "23/03/2020 14:44:36": [],
        "23/03/2020 17:43:11": []
    },
    "332": {
        "23/03/2020 12:13:20": [],
        "23/03/2020 14:44:37": [],
        "23/03/2020 17:43:13": []
    },
    "4617": {
        "23/03/2020 12:13:21": [
            -14,
            -16,
            -14,
            -16
        ],
        "23/03/2020 14:44:37": [
            -7,
            -22,
            -7,
            -22,
            -9,
            -3
        ],
        "23/03/2020 17:43:14": [
            11,
            -12
        ]
    },
    "4555": {
        "23/03/2020 12:13:21": [
            4,
            2,
            4,
            2
        ],
        "23/03/2020 14:44:37": [
            13,
            -5,
            13,
            -5,
            10,
            17
        ],
        "23/03/2020 17:43:14": [
            -26,
            7
        ]
    },
    "7714": {
        "23/03/2020 12:13:22": [],
        "23/03/2020 14:44:38": [],
        "23/03/2020 17:43:15": []
    },
    "3418": {
        "23/03/2020 12:13:23": [
            12,
            8,
            12,
            8
        ],
        "23/03/2020 14:44:38": [
            -30,
            -6,
            -30,
            -6,
            25
        ],
        "23/03/2020 17:43:15": [
            18,
            13,
            18
        ]
    },
    "3419": {
        "23/03/2020 12:13:23": [
            -28,
            29,
            -28,
            29
        ],
        "23/03/2020 14:44:38": [
            -8,
            14,
            -8,
            14,
            -14
        ],
        "23/03/2020 17:43:16": [
            -21,
            -22,
            -21
        ]
    },
    "2374": {
        "23/03/2020 12:13:24": [
            -3,
            -8,
            -3,
            -8
        ],
        "23/03/2020 14:44:39": [
            18,
            -24,
            18,
            -24,
            12
        ],
        "23/03/2020 17:43:17": [
            -34,
            8,
            4
        ]
    },
    "2146": {
        "23/03/2020 12:13:24": [
            -27,
            28,
            -27,
            28
        ],
        "23/03/2020 14:44:39": [
            -3,
            10,
            -3,
            10,
            -10
        ],
        "23/03/2020 17:43:18": [
            -19,
            -6,
            -19
        ]
    },
    "2147": {
        "23/03/2020 12:13:25": [
            1,
            -5,
            1,
            -5
        ],
        "23/03/2020 14:44:39": [
            26,
            -24,
            26,
            -24,
            19
        ],
        "23/03/2020 17:43:18": [
            9,
            28,
            9
        ]
    },
    "2148": {
        "23/03/2020 12:13:26": [
            24,
            18,
            24,
            18
        ],
        "23/03/2020 14:44:39": [
            -9,
            -3,
            -9,
            -3,
            -16
        ],
        "23/03/2020 17:43:19": [
            -27,
            -3,
            -27
        ]
    },
    "2149": {
        "23/03/2020 12:13:26": [
            -11,
            -17,
            -11,
            -17
        ],
        "23/03/2020 14:44:40": [
            18,
            20,
            18,
            20,
            9
        ],
        "23/03/2020 17:43:20": [
            -1,
            27,
            -1
        ]
    },
    "2150": {
        "23/03/2020 12:13:27": [
            22,
            15,
            22,
            15
        ],
        "23/03/2020 14:44:41": [
            -7,
            -9,
            -7,
            -9,
            -16
        ],
        "23/03/2020 17:43:21": [
            -27,
            8,
            -27
        ]
    },
    "2151": {
        "23/03/2020 12:13:27": [
            -21,
            -27,
            -21,
            -27
        ],
        "23/03/2020 14:44:41": [
            12,
            7,
            12,
            7,
            3
        ],
        "23/03/2020 17:43:21": [
            -9,
            -30,
            -9
        ]
    },
    "2152": {
        "23/03/2020 12:13:28": [
            10,
            3,
            10,
            3
        ],
        "23/03/2020 14:44:42": [
            -15,
            -24,
            -15,
            -24,
            -25
        ],
        "23/03/2020 17:43:22": [
            22,
            8,
            22
        ]
    },
    "2153": {
        "23/03/2020 12:13:29": [
            2,
            -2,
            2,
            -2
        ],
        "23/03/2020 14:44:43": [
            -9,
            -29,
            -9,
            -29,
            28
        ],
        "23/03/2020 17:43:23": [
            10,
            2,
            10
        ]
    },
    "2154": {
        "23/03/2020 12:13:29": [
            -18,
            -20,
            -18,
            -20
        ],
        "23/03/2020 14:44:43": [
            -19,
            13,
            -19,
            13,
            9
        ],
        "23/03/2020 17:43:24": [
            -13,
            -17,
            -13
        ]
    },
    "6245": {
        "23/03/2020 12:13:30": [
            19,
            19,
            19,
            19
        ],
        "23/03/2020 14:44:44": [
            28,
            -8,
            28,
            -8,
            -14
        ],
        "23/03/2020 17:43:24": [
            21,
            22,
            21
        ]
    },
    "4671": {
        "23/03/2020 12:13:31": [
            -12,
            -6,
            -12,
            -6
        ],
        "23/03/2020 14:44:44": [
            21,
            27,
            21,
            27,
            17
        ],
        "23/03/2020 17:43:25": [
            -16,
            -6,
            -16
        ]
    },
    "4672": {
        "23/03/2020 12:13:31": [
            72,
            11,
            21,
            11
        ],
        "23/03/2020 14:44:45": [
            5,
            -6,
            5,
            -6
        ],
        "23/03/2020 17:43:26": [
            68,
            0,
            20,
            0
        ]
    },
    "3465": {
        "23/03/2020 12:13:32": [
            -6,
            27,
            -18,
            27
        ],
        "23/03/2020 14:44:45": [
            -19,
            14,
            -19,
            14
        ],
        "23/03/2020 17:43:26": [
            98,
            10,
            -21,
            10
        ]
    },
    "4673": {
        "23/03/2020 12:13:33": [
            56,
            -5,
            11,
            -5
        ],
        "23/03/2020 14:44:46": [
            -114,
            17,
            -16,
            17,
            -16
        ],
        "23/03/2020 17:43:27": [
            64,
            -24,
            8,
            -24
        ]
    },
    "2172": {
        "23/03/2020 12:13:33": [
            89,
            28,
            -13,
            28
        ],
        "23/03/2020 14:44:47": [
            -132,
            -1,
            19,
            -1,
            19
        ],
        "23/03/2020 17:43:28": [
            94,
            6,
            -18,
            6
        ]
    },
    "2159": {
        "23/03/2020 12:13:34": [
            59,
            -2,
            22,
            -2
        ],
        "23/03/2020 14:44:47": [
            -138,
            -7,
            -6,
            -7,
            -6
        ],
        "23/03/2020 17:43:28": [
            38,
            -30,
            15,
            -30
        ]
    },
    "4409": {
        "23/03/2020 12:13:34": [
            80,
            19,
            -16,
            19
        ],
        "23/03/2020 14:44:48": [
            -112,
            19,
            16,
            19,
            16
        ],
        "23/03/2020 17:43:29": [
            57,
            -11,
            -23,
            -11
        ]
    },
    "4550": {
        "23/03/2020 12:13:35": [
            68,
            23,
            -13,
            23
        ],
        "23/03/2020 14:44:48": [
            -229,
            23,
            17,
            23,
            17
        ],
        "23/03/2020 17:43:30": [
            62,
            -6,
            9,
            -6
        ]
    },
    "4551": {
        "23/03/2020 12:13:36": [
            -11,
            -11,
            16,
            -11
        ],
        "23/03/2020 14:44:48": [
            -255,
            -3,
            -23,
            -3,
            -23
        ],
        "23/03/2020 17:43:30": [
            94,
            26,
            -14,
            26
        ]
    },
    "1965": {
        "23/03/2020 12:13:36": [
            -20,
            -20,
            9,
            -20
        ],
        "23/03/2020 14:44:49": [
            -259,
            -7,
            24,
            -7,
            24
        ],
        "23/03/2020 17:43:31": [
            89,
            21,
            -17,
            21
        ]
    },
    "1966": {
        "23/03/2020 12:13:37": [
            -15,
            -15,
            17,
            -15
        ],
        "23/03/2020 14:44:49": [
            -193,
            5,
            25,
            5,
            25
        ],
        "23/03/2020 17:43:31": [
            -29,
            -29,
            -3,
            -29
        ]
    },
    "1975": {
        "23/03/2020 12:13:37": [
            1,
            1,
            -22,
            1
        ],
        "23/03/2020 14:44:49": [
            -257,
            -27,
            -28,
            -27,
            -28
        ],
        "23/03/2020 17:43:32": [
            -238,
            29,
            29,
            -8,
            29
        ]
    },
    "1977": {
        "23/03/2020 12:13:38": [
            17,
            17,
            -7,
            17
        ],
        "23/03/2020 14:44:50": [
            -269,
            -17,
            27,
            -17,
            27
        ],
        "23/03/2020 17:43:33": [
            -176,
            -20,
            -20,
            11,
            -20
        ]
    },
    "1978": {
        "23/03/2020 12:13:39": [
            -16,
            -16,
            22,
            -16
        ],
        "23/03/2020 14:44:50": [
            -235,
            17,
            -6,
            17,
            -6
        ],
        "23/03/2020 17:43:33": [
            -153,
            12,
            12,
            -3,
            12
        ]
    },
    "1980": {
        "23/03/2020 12:13:39": [
            -1,
            -1,
            -8,
            -1
        ],
        "23/03/2020 14:44:51": [
            -266,
            -14,
            3,
            -14
        ],
        "23/03/2020 17:43:34": [
            -189,
            -22,
            -22,
            25,
            -22
        ]
    },
    "1981": {
        "23/03/2020 12:13:40": [
            -2,
            -2,
            -17,
            -2
        ],
        "23/03/2020 14:44:51": [
            -275,
            -23,
            -15,
            -23
        ],
        "23/03/2020 17:43:35": [
            -202,
            -21,
            -21,
            17,
            -21
        ]
    },
    "1982": {
        "23/03/2020 12:13:41": [
            -27,
            -27,
            14,
            -27
        ],
        "23/03/2020 14:44:51": [
            -244,
            8,
            10,
            8
        ],
        "23/03/2020 17:43:35": [
            -174,
            15,
            15,
            -12,
            15
        ]
    },
    "4406": {
        "23/03/2020 12:13:41": [
            27,
            27,
            0
        ],
        "23/03/2020 14:44:52": [
            -141,
            -10,
            -16,
            -10
        ],
        "23/03/2020 17:43:36": [
            -107,
            16,
            16,
            -20,
            16
        ]
    },
    "1984": {
        "23/03/2020 12:13:42": [
            -14,
            -14,
            7
        ],
        "23/03/2020 14:44:52": [
            -260,
            -8,
            -26,
            -8
        ],
        "23/03/2020 17:43:37": [
            -71,
            -130,
            -15,
            -15,
            -5,
            -15
        ]
    },
    "1985": {
        "23/03/2020 12:13:42": [
            -171,
            3,
            3,
            -1
        ],
        "23/03/2020 14:44:53": [
            -44,
            -229,
            23,
            17,
            23
        ],
        "23/03/2020 17:43:37": [
            -51,
            -103,
            -3,
            -3,
            14,
            -3
        ]
    },
    "1986": {
        "23/03/2020 12:13:43": [
            -163,
            11,
            11,
            9
        ],
        "23/03/2020 14:44:53": [
            -34,
            -281,
            -29,
            18
        ],
        "23/03/2020 17:43:38": [
            -40,
            -112,
            13,
            13,
            28,
            13
        ]
    },
    "1987": {
        "23/03/2020 12:13:44": [
            -191,
            -17,
            -17,
            -19
        ],
        "23/03/2020 14:44:54": [
            -62,
            -249,
            3,
            -14
        ],
        "23/03/2020 17:43:39": [
            -68,
            -149,
            -13,
            -13,
            2,
            -13
        ]
    },
    "1988": {
        "23/03/2020 12:13:44": [
            -186,
            -12,
            -12,
            -13
        ],
        "23/03/2020 14:44:54": [
            -56,
            -244,
            8,
            -16
        ],
        "23/03/2020 17:43:40": [
            -60,
            -160,
            -1,
            -1,
            12,
            -1
        ]
    },
    "1989": {
        "23/03/2020 12:13:45": [
            -170,
            4,
            4,
            0
        ],
        "23/03/2020 14:44:54": [
            -43,
            -230,
            22,
            -7
        ],
        "23/03/2020 17:43:40": [
            -30,
            -146,
            8,
            8,
            14,
            8
        ]
    },
    "1990": {
        "23/03/2020 12:13:45": [
            -160,
            14,
            14,
            9
        ],
        "23/03/2020 14:44:55": [
            -34,
            -281,
            -29,
            -2
        ],
        "23/03/2020 17:43:41": [
            -67,
            -137,
            12,
            12,
            11,
            12
        ]
    },
    "1992": {
        "23/03/2020 12:13:46": [
            -192,
            -18,
            -18,
            -26
        ],
        "23/03/2020 14:44:55": [
            -69,
            -256,
            -4,
            18
        ],
        "23/03/2020 17:43:42": [
            -23,
            -111,
            -28,
            -28,
            23,
            -28
        ]
    },
    "1993": {
        "23/03/2020 12:13:46": [
            -188,
            -14,
            -14,
            -12
        ],
        "23/03/2020 14:44:55": [
            -55,
            -231,
            21,
            -27
        ],
        "23/03/2020 17:43:42": [
            -57,
            -133,
            -4,
            -4,
            -24,
            -4
        ]
    },
    "1994": {
        "23/03/2020 12:13:47": [
            -190,
            -16,
            -16,
            -14
        ],
        "23/03/2020 14:44:56": [
            -57,
            -231,
            21,
            22
        ],
        "23/03/2020 17:43:43": [
            -60,
            -162,
            -16,
            -16,
            -17,
            -16
        ]
    },
    "1995": {
        "23/03/2020 12:13:48": [
            -180,
            -6,
            -6,
            -4
        ],
        "23/03/2020 14:44:56": [
            -47,
            -280,
            -28,
            20
        ],
        "23/03/2020 17:43:44": [
            -51,
            -125,
            -19,
            -19,
            3,
            -19
        ]
    },
    "1996": {
        "23/03/2020 12:13:48": [
            -163,
            11,
            11
        ],
        "23/03/2020 14:44:56": [
            -27,
            -243,
            9,
            -19
        ],
        "23/03/2020 17:43:45": [
            -33,
            -120,
            -18,
            -18,
            26
        ]
    },
    "1997": {
        "23/03/2020 12:13:49": [
            -175,
            -1,
            -1
        ],
        "23/03/2020 14:44:57": [
            -38,
            -243,
            9,
            -29
        ],
        "23/03/2020 17:43:46": [
            -45,
            -140,
            20,
            20,
            17
        ]
    },
    "1998": {
        "23/03/2020 12:13:50": [
            -193,
            -19,
            -19
        ],
        "23/03/2020 14:44:57": [
            -62,
            -267,
            -15,
            -2
        ],
        "23/03/2020 17:43:46": [
            -50,
            -158,
            13,
            13,
            13
        ]
    },
    "1999": {
        "23/03/2020 12:13:50": [
            -166,
            8,
            8
        ],
        "23/03/2020 14:44:57": [
            -245,
            7
        ],
        "23/03/2020 17:43:47": [
            -74,
            -133,
            -9
        ]
    },
    "2001": {
        "23/03/2020 12:13:51": [
            -163,
            56,
            11
        ],
        "23/03/2020 14:44:58": [
            -178,
            -43,
            -125,
            6
        ],
        "23/03/2020 17:43:48": [
            -63,
            -130,
            -4,
            -4,
            2
        ]
    },
    "2002": {
        "23/03/2020 12:13:52": [
            -154,
            65,
            20
        ],
        "23/03/2020 14:44:58": [
            -198,
            -46,
            -129,
            2
        ],
        "23/03/2020 17:43:48": [
            -27,
            -153,
            15,
            15
        ]
    },
    "1359": {
        "23/03/2020 12:13:52": [
            -599,
            -202,
            -28,
            -28
        ],
        "23/03/2020 14:44:58": [
            -162,
            -55,
            -250,
            2
        ],
        "23/03/2020 17:43:49": [
            -501,
            -54,
            -148,
            14,
            14
        ]
    },
    "319": {
        "23/03/2020 12:13:53": [
            -595,
            -188,
            -14,
            -14
        ],
        "23/03/2020 14:44:59": [
            -158,
            -51,
            -241,
            11
        ],
        "23/03/2020 17:43:49": [
            -1234,
            -521,
            -28,
            -136,
            22,
            22
        ]
    },
    "281": {
        "23/03/2020 12:13:54": [
            -163,
            -827,
            -203,
            16
        ],
        "23/03/2020 14:45:00": [
            -137,
            -30,
            -149
        ],
        "23/03/2020 17:43:50": [
            -1226,
            -542,
            -20,
            -159,
            -7,
            -7
        ]
    },
    "7": {
        "23/03/2020 12:13:54": [
            -185,
            -866,
            -196,
            23
        ],
        "23/03/2020 14:45:00": [
            -142,
            -35,
            -144
        ],
        "23/03/2020 17:43:51": [
            -1325,
            -525,
            -54,
            -155,
            25
        ]
    },
    "11": {
        "23/03/2020 12:13:55": [
            -152,
            -900,
            -160,
            59
        ],
        "23/03/2020 14:45:01": [
            -176,
            -69,
            -151
        ],
        "23/03/2020 17:43:51": [
            -631,
            -1329,
            -544,
            -58,
            -129,
            -24
        ]
    },
    "14": {
        "23/03/2020 12:13:55": [
            -202,
            -892,
            -151,
            23
        ],
        "23/03/2020 14:45:01": [
            -168,
            -61,
            -244
        ],
        "23/03/2020 17:43:52": [
            -723,
            -1301,
            -515,
            -30,
            -116,
            -21
        ]
    },
    "15": {
        "23/03/2020 12:13:56": [
            -179,
            -873,
            -190,
            -16
        ],
        "23/03/2020 14:45:01": [
            -400,
            -149,
            -42,
            -261
        ],
        "23/03/2020 17:43:53": [
            -740,
            -1318,
            -530,
            -47,
            -150,
            -6
        ]
    },
    "17": {
        "23/03/2020 12:13:57": [
            -154,
            -901,
            -155,
            64
        ],
        "23/03/2020 14:45:02": [
            -428,
            -177,
            -70,
            -156
        ],
        "23/03/2020 17:43:53": [
            -624,
            -1322,
            -544,
            -51,
            -135,
            22
        ]
    },
    "18": {
        "23/03/2020 12:13:58": [
            -203,
            -875,
            -197,
            22
        ],
        "23/03/2020 14:45:02": [
            -402,
            -151,
            -44
        ],
        "23/03/2020 17:43:54": [
            -648,
            -1346,
            -518,
            -75,
            -108,
            -26
        ]
    },
    "19": {
        "23/03/2020 12:13:58": [
            -173,
            -899,
            -165
        ],
        "23/03/2020 14:45:02": [
            -426,
            -175,
            -68
        ],
        "23/03/2020 17:43:54": [
            -607,
            -1305,
            -542,
            -34,
            -132,
            4
        ]
    },
    "21": {
        "23/03/2020 12:13:59": [
            -163,
            -875,
            -148
        ],
        "23/03/2020 14:45:03": [
            -402,
            -151,
            -44
        ],
        "23/03/2020 17:43:55": [
            -633,
            -1331,
            -517,
            -60,
            -106
        ]
    },
    "85": {
        "23/03/2020 12:13:59": [
            -177,
            -874,
            -200
        ],
        "23/03/2020 14:45:03": [
            -401,
            -150,
            -43
        ],
        "23/03/2020 17:43:56": [
            -748,
            -1326,
            -551,
            -55,
            -123
        ]
    },
    "86": {
        "23/03/2020 12:14:00": [
            -180,
            -872,
            -200
        ],
        "23/03/2020 14:45:04": [
            -399,
            -148,
            -41
        ],
        "23/03/2020 17:43:56": [
            -623,
            -1321,
            -552,
            -50,
            -129
        ]
    },
    "87": {
        "23/03/2020 12:14:00": [
            -190,
            -878,
            -148
        ],
        "23/03/2020 14:45:04": [
            -405,
            -154,
            -47
        ],
        "23/03/2020 17:43:57": [
            -626,
            -1324,
            -53,
            -142
        ]
    },
    "88": {
        "23/03/2020 12:14:01": [
            -151,
            -896,
            -168
        ],
        "23/03/2020 14:45:04": [
            -423,
            -172,
            -65
        ],
        "23/03/2020 17:43:58": [
            -643,
            -1341,
            -520,
            -70,
            -106
        ]
    },
    "89": {
        "23/03/2020 12:14:02": [
            -159,
            -899,
            -173
        ],
        "23/03/2020 14:45:04": [
            -426,
            -175,
            -68
        ],
        "23/03/2020 17:43:58": [
            -643,
            -1341,
            -526,
            -70,
            -116
        ]
    },
    "27": {
        "23/03/2020 12:14:02": [
            -199,
            -873,
            -149
        ],
        "23/03/2020 14:45:05": [
            -400,
            -149,
            -42
        ],
        "23/03/2020 17:43:59": [
            -612,
            -1310,
            -503,
            -161,
            -39
        ]
    },
    "28": {
        "23/03/2020 12:14:03": [
            -150,
            -880,
            -158
        ],
        "23/03/2020 14:45:05": [
            -407,
            -156,
            -49
        ],
        "23/03/2020 17:43:59": [
            -617,
            -1315,
            -513,
            -115,
            -44
        ]
    },
    "29": {
        "23/03/2020 12:14:04": [
            -169,
            -896,
            -168
        ],
        "23/03/2020 14:45:05": [
            -423,
            -172,
            -65
        ],
        "23/03/2020 17:44:00": [
            -641,
            -1339,
            -537,
            -134,
            -68
        ]
    },
    "4680": {
        "23/03/2020 12:14:04": [
            -196,
            -860,
            -189
        ],
        "23/03/2020 14:45:06": [
            -387,
            -136,
            -29
        ],
        "23/03/2020 17:44:00": [
            -732,
            -1310,
            -508
        ]
    },
    "90": {
        "23/03/2020 12:14:05": [
            -165,
            -887,
            -152
        ],
        "23/03/2020 14:45:06": [
            -414,
            -163,
            -56
        ],
        "23/03/2020 17:44:01": [
            -644,
            -1342,
            -540
        ]
    },
    "91": {
        "23/03/2020 12:14:05": [
            -181,
            -899,
            -158
        ],
        "23/03/2020 14:45:07": [
            -426,
            -175,
            -68
        ],
        "23/03/2020 17:44:01": [
            -605,
            -1303,
            -501
        ]
    },
    "92": {
        "23/03/2020 12:14:06": [
            -152,
            -865,
            -176
        ],
        "23/03/2020 14:45:07": [
            -392,
            -141,
            -34
        ],
        "23/03/2020 17:44:02": [
            -624,
            -1322,
            -527
        ]
    },
    "93": {
        "23/03/2020 12:14:07": [
            -160,
            -864,
            -161
        ],
        "23/03/2020 14:45:07": [
            -391,
            -140,
            -33
        ],
        "23/03/2020 17:44:03": [
            -1380,
            -612,
            -1310,
            -527
        ]
    },
    "94": {
        "23/03/2020 12:14:07": [
            -188,
            -885,
            -179
        ],
        "23/03/2020 14:45:08": [
            -412,
            -161,
            -54
        ],
        "23/03/2020 17:44:03": [
            -1391,
            -649,
            -1347,
            -506
        ]
    },
    "102": {
        "23/03/2020 12:14:08": [
            -172,
            -864,
            -156
        ],
        "23/03/2020 14:45:08": [
            -756,
            -391,
            -140,
            -33
        ],
        "23/03/2020 17:44:04": [
            -1382,
            -760,
            -1338,
            -558
        ]
    },
    "6239": {
        "23/03/2020 12:14:08": [
            -181,
            -869
        ],
        "23/03/2020 14:45:08": [
            -21,
            -718,
            -396,
            -145,
            -38
        ],
        "23/03/2020 17:44:04": [
            -762,
            -1361,
            -713,
            -1291,
            -513
        ]
    },
    "104": {
        "23/03/2020 12:14:09": [
            -209,
            -891
        ],
        "23/03/2020 14:45:09": [
            -852,
            -418,
            -167
        ],
        "23/03/2020 17:44:05": [
            -794,
            -1398,
            -750,
            -1328,
            -552
        ]
    },
    "6241": {
        "23/03/2020 12:14:09": [
            -162,
            -901
        ],
        "23/03/2020 14:45:09": [
            -49,
            -810,
            -428,
            -177
        ],
        "23/03/2020 17:44:06": [
            -745,
            -1413,
            -765,
            -1343,
            -509
        ]
    },
    "105": {
        "23/03/2020 12:14:10": [
            -191,
            -867
        ],
        "23/03/2020 14:45:09": [
            -828,
            -394,
            -143
        ],
        "23/03/2020 17:44:06": [
            -746,
            -1384,
            -736,
            -1314,
            -540
        ]
    },
    "6253": {
        "23/03/2020 12:14:10": [
            -170
        ],
        "23/03/2020 14:45:09": [],
        "23/03/2020 17:44:07": [
            -724,
            -1364,
            -716,
            -1294,
            -521
        ]
    },
    "7191": {
        "23/03/2020 12:14:11": [
            -170,
            -902
        ],
        "23/03/2020 14:45:10": [
            -49,
            -752,
            -429,
            -178
        ],
        "23/03/2020 17:44:07": [
            -772,
            -1299,
            -719,
            -1297,
            -525
        ]
    },
    "6238": {
        "23/03/2020 12:14:12": [
            -175,
            -899
        ],
        "23/03/2020 14:45:10": [
            -808,
            -426,
            -175
        ],
        "23/03/2020 17:44:08": [
            -772,
            -1310,
            -730,
            -1308,
            -539
        ]
    },
    "6182": {
        "23/03/2020 12:14:12": [
            -204,
            -868
        ],
        "23/03/2020 14:45:11": [
            -829,
            -395,
            -144
        ],
        "23/03/2020 17:44:09": [
            -801,
            -1340,
            -760,
            -1338,
            -509
        ]
    },
    "322": {
        "23/03/2020 12:14:13": [
            -178,
            -902
        ],
        "23/03/2020 14:45:11": [
            -47,
            -752,
            -429,
            -178
        ],
        "23/03/2020 17:44:09": [
            -775,
            -1315,
            -735,
            -1313,
            -545
        ]
    },
    "323": {
        "23/03/2020 12:14:13": [
            -1028,
            -181
        ],
        "23/03/2020 14:45:11": [
            -48
        ],
        "23/03/2020 17:44:10": [
            -702,
            -1322,
            -742,
            -1320,
            -555
        ]
    },
    "6234": {
        "23/03/2020 12:14:14": [],
        "23/03/2020 14:45:12": [],
        "23/03/2020 17:44:10": []
    },
    "108": {
        "23/03/2020 12:14:14": [],
        "23/03/2020 14:45:12": [],
        "23/03/2020 17:44:11": []
    },
    "4545": {
        "23/03/2020 12:14:15": [
            -650,
            -692,
            -285
        ],
        "23/03/2020 14:45:12": [
            -1352,
            -91
        ],
        "23/03/2020 17:44:12": [
            -1393,
            -205,
            -1428
        ]
    },
    "324": {
        "23/03/2020 12:14:15": [
            0,
            0
        ],
        "23/03/2020 14:45:13": [
            0,
            0,
            0,
            0
        ],
        "23/03/2020 17:44:12": [
            0
        ]
    },
    "2167": {
        "23/03/2020 12:14:16": [],
        "23/03/2020 14:45:13": [],
        "23/03/2020 17:44:13": [
            -1151
        ]
    },
    "3383": {
        "23/03/2020 12:14:16": [],
        "23/03/2020 14:45:13": [],
        "23/03/2020 17:44:13": [
            -1109
        ]
    },
    "3384": {
        "23/03/2020 12:14:17": [],
        "23/03/2020 14:45:13": [],
        "23/03/2020 17:44:14": [
            -1147
        ]
    },
    "7230": {
        "23/03/2020 12:14:18": [],
        "23/03/2020 14:45:14": [],
        "23/03/2020 17:44:14": [
            -1161
        ]
    },
    "4552": {
        "23/03/2020 12:14:18": [
            -235,
            -639,
            -741,
            -334
        ],
        "23/03/2020 14:45:14": [
            -1398,
            -80
        ],
        "23/03/2020 17:44:15": [
            -1378,
            -194,
            -1150,
            -1472
        ]
    },
    "4554": {
        "23/03/2020 12:14:19": [
            -275,
            -679,
            -720,
            -313
        ],
        "23/03/2020 14:45:14": [
            -1376,
            -59
        ],
        "23/03/2020 17:44:16": [
            -1417,
            -1137,
            -174,
            -1450
        ]
    },
    "335": {
        "23/03/2020 12:14:19": [
            -863,
            -134,
            -11
        ],
        "23/03/2020 14:45:15": [
            -636,
            -114,
            -2,
            -16
        ],
        "23/03/2020 17:44:16": [
            -268,
            -155,
            413,
            26
        ]
    },
    "4521": {
        "23/03/2020 12:14:20": [
            -841,
            -112,
            11
        ],
        "23/03/2020 14:45:15": [
            29,
            -563,
            -93,
            7
        ],
        "23/03/2020 17:44:17": [
            -278,
            -249,
            -155,
            380,
            -5
        ]
    },
    "1935": {
        "23/03/2020 12:14:21": [
            -303,
            -846,
            -117,
            6
        ],
        "23/03/2020 14:45:15": [
            22,
            -507,
            -100,
            -19
        ],
        "23/03/2020 17:44:17": [
            -295,
            -240,
            -157,
            401,
            -20
        ]
    },
    "1937": {
        "23/03/2020 12:14:21": [
            -310,
            -816,
            -149,
            -26
        ],
        "23/03/2020 14:45:16": [
            26,
            -503,
            -96,
            -17
        ],
        "23/03/2020 17:44:18": [
            -307,
            -241,
            -153,
            407,
            -16
        ]
    },
    "1938": {
        "23/03/2020 12:14:22": [
            -285,
            -764,
            -97,
            26
        ],
        "23/03/2020 14:45:16": [
            -1,
            -530,
            -123,
            15
        ],
        "23/03/2020 17:44:19": [
            -301,
            -286,
            -119,
            426
        ]
    },
    "1939": {
        "23/03/2020 12:14:22": [
            -317,
            -773,
            -106,
            17
        ],
        "23/03/2020 14:45:17": [
            -29,
            -558,
            -151,
            -26
        ],
        "23/03/2020 17:44:19": [
            -273,
            -241,
            -149,
            406
        ]
    },
    "1940": {
        "23/03/2020 12:14:24": [
            -308,
            -809,
            -142,
            -19
        ],
        "23/03/2020 14:45:17": [
            -14,
            -543,
            -136,
            -25
        ],
        "23/03/2020 17:44:20": [
            -309,
            -278,
            -134,
            379
        ]
    },
    "1941": {
        "23/03/2020 12:14:25": [
            -321,
            -812,
            -145
        ],
        "23/03/2020 14:45:17": [
            -24,
            -553,
            -146,
            16
        ],
        "23/03/2020 17:44:21": [
            -313,
            -283,
            -144,
            381
        ]
    },
    "1942": {
        "23/03/2020 12:14:25": [
            -302,
            -777,
            -110
        ],
        "23/03/2020 14:45:17": [
            1,
            -528,
            -121,
            25
        ],
        "23/03/2020 17:44:22": [
            -278,
            -249,
            -120,
            426
        ]
    },
    "1943": {
        "23/03/2020 12:14:26": [
            -331,
            -805,
            -138
        ],
        "23/03/2020 14:45:18": [
            -27,
            -556,
            -149,
            5
        ],
        "23/03/2020 17:44:22": [
            -299,
            -273,
            -146,
            403
        ]
    },
    "1944": {
        "23/03/2020 12:14:26": [
            -327,
            -787,
            -120
        ],
        "23/03/2020 14:45:18": [
            -71,
            11,
            -518,
            -111
        ],
        "23/03/2020 17:44:23": [
            -276,
            -279,
            -122,
            395
        ]
    },
    "1945": {
        "23/03/2020 12:14:27": [
            -314,
            -818,
            -151
        ],
        "23/03/2020 14:45:18": [
            -102,
            3,
            -526,
            -119
        ],
        "23/03/2020 17:44:24": [
            -311,
            -253,
            -146,
            402
        ]
    },
    "1946": {
        "23/03/2020 12:14:27": [
            -341,
            -773,
            -106
        ],
        "23/03/2020 14:45:19": [
            -57,
            2,
            -527,
            -120
        ],
        "23/03/2020 17:44:24": [
            -1467,
            -282,
            -278,
            -117,
            432
        ]
    },
    "1947": {
        "23/03/2020 12:14:28": [
            -318,
            -807,
            -140
        ],
        "23/03/2020 14:45:19": [
            -91,
            -28,
            -557,
            -150
        ],
        "23/03/2020 17:44:25": [
            -1443,
            -320,
            -254,
            -155,
            394
        ]
    },
    "1948": {
        "23/03/2020 12:14:29": [
            -309,
            -790,
            -123
        ],
        "23/03/2020 14:45:19": [
            -74,
            -1,
            -530,
            -123
        ],
        "23/03/2020 17:44:25": [
            -1433,
            -315,
            -244,
            -149
        ]
    },
    "1949": {
        "23/03/2020 12:14:29": [
            -336,
            -795,
            -128
        ],
        "23/03/2020 14:45:20": [
            -79,
            1,
            -528,
            -121
        ],
        "23/03/2020 17:44:26": [
            -1455,
            -280,
            -266,
            -114
        ]
    },
    "1950": {
        "23/03/2020 12:14:30": [
            -286,
            -770,
            -103
        ],
        "23/03/2020 14:45:20": [
            -54,
            -24,
            -553,
            -146
        ],
        "23/03/2020 17:44:27": [
            -1457,
            -285,
            -268,
            -120
        ]
    },
    "1951": {
        "23/03/2020 12:14:30": [
            -324,
            -812,
            -145
        ],
        "23/03/2020 14:45:20": [
            -96,
            11,
            -518,
            -111
        ],
        "23/03/2020 17:44:27": [
            -1422,
            -316,
            -233,
            -153
        ]
    },
    "1952": {
        "23/03/2020 12:14:31": [
            -297,
            -781,
            -114
        ],
        "23/03/2020 14:45:21": [
            -65,
            -16,
            -545,
            -138
        ],
        "23/03/2020 17:44:28": [
            -1452,
            -285,
            -263,
            -130
        ]
    },
    "1953": {
        "23/03/2020 12:14:31": [
            -326,
            -807,
            -140
        ],
        "23/03/2020 14:45:21": [
            -91,
            21,
            -508,
            -101
        ],
        "23/03/2020 17:44:29": [
            -1418,
            -311,
            -229,
            -104
        ]
    },
    "1954": {
        "23/03/2020 12:14:32": [
            -293,
            -770,
            -103
        ],
        "23/03/2020 14:45:21": [
            -54,
            1,
            -528,
            -121
        ],
        "23/03/2020 17:44:30": [
            -1442,
            -274,
            -253,
            -136
        ]
    },
    "1955": {
        "23/03/2020 12:14:32": [
            -321,
            -795,
            -128
        ],
        "23/03/2020 14:45:22": [
            -79,
            -26,
            -555,
            -148
        ],
        "23/03/2020 17:44:31": [
            -1461,
            -304,
            -272,
            -108
        ]
    },
    "1956": {
        "23/03/2020 12:14:33": [
            -319,
            -786
        ],
        "23/03/2020 14:45:22": [
            -70,
            -22,
            -551,
            -144
        ],
        "23/03/2020 17:44:31": [
            -1145,
            -1441,
            -305,
            -252,
            -114
        ]
    },
    "1957": {
        "23/03/2020 12:14:34": [
            -298,
            -763
        ],
        "23/03/2020 14:45:22": [
            -47,
            2,
            -527,
            -120
        ],
        "23/03/2020 17:44:32": [
            -1128,
            -1424,
            -282,
            -235,
            -154
        ]
    },
    "1958": {
        "23/03/2020 12:14:34": [
            -801,
            -341,
            -804
        ],
        "23/03/2020 14:45:23": [
            -88,
            22,
            -507,
            -100
        ],
        "23/03/2020 17:44:32": [
            -1113,
            -1469,
            -324,
            -280,
            -137
        ]
    },
    "1959": {
        "23/03/2020 12:14:35": [
            -788,
            -328,
            -779
        ],
        "23/03/2020 14:45:23": [
            -63,
            -11,
            -540
        ],
        "23/03/2020 17:44:33": [
            -1166,
            -1440,
            -298,
            -251
        ]
    },
    "1960": {
        "23/03/2020 12:14:35": [
            -742,
            -282,
            -786
        ],
        "23/03/2020 14:45:23": [
            -70,
            -14,
            -543
        ],
        "23/03/2020 17:44:34": [
            -178,
            -1118,
            -1430,
            -315,
            -241
        ]
    },
    "4379": {
        "23/03/2020 12:14:36": [
            -700,
            -293,
            -795
        ],
        "23/03/2020 14:45:23": [
            -79,
            -12,
            -541
        ],
        "23/03/2020 17:44:34": [
            -174,
            -1143,
            -1445,
            -319,
            -256
        ]
    },
    "1963": {
        "23/03/2020 12:14:36": [
            -725,
            -318,
            -802
        ],
        "23/03/2020 14:45:24": [
            -86,
            -18,
            -547
        ],
        "23/03/2020 17:44:35": [
            -214,
            -1136,
            -1438,
            -318,
            -249
        ]
    },
    "4549": {
        "23/03/2020 12:14:37": [
            -707,
            -300,
            -781
        ],
        "23/03/2020 14:45:24": [
            -65,
            4,
            -525
        ],
        "23/03/2020 17:44:35": [
            -188,
            -1112,
            -1475,
            -295,
            -286
        ]
    },
    "1964": {
        "23/03/2020 12:14:38": [
            -733,
            -326,
            -800
        ],
        "23/03/2020 14:45:24": [
            -84,
            -15,
            -544
        ],
        "23/03/2020 17:44:36": [
            -197,
            -1126,
            -1429,
            -311,
            -240
        ]
    },
    "4674": {
        "23/03/2020 12:14:38": [
            -747,
            -340,
            -806
        ],
        "23/03/2020 14:45:25": [
            -90,
            -17,
            -546
        ],
        "23/03/2020 17:44:37": [
            -198,
            -1132,
            -1431,
            -316,
            -242
        ]
    },
    "4663": {
        "23/03/2020 12:14:39": [
            -742,
            -335,
            -788
        ],
        "23/03/2020 14:45:25": [
            -72,
            5,
            -524
        ],
        "23/03/2020 17:44:37": [
            -174,
            -1115,
            -1468,
            -297
        ]
    },
    "4664": {
        "23/03/2020 12:14:39": [
            -730,
            -323,
            -805
        ],
        "23/03/2020 14:45:25": [
            -89,
            5,
            -524
        ],
        "23/03/2020 17:44:38": [
            -1139,
            -203,
            -1439,
            -273
        ]
    },
    "2160": {
        "23/03/2020 12:14:40": [
            -733,
            -326,
            -786
        ],
        "23/03/2020 14:45:26": [
            -70,
            -509
        ],
        "23/03/2020 17:44:39": [
            -1424,
            -1132,
            -194,
            -1429,
            -326
        ]
    },
    "2161": {
        "23/03/2020 12:14:41": [
            -712,
            -305,
            -817
        ],
        "23/03/2020 14:45:26": [
            -101,
            -542
        ],
        "23/03/2020 17:44:39": [
            -1400,
            -1168,
            -229,
            -1464,
            -302
        ]
    },
    "4665": {
        "23/03/2020 12:14:41": [
            -692,
            -285,
            -947
        ],
        "23/03/2020 14:45:26": [
            -74,
            13,
            -516
        ],
        "23/03/2020 17:44:40": [
            -1376,
            -1144,
            -205,
            -1440,
            -278
        ]
    },
    "4666": {
        "23/03/2020 12:14:42": [
            -708,
            -301,
            -947
        ],
        "23/03/2020 14:45:27": [
            -74,
            10,
            -519
        ],
        "23/03/2020 17:44:41": [
            -1386,
            -1154,
            -212,
            -1447,
            -288
        ]
    },
    "4667": {
        "23/03/2020 12:14:42": [
            -733,
            -326,
            -801
        ],
        "23/03/2020 14:45:27": [
            -85,
            -3,
            -532
        ],
        "23/03/2020 17:44:41": [
            -1404,
            -1112,
            -229,
            -1464,
            -306
        ]
    },
    "4668": {
        "23/03/2020 12:14:43": [
            -721,
            -314,
            -919
        ],
        "23/03/2020 14:45:28": [
            -46,
            -30,
            -559
        ],
        "23/03/2020 17:44:42": [
            -1381,
            -1149,
            -203,
            -1438,
            -283
        ]
    },
    "4677": {
        "23/03/2020 12:14:44": [
            -693,
            -286,
            -977
        ],
        "23/03/2020 14:45:28": [
            -104,
            26,
            -503
        ],
        "23/03/2020 17:44:43": [
            -1398,
            -1166,
            -216,
            -1450,
            -300
        ]
    },
    "2136": {
        "23/03/2020 12:14:45": [
            -673,
            -712,
            -305,
            -764
        ],
        "23/03/2020 14:45:28": [
            -48,
            -510
        ],
        "23/03/2020 17:44:44": [
            -1410,
            -1118,
            -227,
            -1461,
            -312
        ]
    },
    "2137": {
        "23/03/2020 12:14:45": [
            -646,
            -746,
            -339,
            -788
        ],
        "23/03/2020 14:45:29": [
            -72,
            -536
        ],
        "23/03/2020 17:44:44": [
            -1379,
            -1147,
            -196,
            -1429,
            -281
        ]
    },
    "7201": {
        "23/03/2020 12:14:46": [
            -675,
            -715,
            -308,
            -806
        ],
        "23/03/2020 14:45:29": [
            -90,
            -556
        ],
        "23/03/2020 17:44:45": [
            -1403,
            -1111,
            -219,
            -1452,
            -305
        ]
    },
    "2138": {
        "23/03/2020 12:14:46": [
            -639,
            -740,
            -333,
            -818
        ],
        "23/03/2020 14:45:29": [
            -102,
            -510
        ],
        "23/03/2020 17:44:46": [
            -1423,
            -1131,
            -176,
            -1470,
            -325
        ]
    },
    "2139": {
        "23/03/2020 12:14:47": [
            -666,
            -707,
            -300,
            -772
        ],
        "23/03/2020 14:45:30": [
            -1370,
            -56
        ],
        "23/03/2020 17:44:46": [
            -1384,
            -1152,
            -197,
            -1430,
            -286
        ]
    },
    "2140": {
        "23/03/2020 12:14:47": [
            -669,
            -711,
            -304,
            -816
        ],
        "23/03/2020 14:45:30": [
            -1357,
            -100
        ],
        "23/03/2020 17:44:47": [
            -1379,
            -1147,
            -190,
            -1422,
            -281
        ]
    },
    "2141": {
        "23/03/2020 12:14:49": [
            -635,
            -737,
            -330,
            -769
        ],
        "23/03/2020 14:45:31": [
            -1372,
            -53
        ],
        "23/03/2020 17:44:47": [
            -1400,
            -1168,
            -208,
            -1441
        ]
    },
    "2142": {
        "23/03/2020 12:14:50": [
            -673,
            -716,
            -309,
            -799
        ],
        "23/03/2020 14:45:31": [
            -1345,
            -83
        ],
        "23/03/2020 17:44:48": [
            -1375,
            -1143,
            -183,
            -1475
        ]
    },
    "2143": {
        "23/03/2020 12:14:50": [
            -634,
            -737,
            -330
        ],
        "23/03/2020 14:45:31": [
            -1354,
            -90
        ],
        "23/03/2020 17:44:49": [
            -1390,
            -1158,
            -196,
            -1429
        ]
    },
    "2145": {
        "23/03/2020 12:14:51": [
            -653,
            -697,
            -290
        ],
        "23/03/2020 14:45:31": [
            -1362,
            -95
        ],
        "23/03/2020 17:44:49": [
            -1403,
            -1111,
            -208,
            -1440
        ]
    },
    "4670": {
        "23/03/2020 12:14:52": [
            -688,
            -732,
            -325,
            -943
        ],
        "23/03/2020 14:45:32": [
            -1396,
            -70,
            -24
        ],
        "23/03/2020 17:44:50": [
            -1377,
            -1155,
            -183,
            -1473
        ]
    },
    "2165": {
        "23/03/2020 12:14:52": [
            -666,
            -710,
            -303
        ],
        "23/03/2020 14:45:32": [
            -1373,
            -48
        ],
        "23/03/2020 17:44:51": [
            -1414,
            -1141,
            -221,
            -1450
        ]
    },
    "2166": {
        "23/03/2020 12:14:53": [
            -650,
            -693,
            -286
        ],
        "23/03/2020 14:45:32": [
            -1356,
            -92
        ],
        "23/03/2020 17:44:51": [
            -1396,
            -1131,
            -205,
            -1432
        ]
    },
    "7229": {
        "23/03/2020 12:14:54": [
            0,
            0,
            0,
            0
        ],
        "23/03/2020 14:45:33": [
            0,
            0,
            0,
            0,
            0
        ],
        "23/03/2020 17:44:52": [
            0,
            0
        ]
    },
    "6235": {
        "23/03/2020 12:14:54": [
            0
        ],
        "23/03/2020 14:45:33": [
            0
        ],
        "23/03/2020 17:44:53": [
            0,
            0,
            0
        ]
    },
    "327": {
        "23/03/2020 12:14:55": [
            -78,
            -10,
            -5,
            -5
        ],
        "23/03/2020 14:45:33": [
            22,
            12,
            12,
            24,
            -18,
            7
        ],
        "23/03/2020 17:44:53": [
            3,
            27,
            27,
            -23
        ]
    },
    "6016": {
        "23/03/2020 12:14:55": [
            -96,
            -30,
            17
        ],
        "23/03/2020 14:45:34": [
            -5,
            -5,
            -29,
            -10
        ],
        "23/03/2020 17:44:54": [
            -16,
            -6,
            -6,
            0
        ]
    },
    "6017": {
        "23/03/2020 12:14:56": [
            -131,
            -8,
            -18,
            -18
        ],
        "23/03/2020 14:45:34": [
            10,
            19,
            19,
            -19,
            9
        ],
        "23/03/2020 17:44:55": [
            5,
            18,
            18,
            9
        ]
    },
    "7192": {
        "23/03/2020 12:14:56": [
            15,
            24,
            15
        ],
        "23/03/2020 14:45:35": [
            -9,
            -9,
            8,
            -21
        ],
        "23/03/2020 17:44:55": [
            -24,
            -9,
            -9,
            -25
        ]
    },
    "4683": {
        "23/03/2020 12:14:57": [
            -94,
            26,
            19,
            19
        ],
        "23/03/2020 14:45:35": [
            8,
            -6,
            -6,
            1,
            -21
        ],
        "23/03/2020 17:44:56": [
            -23,
            -6,
            -6,
            27
        ]
    },
    "107": {
        "23/03/2020 12:14:57": [
            -19,
            -14,
            -19,
            -19
        ],
        "23/03/2020 14:45:35": [
            -12,
            16,
            16,
            9,
            -5
        ],
        "23/03/2020 17:44:56": [
            -5,
            16,
            16,
            -27
        ]
    },
    "6125": {
        "23/03/2020 12:14:58": [
            -14,
            -11,
            -14,
            -14
        ],
        "23/03/2020 14:45:36": [
            7,
            20,
            20,
            3,
            -5
        ],
        "23/03/2020 17:44:57": [
            -3,
            20,
            20,
            26
        ]
    },
    "7092": {
        "23/03/2020 12:14:58": [
            -9,
            -8,
            -9
        ],
        "23/03/2020 14:45:36": [
            24,
            24,
            -3,
            -4
        ],
        "23/03/2020 17:44:58": [
            -1,
            25,
            25,
            18
        ]
    },
    "110": {
        "23/03/2020 12:14:59": [
            -26,
            -26,
            -26,
            -26
        ],
        "23/03/2020 14:45:36": [
            19,
            6,
            6,
            -28,
            -25
        ],
        "23/03/2020 17:44:58": [
            -21,
            7,
            7,
            -7
        ]
    },
    "112": {
        "23/03/2020 12:14:59": [
            -11,
            -13
        ],
        "23/03/2020 14:45:36": [
            21,
            21,
            -26,
            -15
        ],
        "23/03/2020 17:44:59": [
            -9,
            22,
            22,
            -6
        ]
    },
    "113": {
        "23/03/2020 12:15:00": [
            11,
            6
        ],
        "23/03/2020 14:45:37": [
            -19,
            -19,
            -18,
            1
        ],
        "23/03/2020 17:45:00": [
            9,
            -17,
            -17
        ]
    },
    "114": {
        "23/03/2020 12:15:01": [
            29
        ],
        "23/03/2020 14:45:37": [
            -1,
            -1,
            4
        ],
        "23/03/2020 17:45:00": [
            -29,
            3,
            3
        ]
    },
    "115": {
        "23/03/2020 12:15:01": [
            -103,
            -20,
            -4
        ],
        "23/03/2020 14:45:37": [
            -122,
            8,
            8,
            28
        ],
        "23/03/2020 17:45:01": [
            460,
            -187,
            -2,
            19,
            19
        ]
    },
    "37": {
        "23/03/2020 12:15:02": [
            -106,
            -25,
            -14
        ],
        "23/03/2020 14:45:38": [
            -138,
            -15,
            -5,
            -5,
            11
        ],
        "23/03/2020 17:45:01": [
            528,
            -185,
            -6,
            21,
            21
        ]
    },
    "38": {
        "23/03/2020 12:15:03": [
            -100,
            -19,
            -14
        ],
        "23/03/2020 14:45:38": [
            -138,
            2,
            -6,
            -6,
            4
        ],
        "23/03/2020 17:45:03": [
            526,
            -246,
            3,
            -23,
            -23
        ]
    },
    "39": {
        "23/03/2020 12:15:04": [
            -80,
            21,
            22
        ],
        "23/03/2020 14:45:38": [
            -100,
            -13,
            28,
            28,
            -25
        ],
        "23/03/2020 17:45:03": [
            501,
            -201,
            -16,
            22,
            22
        ]
    },
    "116": {
        "23/03/2020 12:15:04": [
            -122,
            1,
            5
        ],
        "23/03/2020 14:45:39": [
            -117,
            -2,
            -2,
            2
        ],
        "23/03/2020 17:45:04": [
            -259,
            471,
            22,
            -17,
            -17
        ]
    },
    "117": {
        "23/03/2020 12:15:05": [
            -97,
            26,
            -29
        ],
        "23/03/2020 14:45:39": [
            -151,
            21,
            21,
            24
        ],
        "23/03/2020 17:45:05": [
            -239,
            499,
            -13,
            3,
            3
        ]
    },
    "118": {
        "23/03/2020 12:15:06": [
            -111,
            12,
            19
        ],
        "23/03/2020 14:45:39": [
            -103,
            3,
            3,
            5
        ],
        "23/03/2020 17:45:05": [
            -261,
            490,
            -27,
            -19,
            -19
        ]
    },
    "119": {
        "23/03/2020 12:15:07": [
            -116,
            7,
            15
        ],
        "23/03/2020 14:45:40": [
            -107,
            -7,
            -7,
            -7
        ],
        "23/03/2020 17:45:06": [
            -217,
            490,
            26,
            25,
            25
        ]
    },
    "44": {
        "23/03/2020 12:15:07": [
            -135,
            -12,
            -2
        ],
        "23/03/2020 14:45:40": [
            -124,
            -30,
            -30,
            29
        ],
        "23/03/2020 17:45:07": [
            476,
            -132,
            7,
            -1,
            -1
        ]
    },
    "7603": {
        "23/03/2020 12:15:08": [
            -60,
            -14,
            -6,
            -14
        ],
        "23/03/2020 14:45:40": [
            -128,
            -17,
            19,
            19,
            25
        ],
        "23/03/2020 17:45:07": [
            -240,
            469,
            -7,
            -17,
            -17
        ]
    },
    "45": {
        "23/03/2020 12:15:08": [
            -127,
            -4,
            1
        ],
        "23/03/2020 14:45:41": [
            -121,
            -4,
            17,
            17,
            -28
        ],
        "23/03/2020 17:45:08": [
            472,
            -156,
            -12,
            -25,
            -25
        ]
    },
    "46": {
        "23/03/2020 12:15:09": [
            -118,
            5,
            5
        ],
        "23/03/2020 14:45:41": [
            -117,
            26,
            26,
            -28
        ],
        "23/03/2020 17:45:09": [
            476,
            -148,
            7,
            -17
        ]
    },
    "47": {
        "23/03/2020 12:15:10": [
            -94,
            29,
            22
        ],
        "23/03/2020 14:45:41": [
            -100,
            -10,
            -10
        ],
        "23/03/2020 17:45:09": [
            421,
            -126,
            -17,
            5
        ]
    },
    "48": {
        "23/03/2020 12:15:10": [
            -145,
            -22,
            -28
        ],
        "23/03/2020 14:45:42": [
            -150,
            4,
            4
        ],
        "23/03/2020 17:45:10": [
            424,
            -120,
            -7,
            11
        ]
    },
    "49": {
        "23/03/2020 12:15:11": [
            -104,
            19,
            14
        ],
        "23/03/2020 14:45:42": [
            -108,
            -9,
            -9
        ],
        "23/03/2020 17:45:10": [
            395,
            -144,
            -26,
            -13
        ]
    },
    "51": {
        "23/03/2020 12:15:11": [
            -127,
            -4,
            -12
        ],
        "23/03/2020 14:45:43": [
            -134,
            -19,
            -19
        ],
        "23/03/2020 17:45:11": [
            378,
            -113,
            -16,
            18
        ]
    },
    "52": {
        "23/03/2020 12:15:12": [
            -133,
            -10,
            -20
        ],
        "23/03/2020 14:45:43": [
            -142,
            -19,
            -19
        ],
        "23/03/2020 17:45:12": [
            435,
            -123,
            22,
            8
        ]
    },
    "261": {
        "23/03/2020 12:15:13": [
            -111,
            12,
            -30
        ],
        "23/03/2020 14:45:43": [
            -152,
            9
        ],
        "23/03/2020 17:45:12": [
            -24,
            -271,
            415,
            -17
        ]
    },
    "270": {
        "23/03/2020 12:15:13": [
            -111,
            12,
            -27
        ],
        "23/03/2020 14:45:44": [
            -149,
            -4
        ],
        "23/03/2020 17:45:13": [
            12,
            -252,
            426,
            2
        ]
    }
}