{
    "621": {
        "20/03/2020 17:31:16": [
            0,
            0
        ],
        "20/03/2020 21:56:27": [
            0
        ],
        "20/03/2020 21:57:19": [
            0
        ]
    },
    "3599": {
        "20/03/2020 17:31:29": [
            -526,
            22
        ],
        "20/03/2020 21:56:27": [
            -117
        ],
        "20/03/2020 21:57:30": [
            -117
        ]
    },
    "3600": {
        "20/03/2020 17:31:29": [
            -196,
            -484,
            -1
        ],
        "20/03/2020 21:56:28": [
            -146
        ],
        "20/03/2020 21:57:31": [
            -146
        ]
    },
    "3601": {
        "20/03/2020 17:31:29": [
            -204,
            -492,
            -15
        ],
        "20/03/2020 21:56:28": [
            -108
        ],
        "20/03/2020 21:57:31": [
            -108
        ]
    },
    "3602": {
        "20/03/2020 17:31:29": [
            -217,
            -505,
            27
        ],
        "20/03/2020 21:56:28": [
            -133
        ],
        "20/03/2020 21:57:32": [
            -133
        ]
    },
    "3604": {
        "20/03/2020 17:31:30": [
            -218,
            -506
        ],
        "20/03/2020 21:56:28": [
            -143
        ],
        "20/03/2020 21:57:32": [
            -143
        ]
    },
    "3616": {
        "20/03/2020 17:31:30": [
            -195,
            -483
        ],
        "20/03/2020 21:56:29": [
            -124
        ],
        "20/03/2020 21:57:33": [
            -124
        ]
    },
    "3618": {
        "20/03/2020 17:31:30": [
            -207,
            -495
        ],
        "20/03/2020 21:56:29": [
            -137
        ],
        "20/03/2020 21:57:33": [
            -137
        ]
    },
    "3619": {
        "20/03/2020 17:31:31": [
            -195,
            -483
        ],
        "20/03/2020 21:56:29": [
            -128
        ],
        "20/03/2020 21:57:33": [
            -128
        ]
    },
    "3620": {
        "20/03/2020 17:31:31": [
            -210,
            -498
        ],
        "20/03/2020 21:56:30": [
            -149
        ],
        "20/03/2020 21:57:33": [
            -149
        ]
    },
    "3622": {
        "20/03/2020 17:31:31": [
            -219,
            -507
        ],
        "20/03/2020 21:56:32": [
            -103
        ],
        "20/03/2020 21:57:34": [
            -103
        ]
    },
    "3623": {
        "20/03/2020 17:31:32": [
            -190,
            -478
        ],
        "20/03/2020 21:56:32": [
            -138
        ],
        "20/03/2020 21:57:34": [
            -138
        ]
    },
    "522": {
        "20/03/2020 17:31:18": [
            12,
            12
        ],
        "20/03/2020 21:56:32": [
            28
        ],
        "20/03/2020 21:57:21": [
            28
        ]
    },
    "525": {
        "20/03/2020 17:31:19": [
            1,
            1
        ],
        "20/03/2020 21:56:33": [
            11
        ],
        "20/03/2020 21:57:21": [
            11
        ]
    },
    "537": {
        "20/03/2020 17:31:23": [
            -29
        ],
        "20/03/2020 21:56:33": [],
        "20/03/2020 21:57:25": []
    },
    "538": {
        "20/03/2020 17:31:23": [
            28
        ],
        "20/03/2020 21:56:33": [],
        "20/03/2020 21:57:25": []
    },
    "539": {
        "20/03/2020 17:31:23": [
            -19
        ],
        "20/03/2020 21:56:33": [
            -183
        ],
        "20/03/2020 21:57:25": []
    },
    "540": {
        "20/03/2020 17:31:23": [
            23
        ],
        "20/03/2020 21:56:34": [
            -139
        ],
        "20/03/2020 21:57:26": [
            -139
        ]
    },
    "541": {
        "20/03/2020 17:31:24": [
            -6
        ],
        "20/03/2020 21:56:34": [
            -180
        ],
        "20/03/2020 21:57:26": [
            -180
        ]
    },
    "542": {
        "20/03/2020 17:31:24": [
            7
        ],
        "20/03/2020 21:56:34": [
            -189
        ],
        "20/03/2020 21:57:26": [
            -189
        ]
    },
    "543": {
        "20/03/2020 17:31:24": [
            -474,
            -3
        ],
        "20/03/2020 21:56:35": [
            -154
        ],
        "20/03/2020 21:57:27": [
            -154
        ]
    },
    "544": {
        "20/03/2020 17:31:25": [
            -499,
            -23
        ],
        "20/03/2020 21:56:35": [
            -185
        ],
        "20/03/2020 21:57:27": [
            -185
        ]
    },
    "289": {
        "20/03/2020 17:31:16": [
            7,
            7
        ],
        "20/03/2020 21:56:35": [
            2
        ],
        "20/03/2020 21:57:19": [
            2
        ]
    },
    "4384": {
        "20/03/2020 17:31:17": [
            -7,
            -7
        ],
        "20/03/2020 21:56:35": [
            -27
        ],
        "20/03/2020 21:57:20": [
            -27
        ]
    },
    "4387": {
        "20/03/2020 17:31:32": [],
        "20/03/2020 21:56:36": [],
        "20/03/2020 21:57:34": []
    },
    "527": {
        "20/03/2020 17:31:19": [
            -30,
            -30
        ],
        "20/03/2020 21:56:36": [
            -4
        ],
        "20/03/2020 21:57:22": [
            -4
        ]
    },
    "528": {
        "20/03/2020 17:31:20": [
            15,
            15
        ],
        "20/03/2020 21:56:36": [
            24
        ],
        "20/03/2020 21:57:22": [
            24
        ]
    },
    "529": {
        "20/03/2020 17:31:20": [
            -1,
            -1
        ],
        "20/03/2020 21:56:37": [
            -9
        ],
        "20/03/2020 21:57:23": [
            -9
        ]
    },
    "530": {
        "20/03/2020 17:31:20": [
            -11,
            -11
        ],
        "20/03/2020 21:56:37": [
            23
        ],
        "20/03/2020 21:57:23": [
            23
        ]
    },
    "531": {
        "20/03/2020 17:31:20": [
            -10,
            -10
        ],
        "20/03/2020 21:56:37": [
            1
        ],
        "20/03/2020 21:57:23": [
            1
        ]
    },
    "532": {
        "20/03/2020 17:31:21": [
            3,
            3
        ],
        "20/03/2020 21:56:37": [
            20
        ],
        "20/03/2020 21:57:24": [
            20
        ]
    },
    "533": {
        "20/03/2020 17:31:21": [
            2,
            2
        ],
        "20/03/2020 21:56:38": [],
        "20/03/2020 21:57:24": []
    },
    "534": {
        "20/03/2020 17:31:22": [
            10
        ],
        "20/03/2020 21:56:38": [],
        "20/03/2020 21:57:24": []
    },
    "545": {
        "20/03/2020 17:31:25": [
            -521,
            20
        ],
        "20/03/2020 21:56:38": [
            -154
        ],
        "20/03/2020 21:57:27": [
            -154
        ]
    },
    "546": {
        "20/03/2020 17:31:25": [
            -475,
            13
        ],
        "20/03/2020 21:56:38": [
            -183
        ],
        "20/03/2020 21:57:27": [
            -183
        ]
    },
    "709": {
        "20/03/2020 17:31:21": [
            -16,
            -16
        ],
        "20/03/2020 21:56:39": [
            -20
        ],
        "20/03/2020 21:57:23": [
            -20
        ]
    },
    "7590": {
        "20/03/2020 17:30:32": [],
        "20/03/2020 21:56:39": []
    },
    "515": {
        "20/03/2020 17:31:17": [
            22,
            22
        ],
        "20/03/2020 21:56:39": [
            8
        ],
        "20/03/2020 21:57:19": [
            8
        ]
    },
    "516": {
        "20/03/2020 17:31:17": [
            -15,
            -15
        ],
        "20/03/2020 21:56:39": [
            -7
        ],
        "20/03/2020 21:57:20": [
            -7
        ]
    },
    "519": {
        "20/03/2020 17:31:17": [
            18,
            18
        ],
        "20/03/2020 21:56:40": [
            23
        ],
        "20/03/2020 21:57:20": [
            23
        ]
    },
    "521": {
        "20/03/2020 17:31:18": [
            5,
            5
        ],
        "20/03/2020 21:56:40": [
            -11
        ],
        "20/03/2020 21:57:21": [
            -11
        ]
    },
    "523": {
        "20/03/2020 17:31:18": [
            -23,
            -23
        ],
        "20/03/2020 21:56:40": [
            9
        ],
        "20/03/2020 21:57:21": [
            9
        ]
    },
    "526": {
        "20/03/2020 17:31:19": [
            1,
            1
        ],
        "20/03/2020 21:56:41": [
            -7
        ],
        "20/03/2020 21:57:22": [
            -7
        ]
    },
    "910": {
        "20/03/2020 17:31:26": [
            -521,
            15
        ],
        "20/03/2020 21:56:41": [
            -132
        ],
        "20/03/2020 21:57:28": [
            -132
        ]
    },
    "911": {
        "20/03/2020 17:31:26": [
            -529,
            -1
        ],
        "20/03/2020 21:56:41": [
            -156
        ],
        "20/03/2020 21:57:28": [
            -156
        ]
    },
    "912": {
        "20/03/2020 17:31:26": [
            -526,
            -8
        ],
        "20/03/2020 21:56:41": [
            -172
        ],
        "20/03/2020 21:57:28": [
            -172
        ]
    },
    "913": {
        "20/03/2020 17:31:27": [
            -515,
            1
        ],
        "20/03/2020 21:56:42": [
            -195
        ],
        "20/03/2020 21:57:29": [
            -195
        ]
    },
    "914": {
        "20/03/2020 17:31:27": [
            -495,
            19
        ],
        "20/03/2020 21:56:42": [
            -210
        ],
        "20/03/2020 21:57:29": [
            -210
        ]
    },
    "938": {
        "20/03/2020 17:31:27": [
            -506,
            10
        ],
        "20/03/2020 21:56:43": [
            -199
        ],
        "20/03/2020 21:57:29": [
            -199
        ]
    },
    "535": {
        "20/03/2020 17:31:22": [
            14
        ],
        "20/03/2020 21:56:43": [],
        "20/03/2020 21:57:24": []
    },
    "536": {
        "20/03/2020 17:31:22": [
            11
        ],
        "20/03/2020 21:56:43": [],
        "20/03/2020 21:57:25": []
    },
    "940": {
        "20/03/2020 17:31:27": [
            -511,
            5
        ],
        "20/03/2020 21:56:43": [
            -208
        ],
        "20/03/2020 21:57:29": [
            -208
        ]
    },
    "941": {
        "20/03/2020 17:31:28": [
            -479,
            -27
        ],
        "20/03/2020 21:56:44": [
            -267
        ],
        "20/03/2020 21:57:30": [
            -267
        ]
    },
    "942": {
        "20/03/2020 17:31:28": [
            -483,
            25
        ],
        "20/03/2020 21:56:44": [
            -159
        ],
        "20/03/2020 21:57:30": [
            -159
        ]
    },
    "943": {
        "20/03/2020 17:31:28": [
            -491,
            12
        ],
        "20/03/2020 21:56:44": [
            -112
        ],
        "20/03/2020 21:57:30": [
            -112
        ]
    },
    "496": {
        "20/03/2020 17:31:16": [
            -18,
            -18
        ],
        "20/03/2020 21:56:45": [
            -27
        ],
        "20/03/2020 21:57:19": [
            -27
        ]
    },
    "497": {
        "20/03/2020 17:30:39": [],
        "20/03/2020 21:56:45": []
    },
    "7569": {
        "20/03/2020 17:31:15": [],
        "20/03/2020 21:56:45": [],
        "20/03/2020 21:57:18": []
    },
    "1172": {
        "20/03/2020 17:30:40": [],
        "20/03/2020 21:56:45": []
    },
    "3587": {
        "20/03/2020 17:30:58": [
            -13
        ],
        "20/03/2020 21:56:46": [
            -20
        ],
        "20/03/2020 21:57:03": [
            -20
        ]
    },
    "3588": {
        "20/03/2020 17:30:58": [
            20
        ],
        "20/03/2020 21:56:46": [
            9
        ],
        "20/03/2020 21:57:03": [
            9
        ]
    },
    "3589": {
        "20/03/2020 17:30:59": [
            -29
        ],
        "20/03/2020 21:56:46": [
            7
        ],
        "20/03/2020 21:57:03": [
            7
        ]
    },
    "3590": {
        "20/03/2020 17:30:58": [
            -15
        ],
        "20/03/2020 21:56:47": [],
        "20/03/2020 21:57:03": []
    },
    "3591": {
        "20/03/2020 17:30:59": [
            6
        ],
        "20/03/2020 21:56:47": [
            -24
        ],
        "20/03/2020 21:57:04": [
            -24
        ]
    },
    "3592": {
        "20/03/2020 17:30:59": [
            15
        ],
        "20/03/2020 21:56:47": [
            -18
        ],
        "20/03/2020 21:57:04": [
            -18
        ]
    },
    "3593": {
        "20/03/2020 17:31:00": [
            7
        ],
        "20/03/2020 21:56:47": [
            -23
        ],
        "20/03/2020 21:57:04": [
            -23
        ]
    },
    "3594": {
        "20/03/2020 17:31:00": [
            -16
        ],
        "20/03/2020 21:56:48": [
            7
        ],
        "20/03/2020 21:57:05": [
            7
        ]
    },
    "3595": {
        "20/03/2020 17:31:00": [
            20
        ],
        "20/03/2020 21:56:48": [
            -20
        ],
        "20/03/2020 21:57:05": [
            -20
        ]
    },
    "3596": {
        "20/03/2020 17:31:01": [
            -16
        ],
        "20/03/2020 21:56:48": [
            2
        ],
        "20/03/2020 21:57:05": [
            2
        ]
    },
    "587": {
        "20/03/2020 17:31:05": [
            -1
        ],
        "20/03/2020 21:56:49": [
            -12
        ],
        "20/03/2020 21:57:09": [
            -12
        ]
    },
    "588": {
        "20/03/2020 17:31:05": [
            20
        ],
        "20/03/2020 21:56:49": [
            4
        ],
        "20/03/2020 21:57:09": [
            4
        ]
    },
    "589": {
        "20/03/2020 17:31:05": [
            6
        ],
        "20/03/2020 21:56:49": [
            -19
        ],
        "20/03/2020 21:57:09": [
            -19
        ]
    },
    "590": {
        "20/03/2020 17:31:06": [
            27
        ],
        "20/03/2020 21:56:49": [
            -1
        ],
        "20/03/2020 21:57:09": [
            -1
        ]
    },
    "591": {
        "20/03/2020 17:31:06": [
            -10,
            21
        ],
        "20/03/2020 21:56:50": [
            70,
            -14
        ],
        "20/03/2020 21:57:10": [
            -14
        ]
    },
    "592": {
        "20/03/2020 17:31:06": [
            -22,
            0
        ],
        "20/03/2020 21:56:50": [
            104
        ],
        "20/03/2020 21:57:10": [
            104
        ]
    },
    "593": {
        "20/03/2020 17:31:06": [
            9,
            25
        ],
        "20/03/2020 21:56:50": [
            66
        ],
        "20/03/2020 21:57:10": [
            66
        ]
    },
    "594": {
        "20/03/2020 17:31:07": [
            -22,
            -14
        ],
        "20/03/2020 21:56:51": [
            90
        ],
        "20/03/2020 21:57:10": [
            90
        ]
    },
    "595": {
        "20/03/2020 17:31:07": [
            2,
            3
        ],
        "20/03/2020 21:56:51": [
            110
        ],
        "20/03/2020 21:57:11": [
            110
        ]
    },
    "596": {
        "20/03/2020 17:31:07": [
            18,
            15
        ],
        "20/03/2020 21:56:51": [
            64
        ],
        "20/03/2020 21:57:11": [
            64
        ]
    },
    "597": {
        "20/03/2020 17:31:08": [
            -6,
            -19
        ],
        "20/03/2020 21:56:51": [
            87
        ],
        "20/03/2020 21:57:11": [
            87
        ]
    },
    "3597": {
        "20/03/2020 17:31:01": [
            13
        ],
        "20/03/2020 21:56:52": [
            29
        ],
        "20/03/2020 21:57:05": [
            29
        ]
    },
    "3598": {
        "20/03/2020 17:31:01": [
            -9
        ],
        "20/03/2020 21:56:52": [
            3
        ],
        "20/03/2020 21:57:06": [
            3
        ]
    },
    "3624": {
        "20/03/2020 17:30:58": [
            0
        ],
        "20/03/2020 21:56:52": [
            0
        ],
        "20/03/2020 21:57:02": [
            0
        ]
    },
    "603": {
        "20/03/2020 17:31:09": [
            -10,
            -7
        ],
        "20/03/2020 21:56:52": [
            26
        ],
        "20/03/2020 21:57:13": [
            26
        ]
    },
    "604": {
        "20/03/2020 17:31:10": [
            18,
            14
        ],
        "20/03/2020 21:56:53": [
            46
        ],
        "20/03/2020 21:57:13": [
            46
        ]
    },
    "605": {
        "20/03/2020 17:31:10": [
            -20,
            -29
        ],
        "20/03/2020 21:56:53": [
            62
        ],
        "20/03/2020 21:57:14": [
            62
        ]
    },
    "606": {
        "20/03/2020 17:31:10": [
            -25,
            -19
        ],
        "20/03/2020 21:56:53": [
            36
        ],
        "20/03/2020 21:57:14": [
            36
        ]
    },
    "608": {
        "20/03/2020 17:31:11": [
            10,
            -18
        ],
        "20/03/2020 21:56:53": [
            38
        ],
        "20/03/2020 21:57:15": [
            38
        ]
    },
    "610": {
        "20/03/2020 17:31:12": [
            -22,
            -3
        ],
        "20/03/2020 21:56:54": [
            38
        ],
        "20/03/2020 21:57:15": [
            38
        ]
    },
    "611": {
        "20/03/2020 17:31:12": [
            -16,
            4
        ],
        "20/03/2020 21:56:54": [
            27
        ],
        "20/03/2020 21:57:15": [
            27
        ]
    },
    "612": {
        "20/03/2020 17:31:12": [
            28,
            -12
        ],
        "20/03/2020 21:56:54": [
            60
        ],
        "20/03/2020 21:57:16": [
            60
        ]
    },
    "613": {
        "20/03/2020 17:31:12": [
            20
        ],
        "20/03/2020 21:56:55": [
            37
        ],
        "20/03/2020 21:57:16": [
            37
        ]
    },
    "607": {
        "20/03/2020 17:31:11": [
            -26,
            19
        ],
        "20/03/2020 21:56:55": [
            75
        ],
        "20/03/2020 21:57:14": [
            75
        ]
    },
    "4465": {
        "20/03/2020 17:31:02": [
            -20
        ],
        "20/03/2020 21:56:55": [
            -24
        ],
        "20/03/2020 21:57:06": [
            -24
        ]
    },
    "609": {
        "20/03/2020 17:31:11": [
            1,
            25
        ],
        "20/03/2020 21:56:55": [
            73
        ],
        "20/03/2020 21:57:15": [
            73
        ]
    },
    "7608": {
        "20/03/2020 17:30:51": [],
        "20/03/2020 21:56:56": []
    },
    "928": {
        "20/03/2020 17:31:03": [
            -10
        ],
        "20/03/2020 21:56:56": [
            -24
        ],
        "20/03/2020 21:57:07": [
            -24
        ]
    },
    "929": {
        "20/03/2020 17:31:04": [
            20
        ],
        "20/03/2020 21:56:56": [
            -2
        ],
        "20/03/2020 21:57:08": [
            -2
        ]
    },
    "930": {
        "20/03/2020 17:31:04": [
            20
        ],
        "20/03/2020 21:56:56": [
            -19
        ],
        "20/03/2020 21:57:08": [
            -19
        ]
    },
    "931": {
        "20/03/2020 17:31:04": [
            4
        ],
        "20/03/2020 21:56:57": [
            11
        ],
        "20/03/2020 21:57:08": [
            11
        ]
    },
    "944": {
        "20/03/2020 17:31:02": [
            9
        ],
        "20/03/2020 21:56:57": [
            4
        ],
        "20/03/2020 21:57:06": [
            4
        ]
    },
    "945": {
        "20/03/2020 17:31:02": [
            -23
        ],
        "20/03/2020 21:56:57": [
            -29
        ],
        "20/03/2020 21:57:06": [
            -29
        ]
    },
    "947": {
        "20/03/2020 17:31:02": [
            -24
        ],
        "20/03/2020 21:56:58": [
            29
        ],
        "20/03/2020 21:57:07": [
            29
        ]
    },
    "948": {
        "20/03/2020 17:31:03": [
            -1
        ],
        "20/03/2020 21:56:58": [
            -9
        ],
        "20/03/2020 21:57:07": [
            -9
        ]
    },
    "598": {
        "20/03/2020 17:31:08": [
            -13,
            20
        ],
        "20/03/2020 21:56:58": [
            28
        ],
        "20/03/2020 21:57:12": [
            28
        ]
    },
    "599": {
        "20/03/2020 17:31:08": [
            -26,
            -6
        ],
        "20/03/2020 21:56:58": [
            58
        ],
        "20/03/2020 21:57:12": [
            58
        ]
    },
    "600": {
        "20/03/2020 17:31:08": [
            13,
            23
        ],
        "20/03/2020 21:56:59": [
            24
        ],
        "20/03/2020 21:57:12": [
            24
        ]
    },
    "601": {
        "20/03/2020 17:31:09": [
            -17,
            -9
        ],
        "20/03/2020 21:56:59": [
            43
        ],
        "20/03/2020 21:57:13": [
            43
        ]
    },
    "602": {
        "20/03/2020 17:31:09": [
            14,
            19
        ],
        "20/03/2020 21:56:59": [
            63
        ],
        "20/03/2020 21:57:13": [
            63
        ]
    },
    "615": {
        "20/03/2020 17:31:13": [
            15
        ],
        "20/03/2020 21:57:00": [
            -18
        ],
        "20/03/2020 21:57:16": [
            -18
        ]
    },
    "616": {
        "20/03/2020 17:31:13": [
            10
        ],
        "20/03/2020 21:57:00": [
            15
        ],
        "20/03/2020 21:57:17": [
            15
        ]
    },
    "617": {
        "20/03/2020 17:31:14": [
            0
        ],
        "20/03/2020 21:57:00": [
            -10
        ],
        "20/03/2020 21:57:17": [
            -10
        ]
    },
    "618": {
        "20/03/2020 17:31:14": [
            -9
        ],
        "20/03/2020 21:57:01": [
            26
        ],
        "20/03/2020 21:57:17": [
            26
        ]
    },
    "619": {
        "20/03/2020 17:31:14": [
            0
        ],
        "20/03/2020 21:57:01": [
            -3
        ],
        "20/03/2020 21:57:18": [
            -3
        ]
    },
    "620": {
        "20/03/2020 17:31:15": [
            -27
        ],
        "20/03/2020 21:57:01": [
            -24
        ],
        "20/03/2020 21:57:18": [
            -24
        ]
    },
    "675": {
        "20/03/2020 17:31:15": [
            -23
        ],
        "20/03/2020 21:57:01": [
            15
        ],
        "20/03/2020 21:57:18": [
            15
        ]
    },
    "949": {
        "20/03/2020 17:31:03": [
            26
        ],
        "20/03/2020 21:57:02": [
            17
        ],
        "20/03/2020 21:57:07": [
            17
        ]
    },
    "614": {
        "20/03/2020 17:31:13": [
            10
        ],
        "20/03/2020 21:57:02": [
            4
        ],
        "20/03/2020 21:57:16": [
            4
        ]
    }
}