{
    "7590": {
        "27/03/2020 13:47:36": [],
        "27/03/2020 17:39:09": []
    },
    "497": {
        "27/03/2020 13:47:37": [],
        "27/03/2020 17:39:10": []
    },
    "1172": {
        "27/03/2020 13:47:37": [],
        "27/03/2020 17:39:10": []
    },
    "7608": {
        "27/03/2020 13:47:38": [],
        "27/03/2020 17:39:11": []
    },
    "3624": {
        "27/03/2020 13:47:38": [
            0
        ],
        "27/03/2020 17:39:11": [
            0
        ]
    },
    "3587": {
        "27/03/2020 13:47:39": [
            -21
        ],
        "27/03/2020 17:39:12": [
            -23
        ]
    },
    "3588": {
        "27/03/2020 13:47:39": [
            6
        ],
        "27/03/2020 17:39:12": [
            4
        ]
    },
    "3590": {
        "27/03/2020 13:47:40": [
            27
        ],
        "27/03/2020 17:39:12": [
            27
        ]
    },
    "3589": {
        "27/03/2020 13:47:40": [
            5
        ],
        "27/03/2020 17:39:13": [
            10
        ]
    },
    "3591": {
        "27/03/2020 13:47:41": [
            -26
        ],
        "27/03/2020 17:39:13": [
            -17
        ]
    },
    "3592": {
        "27/03/2020 13:47:41": [
            -19
        ],
        "27/03/2020 17:39:14": [
            -4
        ]
    },
    "3593": {
        "27/03/2020 13:47:42": [
            -14
        ],
        "27/03/2020 17:39:14": [
            0
        ]
    },
    "3594": {
        "27/03/2020 13:47:42": [
            16
        ],
        "27/03/2020 17:39:15": [
            -27
        ]
    },
    "3595": {
        "27/03/2020 13:47:43": [
            -14
        ],
        "27/03/2020 17:39:15": [
            2
        ]
    },
    "3596": {
        "27/03/2020 13:47:43": [
            7
        ],
        "27/03/2020 17:39:16": [
            22
        ]
    },
    "3597": {
        "27/03/2020 13:47:44": [
            -28
        ],
        "27/03/2020 17:39:16": [
            -14
        ]
    },
    "3598": {
        "27/03/2020 13:47:44": [
            4
        ],
        "27/03/2020 17:39:17": [
            17
        ]
    },
    "4465": {
        "27/03/2020 13:47:45": [
            -4
        ],
        "27/03/2020 17:39:17": [
            -1
        ]
    },
    "944": {
        "27/03/2020 13:47:45": [],
        "27/03/2020 17:39:17": [
            -24
        ]
    },
    "945": {
        "27/03/2020 13:47:46": [
            1
        ],
        "27/03/2020 17:39:18": [
            11
        ]
    },
    "947": {
        "27/03/2020 13:47:46": [
            9
        ],
        "27/03/2020 17:39:18": [
            27
        ]
    },
    "948": {
        "27/03/2020 13:47:47": [
            -27
        ],
        "27/03/2020 17:39:19": [
            -12
        ]
    },
    "949": {
        "27/03/2020 13:47:47": [
            3
        ],
        "27/03/2020 17:39:19": [
            19
        ]
    },
    "928": {
        "27/03/2020 13:47:48": [
            -27
        ],
        "27/03/2020 17:39:20": [
            -26
        ]
    },
    "929": {
        "27/03/2020 13:47:48": [
            -1
        ],
        "27/03/2020 17:39:20": [
            -2
        ]
    },
    "930": {
        "27/03/2020 13:47:49": [
            -8
        ],
        "27/03/2020 17:39:21": [
            -14
        ]
    },
    "931": {
        "27/03/2020 13:47:49": [
            -12
        ],
        "27/03/2020 17:39:21": [
            -17
        ]
    },
    "587": {
        "27/03/2020 13:47:50": [
            -4
        ],
        "27/03/2020 17:39:22": [
            -7
        ]
    },
    "588": {
        "27/03/2020 13:47:50": [
            12
        ],
        "27/03/2020 17:39:22": [
            7
        ]
    },
    "589": {
        "27/03/2020 13:47:51": [
            -10
        ],
        "27/03/2020 17:39:23": [
            -20
        ]
    },
    "590": {
        "27/03/2020 13:47:51": [
            15
        ],
        "27/03/2020 17:39:23": [
            1
        ]
    },
    "591": {
        "27/03/2020 13:47:52": [
            18
        ],
        "27/03/2020 17:39:24": [
            -5
        ]
    },
    "592": {
        "27/03/2020 13:47:52": [
            0
        ],
        "27/03/2020 17:39:24": [
            -26
        ]
    },
    "593": {
        "27/03/2020 13:47:54": [
            27
        ],
        "27/03/2020 17:39:25": [
            -1
        ]
    },
    "594": {
        "27/03/2020 13:47:54": [
            -9
        ],
        "27/03/2020 17:39:25": [
            21
        ]
    },
    "595": {
        "27/03/2020 13:47:55": [
            11
        ],
        "27/03/2020 17:39:26": [
            -20
        ]
    },
    "596": {
        "27/03/2020 13:47:56": [
            24
        ],
        "27/03/2020 17:39:26": [
            -7
        ]
    },
    "597": {
        "27/03/2020 13:47:56": [
            -9
        ],
        "27/03/2020 17:39:27": [
            24
        ]
    },
    "598": {
        "27/03/2020 13:47:57": [
            -28
        ],
        "27/03/2020 17:39:27": [
            9
        ]
    },
    "599": {
        "27/03/2020 13:47:57": [
            8
        ],
        "27/03/2020 17:39:28": [
            -11
        ]
    },
    "600": {
        "27/03/2020 13:47:58": [
            -22
        ],
        "27/03/2020 17:39:28": [
            22
        ]
    },
    "601": {
        "27/03/2020 13:47:58": [
            0
        ],
        "27/03/2020 17:39:29": [
            -20
        ]
    },
    "602": {
        "27/03/2020 13:47:59": [
            23
        ],
        "27/03/2020 17:39:29": [
            -2
        ]
    },
    "603": {
        "27/03/2020 13:47:59": [
            -10
        ],
        "27/03/2020 17:39:30": [
            20
        ]
    },
    "604": {
        "27/03/2020 13:48:00": [
            20
        ],
        "27/03/2020 17:39:30": [
            -21
        ]
    },
    "605": {
        "27/03/2020 13:48:00": [
            -17
        ],
        "27/03/2020 17:39:31": [
            -6
        ]
    },
    "606": {
        "27/03/2020 13:48:01": [
            -20
        ],
        "27/03/2020 17:39:31": [
            24
        ]
    },
    "607": {
        "27/03/2020 13:48:01": [
            28
        ],
        "27/03/2020 17:39:32": [
            4
        ]
    },
    "608": {
        "27/03/2020 13:48:02": [
            -3
        ],
        "27/03/2020 17:39:32": [
            28
        ]
    },
    "609": {
        "27/03/2020 13:48:02": [
            -25
        ],
        "27/03/2020 17:39:33": [
            9
        ]
    },
    "610": {
        "27/03/2020 13:48:03": [
            3
        ],
        "27/03/2020 17:39:33": [
            -21
        ]
    },
    "611": {
        "27/03/2020 13:48:03": [
            -1
        ],
        "27/03/2020 17:39:34": [
            25
        ]
    },
    "612": {
        "27/03/2020 13:48:04": [
            -24
        ],
        "27/03/2020 17:39:34": [
            -4
        ]
    },
    "613": {
        "27/03/2020 13:48:04": [
            20
        ],
        "27/03/2020 17:39:35": [
            -29
        ]
    },
    "614": {
        "27/03/2020 13:48:05": [
            -7
        ],
        "27/03/2020 17:39:35": [
            -14
        ]
    },
    "615": {
        "27/03/2020 13:48:05": [
            -29
        ],
        "27/03/2020 17:39:36": [
            -21
        ]
    },
    "616": {
        "27/03/2020 13:48:06": [
            3
        ],
        "27/03/2020 17:39:36": [
            24
        ]
    },
    "617": {
        "27/03/2020 13:48:06": [
            -18
        ],
        "27/03/2020 17:39:37": [
            -4
        ]
    },
    "618": {
        "27/03/2020 13:48:07": [
            21
        ],
        "27/03/2020 17:39:37": [
            29
        ]
    },
    "619": {
        "27/03/2020 13:48:07": [
            11
        ],
        "27/03/2020 17:39:38": [
            9
        ]
    },
    "675": {
        "27/03/2020 13:48:08": [
            -22
        ],
        "27/03/2020 17:39:38": [
            -29
        ]
    },
    "620": {
        "27/03/2020 13:48:08": [
            -1
        ],
        "27/03/2020 17:39:38": [
            1
        ]
    },
    "7569": {
        "27/03/2020 13:48:09": [],
        "27/03/2020 17:39:39": []
    },
    "621": {
        "27/03/2020 13:48:09": [
            0
        ],
        "27/03/2020 17:39:39": [
            0,
            0,
            0
        ]
    },
    "289": {
        "27/03/2020 13:48:10": [
            -9
        ],
        "27/03/2020 17:39:40": [
            -1,
            -1,
            3
        ]
    },
    "496": {
        "27/03/2020 13:48:10": [
            14
        ],
        "27/03/2020 17:39:40": [
            27,
            27,
            -10
        ]
    },
    "515": {
        "27/03/2020 13:48:11": [
            -25
        ],
        "27/03/2020 17:39:41": [
            4,
            4,
            2
        ]
    },
    "516": {
        "27/03/2020 13:48:11": [
            13
        ],
        "27/03/2020 17:39:41": [
            -9,
            -9
        ]
    },
    "4384": {
        "27/03/2020 13:48:12": [
            -2
        ],
        "27/03/2020 17:39:42": [
            -29,
            -29
        ]
    },
    "519": {
        "27/03/2020 13:48:12": [
            -7
        ],
        "27/03/2020 17:39:42": [
            21,
            21
        ]
    },
    "521": {
        "27/03/2020 13:48:13": [
            20
        ],
        "27/03/2020 17:39:43": [
            -17,
            -17
        ]
    },
    "522": {
        "27/03/2020 13:48:13": [
            -1
        ],
        "27/03/2020 17:39:43": [
            16,
            16
        ]
    },
    "523": {
        "27/03/2020 13:48:14": [
            -11
        ],
        "27/03/2020 17:39:44": [
            -8,
            -8
        ]
    },
    "525": {
        "27/03/2020 13:48:14": [
            14
        ],
        "27/03/2020 17:39:44": [
            -16,
            -16
        ]
    },
    "526": {
        "27/03/2020 13:48:15": [
            -8
        ],
        "27/03/2020 17:39:45": [
            19,
            19
        ]
    },
    "527": {
        "27/03/2020 13:48:15": [
            -11
        ],
        "27/03/2020 17:39:45": [
            12,
            12
        ]
    },
    "528": {
        "27/03/2020 13:48:16": [
            20
        ],
        "27/03/2020 17:39:46": [
            -20,
            -20
        ]
    },
    "529": {
        "27/03/2020 13:48:16": [
            -9
        ],
        "27/03/2020 17:39:46": [
            8,
            8
        ]
    },
    "530": {
        "27/03/2020 13:48:17": [
            25
        ],
        "27/03/2020 17:39:46": [
            -21,
            -21
        ]
    },
    "531": {
        "27/03/2020 13:48:17": [
            8
        ],
        "27/03/2020 17:39:47": [
            18,
            18
        ]
    },
    "709": {
        "27/03/2020 13:48:19": [
            -17
        ],
        "27/03/2020 17:39:47": [
            -9,
            -9
        ]
    },
    "532": {
        "27/03/2020 13:48:19": [
            -25
        ],
        "27/03/2020 17:39:48": [
            19,
            19
        ]
    },
    "533": {
        "27/03/2020 13:48:20": [
            16
        ],
        "27/03/2020 17:39:48": [
            -6,
            -6
        ]
    },
    "534": {
        "27/03/2020 13:48:20": [
            5
        ],
        "27/03/2020 17:39:49": [
            20,
            20
        ]
    },
    "535": {
        "27/03/2020 13:48:21": [
            -8
        ],
        "27/03/2020 17:39:49": [
            -14,
            -14
        ]
    },
    "536": {
        "27/03/2020 13:48:21": [
            -28
        ],
        "27/03/2020 17:39:50": [
            24,
            24
        ]
    },
    "537": {
        "27/03/2020 13:48:22": [
            -30
        ],
        "27/03/2020 17:39:50": [
            17,
            17
        ]
    },
    "538": {
        "27/03/2020 13:48:22": [
            10
        ],
        "27/03/2020 17:39:51": [
            -4,
            -4
        ]
    },
    "539": {
        "27/03/2020 13:48:23": [
            3
        ],
        "27/03/2020 17:39:51": [
            -15,
            -15
        ]
    },
    "540": {
        "27/03/2020 13:48:23": [],
        "27/03/2020 17:39:52": [
            5,
            5
        ]
    },
    "541": {
        "27/03/2020 13:48:24": [
            -11
        ],
        "27/03/2020 17:39:52": [
            20,
            20
        ]
    },
    "542": {
        "27/03/2020 13:48:24": [
            -2
        ],
        "27/03/2020 17:39:53": [
            19,
            19
        ]
    },
    "543": {
        "27/03/2020 13:48:25": [
            -15
        ],
        "27/03/2020 17:39:53": [
            0,
            0
        ]
    },
    "544": {
        "27/03/2020 13:48:25": [
            15
        ],
        "27/03/2020 17:39:54": [
            22,
            22
        ]
    },
    "545": {
        "27/03/2020 13:48:25": [
            -13
        ],
        "27/03/2020 17:39:54": [
            -14,
            -14
        ]
    },
    "546": {
        "27/03/2020 13:48:26": [
            -27
        ],
        "27/03/2020 17:39:55": [
            -15,
            -15
        ]
    },
    "910": {
        "27/03/2020 13:48:27": [
            -18
        ],
        "27/03/2020 17:39:55": [
            16,
            16
        ]
    },
    "911": {
        "27/03/2020 13:48:27": [
            -28
        ],
        "27/03/2020 17:39:56": [
            -22,
            -22
        ]
    },
    "912": {
        "27/03/2020 13:48:27": [
            -29
        ],
        "27/03/2020 17:39:56": [
            5,
            5
        ]
    },
    "913": {
        "27/03/2020 13:48:28": [
            -18
        ],
        "27/03/2020 17:39:57": [
            10,
            10
        ]
    },
    "914": {
        "27/03/2020 13:48:28": [
            25
        ],
        "27/03/2020 17:39:57": [
            -11,
            -11
        ]
    },
    "938": {
        "27/03/2020 13:48:29": [
            1
        ],
        "27/03/2020 17:39:58": [
            27,
            27
        ]
    },
    "940": {
        "27/03/2020 13:48:29": [
            -13
        ],
        "27/03/2020 17:39:58": [
            16,
            16
        ]
    },
    "941": {
        "27/03/2020 13:48:30": [
            20
        ],
        "27/03/2020 17:39:58": [
            199,
            -13,
            -13
        ]
    },
    "942": {
        "27/03/2020 13:48:30": [
            10
        ],
        "27/03/2020 17:39:59": [
            187,
            -23,
            -23
        ]
    },
    "943": {
        "27/03/2020 13:48:31": [
            -3
        ],
        "27/03/2020 17:39:59": [
            172,
            23,
            23
        ]
    },
    "3599": {
        "27/03/2020 13:48:31": [
            5
        ],
        "27/03/2020 17:40:00": [
            217,
            22,
            22
        ]
    },
    "3600": {
        "27/03/2020 13:48:32": [
            -26
        ],
        "27/03/2020 17:40:00": [
            188,
            -14,
            -14
        ]
    },
    "3601": {
        "27/03/2020 13:48:34": [
            11
        ],
        "27/03/2020 17:40:01": [
            227,
            16,
            16
        ]
    },
    "3602": {
        "27/03/2020 13:48:40": [
            -16
        ],
        "27/03/2020 17:40:01": [
            203,
            -16,
            -16
        ]
    },
    "3604": {
        "27/03/2020 13:48:45": [
            136,
            26
        ],
        "27/03/2020 17:40:02": [
            191,
            23,
            23
        ]
    },
    "3616": {
        "27/03/2020 13:48:52": [
            92,
            -18
        ],
        "27/03/2020 17:40:02": [
            209,
            -22,
            -22
        ]
    },
    "3618": {
        "27/03/2020 13:49:00": [
            137,
            27
        ],
        "27/03/2020 17:40:03": [
            200,
            20,
            20
        ]
    },
    "3619": {
        "27/03/2020 13:49:06": [
            139
        ],
        "27/03/2020 17:40:03": [
            219,
            16
        ]
    },
    "3620": {
        "27/03/2020 13:49:12": [
            119
        ],
        "27/03/2020 17:40:04": [
            152,
            -8
        ]
    },
    "3622": {
        "27/03/2020 13:49:17": [
            105
        ],
        "27/03/2020 17:40:04": [
            127,
            -26
        ]
    },
    "3623": {
        "27/03/2020 13:49:23": [
            131
        ],
        "27/03/2020 17:40:05": [
            152,
            -3
        ]
    },
    "4387": {
        "27/03/2020 13:49:31": [],
        "27/03/2020 17:40:05": []
    }
}