{
    "7590": {
        "23/03/2020 13:05:42": [],
        "23/03/2020 15:12:24": [],
        "23/03/2020 18:20:18": []
    },
    "497": {
        "23/03/2020 13:05:43": [],
        "23/03/2020 15:12:24": [],
        "23/03/2020 18:20:18": []
    },
    "1172": {
        "23/03/2020 13:05:43": [],
        "23/03/2020 15:12:25": [],
        "23/03/2020 18:20:18": []
    },
    "7608": {
        "23/03/2020 13:05:44": [],
        "23/03/2020 15:12:25": [],
        "23/03/2020 18:20:19": []
    },
    "3624": {
        "23/03/2020 13:05:44": [
            0
        ],
        "23/03/2020 15:12:25": [
            0,
            0
        ],
        "23/03/2020 18:20:19": [
            0
        ]
    },
    "3587": {
        "23/03/2020 13:05:45": [
            -17
        ],
        "23/03/2020 15:12:25": [
            102,
            -24,
            -24
        ],
        "23/03/2020 18:20:19": [
            -8
        ]
    },
    "3588": {
        "23/03/2020 13:05:46": [
            14
        ],
        "23/03/2020 15:12:26": [
            138,
            2,
            2
        ],
        "23/03/2020 18:20:20": [
            29
        ]
    },
    "3590": {
        "23/03/2020 13:05:46": [
            -21
        ],
        "23/03/2020 15:12:26": [
            102,
            23,
            23
        ],
        "23/03/2020 18:20:20": [
            -6
        ]
    },
    "3589": {
        "23/03/2020 13:05:47": [
            25
        ],
        "23/03/2020 15:12:26": [
            87,
            1,
            1
        ],
        "23/03/2020 18:20:20": [
            -20
        ]
    },
    "3591": {
        "23/03/2020 13:05:47": [
            0
        ],
        "23/03/2020 15:12:27": [
            102,
            -29
        ],
        "23/03/2020 18:20:20": [
            15
        ]
    },
    "3592": {
        "23/03/2020 13:05:48": [
            6
        ],
        "23/03/2020 15:12:27": [
            119,
            -23
        ],
        "23/03/2020 18:20:21": [
            24
        ]
    },
    "3593": {
        "23/03/2020 13:05:49": [
            15
        ],
        "23/03/2020 15:12:27": [
            75,
            -21
        ],
        "23/03/2020 18:20:21": [
            -28
        ]
    },
    "3594": {
        "23/03/2020 13:05:49": [
            -8
        ],
        "23/03/2020 15:12:28": [
            110,
            20
        ],
        "23/03/2020 18:20:21": [
            4
        ]
    },
    "3595": {
        "23/03/2020 13:05:50": [
            -26
        ],
        "23/03/2020 15:12:28": [
            89,
            -12
        ],
        "23/03/2020 18:20:22": [
            -22
        ]
    },
    "3596": {
        "23/03/2020 13:05:50": [
            2
        ],
        "23/03/2020 15:12:28": [
            115,
            8
        ],
        "23/03/2020 18:20:22": [
            2
        ]
    },
    "3597": {
        "23/03/2020 13:05:51": [
            -24
        ],
        "23/03/2020 15:12:29": [
            86,
            -29
        ],
        "23/03/2020 18:20:22": []
    },
    "3598": {
        "23/03/2020 13:05:52": [
            19
        ],
        "23/03/2020 15:12:29": [
            86,
            1
        ],
        "23/03/2020 18:20:23": [
            5
        ]
    },
    "4465": {
        "23/03/2020 13:05:53": [
            16
        ],
        "23/03/2020 15:12:29": [
            4,
            -23
        ],
        "23/03/2020 18:20:23": [
            -17
        ]
    },
    "944": {
        "23/03/2020 13:05:54": [
            -10
        ],
        "23/03/2020 15:12:30": [
            89,
            8
        ],
        "23/03/2020 18:20:23": [
            13
        ]
    },
    "945": {
        "23/03/2020 13:05:54": [
            23
        ],
        "23/03/2020 15:12:30": [
            119,
            -22
        ],
        "23/03/2020 18:20:23": [
            -18
        ]
    },
    "947": {
        "23/03/2020 13:05:55": [
            -27
        ],
        "23/03/2020 15:12:30": [
            126,
            -19
        ],
        "23/03/2020 18:20:24": [
            -17
        ]
    },
    "948": {
        "23/03/2020 13:05:56": [
            -6
        ],
        "23/03/2020 15:12:30": [
            89,
            3
        ],
        "23/03/2020 18:20:24": [
            6
        ]
    },
    "949": {
        "23/03/2020 13:05:57": [
            20
        ],
        "23/03/2020 15:12:31": [
            119,
            28
        ],
        "23/03/2020 18:20:24": [
            -29
        ]
    },
    "928": {
        "23/03/2020 13:05:58": [
            -11
        ],
        "23/03/2020 15:12:31": [
            90,
            -8
        ],
        "23/03/2020 18:20:25": [
            -10
        ]
    },
    "929": {
        "23/03/2020 13:05:58": [
            23
        ],
        "23/03/2020 15:12:31": [
            121,
            14
        ],
        "23/03/2020 18:20:25": [
            23
        ]
    },
    "930": {
        "23/03/2020 13:05:59": [
            -28
        ],
        "23/03/2020 15:12:32": [
            122,
            -1
        ],
        "23/03/2020 18:20:25": [
            -30
        ]
    },
    "931": {
        "23/03/2020 13:06:00": [
            -29
        ],
        "23/03/2020 15:12:32": [
            114,
            -21
        ],
        "23/03/2020 18:20:25": [
            19
        ]
    },
    "587": {
        "23/03/2020 13:06:01": [
            -17
        ],
        "23/03/2020 15:12:32": [
            6,
            28
        ],
        "23/03/2020 18:20:26": [
            20
        ]
    },
    "588": {
        "23/03/2020 13:06:01": [
            3
        ],
        "23/03/2020 15:12:32": [
            27,
            -10
        ],
        "23/03/2020 18:20:26": [
            -22
        ]
    },
    "589": {
        "23/03/2020 13:06:02": [
            -13
        ],
        "23/03/2020 15:12:33": [
            13,
            -21
        ],
        "23/03/2020 18:20:26": [
            18
        ]
    },
    "590": {
        "23/03/2020 13:06:02": [
            8
        ],
        "23/03/2020 15:12:33": [
            -24,
            6
        ],
        "23/03/2020 18:20:27": [
            -21
        ]
    },
    "591": {
        "23/03/2020 13:06:03": [
            1
        ],
        "23/03/2020 15:12:34": [
            -27,
            15
        ],
        "23/03/2020 18:20:27": [
            -27
        ]
    },
    "592": {
        "23/03/2020 13:06:04": [
            -18
        ],
        "23/03/2020 15:12:34": [
            15,
            -6
        ],
        "23/03/2020 18:20:27": [
            4
        ]
    },
    "593": {
        "23/03/2020 13:06:04": [
            9
        ],
        "23/03/2020 15:12:35": [
            -18,
            20
        ],
        "23/03/2020 18:20:28": [
            25
        ]
    },
    "594": {
        "23/03/2020 13:06:05": [
            -24
        ],
        "23/03/2020 15:12:40": [
            9,
            -14
        ],
        "23/03/2020 18:20:28": [
            -6
        ]
    },
    "595": {
        "23/03/2020 13:06:06": [
            0
        ],
        "23/03/2020 15:12:40": [
            -27,
            9
        ],
        "23/03/2020 18:20:28": [
            19
        ]
    },
    "596": {
        "23/03/2020 13:06:06": [
            15
        ],
        "23/03/2020 15:12:40": [
            -12,
            24
        ],
        "23/03/2020 18:20:28": [
            -25
        ]
    },
    "597": {
        "23/03/2020 13:06:07": [
            -11
        ],
        "23/03/2020 15:12:41": [
            19,
            -7
        ],
        "23/03/2020 18:20:29": [
            -13,
            13
        ]
    },
    "598": {
        "23/03/2020 13:06:08": [
            -21
        ],
        "23/03/2020 15:12:41": [
            5,
            -25
        ],
        "23/03/2020 18:20:29": [
            26,
            11
        ]
    },
    "599": {
        "23/03/2020 13:06:08": [
            23
        ],
        "23/03/2020 15:12:41": [
            -16,
            13
        ],
        "23/03/2020 18:20:29": [
            1,
            0
        ]
    },
    "600": {
        "23/03/2020 13:06:09": [
            0
        ],
        "23/03/2020 15:12:42": [
            18,
            -16
        ],
        "23/03/2020 18:20:30": [
            -30,
            -18
        ]
    },
    "601": {
        "23/03/2020 13:06:09": [
            -28
        ],
        "23/03/2020 15:12:42": [
            -8,
            9
        ],
        "23/03/2020 18:20:30": [
            -2,
            13
        ]
    },
    "602": {
        "23/03/2020 13:06:10": [
            5
        ],
        "23/03/2020 15:12:42": [
            26,
            -26
        ],
        "23/03/2020 18:20:30": [
            26,
            -15
        ]
    },
    "603": {
        "23/03/2020 13:06:10": [
            -16
        ],
        "23/03/2020 15:12:43": [
            7,
            4
        ],
        "23/03/2020 18:20:31": [
            0,
            23
        ]
    },
    "604": {
        "23/03/2020 13:06:11": [
            18
        ],
        "23/03/2020 15:12:43": [
            -21,
            -27
        ],
        "23/03/2020 18:20:31": [
            21,
            -9
        ]
    },
    "605": {
        "23/03/2020 13:06:12": [
            -16
        ],
        "23/03/2020 15:12:43": [
            5,
            -4
        ],
        "23/03/2020 18:20:31": [
            -22,
            13
        ]
    },
    "606": {
        "23/03/2020 13:06:12": [
            -15
        ],
        "23/03/2020 15:12:44": [
            26,
            -19
        ],
        "23/03/2020 18:20:32": [
            -12,
            10
        ]
    },
    "607": {
        "23/03/2020 13:06:13": [
            -16
        ],
        "23/03/2020 15:12:44": [
            -30,
            -25
        ],
        "23/03/2020 18:20:32": [
            26,
            -10
        ]
    },
    "608": {
        "23/03/2020 13:06:13": [
            20
        ],
        "23/03/2020 15:12:44": [
            8,
            8
        ],
        "23/03/2020 18:20:32": [
            -11,
            15
        ]
    },
    "609": {
        "23/03/2020 13:06:14": [
            6
        ],
        "23/03/2020 15:12:44": [
            -6,
            -6
        ],
        "23/03/2020 18:20:32": [
            -27,
            4
        ]
    },
    "610": {
        "23/03/2020 13:06:14": [
            -21
        ],
        "23/03/2020 15:12:45": [
            28,
            27
        ],
        "23/03/2020 18:20:33": [
            5,
            -21
        ]
    },
    "611": {
        "23/03/2020 13:06:15": [
            -27
        ],
        "23/03/2020 15:12:45": [
            -24,
            -10
        ],
        "23/03/2020 18:20:33": [
            12,
            -15
        ]
    },
    "612": {
        "23/03/2020 13:06:16": [
            9
        ],
        "23/03/2020 15:12:45": [
            21,
            -15
        ],
        "23/03/2020 18:20:33": [
            -4,
            29
        ]
    },
    "613": {
        "23/03/2020 13:06:16": [
            -2
        ],
        "23/03/2020 15:12:46": [
            10,
            -26
        ],
        "23/03/2020 18:20:34": [
            -13,
            23
        ]
    },
    "614": {
        "23/03/2020 13:06:17": [
            -19
        ],
        "23/03/2020 15:12:46": [
            -7
        ],
        "23/03/2020 18:20:34": [
            -27,
            16
        ]
    },
    "615": {
        "23/03/2020 13:06:17": [
            28
        ],
        "23/03/2020 15:12:46": [
            -17
        ],
        "23/03/2020 18:20:34": [
            25,
            10
        ]
    },
    "616": {
        "23/03/2020 13:06:18": [
            9
        ],
        "23/03/2020 15:12:46": [
            26
        ],
        "23/03/2020 18:20:34": [
            9,
            -3
        ]
    },
    "617": {
        "23/03/2020 13:06:18": [
            -8
        ],
        "23/03/2020 15:12:47": [
            5
        ],
        "23/03/2020 18:20:35": [
            -9,
            -15
        ]
    },
    "618": {
        "23/03/2020 13:06:19": [
            -24
        ],
        "23/03/2020 15:12:47": [
            -15
        ],
        "23/03/2020 18:20:35": [
            -27,
            -27
        ]
    },
    "619": {
        "23/03/2020 13:06:20": [
            -23
        ],
        "23/03/2020 15:12:47": [
            -19
        ],
        "23/03/2020 18:20:35": [
            21,
            19
        ]
    },
    "675": {
        "23/03/2020 13:06:21": [
            11
        ],
        "23/03/2020 15:12:48": [
            11
        ],
        "23/03/2020 18:20:36": [
            -13,
            -16
        ]
    },
    "620": {
        "23/03/2020 13:06:21": [
            -8
        ],
        "23/03/2020 15:12:48": [
            -6
        ],
        "23/03/2020 18:20:36": [
            -24
        ]
    },
    "7569": {
        "23/03/2020 13:06:22": [],
        "23/03/2020 15:12:48": [],
        "23/03/2020 18:20:36": []
    },
    "621": {
        "23/03/2020 13:06:22": [
            0
        ],
        "23/03/2020 15:12:48": [
            0,
            0
        ],
        "23/03/2020 18:20:37": [
            0,
            0
        ]
    },
    "289": {
        "23/03/2020 13:06:23": [
            -1
        ],
        "23/03/2020 15:12:49": [
            -1
        ],
        "23/03/2020 18:20:37": [
            -2,
            -2
        ]
    },
    "496": {
        "23/03/2020 13:06:24": [
            28
        ],
        "23/03/2020 15:12:49": [
            24,
            28
        ],
        "23/03/2020 18:20:37": [
            26,
            26
        ]
    },
    "515": {
        "23/03/2020 13:06:25": [
            23
        ],
        "23/03/2020 15:12:49": [
            21,
            10
        ],
        "23/03/2020 18:20:38": [
            25,
            25
        ]
    },
    "516": {
        "23/03/2020 13:06:25": [
            21
        ],
        "23/03/2020 15:12:50": [
            19,
            0
        ],
        "23/03/2020 18:20:38": [
            24,
            24
        ]
    },
    "4384": {
        "23/03/2020 13:06:26": [
            11
        ],
        "23/03/2020 15:12:50": [
            9,
            -5
        ],
        "23/03/2020 18:20:38": [
            15,
            15
        ]
    },
    "519": {
        "23/03/2020 13:06:26": [
            13
        ],
        "23/03/2020 15:12:50": [
            12,
            3
        ],
        "23/03/2020 18:20:39": [
            19,
            19
        ]
    },
    "521": {
        "23/03/2020 13:06:27": [
            -12
        ],
        "23/03/2020 15:12:50": [
            -15,
            -20
        ],
        "23/03/2020 18:20:39": [
            -6,
            -6
        ]
    },
    "522": {
        "23/03/2020 13:06:27": [
            -23
        ],
        "23/03/2020 15:12:51": [
            -27,
            -28
        ],
        "23/03/2020 18:20:39": [
            -17
        ]
    },
    "523": {
        "23/03/2020 13:06:28": [
            -20
        ],
        "23/03/2020 15:12:51": [
            -26,
            -26
        ],
        "23/03/2020 18:20:39": [
            -15
        ]
    },
    "525": {
        "23/03/2020 13:06:29": [
            24
        ],
        "23/03/2020 15:12:51": [
            20,
            15
        ],
        "23/03/2020 18:20:40": [
            29
        ]
    },
    "526": {
        "23/03/2020 13:06:29": [
            23
        ],
        "23/03/2020 15:12:52": [
            16,
            23
        ],
        "23/03/2020 18:20:40": [
            21
        ]
    },
    "527": {
        "23/03/2020 13:06:30": [
            -10
        ],
        "23/03/2020 15:12:52": [
            -22,
            2
        ],
        "23/03/2020 18:20:40": [
            -122,
            -22
        ]
    },
    "528": {
        "23/03/2020 13:06:30": [
            -30
        ],
        "23/03/2020 15:12:53": [
            16,
            5
        ],
        "23/03/2020 18:20:41": [
            -137,
            13
        ]
    },
    "529": {
        "23/03/2020 13:06:31": [
            8
        ],
        "23/03/2020 15:12:53": [
            -8,
            4
        ],
        "23/03/2020 18:20:41": [
            -65,
            -14
        ]
    },
    "530": {
        "23/03/2020 13:06:32": [
            -9
        ],
        "23/03/2020 15:12:53": [
            -25,
            13
        ],
        "23/03/2020 18:20:41": [
            -104,
            24
        ]
    },
    "531": {
        "23/03/2020 13:06:32": [
            -15
        ],
        "23/03/2020 15:12:54": [
            26,
            -23
        ],
        "23/03/2020 18:20:42": [
            -104,
            11
        ]
    },
    "709": {
        "23/03/2020 13:06:33": [
            -11
        ],
        "23/03/2020 15:12:54": [
            -11,
            10
        ],
        "23/03/2020 18:20:42": [
            -110,
            12
        ]
    },
    "532": {
        "23/03/2020 13:06:33": [
            -22
        ],
        "23/03/2020 15:12:54": [
            19,
            -2
        ],
        "23/03/2020 18:20:42": [
            -91,
            -20
        ]
    },
    "533": {
        "23/03/2020 13:06:34": [
            -20
        ],
        "23/03/2020 15:12:55": [
            22,
            4
        ],
        "23/03/2020 18:20:42": [
            -93,
            -26
        ]
    },
    "534": {
        "23/03/2020 13:06:35": [
            -19
        ],
        "23/03/2020 15:12:55": [
            19,
            10
        ],
        "23/03/2020 18:20:43": [
            -86,
            23
        ]
    },
    "535": {
        "23/03/2020 13:06:35": [
            -22
        ],
        "23/03/2020 15:12:55": [
            12,
            13
        ],
        "23/03/2020 18:20:43": [
            -82,
            10
        ]
    },
    "536": {
        "23/03/2020 13:06:36": [
            27
        ],
        "23/03/2020 15:12:55": [
            -1,
            5
        ],
        "23/03/2020 18:20:43": [
            -86,
            -3
        ]
    },
    "537": {
        "23/03/2020 13:06:36": [
            -23
        ],
        "23/03/2020 15:12:56": [
            7
        ],
        "23/03/2020 18:20:44": [
            -167,
            4
        ]
    },
    "538": {
        "23/03/2020 13:06:37": [
            27
        ],
        "23/03/2020 15:12:56": [
            -6
        ],
        "23/03/2020 18:20:44": [
            -171,
            -9
        ]
    },
    "539": {
        "23/03/2020 13:06:37": [
            -29
        ],
        "23/03/2020 15:12:57": [
            -4
        ],
        "23/03/2020 18:20:44": [
            -159,
            -8
        ]
    },
    "540": {
        "23/03/2020 13:06:38": [
            3
        ],
        "23/03/2020 15:12:57": [
            28
        ],
        "23/03/2020 18:20:44": [
            -178,
            24
        ]
    },
    "541": {
        "23/03/2020 13:06:38": [
            28
        ],
        "23/03/2020 15:12:57": [
            -7
        ],
        "23/03/2020 18:20:45": [
            -147,
            -12
        ]
    },
    "542": {
        "23/03/2020 13:06:39": [
            -28
        ],
        "23/03/2020 15:12:58": [
            10
        ],
        "23/03/2020 18:20:45": [
            -135,
            -11
        ]
    },
    "543": {
        "23/03/2020 13:06:39": [
            17
        ],
        "23/03/2020 15:12:58": [
            3
        ],
        "23/03/2020 18:20:45": [
            -146,
            -29
        ]
    },
    "544": {
        "23/03/2020 13:06:40": [
            -6
        ],
        "23/03/2020 15:12:58": [
            -24
        ],
        "23/03/2020 18:20:46": [
            -166,
            5
        ]
    },
    "545": {
        "23/03/2020 13:06:41": [
            -27
        ],
        "23/03/2020 15:12:59": [
            11
        ],
        "23/03/2020 18:20:46": [
            -123,
            -19
        ]
    },
    "546": {
        "23/03/2020 13:06:41": [
            15
        ],
        "23/03/2020 15:12:59": [
            -2
        ],
        "23/03/2020 18:20:46": [
            -130,
            18
        ]
    },
    "910": {
        "23/03/2020 13:06:42": [
            -28
        ],
        "23/03/2020 15:12:59": [
            2
        ],
        "23/03/2020 18:20:46": [
            -129,
            13
        ]
    },
    "911": {
        "23/03/2020 13:06:42": [
            27
        ],
        "23/03/2020 15:13:00": [
            -12
        ],
        "23/03/2020 18:20:47": [
            -146,
            -8
        ]
    },
    "912": {
        "23/03/2020 13:06:43": [
            -28
        ],
        "23/03/2020 15:13:00": [
            -18
        ],
        "23/03/2020 18:20:47": [
            -154,
            -22
        ]
    },
    "913": {
        "23/03/2020 13:06:44": [
            21
        ],
        "23/03/2020 15:13:01": [
            -7
        ],
        "23/03/2020 18:20:47": [
            -147,
            -4
        ]
    },
    "914": {
        "23/03/2020 13:06:44": [
            27
        ],
        "23/03/2020 15:13:01": [
            12
        ],
        "23/03/2020 18:20:48": [
            -130,
            -17
        ]
    },
    "938": {
        "23/03/2020 13:06:45": [
            5
        ],
        "23/03/2020 15:13:01": [
            -11
        ],
        "23/03/2020 18:20:48": [
            -140,
            24
        ]
    },
    "940": {
        "23/03/2020 13:06:46": [
            -4
        ],
        "23/03/2020 15:13:02": [
            -21
        ],
        "23/03/2020 18:20:48": [
            -146,
            14
        ]
    },
    "941": {
        "23/03/2020 13:06:46": [
            24
        ],
        "23/03/2020 15:13:02": [
            4
        ],
        "23/03/2020 18:20:49": [
            -177,
            -19
        ]
    },
    "942": {
        "23/03/2020 13:06:47": [
            25
        ],
        "23/03/2020 15:13:02": [
            18
        ],
        "23/03/2020 18:20:49": [
            -127,
            -29
        ]
    },
    "943": {
        "23/03/2020 13:06:47": [
            22
        ],
        "23/03/2020 15:13:03": [
            26
        ],
        "23/03/2020 18:20:49": [
            -140,
            17
        ]
    },
    "3599": {
        "23/03/2020 13:06:48": [
            -15
        ],
        "23/03/2020 15:13:03": [
            -27
        ],
        "23/03/2020 18:20:50": [
            -132,
            14
        ]
    },
    "3600": {
        "23/03/2020 13:06:48": [
            24
        ],
        "23/03/2020 15:13:03": [
            7
        ],
        "23/03/2020 18:20:50": [
            -155,
            -11
        ]
    },
    "3601": {
        "23/03/2020 13:06:49": [
            13
        ],
        "23/03/2020 15:13:04": [
            -10
        ],
        "23/03/2020 18:20:50": [
            -169,
            -27
        ]
    },
    "3602": {
        "23/03/2020 13:06:50": [
            -3
        ],
        "23/03/2020 15:13:04": [
            28
        ],
        "23/03/2020 18:20:50": [
            -128,
            12
        ]
    },
    "3604": {
        "23/03/2020 13:06:50": [
            -11
        ],
        "23/03/2020 15:13:04": [
            -27
        ],
        "23/03/2020 18:20:51": [
            -519,
            -127,
            3
        ]
    },
    "3616": {
        "23/03/2020 13:06:51": [
            9
        ],
        "23/03/2020 15:13:05": [
            -2
        ],
        "23/03/2020 18:20:51": [
            -556,
            -164,
            22
        ]
    },
    "3618": {
        "23/03/2020 13:06:51": [
            -3
        ],
        "23/03/2020 15:13:05": [
            -15
        ],
        "23/03/2020 18:20:51": [
            -570,
            -178,
            6
        ]
    },
    "3619": {
        "23/03/2020 13:06:52": [
            3
        ],
        "23/03/2020 15:13:05": [
            -4
        ],
        "23/03/2020 18:20:52": [
            -555,
            -163,
            10
        ]
    },
    "3620": {
        "23/03/2020 13:06:53": [
            -13
        ],
        "23/03/2020 15:13:06": [
            -17
        ],
        "23/03/2020 18:20:52": [
            -513,
            -121,
            -12
        ]
    },
    "3622": {
        "23/03/2020 13:06:53": [
            -23
        ],
        "23/03/2020 15:13:06": [
            -23
        ],
        "23/03/2020 18:20:52": [
            -526,
            -134
        ]
    },
    "3623": {
        "23/03/2020 13:06:54": [
            5
        ],
        "23/03/2020 15:13:06": [
            7
        ],
        "23/03/2020 18:20:52": [
            -559,
            -167
        ]
    },
    "4387": {
        "23/03/2020 13:06:54": [],
        "23/03/2020 15:13:07": [],
        "23/03/2020 18:20:53": []
    }
}