{
    "7590": {
        "25/03/2020 14:33:51": [],
        "25/03/2020 17:14:30": [],
        "25/03/2020 19:54:09": [],
        "25/03/2020 21:22:36": []
    },
    "497": {
        "25/03/2020 14:33:52": [],
        "25/03/2020 17:14:31": [],
        "25/03/2020 19:54:09": [],
        "25/03/2020 21:22:37": []
    },
    "1172": {
        "25/03/2020 14:33:53": [],
        "25/03/2020 17:14:31": [],
        "25/03/2020 19:54:09": [],
        "25/03/2020 21:22:37": []
    },
    "7608": {
        "25/03/2020 14:33:53": [],
        "25/03/2020 17:14:32": [],
        "25/03/2020 19:54:09": [],
        "25/03/2020 21:22:37": []
    },
    "3624": {
        "25/03/2020 14:33:54": [
            0
        ],
        "25/03/2020 17:14:32": [
            0
        ],
        "25/03/2020 19:54:10": [
            0
        ],
        "25/03/2020 21:22:38": [
            0
        ]
    },
    "3587": {
        "25/03/2020 14:33:55": [
            -6
        ],
        "25/03/2020 17:14:33": [
            -23
        ],
        "25/03/2020 19:54:10": [
            -26
        ],
        "25/03/2020 21:22:38": [
            -26
        ]
    },
    "3588": {
        "25/03/2020 14:33:55": [
            -27
        ],
        "25/03/2020 17:14:33": [
            4
        ],
        "25/03/2020 19:54:10": [
            -2
        ],
        "25/03/2020 21:22:38": [
            -2
        ]
    },
    "3590": {
        "25/03/2020 14:33:56": [
            -3
        ],
        "25/03/2020 17:14:34": [
            27
        ],
        "25/03/2020 19:54:10": [
            17
        ],
        "25/03/2020 21:22:38": [
            17
        ]
    },
    "3589": {
        "25/03/2020 14:33:56": [
            -19
        ],
        "25/03/2020 17:14:34": [
            10
        ],
        "25/03/2020 19:54:11": [
            -9
        ],
        "25/03/2020 21:22:39": [
            -9
        ]
    },
    "3591": {
        "25/03/2020 14:33:57": [
            15
        ],
        "25/03/2020 17:14:35": [
            -17
        ],
        "25/03/2020 19:54:11": [
            18
        ],
        "25/03/2020 21:22:39": [
            18
        ]
    },
    "3592": {
        "25/03/2020 14:33:58": [
            -16
        ],
        "25/03/2020 17:14:35": [
            -4
        ],
        "25/03/2020 19:54:11": [
            23
        ],
        "25/03/2020 21:22:39": [
            23
        ]
    },
    "3593": {
        "25/03/2020 14:33:58": [
            -8
        ],
        "25/03/2020 17:14:36": [
            -13,
            0
        ],
        "25/03/2020 19:54:12": [
            12
        ],
        "25/03/2020 21:22:40": [
            12
        ]
    },
    "3594": {
        "25/03/2020 14:33:59": [
            23
        ],
        "25/03/2020 17:14:36": [
            20,
            -27
        ],
        "25/03/2020 19:54:12": [
            -24
        ],
        "25/03/2020 21:22:40": [
            -24
        ]
    },
    "3595": {
        "25/03/2020 14:33:59": [
            5
        ],
        "25/03/2020 17:14:37": [
            -9,
            2
        ],
        "25/03/2020 19:54:12": [
            2
        ],
        "25/03/2020 21:22:40": [
            2
        ]
    },
    "3596": {
        "25/03/2020 14:34:00": [
            -27
        ],
        "25/03/2020 17:14:37": [
            12,
            22
        ],
        "25/03/2020 19:54:12": [
            21
        ],
        "25/03/2020 21:22:41": [
            21
        ]
    },
    "3597": {
        "25/03/2020 14:34:01": [
            7
        ],
        "25/03/2020 17:14:38": [
            -23,
            -14
        ],
        "25/03/2020 19:54:13": [
            -18
        ],
        "25/03/2020 21:22:41": [
            -18
        ]
    },
    "3598": {
        "25/03/2020 14:34:01": [
            -10
        ],
        "25/03/2020 17:14:38": [
            10,
            17
        ],
        "25/03/2020 19:54:13": [
            10
        ],
        "25/03/2020 21:22:41": [
            10
        ]
    },
    "4465": {
        "25/03/2020 14:34:02": [
            28
        ],
        "25/03/2020 17:14:39": [
            -5,
            -1
        ],
        "25/03/2020 19:54:13": [
            -19
        ],
        "25/03/2020 21:22:42": [
            -19
        ]
    },
    "944": {
        "25/03/2020 14:34:03": [
            -1
        ],
        "25/03/2020 17:14:40": [
            -30,
            -24
        ],
        "25/03/2020 19:54:14": [
            10
        ],
        "25/03/2020 21:22:42": [
            10
        ]
    },
    "945": {
        "25/03/2020 14:34:04": [
            28
        ],
        "25/03/2020 17:14:40": [
            3,
            11
        ],
        "25/03/2020 19:54:14": [
            -22
        ],
        "25/03/2020 21:22:42": [
            -22
        ]
    },
    "947": {
        "25/03/2020 14:34:05": [
            -30
        ],
        "25/03/2020 17:14:49": [
            15,
            27
        ],
        "25/03/2020 19:54:14": [
            -22
        ],
        "25/03/2020 21:22:43": [
            -22
        ]
    },
    "948": {
        "25/03/2020 14:34:05": [
            -6
        ],
        "25/03/2020 17:14:58": [
            -22,
            -12
        ],
        "25/03/2020 19:54:15": [
            3
        ],
        "25/03/2020 21:22:43": [
            3
        ]
    },
    "949": {
        "25/03/2020 14:34:06": [
            27
        ],
        "25/03/2020 17:15:08": [
            3,
            19
        ],
        "25/03/2020 19:54:15": [
            29
        ],
        "25/03/2020 21:22:43": [
            29
        ]
    },
    "928": {
        "25/03/2020 14:34:07": [
            -28
        ],
        "25/03/2020 17:15:16": [
            8,
            -26
        ],
        "25/03/2020 19:54:15": [
            25
        ],
        "25/03/2020 21:22:44": [
            25
        ]
    },
    "929": {
        "25/03/2020 14:34:07": [
            -3
        ],
        "25/03/2020 17:15:24": [
            27,
            -2
        ],
        "25/03/2020 19:54:16": [
            -18
        ],
        "25/03/2020 21:22:44": [
            -18
        ]
    },
    "930": {
        "25/03/2020 14:34:08": [
            -13
        ],
        "25/03/2020 17:15:32": [
            6
        ],
        "25/03/2020 19:54:16": [
            17
        ],
        "25/03/2020 21:22:44": [
            17
        ]
    },
    "931": {
        "25/03/2020 14:34:09": [
            -1
        ],
        "25/03/2020 17:15:39": [
            4
        ],
        "25/03/2020 19:54:16": [
            -13
        ],
        "25/03/2020 21:22:44": [
            -13
        ]
    },
    "587": {
        "25/03/2020 14:34:09": [
            517,
            27
        ],
        "25/03/2020 17:15:48": [
            14
        ],
        "25/03/2020 19:54:17": [
            25
        ],
        "25/03/2020 21:22:45": [
            25
        ]
    },
    "588": {
        "25/03/2020 14:34:10": [
            533,
            -15
        ],
        "25/03/2020 17:15:55": [
            -30
        ],
        "25/03/2020 19:54:17": [
            -21
        ],
        "25/03/2020 21:22:45": [
            -21
        ]
    },
    "589": {
        "25/03/2020 14:34:10": [
            491,
            26
        ],
        "25/03/2020 17:16:07": [
            7
        ],
        "25/03/2020 19:54:17": [],
        "25/03/2020 21:22:45": [
            12
        ]
    },
    "590": {
        "25/03/2020 14:34:11": [
            516,
            -16
        ],
        "25/03/2020 17:16:15": [
            -29
        ],
        "25/03/2020 19:54:18": [],
        "25/03/2020 21:22:46": [
            27
        ]
    },
    "591": {
        "25/03/2020 14:34:11": [
            519,
            -30
        ],
        "25/03/2020 17:16:21": [
            -28
        ],
        "25/03/2020 19:54:18": [],
        "25/03/2020 21:22:46": [
            6
        ]
    },
    "592": {
        "25/03/2020 14:34:12": [
            501,
            26
        ],
        "25/03/2020 17:16:28": [
            5
        ],
        "25/03/2020 19:54:18": [],
        "25/03/2020 21:22:46": [
            -25
        ]
    },
    "593": {
        "25/03/2020 14:34:13": [
            528,
            2
        ],
        "25/03/2020 17:16:36": [
            26
        ],
        "25/03/2020 19:54:19": [
            -27
        ],
        "25/03/2020 21:22:47": [
            -6
        ]
    },
    "594": {
        "25/03/2020 14:34:13": [
            492,
            28
        ],
        "25/03/2020 17:16:42": [
            -13
        ],
        "25/03/2020 19:54:19": [],
        "25/03/2020 21:22:47": [
            15
        ]
    },
    "595": {
        "25/03/2020 14:34:14": [
            512,
            -9
        ],
        "25/03/2020 17:16:51": [
            5
        ],
        "25/03/2020 19:54:19": [
            -92
        ],
        "25/03/2020 21:22:47": [
            -26
        ]
    },
    "596": {
        "25/03/2020 14:34:14": [
            525,
            6
        ],
        "25/03/2020 17:16:52": [
            17
        ],
        "25/03/2020 19:54:20": [
            -80
        ],
        "25/03/2020 21:22:47": [
            -14
        ]
    },
    "597": {
        "25/03/2020 14:34:15": [
            492,
            -15
        ],
        "25/03/2020 17:16:52": [
            -20
        ],
        "25/03/2020 19:54:20": [
            -62
        ],
        "25/03/2020 21:22:48": [
            4
        ]
    },
    "598": {
        "25/03/2020 14:34:16": [
            473
        ],
        "25/03/2020 17:16:53": [
            14
        ],
        "25/03/2020 19:54:20": [
            -50
        ],
        "25/03/2020 21:22:48": [
            -29
        ]
    },
    "599": {
        "25/03/2020 14:34:16": [
            509
        ],
        "25/03/2020 17:16:54": [
            -17
        ],
        "25/03/2020 19:54:21": [
            -27
        ],
        "25/03/2020 21:22:48": [
            -6
        ]
    },
    "600": {
        "25/03/2020 14:34:17": [
            526
        ],
        "25/03/2020 17:16:54": [
            8
        ],
        "25/03/2020 19:54:21": [
            -7
        ],
        "25/03/2020 21:22:49": [
            14
        ]
    },
    "601": {
        "25/03/2020 14:34:17": [
            548
        ],
        "25/03/2020 17:16:55": [
            28
        ],
        "25/03/2020 19:54:21": [
            -48
        ],
        "25/03/2020 21:22:49": [
            -27
        ]
    },
    "602": {
        "25/03/2020 14:34:18": [
            571
        ],
        "25/03/2020 17:16:56": [
            -11
        ],
        "25/03/2020 19:54:22": [
            -28
        ],
        "25/03/2020 21:22:49": [
            -7
        ]
    },
    "603": {
        "25/03/2020 14:34:18": [
            538
        ],
        "25/03/2020 17:16:56": [
            14
        ],
        "25/03/2020 19:54:22": [
            -5
        ],
        "25/03/2020 21:22:50": [
            16
        ]
    },
    "604": {
        "25/03/2020 14:34:19": [
            568
        ],
        "25/03/2020 17:16:57": [
            -25
        ],
        "25/03/2020 19:54:22": [
            -45
        ],
        "25/03/2020 21:22:50": [
            -24
        ]
    },
    "605": {
        "25/03/2020 14:34:19": [
            531
        ],
        "25/03/2020 17:16:57": [
            -9
        ],
        "25/03/2020 19:54:23": [
            -29
        ],
        "25/03/2020 21:22:50": [
            -8
        ]
    },
    "606": {
        "25/03/2020 14:34:20": [
            481
        ],
        "25/03/2020 17:16:58": [
            5
        ],
        "25/03/2020 19:54:23": [
            6
        ],
        "25/03/2020 21:22:51": [
            27
        ]
    },
    "607": {
        "25/03/2020 14:34:20": [
            529
        ],
        "25/03/2020 17:16:58": [
            -12
        ],
        "25/03/2020 19:54:23": [
            -20
        ],
        "25/03/2020 21:22:51": [
            1
        ]
    },
    "608": {
        "25/03/2020 14:34:21": [
            498
        ],
        "25/03/2020 17:16:59": [
            14
        ],
        "25/03/2020 19:54:23": [
            1
        ],
        "25/03/2020 21:22:51": [
            22
        ]
    },
    "609": {
        "25/03/2020 14:34:22": [
            476
        ],
        "25/03/2020 17:16:59": [
            -3
        ],
        "25/03/2020 19:54:24": [
            -26
        ],
        "25/03/2020 21:22:51": [
            -5
        ]
    },
    "610": {
        "25/03/2020 14:34:22": [
            504
        ],
        "25/03/2020 17:17:00": [
            28
        ],
        "25/03/2020 19:54:24": [
            -2
        ],
        "25/03/2020 21:22:52": [
            19
        ]
    },
    "611": {
        "25/03/2020 14:34:23": [
            500
        ],
        "25/03/2020 17:17:00": [
            22
        ],
        "25/03/2020 19:54:24": [
            4
        ],
        "25/03/2020 21:22:52": [
            4
        ]
    },
    "612": {
        "25/03/2020 14:34:23": [
            477
        ],
        "25/03/2020 17:17:01": [
            -2
        ],
        "25/03/2020 19:54:25": [
            -26
        ],
        "25/03/2020 21:22:52": [
            -26
        ]
    },
    "613": {
        "25/03/2020 14:34:24": [
            521
        ],
        "25/03/2020 17:17:02": [
            -15
        ],
        "25/03/2020 19:54:25": [
            4
        ],
        "25/03/2020 21:22:53": [
            4
        ]
    },
    "614": {
        "25/03/2020 14:34:24": [
            474
        ],
        "25/03/2020 17:17:02": [
            24
        ],
        "25/03/2020 19:54:25": [
            9
        ],
        "25/03/2020 21:22:53": [
            9
        ]
    },
    "615": {
        "25/03/2020 14:34:25": [
            452
        ],
        "25/03/2020 17:17:03": [
            392,
            -5
        ],
        "25/03/2020 19:54:25": [
            -22
        ],
        "25/03/2020 21:22:53": [
            -22
        ]
    },
    "616": {
        "25/03/2020 14:34:25": [
            484
        ],
        "25/03/2020 17:17:03": [
            419,
            22
        ],
        "25/03/2020 19:54:26": [
            4
        ],
        "25/03/2020 21:22:53": [
            4
        ]
    },
    "617": {
        "25/03/2020 14:34:26": [
            463
        ],
        "25/03/2020 17:17:04": [
            401,
            4
        ],
        "25/03/2020 19:54:26": [
            -30
        ],
        "25/03/2020 21:22:54": [
            -30
        ]
    },
    "618": {
        "25/03/2020 14:34:26": [
            502
        ],
        "25/03/2020 17:17:05": [
            384,
            -13
        ],
        "25/03/2020 19:54:26": [
            -4
        ],
        "25/03/2020 21:22:54": [
            -4
        ]
    },
    "619": {
        "25/03/2020 14:34:27": [
            492
        ],
        "25/03/2020 17:17:06": [
            367,
            -30
        ],
        "25/03/2020 19:54:27": [
            23
        ],
        "25/03/2020 21:22:54": [
            23
        ]
    },
    "675": {
        "25/03/2020 14:34:28": [
            459
        ],
        "25/03/2020 17:17:06": [
            391,
            -6
        ],
        "25/03/2020 19:54:27": [
            -22
        ],
        "25/03/2020 21:22:55": [
            -22
        ]
    },
    "620": {
        "25/03/2020 14:34:28": [
            480
        ],
        "25/03/2020 17:17:07": [
            379,
            -18
        ],
        "25/03/2020 19:54:27": [
            -12
        ],
        "25/03/2020 21:22:55": [
            -12
        ]
    },
    "7569": {
        "25/03/2020 14:34:29": [],
        "25/03/2020 17:17:08": [],
        "25/03/2020 19:54:28": [],
        "25/03/2020 21:22:55": []
    },
    "621": {
        "25/03/2020 14:34:30": [
            0
        ],
        "25/03/2020 17:17:09": [
            0,
            0
        ],
        "25/03/2020 19:54:28": [
            0
        ],
        "25/03/2020 21:22:55": [
            0
        ]
    },
    "289": {
        "25/03/2020 14:34:30": [
            1
        ],
        "25/03/2020 17:17:09": [
            -1,
            -1
        ],
        "25/03/2020 19:54:28": [
            18
        ],
        "25/03/2020 21:22:56": [
            18
        ]
    },
    "496": {
        "25/03/2020 14:34:31": [
            -29
        ],
        "25/03/2020 17:17:10": [
            27,
            27
        ],
        "25/03/2020 19:54:29": [
            15
        ],
        "25/03/2020 21:22:56": [
            15
        ]
    },
    "515": {
        "25/03/2020 14:34:32": [
            3
        ],
        "25/03/2020 17:17:10": [
            4,
            4
        ],
        "25/03/2020 19:54:29": [
            17
        ],
        "25/03/2020 21:22:56": [
            17
        ]
    },
    "516": {
        "25/03/2020 14:34:32": [
            -13
        ],
        "25/03/2020 17:17:11": [
            -9,
            -9
        ],
        "25/03/2020 19:54:29": [
            -13
        ],
        "25/03/2020 21:22:57": [
            -13
        ]
    },
    "4384": {
        "25/03/2020 14:34:33": [
            -24
        ],
        "25/03/2020 17:17:12": [
            -29,
            -29
        ],
        "25/03/2020 19:54:30": [
            14
        ],
        "25/03/2020 21:22:57": [
            14
        ]
    },
    "519": {
        "25/03/2020 14:34:34": [
            -23
        ],
        "25/03/2020 17:17:12": [
            21,
            21
        ],
        "25/03/2020 19:54:30": [
            -11
        ],
        "25/03/2020 21:22:57": [
            -11
        ]
    },
    "521": {
        "25/03/2020 14:34:34": [
            4
        ],
        "25/03/2020 17:17:13": [
            -17,
            -17
        ],
        "25/03/2020 19:54:30": [
            3
        ],
        "25/03/2020 21:22:57": [
            3
        ]
    },
    "522": {
        "25/03/2020 14:34:35": [
            -18
        ],
        "25/03/2020 17:17:14": [
            16,
            16
        ],
        "25/03/2020 19:54:31": [
            23
        ],
        "25/03/2020 21:22:58": [
            23
        ]
    },
    "523": {
        "25/03/2020 14:34:36": [
            -18
        ],
        "25/03/2020 17:17:14": [
            -8,
            -8
        ],
        "25/03/2020 19:54:31": [
            -9
        ],
        "25/03/2020 21:22:58": [
            -9
        ]
    },
    "525": {
        "25/03/2020 14:34:36": [
            -18
        ],
        "25/03/2020 17:17:15": [
            -16,
            -16
        ],
        "25/03/2020 19:54:31": [
            -18
        ],
        "25/03/2020 21:22:58": [
            -18
        ]
    },
    "526": {
        "25/03/2020 14:34:37": [
            28
        ],
        "25/03/2020 17:17:15": [
            19,
            19
        ],
        "25/03/2020 19:54:32": [
            13
        ],
        "25/03/2020 21:22:59": [
            13
        ]
    },
    "527": {
        "25/03/2020 14:34:38": [
            -25
        ],
        "25/03/2020 17:17:16": [
            80,
            12
        ],
        "25/03/2020 19:54:32": [
            0
        ],
        "25/03/2020 21:22:59": [
            0
        ]
    },
    "528": {
        "25/03/2020 14:34:38": [
            0
        ],
        "25/03/2020 17:17:16": [
            51,
            -20
        ],
        "25/03/2020 19:54:32": [
            19
        ],
        "25/03/2020 21:22:59": [
            19
        ]
    },
    "529": {
        "25/03/2020 14:34:39": [
            24
        ],
        "25/03/2020 17:17:17": [
            82,
            8
        ],
        "25/03/2020 19:54:33": [
            -23
        ],
        "25/03/2020 21:22:59": [
            -23
        ]
    },
    "530": {
        "25/03/2020 14:34:39": [
            -7
        ],
        "25/03/2020 17:17:17": [
            56,
            -21
        ],
        "25/03/2020 19:54:33": [
            -2
        ],
        "25/03/2020 21:23:00": [
            -2
        ]
    },
    "531": {
        "25/03/2020 14:34:40": [
            27
        ],
        "25/03/2020 17:17:18": [
            39,
            18
        ],
        "25/03/2020 19:54:33": [
            24
        ],
        "25/03/2020 21:23:00": [
            24
        ]
    },
    "709": {
        "25/03/2020 14:34:40": [
            -1
        ],
        "25/03/2020 17:17:18": [
            78,
            -9
        ],
        "25/03/2020 19:54:34": [
            -9
        ],
        "25/03/2020 21:23:00": [
            -9
        ]
    },
    "532": {
        "25/03/2020 14:34:41": [
            11
        ],
        "25/03/2020 17:17:19": [
            66,
            19
        ],
        "25/03/2020 19:54:34": [
            15
        ],
        "25/03/2020 21:23:00": [
            15
        ]
    },
    "533": {
        "25/03/2020 14:34:42": [
            -3
        ],
        "25/03/2020 17:17:19": [
            57,
            -6
        ],
        "25/03/2020 19:54:34": [
            -9
        ],
        "25/03/2020 21:23:01": [
            -9
        ]
    },
    "534": {
        "25/03/2020 14:34:42": [
            -11
        ],
        "25/03/2020 17:17:20": [
            104,
            20
        ],
        "25/03/2020 19:54:35": [
            17
        ],
        "25/03/2020 21:23:01": [
            17
        ]
    },
    "535": {
        "25/03/2020 14:34:43": [
            -22
        ],
        "25/03/2020 17:17:21": [
            88,
            -14
        ],
        "25/03/2020 19:54:35": [
            -18
        ],
        "25/03/2020 21:23:01": [
            -18
        ]
    },
    "536": {
        "25/03/2020 14:34:43": [
            16
        ],
        "25/03/2020 17:17:21": [
            71,
            24
        ],
        "25/03/2020 19:54:35": [
            5
        ],
        "25/03/2020 21:23:01": [
            5
        ]
    },
    "537": {
        "25/03/2020 14:34:44": [
            10
        ],
        "25/03/2020 17:17:22": [
            73,
            17
        ],
        "25/03/2020 19:54:36": [
            -23
        ],
        "25/03/2020 21:23:02": [
            -23
        ]
    },
    "538": {
        "25/03/2020 14:34:45": [
            -12
        ],
        "25/03/2020 17:17:22": [
            57,
            -4
        ],
        "25/03/2020 19:54:36": [
            0
        ],
        "25/03/2020 21:23:02": [
            0
        ]
    },
    "539": {
        "25/03/2020 14:34:45": [
            -22
        ],
        "25/03/2020 17:17:23": [
            53,
            -15
        ],
        "25/03/2020 19:54:36": [],
        "25/03/2020 21:23:02": [
            -30
        ]
    },
    "540": {
        "25/03/2020 14:34:46": [
            3
        ],
        "25/03/2020 17:17:23": [
            84,
            5
        ],
        "25/03/2020 19:54:37": [
            -9
        ],
        "25/03/2020 21:23:03": [
            -9
        ]
    },
    "541": {
        "25/03/2020 14:34:47": [
            22
        ],
        "25/03/2020 17:17:24": [
            108,
            20
        ],
        "25/03/2020 19:54:37": [
            8
        ],
        "25/03/2020 21:23:03": [
            8
        ]
    },
    "542": {
        "25/03/2020 14:34:47": [],
        "25/03/2020 17:17:24": [
            104,
            19
        ],
        "25/03/2020 19:54:37": [],
        "25/03/2020 21:23:03": [
            -10
        ]
    },
    "543": {
        "25/03/2020 14:34:48": [],
        "25/03/2020 17:17:25": [
            82,
            0
        ],
        "25/03/2020 19:54:38": [],
        "25/03/2020 21:23:03": [
            20
        ]
    },
    "544": {
        "25/03/2020 14:34:48": [],
        "25/03/2020 17:17:26": [
            53,
            22
        ],
        "25/03/2020 19:54:38": [],
        "25/03/2020 21:23:04": [
            -21
        ]
    },
    "545": {
        "25/03/2020 14:34:49": [
            13
        ],
        "25/03/2020 17:17:26": [
            85,
            -14
        ],
        "25/03/2020 19:54:38": [],
        "25/03/2020 21:23:04": [
            -1
        ]
    },
    "546": {
        "25/03/2020 14:34:50": [
            -20
        ],
        "25/03/2020 17:17:27": [
            67,
            -15
        ],
        "25/03/2020 19:54:39": [],
        "25/03/2020 21:23:04": [
            22
        ]
    },
    "910": {
        "25/03/2020 14:34:50": [
            8
        ],
        "25/03/2020 17:17:28": [
            100,
            16
        ],
        "25/03/2020 19:54:39": [],
        "25/03/2020 21:23:05": [
            -10
        ]
    },
    "911": {
        "25/03/2020 14:34:51": [
            -2
        ],
        "25/03/2020 17:17:28": [
            64,
            -22
        ],
        "25/03/2020 19:54:39": [],
        "25/03/2020 21:23:05": [
            11
        ]
    },
    "912": {
        "25/03/2020 14:34:51": [
            -3
        ],
        "25/03/2020 17:17:29": [
            92,
            5
        ],
        "25/03/2020 19:54:40": [],
        "25/03/2020 21:23:05": [
            -25
        ]
    },
    "913": {
        "25/03/2020 14:34:52": [
            -11
        ],
        "25/03/2020 17:17:29": [
            96,
            10
        ],
        "25/03/2020 19:54:40": [],
        "25/03/2020 21:23:05": [
            8
        ]
    },
    "914": {
        "25/03/2020 14:34:53": [
            32
        ],
        "25/03/2020 17:17:30": [
            75,
            -11
        ],
        "25/03/2020 19:54:40": [],
        "25/03/2020 21:23:06": [
            29
        ]
    },
    "938": {
        "25/03/2020 14:34:53": [
            46
        ],
        "25/03/2020 17:17:31": [
            63,
            27
        ],
        "25/03/2020 19:54:40": [],
        "25/03/2020 21:23:06": [
            -2
        ]
    },
    "940": {
        "25/03/2020 14:34:54": [
            32
        ],
        "25/03/2020 17:17:31": [
            52,
            16
        ],
        "25/03/2020 19:54:41": [],
        "25/03/2020 21:23:06": [
            -14
        ]
    },
    "941": {
        "25/03/2020 14:34:54": [
            46
        ],
        "25/03/2020 17:17:32": [
            90,
            -13
        ],
        "25/03/2020 19:54:41": [],
        "25/03/2020 21:23:07": [
            12
        ]
    },
    "942": {
        "25/03/2020 14:34:55": [
            17
        ],
        "25/03/2020 17:17:32": [
            -1,
            78,
            -23
        ],
        "25/03/2020 19:54:41": [],
        "25/03/2020 21:23:07": [
            -3
        ]
    },
    "943": {
        "25/03/2020 14:34:56": [
            4
        ],
        "25/03/2020 17:17:33": [
            -16,
            63,
            23
        ],
        "25/03/2020 19:54:42": [],
        "25/03/2020 21:23:07": [
            -22
        ]
    },
    "3599": {
        "25/03/2020 14:34:56": [
            12
        ],
        "25/03/2020 17:17:33": [
            5,
            5,
            22
        ],
        "25/03/2020 19:54:42": [],
        "25/03/2020 21:23:08": [
            22
        ]
    },
    "3600": {
        "25/03/2020 14:34:57": [
            -19
        ],
        "25/03/2020 17:17:34": [
            -24,
            -24,
            -14
        ],
        "25/03/2020 19:54:42": [],
        "25/03/2020 21:23:08": [
            -16
        ]
    },
    "3601": {
        "25/03/2020 14:34:57": [
            18
        ],
        "25/03/2020 17:17:35": [
            15,
            15,
            16
        ],
        "25/03/2020 19:54:43": [],
        "25/03/2020 21:23:09": [
            12
        ]
    },
    "3602": {
        "25/03/2020 14:34:58": [
            -9
        ],
        "25/03/2020 17:17:35": [
            -9,
            -9,
            -16
        ],
        "25/03/2020 19:54:43": [],
        "25/03/2020 21:23:09": [
            -22
        ]
    },
    "3604": {
        "25/03/2020 14:34:58": [
            33
        ],
        "25/03/2020 17:17:36": [
            -21,
            -21,
            23
        ],
        "25/03/2020 19:54:43": [],
        "25/03/2020 21:23:09": [
            10
        ]
    },
    "3616": {
        "25/03/2020 14:34:59": [
            -11
        ],
        "25/03/2020 17:17:37": [
            -3,
            -3,
            -22
        ],
        "25/03/2020 19:54:43": [],
        "25/03/2020 21:23:10": [
            22
        ]
    },
    "3618": {
        "25/03/2020 14:34:59": [
            34
        ],
        "25/03/2020 17:17:37": [
            -12,
            -12,
            20
        ],
        "25/03/2020 19:54:44": [],
        "25/03/2020 21:23:10": [
            5
        ]
    },
    "3619": {
        "25/03/2020 14:35:00": [
            36
        ],
        "25/03/2020 17:17:38": [
            7,
            7,
            16
        ],
        "25/03/2020 19:54:44": [],
        "25/03/2020 21:23:10": [
            6
        ]
    },
    "3620": {
        "25/03/2020 14:35:00": [
            16
        ],
        "25/03/2020 17:17:39": [
            22,
            22
        ],
        "25/03/2020 19:54:44": [],
        "25/03/2020 21:23:11": [
            -22
        ]
    },
    "3622": {
        "25/03/2020 14:35:01": [
            2
        ],
        "25/03/2020 17:17:39": [
            -3,
            -3
        ],
        "25/03/2020 19:54:45": [],
        "25/03/2020 21:23:11": [
            16
        ]
    },
    "3623": {
        "25/03/2020 14:35:01": [
            28
        ],
        "25/03/2020 17:17:40": [
            22,
            22
        ],
        "25/03/2020 19:54:45": [],
        "25/03/2020 21:23:11": [
            -23
        ]
    },
    "4387": {
        "25/03/2020 14:35:02": [],
        "25/03/2020 17:17:40": [],
        "25/03/2020 19:54:45": [],
        "25/03/2020 21:23:11": []
    }
}