{
    "7640": {
        "25/03/2020 15:29:16": [
            3
        ],
        "25/03/2020 18:14:19": [],
        "25/03/2020 20:30:55": [
            -13
        ],
        "25/03/2020 21:57:33": [
            -13
        ]
    },
    "7644": {
        "25/03/2020 15:29:16": [
            330,
            -16
        ],
        "25/03/2020 18:14:19": [],
        "25/03/2020 20:30:55": [
            17
        ],
        "25/03/2020 21:57:34": [
            505,
            17
        ]
    },
    "7645": {
        "25/03/2020 15:29:17": [
            291,
            -20
        ],
        "25/03/2020 18:14:20": [],
        "25/03/2020 20:30:55": [
            9
        ],
        "25/03/2020 21:57:34": [
            497,
            9
        ]
    },
    "7646": {
        "25/03/2020 15:29:17": [
            336,
            17
        ],
        "25/03/2020 18:14:20": [],
        "25/03/2020 20:30:56": [
            -17
        ],
        "25/03/2020 21:57:34": [
            471,
            -17
        ]
    },
    "3222": {
        "25/03/2020 15:29:17": [],
        "25/03/2020 18:14:20": [],
        "25/03/2020 20:30:56": [],
        "25/03/2020 21:57:34": []
    },
    "3223": {
        "25/03/2020 15:29:17": [],
        "25/03/2020 18:14:21": [],
        "25/03/2020 20:30:56": [],
        "25/03/2020 21:57:35": []
    },
    "4": {
        "25/03/2020 15:29:18": [
            -325,
            329
        ],
        "25/03/2020 18:14:21": [
            -683
        ],
        "25/03/2020 20:30:56": [],
        "25/03/2020 21:57:35": []
    },
    "3224": {
        "25/03/2020 15:29:18": [
            1
        ],
        "25/03/2020 18:14:21": [],
        "25/03/2020 20:30:57": [
            7
        ],
        "25/03/2020 21:57:35": [
            7
        ]
    },
    "3225": {
        "25/03/2020 15:29:18": [
            -9
        ],
        "25/03/2020 18:14:22": [],
        "25/03/2020 20:30:57": [
            -8
        ],
        "25/03/2020 21:57:36": [
            528,
            -8
        ]
    },
    "3226": {
        "25/03/2020 15:29:19": [
            -19
        ],
        "25/03/2020 18:14:22": [],
        "25/03/2020 20:30:57": [
            -23
        ],
        "25/03/2020 21:57:36": [
            513,
            -23
        ]
    },
    "3227": {
        "25/03/2020 15:29:19": [
            338,
            16
        ],
        "25/03/2020 18:14:22": [],
        "25/03/2020 20:30:58": [
            5
        ],
        "25/03/2020 21:57:36": [
            493,
            5
        ]
    },
    "3228": {
        "25/03/2020 15:29:20": [
            331,
            -2
        ],
        "25/03/2020 18:14:23": [],
        "25/03/2020 20:30:58": [
            -20
        ],
        "25/03/2020 21:57:36": [
            468,
            -20
        ]
    },
    "3229": {
        "25/03/2020 15:29:20": [
            291,
            14
        ],
        "25/03/2020 18:14:23": [],
        "25/03/2020 20:30:58": [
            -8
        ],
        "25/03/2020 21:57:37": [
            480,
            -8
        ]
    },
    "3230": {
        "25/03/2020 15:29:20": [],
        "25/03/2020 18:14:23": [],
        "25/03/2020 20:30:58": [],
        "25/03/2020 21:57:37": []
    },
    "3232": {
        "25/03/2020 15:29:21": [],
        "25/03/2020 18:14:24": [],
        "25/03/2020 20:30:59": [],
        "25/03/2020 21:57:37": []
    },
    "3233": {
        "25/03/2020 15:29:21": [],
        "25/03/2020 18:14:24": [],
        "25/03/2020 20:30:59": [],
        "25/03/2020 21:57:38": []
    },
    "3234": {
        "25/03/2020 15:29:21": [],
        "25/03/2020 18:14:24": [],
        "25/03/2020 20:30:59": [],
        "25/03/2020 21:57:38": []
    },
    "3235": {
        "25/03/2020 15:29:22": [],
        "25/03/2020 18:14:25": [],
        "25/03/2020 20:30:59": [],
        "25/03/2020 21:57:38": []
    },
    "3236": {
        "25/03/2020 15:29:22": [],
        "25/03/2020 18:14:25": [],
        "25/03/2020 20:31:00": [],
        "25/03/2020 21:57:38": []
    },
    "3237": {
        "25/03/2020 15:29:22": [],
        "25/03/2020 18:14:25": [],
        "25/03/2020 20:31:00": [],
        "25/03/2020 21:57:39": []
    },
    "3238": {
        "25/03/2020 15:29:23": [
            285,
            16
        ],
        "25/03/2020 18:14:26": [],
        "25/03/2020 20:31:00": [
            29
        ],
        "25/03/2020 21:57:39": [
            517,
            29
        ]
    },
    "3239": {
        "25/03/2020 15:29:23": [
            309,
            -24
        ],
        "25/03/2020 18:14:26": [],
        "25/03/2020 20:31:01": [
            -18
        ],
        "25/03/2020 21:57:39": [
            470,
            -18
        ]
    },
    "3240": {
        "25/03/2020 15:29:23": [
            314,
            -30
        ],
        "25/03/2020 18:14:26": [],
        "25/03/2020 20:31:01": [
            19
        ],
        "25/03/2020 21:57:40": [
            555,
            19
        ]
    },
    "400": {
        "25/03/2020 15:29:24": [
            -333,
            321
        ],
        "25/03/2020 18:14:27": [
            -701
        ],
        "25/03/2020 20:31:01": [
            1
        ],
        "25/03/2020 21:57:40": [
            528
        ]
    },
    "487": {
        "25/03/2020 15:29:24": [
            334
        ],
        "25/03/2020 18:14:27": [
            -700
        ],
        "25/03/2020 20:31:02": [
            -29
        ],
        "25/03/2020 21:57:40": [
            541
        ]
    },
    "488": {
        "25/03/2020 15:29:24": [
            335
        ],
        "25/03/2020 18:14:27": [
            -700
        ],
        "25/03/2020 20:31:02": [
            20
        ],
        "25/03/2020 21:57:40": [
            514
        ]
    },
    "489": {
        "25/03/2020 15:29:25": [
            311
        ],
        "25/03/2020 18:14:28": [
            -701
        ],
        "25/03/2020 20:31:02": [
            -7
        ],
        "25/03/2020 21:57:41": [
            538
        ]
    },
    "490": {
        "25/03/2020 15:29:25": [
            286
        ],
        "25/03/2020 18:14:28": [
            -703
        ],
        "25/03/2020 20:31:02": [
            25
        ],
        "25/03/2020 21:57:41": [
            562
        ]
    },
    "491": {
        "25/03/2020 15:29:25": [
            321
        ],
        "25/03/2020 18:14:28": [
            -705
        ],
        "25/03/2020 20:31:03": [
            -2
        ],
        "25/03/2020 21:57:41": [
            526
        ]
    },
    "492": {
        "25/03/2020 15:29:26": [
            289
        ],
        "25/03/2020 18:14:29": [
            -718
        ],
        "25/03/2020 20:31:03": [
            24
        ],
        "25/03/2020 21:57:42": [
            545
        ]
    },
    "469": {
        "25/03/2020 15:29:26": [
            281
        ],
        "25/03/2020 18:14:29": [],
        "25/03/2020 20:31:03": [
            3
        ],
        "25/03/2020 21:57:42": [
            565
        ]
    },
    "5047": {
        "25/03/2020 15:29:26": [
            21
        ],
        "25/03/2020 18:14:29": [],
        "25/03/2020 20:31:03": [
            -15
        ],
        "25/03/2020 21:57:42": [
            -15
        ]
    },
    "7595": {
        "25/03/2020 15:29:27": [],
        "25/03/2020 18:14:30": [],
        "25/03/2020 20:31:04": [],
        "25/03/2020 21:57:42": []
    },
    "2041": {
        "25/03/2020 15:29:27": [
            299
        ],
        "25/03/2020 18:14:30": [],
        "25/03/2020 20:31:04": [
            -18
        ],
        "25/03/2020 21:57:43": [
            518,
            -18
        ]
    },
    "281": {
        "25/03/2020 15:29:27": [
            -336,
            318
        ],
        "25/03/2020 18:14:31": [
            -700
        ],
        "25/03/2020 20:31:04": [
            7
        ],
        "25/03/2020 21:57:43": [
            563
        ]
    },
    "3068": {
        "25/03/2020 15:29:28": [
            288,
            -14
        ],
        "25/03/2020 18:14:31": [],
        "25/03/2020 20:31:05": [
            4
        ],
        "25/03/2020 21:57:43": [
            540,
            4
        ]
    },
    "3069": {
        "25/03/2020 15:29:28": [
            335,
            24
        ],
        "25/03/2020 18:14:31": [],
        "25/03/2020 20:31:05": [
            26
        ],
        "25/03/2020 21:57:44": [
            562,
            26
        ]
    },
    "3070": {
        "25/03/2020 15:29:28": [
            285
        ],
        "25/03/2020 18:14:31": [],
        "25/03/2020 20:31:05": [
            0
        ],
        "25/03/2020 21:57:44": [
            536,
            0
        ]
    },
    "3071": {
        "25/03/2020 15:29:29": [
            288
        ],
        "25/03/2020 18:14:32": [],
        "25/03/2020 20:31:05": [
            -15
        ],
        "25/03/2020 21:57:44": [
            521
        ]
    },
    "3072": {
        "25/03/2020 15:29:29": [
            326
        ],
        "25/03/2020 18:14:32": [],
        "25/03/2020 20:31:06": [
            10
        ],
        "25/03/2020 21:57:44": [
            546
        ]
    },
    "3073": {
        "25/03/2020 15:29:29": [
            330
        ],
        "25/03/2020 18:14:33": [],
        "25/03/2020 20:31:06": [
            -8
        ],
        "25/03/2020 21:57:45": [
            528
        ]
    },
    "3074": {
        "25/03/2020 15:29:30": [
            309
        ],
        "25/03/2020 18:14:33": [],
        "25/03/2020 20:31:06": [
            18
        ],
        "25/03/2020 21:57:45": [
            554
        ]
    },
    "3075": {
        "25/03/2020 15:29:30": [
            336
        ],
        "25/03/2020 18:14:33": [],
        "25/03/2020 20:31:08": [
            -25
        ],
        "25/03/2020 21:57:45": [
            511
        ]
    },
    "3076": {
        "25/03/2020 15:29:30": [
            311
        ],
        "25/03/2020 18:14:33": [],
        "25/03/2020 20:31:08": [
            -29,
            -1
        ],
        "25/03/2020 21:57:46": [
            535
        ]
    },
    "3077": {
        "25/03/2020 15:29:31": [
            295
        ],
        "25/03/2020 18:14:34": [],
        "25/03/2020 20:31:08": [
            1,
            19
        ],
        "25/03/2020 21:57:46": [
            555
        ]
    },
    "3079": {
        "25/03/2020 15:29:31": [],
        "25/03/2020 18:14:34": [],
        "25/03/2020 20:31:09": [],
        "25/03/2020 21:57:46": []
    },
    "3080": {
        "25/03/2020 15:29:32": [],
        "25/03/2020 18:14:34": [],
        "25/03/2020 20:31:09": [],
        "25/03/2020 21:57:46": []
    },
    "3081": {
        "25/03/2020 15:29:32": [],
        "25/03/2020 18:14:35": [],
        "25/03/2020 20:31:09": [],
        "25/03/2020 21:57:47": []
    },
    "3084": {
        "25/03/2020 15:29:32": [
            307
        ],
        "25/03/2020 18:14:35": [],
        "25/03/2020 20:31:09": [
            28
        ],
        "25/03/2020 21:57:47": [
            541
        ]
    },
    "4462": {
        "25/03/2020 15:29:32": [],
        "25/03/2020 18:14:36": [],
        "25/03/2020 20:31:10": [],
        "25/03/2020 21:57:47": []
    },
    "470": {
        "25/03/2020 15:29:33": [
            282
        ],
        "25/03/2020 18:14:36": [],
        "25/03/2020 20:31:10": [
            5
        ],
        "25/03/2020 21:57:48": [
            547
        ]
    },
    "4705": {
        "25/03/2020 15:29:33": [
            301
        ],
        "25/03/2020 18:14:36": [
            -700
        ],
        "25/03/2020 20:31:10": [
            -12
        ],
        "25/03/2020 21:57:48": [
            565
        ]
    },
    "471": {
        "25/03/2020 15:29:34": [
            309
        ],
        "25/03/2020 18:14:37": [],
        "25/03/2020 20:31:11": [
            -27
        ],
        "25/03/2020 21:57:48": [
            506
        ]
    },
    "472": {
        "25/03/2020 15:29:34": [
            282
        ],
        "25/03/2020 18:14:37": [],
        "25/03/2020 20:31:12": [
            -6
        ],
        "25/03/2020 21:57:49": [
            527
        ]
    },
    "473": {
        "25/03/2020 15:29:35": [
            319
        ],
        "25/03/2020 18:14:37": [
            -672
        ],
        "25/03/2020 20:31:12": [
            19
        ],
        "25/03/2020 21:57:49": [
            544
        ]
    },
    "475": {
        "25/03/2020 15:29:35": [
            331
        ],
        "25/03/2020 18:14:38": [
            -715
        ],
        "25/03/2020 20:31:13": [
            13
        ],
        "25/03/2020 21:57:49": [
            526
        ]
    },
    "476": {
        "25/03/2020 15:29:35": [
            323
        ],
        "25/03/2020 18:14:38": [
            -700
        ],
        "25/03/2020 20:31:13": [
            -5
        ],
        "25/03/2020 21:57:49": [
            561
        ]
    },
    "493": {
        "25/03/2020 15:29:36": [
            -317,
            337
        ],
        "25/03/2020 18:14:38": [
            -700
        ],
        "25/03/2020 20:31:14": [
            8
        ],
        "25/03/2020 21:57:50": [
            518
        ]
    },
    "494": {
        "25/03/2020 15:29:36": [
            -349,
            305
        ],
        "25/03/2020 18:14:39": [
            -700
        ],
        "25/03/2020 20:31:14": [
            18
        ],
        "25/03/2020 21:57:50": [
            565
        ]
    },
    "495": {
        "25/03/2020 15:29:36": [
            -361,
            293
        ],
        "25/03/2020 18:14:39": [
            -694
        ],
        "25/03/2020 20:31:15": [
            -12
        ],
        "25/03/2020 21:57:50": [
            524
        ]
    },
    "7472": {
        "25/03/2020 15:29:37": [],
        "25/03/2020 18:14:39": [],
        "25/03/2020 20:31:15": [],
        "25/03/2020 21:57:51": []
    },
    "477": {
        "25/03/2020 15:29:37": [
            296
        ],
        "25/03/2020 18:14:40": [
            -678
        ],
        "25/03/2020 20:31:16": [
            22
        ],
        "25/03/2020 21:57:51": [
            517
        ]
    },
    "478": {
        "25/03/2020 15:29:37": [
            292
        ],
        "25/03/2020 18:14:40": [
            -700
        ],
        "25/03/2020 20:31:16": [
            7
        ],
        "25/03/2020 21:57:51": [
            545
        ]
    },
    "479": {
        "25/03/2020 15:29:37": [
            323
        ],
        "25/03/2020 18:14:40": [
            -729
        ],
        "25/03/2020 20:31:16": [
            26
        ],
        "25/03/2020 21:57:51": [
            561
        ]
    },
    "480": {
        "25/03/2020 15:29:38": [
            309
        ],
        "25/03/2020 18:14:41": [
            -682
        ],
        "25/03/2020 20:31:16": [
            -5
        ],
        "25/03/2020 21:57:52": [
            524
        ]
    },
    "481": {
        "25/03/2020 15:29:38": [
            286
        ],
        "25/03/2020 18:14:41": [
            -704
        ],
        "25/03/2020 20:31:17": [
            18
        ],
        "25/03/2020 21:57:52": [
            543
        ]
    },
    "482": {
        "25/03/2020 15:29:38": [
            289
        ],
        "25/03/2020 18:14:41": [
            -700
        ],
        "25/03/2020 20:31:17": [
            -2
        ],
        "25/03/2020 21:57:52": [
            516
        ]
    },
    "483": {
        "25/03/2020 15:29:39": [
            325
        ],
        "25/03/2020 18:14:42": [
            -724
        ],
        "25/03/2020 20:31:17": [
            21
        ],
        "25/03/2020 21:57:53": [
            540
        ]
    },
    "485": {
        "25/03/2020 15:29:39": [
            287
        ],
        "25/03/2020 18:14:42": [
            -700
        ],
        "25/03/2020 20:31:18": [
            13
        ],
        "25/03/2020 21:57:53": [
            534
        ]
    },
    "7641": {
        "25/03/2020 15:29:39": [
            -13,
            164,
            -26
        ],
        "25/03/2020 18:14:42": [
            138,
            -3
        ],
        "25/03/2020 20:31:18": [
            -153
        ],
        "25/03/2020 21:57:53": [
            84,
            -19
        ]
    },
    "7642": {
        "25/03/2020 15:29:40": [
            -33,
            160,
            -29
        ],
        "25/03/2020 18:14:43": [
            124,
            -17
        ],
        "25/03/2020 20:31:18": [
            -108
        ],
        "25/03/2020 21:57:54": [
            79,
            -24
        ]
    },
    "7643": {
        "25/03/2020 15:29:40": [
            -27,
            166,
            -20
        ],
        "25/03/2020 18:14:43": [
            406,
            133,
            -8
        ],
        "25/03/2020 20:31:19": [
            -104
        ],
        "25/03/2020 21:57:54": [
            98,
            -5
        ]
    },
    "7639": {
        "25/03/2020 15:29:41": [
            0
        ],
        "25/03/2020 18:14:43": [],
        "25/03/2020 20:31:19": [
            0
        ],
        "25/03/2020 21:57:54": [
            0
        ]
    },
    "1174": {
        "25/03/2020 15:29:41": [],
        "25/03/2020 18:14:44": [
            0
        ],
        "25/03/2020 20:31:19": [
            0
        ],
        "25/03/2020 21:57:55": [
            0,
            0
        ]
    },
    "3221": {
        "25/03/2020 15:29:41": [],
        "25/03/2020 18:14:44": [],
        "25/03/2020 20:31:20": [],
        "25/03/2020 21:57:55": []
    },
    "4982": {
        "25/03/2020 15:29:42": [],
        "25/03/2020 18:14:44": [],
        "25/03/2020 20:31:20": [],
        "25/03/2020 21:57:55": []
    },
    "3032": {
        "25/03/2020 15:29:42": [
            28,
            16,
            16
        ],
        "25/03/2020 18:14:45": [
            146,
            5
        ],
        "25/03/2020 20:31:20": [
            -27
        ],
        "25/03/2020 21:57:56": [
            -27,
            -27
        ]
    },
    "3033": {
        "25/03/2020 15:29:42": [
            25,
            11,
            11
        ],
        "25/03/2020 18:14:45": [
            131,
            -10
        ],
        "25/03/2020 20:31:21": [
            11
        ],
        "25/03/2020 21:57:56": [
            11,
            11
        ]
    },
    "3034": {
        "25/03/2020 15:29:43": [
            -17,
            18
        ],
        "25/03/2020 18:14:45": [
            135,
            -6
        ],
        "25/03/2020 20:31:21": [
            5
        ],
        "25/03/2020 21:57:56": [
            5,
            5
        ]
    },
    "3036": {
        "25/03/2020 15:29:43": [
            19,
            -11
        ],
        "25/03/2020 18:14:46": [
            111,
            -30
        ],
        "25/03/2020 20:31:21": [
            15
        ],
        "25/03/2020 21:57:56": [
            15,
            15
        ]
    },
    "3037": {
        "25/03/2020 15:29:43": [
            -21,
            8
        ],
        "25/03/2020 18:14:46": [
            131,
            -10
        ],
        "25/03/2020 20:31:21": [
            -30
        ],
        "25/03/2020 21:57:57": [
            -30,
            -30
        ]
    },
    "3038": {
        "25/03/2020 15:29:44": [
            22,
            -17
        ],
        "25/03/2020 18:14:46": [
            169,
            28
        ],
        "25/03/2020 20:31:22": [
            6
        ],
        "25/03/2020 21:57:57": [
            6,
            6
        ]
    },
    "3039": {
        "25/03/2020 15:29:44": [
            -11,
            5
        ],
        "25/03/2020 18:14:47": [
            133,
            -8
        ],
        "25/03/2020 20:31:22": [
            28
        ],
        "25/03/2020 21:57:57": [
            28,
            28
        ]
    },
    "3040": {
        "25/03/2020 15:29:44": [
            21,
            -28
        ],
        "25/03/2020 18:14:47": [
            162,
            21
        ],
        "25/03/2020 20:31:22": [
            -5
        ],
        "25/03/2020 21:57:58": [
            -5,
            -5
        ]
    },
    "3041": {
        "25/03/2020 15:29:45": [
            15,
            -24
        ],
        "25/03/2020 18:14:48": [
            152,
            11
        ],
        "25/03/2020 20:31:22": [
            -18
        ],
        "25/03/2020 21:57:58": [
            144,
            -18,
            -18
        ]
    },
    "3042": {
        "25/03/2020 15:29:45": [
            -4,
            25
        ],
        "25/03/2020 18:14:48": [
            132,
            -9
        ],
        "25/03/2020 20:31:23": [
            19
        ],
        "25/03/2020 21:57:58": [
            181,
            19,
            19
        ]
    },
    "3047": {
        "25/03/2020 15:29:45": [
            1,
            -14
        ],
        "25/03/2020 18:14:48": [
            113,
            -28
        ],
        "25/03/2020 20:31:23": [
            -130,
            22
        ],
        "25/03/2020 21:57:58": [
            187,
            22
        ]
    },
    "3202": {
        "25/03/2020 15:29:46": [
            -12,
            21
        ],
        "25/03/2020 18:14:49": [
            142,
            1
        ],
        "25/03/2020 20:31:23": [
            -155,
            -6
        ],
        "25/03/2020 21:57:59": [
            159,
            -6
        ]
    },
    "3203": {
        "25/03/2020 15:29:46": [
            -23,
            -21
        ],
        "25/03/2020 18:14:49": [
            149,
            8
        ],
        "25/03/2020 20:31:24": [
            -132
        ],
        "25/03/2020 21:57:59": [
            171,
            6
        ]
    },
    "3204": {
        "25/03/2020 15:29:47": [
            13,
            12
        ],
        "25/03/2020 18:14:49": [
            122,
            -19
        ],
        "25/03/2020 20:31:24": [
            -97
        ],
        "25/03/2020 21:57:59": [
            141,
            -24
        ]
    },
    "3205": {
        "25/03/2020 15:29:47": [],
        "25/03/2020 18:14:50": [],
        "25/03/2020 20:31:24": [],
        "25/03/2020 21:58:00": []
    },
    "3206": {
        "25/03/2020 15:29:47": [],
        "25/03/2020 18:14:50": [],
        "25/03/2020 20:31:25": [],
        "25/03/2020 21:58:00": []
    },
    "3207": {
        "25/03/2020 15:29:48": [],
        "25/03/2020 18:14:50": [],
        "25/03/2020 20:31:25": [],
        "25/03/2020 21:58:00": []
    },
    "3208": {
        "25/03/2020 15:29:48": [],
        "25/03/2020 18:14:51": [],
        "25/03/2020 20:31:25": [],
        "25/03/2020 21:58:00": []
    },
    "3209": {
        "25/03/2020 15:29:48": [],
        "25/03/2020 18:14:51": [],
        "25/03/2020 20:31:25": [],
        "25/03/2020 21:58:01": []
    },
    "3210": {
        "25/03/2020 15:29:49": [],
        "25/03/2020 18:14:51": [],
        "25/03/2020 20:31:26": [],
        "25/03/2020 21:58:01": []
    },
    "3211": {
        "25/03/2020 15:29:49": [],
        "25/03/2020 18:14:52": [],
        "25/03/2020 20:31:26": [],
        "25/03/2020 21:58:01": []
    },
    "3212": {
        "25/03/2020 15:29:49": [],
        "25/03/2020 18:14:52": [],
        "25/03/2020 20:31:26": [],
        "25/03/2020 21:58:02": []
    },
    "3213": {
        "25/03/2020 15:29:50": [],
        "25/03/2020 18:14:52": [],
        "25/03/2020 20:31:27": [],
        "25/03/2020 21:58:02": []
    },
    "405": {
        "25/03/2020 15:29:50": [
            9,
            9
        ],
        "25/03/2020 18:14:53": [
            -13,
            12
        ],
        "25/03/2020 20:31:27": [
            -10
        ],
        "25/03/2020 21:58:02": [
            -10,
            -10
        ]
    },
    "408": {
        "25/03/2020 15:29:50": [
            2,
            2
        ],
        "25/03/2020 18:14:53": [
            -20,
            0
        ],
        "25/03/2020 20:31:27": [
            18
        ],
        "25/03/2020 21:58:03": [
            18,
            18
        ]
    },
    "409": {
        "25/03/2020 15:29:51": [
            18,
            18
        ],
        "25/03/2020 18:14:53": [
            0,
            21
        ],
        "25/03/2020 20:31:27": [
            -30
        ],
        "25/03/2020 21:58:03": [
            -30,
            -30
        ]
    },
    "410": {
        "25/03/2020 15:29:51": [
            20,
            20
        ],
        "25/03/2020 18:14:54": [
            -4,
            4
        ],
        "25/03/2020 20:31:28": [
            2
        ],
        "25/03/2020 21:58:03": [
            2,
            2
        ]
    },
    "411": {
        "25/03/2020 15:29:51": [
            -6,
            -6
        ],
        "25/03/2020 18:14:54": [
            28,
            28
        ],
        "25/03/2020 20:31:28": [
            21
        ],
        "25/03/2020 21:58:04": [
            21,
            21
        ]
    },
    "5046": {
        "25/03/2020 15:29:51": [
            -26,
            112
        ],
        "25/03/2020 18:14:54": [
            388,
            138
        ],
        "25/03/2020 20:31:28": [
            -121
        ],
        "25/03/2020 21:58:04": [
            73,
            -30
        ]
    },
    "2035": {
        "25/03/2020 15:29:52": [
            130,
            -29
        ],
        "25/03/2020 18:14:54": [
            124,
            -17
        ],
        "25/03/2020 20:31:29": [
            8
        ],
        "25/03/2020 21:58:04": [
            170,
            8
        ]
    },
    "2036": {
        "25/03/2020 15:29:52": [
            142,
            -25
        ],
        "25/03/2020 18:14:55": [
            123,
            -18
        ],
        "25/03/2020 20:31:29": [
            -8
        ],
        "25/03/2020 21:58:04": [
            154,
            -8
        ]
    },
    "2040": {
        "25/03/2020 15:29:52": [
            145,
            25
        ],
        "25/03/2020 18:14:55": [
            164,
            23
        ],
        "25/03/2020 20:31:29": [
            -154,
            7
        ],
        "25/03/2020 21:58:05": [
            172,
            7
        ]
    },
    "3214": {
        "25/03/2020 15:29:53": [
            -31,
            24,
            -23
        ],
        "25/03/2020 18:14:56": [
            402,
            129,
            -12
        ],
        "25/03/2020 20:31:29": [
            -114
        ],
        "25/03/2020 21:58:05": [
            85,
            -18
        ]
    },
    "3215": {
        "25/03/2020 15:29:53": [
            -39,
            16,
            29
        ],
        "25/03/2020 18:14:56": [
            347,
            120
        ],
        "25/03/2020 20:31:30": [
            -127
        ],
        "25/03/2020 21:58:05": [
            129,
            26
        ]
    },
    "3216": {
        "25/03/2020 15:29:53": [
            10,
            10,
            23
        ],
        "25/03/2020 18:14:56": [
            439,
            166
        ],
        "25/03/2020 20:31:30": [
            -143
        ],
        "25/03/2020 21:58:06": [
            113,
            10
        ]
    },
    "3217": {
        "25/03/2020 15:29:54": [
            -6,
            -6
        ],
        "25/03/2020 18:14:57": [
            416,
            143
        ],
        "25/03/2020 20:31:30": [
            -107
        ],
        "25/03/2020 21:58:06": [
            89,
            -14
        ]
    },
    "3218": {
        "25/03/2020 15:29:54": [
            -25,
            -25
        ],
        "25/03/2020 18:14:57": [
            391,
            118
        ],
        "25/03/2020 20:31:31": [
            -133
        ],
        "25/03/2020 21:58:06": [
            123,
            20
        ]
    },
    "3219": {
        "25/03/2020 15:29:54": [
            20,
            20
        ],
        "25/03/2020 18:14:57": [
            430,
            157
        ],
        "25/03/2020 20:31:31": [
            -96
        ],
        "25/03/2020 21:58:06": [
            100,
            -3
        ]
    },
    "3220": {
        "25/03/2020 15:29:54": [
            11,
            11
        ],
        "25/03/2020 18:14:58": [
            412,
            139
        ],
        "25/03/2020 20:31:31": [
            -115
        ],
        "25/03/2020 21:58:07": [
            124,
            21
        ]
    },
    "412": {
        "25/03/2020 15:29:55": [
            53,
            29,
            29
        ],
        "25/03/2020 18:14:58": [
            105,
            -6,
            -25
        ],
        "25/03/2020 20:31:31": [
            11
        ],
        "25/03/2020 21:58:07": [
            11,
            11
        ]
    },
    "413": {
        "25/03/2020 15:29:55": [
            74,
            -15,
            -15
        ],
        "25/03/2020 18:14:58": [
            154,
            13,
            -8
        ],
        "25/03/2020 20:31:32": [
            24
        ],
        "25/03/2020 21:58:07": [
            24,
            24
        ]
    },
    "414": {
        "25/03/2020 15:29:55": [
            64,
            23,
            23
        ],
        "25/03/2020 18:14:59": [
            109,
            -2,
            -28
        ],
        "25/03/2020 20:31:32": [
            -4
        ],
        "25/03/2020 21:58:08": [
            -4,
            -4
        ]
    },
    "415": {
        "25/03/2020 15:29:56": [
            97,
            0,
            0
        ],
        "25/03/2020 18:14:59": [
            112,
            -29
        ],
        "25/03/2020 20:31:32": [
            19
        ],
        "25/03/2020 21:58:09": [
            19,
            19
        ]
    },
    "416": {
        "25/03/2020 15:29:56": [
            102,
            10,
            10
        ],
        "25/03/2020 18:14:59": [
            117,
            -24
        ],
        "25/03/2020 20:31:32": [
            3
        ],
        "25/03/2020 21:58:09": [
            3,
            3
        ]
    },
    "417": {
        "25/03/2020 15:29:56": [
            86,
            -18,
            -18
        ],
        "25/03/2020 18:15:00": [
            151,
            10
        ],
        "25/03/2020 20:31:33": [
            -29
        ],
        "25/03/2020 21:58:09": [
            -29,
            -29
        ]
    },
    "418": {
        "25/03/2020 15:29:57": [
            75,
            19,
            19
        ],
        "25/03/2020 18:15:00": [
            129,
            -12
        ],
        "25/03/2020 20:31:33": [
            3
        ],
        "25/03/2020 21:58:10": [
            3,
            3
        ]
    },
    "419": {
        "25/03/2020 15:29:57": [
            64,
            -4,
            -4
        ],
        "25/03/2020 18:15:00": [
            168,
            27
        ],
        "25/03/2020 20:31:33": [
            -25
        ],
        "25/03/2020 21:58:10": [
            -25,
            -25
        ]
    },
    "420": {
        "25/03/2020 15:29:57": [
            52,
            -16,
            -16
        ],
        "25/03/2020 18:15:01": [
            150,
            9
        ],
        "25/03/2020 20:31:34": [
            3
        ],
        "25/03/2020 21:58:10": [
            3,
            3
        ]
    },
    "421": {
        "25/03/2020 15:29:58": [
            99,
            -29,
            -29
        ],
        "25/03/2020 18:15:01": [
            130,
            -11
        ],
        "25/03/2020 20:31:34": [
            -30
        ],
        "25/03/2020 21:58:11": [
            -30,
            -30
        ]
    },
    "422": {
        "25/03/2020 15:29:58": [
            156,
            28,
            28
        ],
        "25/03/2020 18:15:01": [
            120,
            -21
        ],
        "25/03/2020 20:31:34": [
            4
        ],
        "25/03/2020 21:58:11": [
            4,
            4
        ]
    },
    "423": {
        "25/03/2020 15:29:58": [
            67,
            0,
            0
        ],
        "25/03/2020 18:15:02": [
            147,
            6
        ],
        "25/03/2020 20:31:34": [
            24
        ],
        "25/03/2020 21:58:11": [
            24,
            24
        ]
    },
    "424": {
        "25/03/2020 15:29:58": [
            113,
            -14,
            -14
        ],
        "25/03/2020 18:15:02": [
            128,
            -13
        ],
        "25/03/2020 20:31:35": [
            -6
        ],
        "25/03/2020 21:58:11": [
            -6,
            -6
        ]
    },
    "425": {
        "25/03/2020 15:29:59": [
            106,
            27,
            27
        ],
        "25/03/2020 18:15:02": [
            165,
            24
        ],
        "25/03/2020 20:31:35": [],
        "25/03/2020 21:58:12": []
    },
    "4725": {
        "25/03/2020 15:29:59": [
            -2,
            -2
        ],
        "25/03/2020 18:15:03": [
            -25,
            15
        ],
        "25/03/2020 20:31:35": [
            3
        ],
        "25/03/2020 21:58:12": [
            3,
            3
        ]
    },
    "273": {
        "25/03/2020 15:29:59": [
            -29,
            -29
        ],
        "25/03/2020 18:15:03": [
            8,
            -18
        ],
        "25/03/2020 20:31:35": [
            1
        ],
        "25/03/2020 21:58:12": [
            1,
            1
        ]
    },
    "426": {
        "25/03/2020 15:30:00": [
            77,
            -8,
            -8
        ],
        "25/03/2020 18:15:04": [
            127,
            -14
        ],
        "25/03/2020 20:31:36": [
            -9
        ],
        "25/03/2020 21:58:12": [
            -9,
            -9
        ]
    },
    "427": {
        "25/03/2020 15:30:00": [
            74,
            -16,
            -16
        ],
        "25/03/2020 18:15:04": [
            121,
            -20
        ],
        "25/03/2020 20:31:36": [
            -29
        ],
        "25/03/2020 21:58:13": [
            -29,
            -29
        ]
    },
    "428": {
        "25/03/2020 15:30:00": [
            166,
            17,
            17
        ],
        "25/03/2020 18:15:04": [
            159,
            18
        ],
        "25/03/2020 20:31:36": [
            2
        ],
        "25/03/2020 21:58:13": [
            2,
            2
        ]
    },
    "429": {
        "25/03/2020 15:30:01": [
            81,
            -7,
            -7
        ],
        "25/03/2020 18:15:04": [
            140,
            -1
        ],
        "25/03/2020 20:31:37": [
            -24
        ],
        "25/03/2020 21:58:13": [
            -24,
            -24
        ]
    },
    "4962": {
        "25/03/2020 15:30:01": [
            0,
            0
        ],
        "25/03/2020 18:15:05": [
            0
        ],
        "25/03/2020 20:31:37": [],
        "25/03/2020 21:58:14": []
    },
    "4981": {
        "25/03/2020 15:30:01": [],
        "25/03/2020 18:15:05": [],
        "25/03/2020 20:31:37": [],
        "25/03/2020 21:58:14": []
    }
}