{
    "1008": {
        "21/03/2020 13:45:40": [],
        "21/03/2020 16:41:27": [],
        "21/03/2020 19:08:49": [],
        "21/03/2020 21:08:52": []
    },
    "1009": {
        "21/03/2020 13:45:41": [],
        "21/03/2020 16:41:27": [],
        "21/03/2020 19:08:49": [],
        "21/03/2020 21:08:52": []
    },
    "1010": {
        "21/03/2020 13:45:41": [],
        "21/03/2020 16:41:28": [],
        "21/03/2020 19:08:50": [],
        "21/03/2020 21:08:52": []
    },
    "1235": {
        "21/03/2020 13:45:41": [],
        "21/03/2020 16:41:28": [],
        "21/03/2020 19:08:50": [],
        "21/03/2020 21:08:53": []
    },
    "1237": {
        "21/03/2020 13:45:42": [],
        "21/03/2020 16:41:28": [],
        "21/03/2020 19:08:51": [],
        "21/03/2020 21:08:53": []
    },
    "1251": {
        "21/03/2020 13:45:42": [],
        "21/03/2020 16:41:29": [],
        "21/03/2020 19:08:51": [],
        "21/03/2020 21:08:54": []
    },
    "1253": {
        "21/03/2020 13:45:42": [],
        "21/03/2020 16:41:29": [],
        "21/03/2020 19:08:51": [],
        "21/03/2020 21:08:54": []
    },
    "126": {
        "21/03/2020 13:45:43": [],
        "21/03/2020 16:41:29": [],
        "21/03/2020 19:08:52": [],
        "21/03/2020 21:08:55": []
    },
    "140": {
        "21/03/2020 13:45:43": [],
        "21/03/2020 16:41:30": [],
        "21/03/2020 19:08:52": [],
        "21/03/2020 21:08:55": []
    },
    "141": {
        "21/03/2020 13:45:43": [],
        "21/03/2020 16:41:30": [],
        "21/03/2020 19:08:53": [],
        "21/03/2020 21:08:55": []
    },
    "5060": {
        "21/03/2020 13:45:43": [],
        "21/03/2020 16:41:30": [],
        "21/03/2020 19:08:53": [],
        "21/03/2020 21:08:56": []
    },
    "6068": {
        "21/03/2020 13:45:44": [],
        "21/03/2020 16:41:31": [],
        "21/03/2020 19:08:53": [],
        "21/03/2020 21:08:56": []
    },
    "1012": {
        "21/03/2020 13:45:44": [],
        "21/03/2020 16:41:31": [],
        "21/03/2020 19:08:54": [],
        "21/03/2020 21:08:57": []
    },
    "138": {
        "21/03/2020 13:45:44": [],
        "21/03/2020 16:41:31": [],
        "21/03/2020 19:08:54": [],
        "21/03/2020 21:08:57": []
    },
    "139": {
        "21/03/2020 13:45:45": [],
        "21/03/2020 16:41:32": [],
        "21/03/2020 19:08:55": [],
        "21/03/2020 21:08:58": []
    },
    "1581": {
        "21/03/2020 13:45:45": [],
        "21/03/2020 16:41:32": [],
        "21/03/2020 19:08:55": [],
        "21/03/2020 21:08:58": []
    },
    "1584": {
        "21/03/2020 13:45:45": [],
        "21/03/2020 16:41:32": [],
        "21/03/2020 19:08:55": [],
        "21/03/2020 21:08:58": []
    },
    "4793": {
        "21/03/2020 13:45:46": [],
        "21/03/2020 16:41:32": [],
        "21/03/2020 19:08:56": [],
        "21/03/2020 21:08:59": []
    },
    "5061": {
        "21/03/2020 13:45:46": [],
        "21/03/2020 16:41:33": [],
        "21/03/2020 19:08:56": [],
        "21/03/2020 21:08:59": []
    },
    "6039": {
        "21/03/2020 13:45:46": [],
        "21/03/2020 16:41:33": [],
        "21/03/2020 19:08:57": [],
        "21/03/2020 21:09:00": []
    },
    "7044": {
        "21/03/2020 13:45:46": [],
        "21/03/2020 16:41:33": [],
        "21/03/2020 19:08:57": [],
        "21/03/2020 21:09:00": []
    },
    "7130": {
        "21/03/2020 13:45:47": [],
        "21/03/2020 16:41:34": [],
        "21/03/2020 19:08:57": [],
        "21/03/2020 21:09:01": []
    },
    "983": {
        "21/03/2020 13:45:47": [],
        "21/03/2020 16:41:34": [],
        "21/03/2020 19:08:58": [],
        "21/03/2020 21:09:01": []
    },
    "984": {
        "21/03/2020 13:45:47": [],
        "21/03/2020 16:41:34": [],
        "21/03/2020 19:08:58": [],
        "21/03/2020 21:09:02": []
    },
    "985": {
        "21/03/2020 13:45:48": [],
        "21/03/2020 16:41:34": [],
        "21/03/2020 19:08:59": [],
        "21/03/2020 21:09:02": []
    },
    "987": {
        "21/03/2020 13:45:48": [],
        "21/03/2020 16:41:35": [],
        "21/03/2020 19:08:59": [],
        "21/03/2020 21:09:02": []
    },
    "988": {
        "21/03/2020 13:45:48": [],
        "21/03/2020 16:41:35": [],
        "21/03/2020 19:09:00": [],
        "21/03/2020 21:09:03": []
    },
    "989": {
        "21/03/2020 13:45:48": [],
        "21/03/2020 16:41:35": [],
        "21/03/2020 19:09:00": [],
        "21/03/2020 21:09:03": []
    },
    "990": {
        "21/03/2020 13:45:49": [],
        "21/03/2020 16:41:36": [],
        "21/03/2020 19:09:00": [],
        "21/03/2020 21:09:04": []
    },
    "991": {
        "21/03/2020 13:45:49": [],
        "21/03/2020 16:41:36": [],
        "21/03/2020 19:09:01": [],
        "21/03/2020 21:09:04": []
    },
    "992": {
        "21/03/2020 13:45:49": [],
        "21/03/2020 16:41:36": [],
        "21/03/2020 19:09:01": [],
        "21/03/2020 21:09:04": []
    },
    "993": {
        "21/03/2020 13:45:49": [],
        "21/03/2020 16:41:36": [],
        "21/03/2020 19:09:02": [],
        "21/03/2020 21:09:05": []
    },
    "997": {
        "21/03/2020 13:45:50": [],
        "21/03/2020 16:41:37": [],
        "21/03/2020 19:09:02": [],
        "21/03/2020 21:09:05": []
    },
    "998": {
        "21/03/2020 13:45:50": [],
        "21/03/2020 16:41:37": [],
        "21/03/2020 19:09:03": [],
        "21/03/2020 21:09:06": []
    },
    "999": {
        "21/03/2020 13:45:50": [],
        "21/03/2020 16:41:37": [],
        "21/03/2020 19:09:03": [],
        "21/03/2020 21:09:06": []
    },
    "1007": {
        "21/03/2020 13:45:51": [],
        "21/03/2020 16:41:37": [],
        "21/03/2020 19:09:04": [],
        "21/03/2020 21:09:07": []
    },
    "142": {
        "21/03/2020 13:45:51": [],
        "21/03/2020 16:41:38": [],
        "21/03/2020 19:09:04": [],
        "21/03/2020 21:09:07": []
    },
    "143": {
        "21/03/2020 13:45:51": [],
        "21/03/2020 16:41:38": [],
        "21/03/2020 19:09:05": [],
        "21/03/2020 21:09:07": []
    },
    "2510": {
        "21/03/2020 13:45:51": [],
        "21/03/2020 16:41:38": [],
        "21/03/2020 19:09:05": [],
        "21/03/2020 21:09:08": []
    },
    "4747": {
        "21/03/2020 13:45:52": [],
        "21/03/2020 16:41:39": [],
        "21/03/2020 19:09:06": [],
        "21/03/2020 21:09:08": []
    },
    "4974": {
        "21/03/2020 13:45:52": [],
        "21/03/2020 16:41:39": [],
        "21/03/2020 19:09:06": [],
        "21/03/2020 21:09:09": []
    },
    "4976": {
        "21/03/2020 13:45:52": [],
        "21/03/2020 16:41:39": [],
        "21/03/2020 19:09:06": [],
        "21/03/2020 21:09:10": []
    },
    "6009": {
        "21/03/2020 13:45:53": [],
        "21/03/2020 16:41:39": [],
        "21/03/2020 19:09:07": [],
        "21/03/2020 21:09:10": []
    },
    "6171": {
        "21/03/2020 13:45:53": [],
        "21/03/2020 16:41:40": [],
        "21/03/2020 19:09:07": [],
        "21/03/2020 21:09:11": []
    },
    "7242": {
        "21/03/2020 13:45:53": [],
        "21/03/2020 16:41:40": [],
        "21/03/2020 19:09:08": [],
        "21/03/2020 21:09:11": []
    },
    "7298": {
        "21/03/2020 13:45:53": [],
        "21/03/2020 16:41:40": [],
        "21/03/2020 19:09:08": [],
        "21/03/2020 21:09:12": []
    },
    "1000": {
        "21/03/2020 13:45:54": [],
        "21/03/2020 16:41:40": [],
        "21/03/2020 19:09:09": [],
        "21/03/2020 21:09:12": []
    },
    "1001": {
        "21/03/2020 13:45:54": [],
        "21/03/2020 16:41:41": [],
        "21/03/2020 19:09:09": [],
        "21/03/2020 21:09:13": []
    },
    "1002": {
        "21/03/2020 13:45:54": [],
        "21/03/2020 16:41:41": [],
        "21/03/2020 19:09:09": [],
        "21/03/2020 21:09:13": []
    },
    "1003": {
        "21/03/2020 13:45:55": [],
        "21/03/2020 16:41:41": [],
        "21/03/2020 19:09:10": [],
        "21/03/2020 21:09:13": []
    },
    "1004": {
        "21/03/2020 13:45:55": [],
        "21/03/2020 16:41:42": [],
        "21/03/2020 19:09:10": [],
        "21/03/2020 21:09:14": []
    },
    "1005": {
        "21/03/2020 13:45:55": [],
        "21/03/2020 16:41:42": [],
        "21/03/2020 19:09:11": [],
        "21/03/2020 21:09:14": []
    },
    "1006": {
        "21/03/2020 13:45:55": [],
        "21/03/2020 16:41:42": [],
        "21/03/2020 19:09:11": [],
        "21/03/2020 21:09:15": []
    },
    "1816": {
        "21/03/2020 13:45:56": [],
        "21/03/2020 16:41:42": [],
        "21/03/2020 19:09:12": [],
        "21/03/2020 21:09:15": []
    },
    "2294": {
        "21/03/2020 13:45:56": [],
        "21/03/2020 16:41:43": [],
        "21/03/2020 19:09:12": [],
        "21/03/2020 21:09:16": []
    },
    "7224": {
        "21/03/2020 13:45:56": [],
        "21/03/2020 16:41:43": [],
        "21/03/2020 19:09:12": [],
        "21/03/2020 21:09:16": []
    },
    "7238": {
        "21/03/2020 13:45:57": [],
        "21/03/2020 16:41:43": [],
        "21/03/2020 19:09:13": [],
        "21/03/2020 21:09:16": []
    },
    "92": {
        "21/03/2020 13:45:57": [],
        "21/03/2020 16:41:44": [],
        "21/03/2020 19:09:13": [],
        "21/03/2020 21:09:17": []
    },
    "93": {
        "21/03/2020 13:45:57": [],
        "21/03/2020 16:41:44": [],
        "21/03/2020 19:09:14": [],
        "21/03/2020 21:09:17": []
    },
    "94": {
        "21/03/2020 13:45:57": [],
        "21/03/2020 16:41:44": [],
        "21/03/2020 19:09:14": [],
        "21/03/2020 21:09:18": []
    },
    "112": {
        "21/03/2020 13:45:58": [],
        "21/03/2020 16:41:45": [],
        "21/03/2020 19:09:15": [],
        "21/03/2020 21:09:18": []
    },
    "1228": {
        "21/03/2020 13:45:58": [],
        "21/03/2020 16:41:45": [],
        "21/03/2020 19:09:15": [],
        "21/03/2020 21:09:18": []
    },
    "1229": {
        "21/03/2020 13:45:58": [],
        "21/03/2020 16:41:45": [],
        "21/03/2020 19:09:16": [],
        "21/03/2020 21:09:19": []
    },
    "129": {
        "21/03/2020 13:45:59": [],
        "21/03/2020 16:41:45": [],
        "21/03/2020 19:09:16": [],
        "21/03/2020 21:09:19": []
    },
    "130": {
        "21/03/2020 13:45:59": [],
        "21/03/2020 16:41:46": [],
        "21/03/2020 19:09:16": [],
        "21/03/2020 21:09:20": []
    },
    "5055": {
        "21/03/2020 13:45:59": [],
        "21/03/2020 16:41:46": [],
        "21/03/2020 19:09:17": [],
        "21/03/2020 21:09:20": []
    },
    "7237": {
        "21/03/2020 13:45:59": [],
        "21/03/2020 16:41:46": [],
        "21/03/2020 19:09:17": [],
        "21/03/2020 21:09:20": []
    },
    "7389": {
        "21/03/2020 13:46:00": [],
        "21/03/2020 16:41:47": [],
        "21/03/2020 19:09:17": [],
        "21/03/2020 21:09:21": []
    },
    "981": {
        "21/03/2020 13:46:00": [],
        "21/03/2020 16:41:47": [],
        "21/03/2020 19:09:18": [],
        "21/03/2020 21:09:21": []
    },
    "128": {
        "21/03/2020 13:46:00": [],
        "21/03/2020 16:41:47": [],
        "21/03/2020 19:09:18": [],
        "21/03/2020 21:09:22": []
    },
    "131": {
        "21/03/2020 13:46:01": [],
        "21/03/2020 16:41:47": [],
        "21/03/2020 19:09:19": [],
        "21/03/2020 21:09:22": []
    },
    "132": {
        "21/03/2020 13:46:01": [],
        "21/03/2020 16:41:48": [],
        "21/03/2020 19:09:19": [],
        "21/03/2020 21:09:23": []
    },
    "1576": {
        "21/03/2020 13:46:01": [],
        "21/03/2020 16:41:48": [],
        "21/03/2020 19:09:20": [],
        "21/03/2020 21:09:23": []
    },
    "1577": {
        "21/03/2020 13:46:01": [],
        "21/03/2020 16:41:48": [],
        "21/03/2020 19:09:20": [],
        "21/03/2020 21:09:23": []
    },
    "1578": {
        "21/03/2020 13:46:02": [],
        "21/03/2020 16:41:48": [],
        "21/03/2020 19:09:21": [],
        "21/03/2020 21:09:24": []
    },
    "1579": {
        "21/03/2020 13:46:02": [],
        "21/03/2020 16:41:49": [],
        "21/03/2020 19:09:21": [],
        "21/03/2020 21:09:24": []
    },
    "1580": {
        "21/03/2020 13:46:02": [],
        "21/03/2020 16:41:49": [],
        "21/03/2020 19:09:21": [],
        "21/03/2020 21:09:25": []
    },
    "1838": {
        "21/03/2020 13:46:03": [],
        "21/03/2020 16:41:49": [],
        "21/03/2020 19:09:22": [],
        "21/03/2020 21:09:25": []
    },
    "2290": {
        "21/03/2020 13:46:03": [],
        "21/03/2020 16:41:50": [],
        "21/03/2020 19:09:22": [],
        "21/03/2020 21:09:25": []
    },
    "4364": {
        "21/03/2020 13:46:03": [],
        "21/03/2020 16:41:50": [],
        "21/03/2020 19:09:23": [],
        "21/03/2020 21:09:26": []
    },
    "7458": {
        "21/03/2020 13:46:03": [],
        "21/03/2020 16:41:50": [],
        "21/03/2020 19:09:23": [],
        "21/03/2020 21:09:26": []
    },
    "5174": {
        "21/03/2020 13:46:04": [],
        "21/03/2020 16:41:50": [],
        "21/03/2020 19:09:24": [],
        "21/03/2020 21:09:27": []
    },
    "6179": {
        "21/03/2020 13:46:04": [],
        "21/03/2020 16:41:51": [],
        "21/03/2020 19:09:24": [],
        "21/03/2020 21:09:27": []
    },
    "6180": {
        "21/03/2020 13:46:04": [],
        "21/03/2020 16:41:51": [],
        "21/03/2020 19:09:25": [],
        "21/03/2020 21:09:27": []
    },
    "7025": {
        "21/03/2020 13:46:05": [],
        "21/03/2020 16:41:51": [],
        "21/03/2020 19:09:25": [],
        "21/03/2020 21:09:28": []
    },
    "113": {
        "21/03/2020 13:46:05": [],
        "21/03/2020 16:41:52": [],
        "21/03/2020 19:09:25": [],
        "21/03/2020 21:09:28": []
    },
    "1244": {
        "21/03/2020 13:46:05": [],
        "21/03/2020 16:41:52": [],
        "21/03/2020 19:09:26": [],
        "21/03/2020 21:09:29": []
    },
    "1246": {
        "21/03/2020 13:46:05": [],
        "21/03/2020 16:41:52": [],
        "21/03/2020 19:09:26": [],
        "21/03/2020 21:09:29": []
    },
    "1252": {
        "21/03/2020 13:46:06": [],
        "21/03/2020 16:41:53": [],
        "21/03/2020 19:09:27": [],
        "21/03/2020 21:09:30": []
    },
    "127": {
        "21/03/2020 13:46:06": [],
        "21/03/2020 16:41:53": [],
        "21/03/2020 19:09:27": [],
        "21/03/2020 21:09:30": []
    },
    "2338": {
        "21/03/2020 13:46:06": [],
        "21/03/2020 16:41:53": [],
        "21/03/2020 19:09:28": [],
        "21/03/2020 21:09:30": []
    },
    "6078": {
        "21/03/2020 13:46:07": [],
        "21/03/2020 16:41:54": [],
        "21/03/2020 19:09:28": [],
        "21/03/2020 21:09:31": []
    },
    "6274": {
        "21/03/2020 13:46:07": [],
        "21/03/2020 16:41:54": [],
        "21/03/2020 19:09:29": [],
        "21/03/2020 21:09:31": []
    },
    "7112": {
        "21/03/2020 13:46:07": [],
        "21/03/2020 16:41:54": [],
        "21/03/2020 19:09:29": [],
        "21/03/2020 21:09:32": []
    },
    "7241": {
        "21/03/2020 13:46:07": [],
        "21/03/2020 16:41:55": [],
        "21/03/2020 19:09:30": [],
        "21/03/2020 21:09:32": []
    },
    "7243": {
        "21/03/2020 13:46:08": [],
        "21/03/2020 16:41:55": [],
        "21/03/2020 19:09:30": [],
        "21/03/2020 21:09:36": []
    },
    "7247": {
        "21/03/2020 13:46:08": [],
        "21/03/2020 16:41:55": [],
        "21/03/2020 19:09:30": [],
        "21/03/2020 21:09:41": []
    },
    "7297": {
        "21/03/2020 13:46:08": [],
        "21/03/2020 16:41:55": [],
        "21/03/2020 19:09:31": [],
        "21/03/2020 21:09:45": []
    },
    "7334": {
        "21/03/2020 13:46:09": [],
        "21/03/2020 16:41:56": [],
        "21/03/2020 19:09:31": [],
        "21/03/2020 21:09:50": []
    },
    "956": {
        "21/03/2020 13:46:09": [],
        "21/03/2020 16:41:56": [],
        "21/03/2020 19:09:32": [],
        "21/03/2020 21:09:54": []
    },
    "957": {
        "21/03/2020 13:46:09": [],
        "21/03/2020 16:41:56": [],
        "21/03/2020 19:09:32": [],
        "21/03/2020 21:09:59": []
    },
    "958": {
        "21/03/2020 13:46:10": [],
        "21/03/2020 16:41:57": [],
        "21/03/2020 19:09:33": [],
        "21/03/2020 21:10:04": []
    },
    "959": {
        "21/03/2020 13:46:10": [],
        "21/03/2020 16:41:57": [],
        "21/03/2020 19:09:33": [],
        "21/03/2020 21:10:08": []
    },
    "960": {
        "21/03/2020 13:46:10": [],
        "21/03/2020 16:41:57": [],
        "21/03/2020 19:09:33": [],
        "21/03/2020 21:10:12": []
    },
    "961": {
        "21/03/2020 13:46:10": [],
        "21/03/2020 16:41:58": [],
        "21/03/2020 19:09:34": [],
        "21/03/2020 21:10:17": []
    },
    "962": {
        "21/03/2020 13:46:11": [],
        "21/03/2020 16:41:58": [],
        "21/03/2020 19:09:34": [],
        "21/03/2020 21:10:21": []
    },
    "963": {
        "21/03/2020 13:46:11": [],
        "21/03/2020 16:41:58": [],
        "21/03/2020 19:09:35": [],
        "21/03/2020 21:10:25": []
    },
    "964": {
        "21/03/2020 13:46:11": [],
        "21/03/2020 16:41:59": [],
        "21/03/2020 19:09:35": [],
        "21/03/2020 21:10:29": []
    },
    "965": {
        "21/03/2020 13:46:11": [],
        "21/03/2020 16:41:59": [],
        "21/03/2020 19:09:36": [],
        "21/03/2020 21:10:34": []
    },
    "966": {
        "21/03/2020 13:46:12": [],
        "21/03/2020 16:41:59": [],
        "21/03/2020 19:09:36": [],
        "21/03/2020 21:10:38": []
    },
    "967": {
        "21/03/2020 13:46:12": [],
        "21/03/2020 16:42:00": [],
        "21/03/2020 19:09:36": [],
        "21/03/2020 21:10:43": []
    },
    "968": {
        "21/03/2020 13:46:12": [],
        "21/03/2020 16:42:01": [],
        "21/03/2020 19:09:37": [],
        "21/03/2020 21:10:47": []
    },
    "972": {
        "21/03/2020 13:46:13": [],
        "21/03/2020 16:42:01": [],
        "21/03/2020 19:09:37": [],
        "21/03/2020 21:10:51": []
    },
    "973": {
        "21/03/2020 13:46:13": [],
        "21/03/2020 16:42:02": [],
        "21/03/2020 19:09:38": [],
        "21/03/2020 21:10:55": []
    },
    "974": {
        "21/03/2020 13:46:13": [],
        "21/03/2020 16:42:02": [],
        "21/03/2020 19:09:38": [],
        "21/03/2020 21:10:59": []
    },
    "975": {
        "21/03/2020 13:46:13": [],
        "21/03/2020 16:42:02": [],
        "21/03/2020 19:09:39": [],
        "21/03/2020 21:11:03": []
    },
    "976": {
        "21/03/2020 13:46:14": [],
        "21/03/2020 16:42:03": [],
        "21/03/2020 19:09:39": [],
        "21/03/2020 21:11:08": []
    },
    "979": {
        "21/03/2020 13:46:14": [],
        "21/03/2020 16:42:03": [],
        "21/03/2020 19:09:40": [],
        "21/03/2020 21:11:14": []
    },
    "980": {
        "21/03/2020 13:46:14": [],
        "21/03/2020 16:42:04": [],
        "21/03/2020 19:09:40": [],
        "21/03/2020 21:11:18": []
    }
}