{
    "1008": {
        "22/03/2020 14:32:34": [],
        "22/03/2020 16:59:12": [],
        "22/03/2020 19:18:25": []
    },
    "1009": {
        "22/03/2020 14:32:35": [],
        "22/03/2020 16:59:12": [],
        "22/03/2020 19:18:25": []
    },
    "1010": {
        "22/03/2020 14:32:35": [],
        "22/03/2020 16:59:13": [],
        "22/03/2020 19:18:26": []
    },
    "1235": {
        "22/03/2020 14:32:35": [],
        "22/03/2020 16:59:13": [],
        "22/03/2020 19:18:26": []
    },
    "1237": {
        "22/03/2020 14:32:36": [],
        "22/03/2020 16:59:14": [],
        "22/03/2020 19:18:27": []
    },
    "1251": {
        "22/03/2020 14:32:36": [],
        "22/03/2020 16:59:14": [],
        "22/03/2020 19:18:27": []
    },
    "1253": {
        "22/03/2020 14:32:37": [],
        "22/03/2020 16:59:15": [],
        "22/03/2020 19:18:28": []
    },
    "126": {
        "22/03/2020 14:32:37": [],
        "22/03/2020 16:59:15": [],
        "22/03/2020 19:18:28": []
    },
    "140": {
        "22/03/2020 14:32:38": [],
        "22/03/2020 16:59:15": [],
        "22/03/2020 19:18:28": []
    },
    "141": {
        "22/03/2020 14:32:38": [],
        "22/03/2020 16:59:16": [],
        "22/03/2020 19:18:29": []
    },
    "5060": {
        "22/03/2020 14:32:38": [],
        "22/03/2020 16:59:16": [],
        "22/03/2020 19:18:29": []
    },
    "6068": {
        "22/03/2020 14:32:39": [],
        "22/03/2020 16:59:17": [],
        "22/03/2020 19:18:30": []
    },
    "1012": {
        "22/03/2020 14:32:39": [],
        "22/03/2020 16:59:17": [],
        "22/03/2020 19:18:30": []
    },
    "138": {
        "22/03/2020 14:32:40": [],
        "22/03/2020 16:59:18": [],
        "22/03/2020 19:18:31": []
    },
    "139": {
        "22/03/2020 14:32:40": [],
        "22/03/2020 16:59:18": [],
        "22/03/2020 19:18:31": []
    },
    "1581": {
        "22/03/2020 14:32:41": [],
        "22/03/2020 16:59:18": [],
        "22/03/2020 19:18:31": []
    },
    "1584": {
        "22/03/2020 14:32:41": [],
        "22/03/2020 16:59:19": [],
        "22/03/2020 19:18:32": []
    },
    "4793": {
        "22/03/2020 14:32:42": [],
        "22/03/2020 16:59:19": [],
        "22/03/2020 19:18:32": []
    },
    "5061": {
        "22/03/2020 14:32:42": [],
        "22/03/2020 16:59:20": [],
        "22/03/2020 19:18:33": []
    },
    "6039": {
        "22/03/2020 14:32:42": [],
        "22/03/2020 16:59:20": [],
        "22/03/2020 19:18:33": []
    },
    "7044": {
        "22/03/2020 14:32:43": [],
        "22/03/2020 16:59:21": [],
        "22/03/2020 19:18:34": []
    },
    "7130": {
        "22/03/2020 14:32:43": [],
        "22/03/2020 16:59:21": [],
        "22/03/2020 19:18:34": []
    },
    "983": {
        "22/03/2020 14:32:44": [],
        "22/03/2020 16:59:22": [],
        "22/03/2020 19:18:34": []
    },
    "984": {
        "22/03/2020 14:32:44": [],
        "22/03/2020 16:59:22": [],
        "22/03/2020 19:18:35": []
    },
    "985": {
        "22/03/2020 14:32:45": [],
        "22/03/2020 16:59:23": [],
        "22/03/2020 19:18:35": []
    },
    "987": {
        "22/03/2020 14:32:45": [],
        "22/03/2020 16:59:23": [],
        "22/03/2020 19:18:36": []
    },
    "988": {
        "22/03/2020 14:32:45": [],
        "22/03/2020 16:59:23": [],
        "22/03/2020 19:18:36": []
    },
    "989": {
        "22/03/2020 14:32:46": [],
        "22/03/2020 16:59:24": [],
        "22/03/2020 19:18:37": []
    },
    "990": {
        "22/03/2020 14:32:46": [],
        "22/03/2020 16:59:24": [],
        "22/03/2020 19:18:37": []
    },
    "991": {
        "22/03/2020 14:32:47": [],
        "22/03/2020 16:59:25": [],
        "22/03/2020 19:18:38": []
    },
    "992": {
        "22/03/2020 14:32:47": [],
        "22/03/2020 16:59:25": [],
        "22/03/2020 19:18:38": []
    },
    "993": {
        "22/03/2020 14:32:48": [],
        "22/03/2020 16:59:26": [],
        "22/03/2020 19:18:38": []
    },
    "997": {
        "22/03/2020 14:32:48": [],
        "22/03/2020 16:59:26": [],
        "22/03/2020 19:18:39": []
    },
    "998": {
        "22/03/2020 14:32:48": [],
        "22/03/2020 16:59:27": [],
        "22/03/2020 19:18:39": []
    },
    "999": {
        "22/03/2020 14:32:49": [],
        "22/03/2020 16:59:27": [],
        "22/03/2020 19:18:40": []
    },
    "1007": {
        "22/03/2020 14:32:49": [],
        "22/03/2020 16:59:27": [],
        "22/03/2020 19:18:40": []
    },
    "142": {
        "22/03/2020 14:32:50": [],
        "22/03/2020 16:59:28": [],
        "22/03/2020 19:18:41": []
    },
    "143": {
        "22/03/2020 14:32:50": [],
        "22/03/2020 16:59:28": [],
        "22/03/2020 19:18:41": []
    },
    "2510": {
        "22/03/2020 14:32:51": [],
        "22/03/2020 16:59:29": [],
        "22/03/2020 19:18:41": []
    },
    "4747": {
        "22/03/2020 14:32:51": [],
        "22/03/2020 16:59:29": [],
        "22/03/2020 19:18:42": []
    },
    "4974": {
        "22/03/2020 14:32:52": [],
        "22/03/2020 16:59:30": [],
        "22/03/2020 19:18:42": []
    },
    "4976": {
        "22/03/2020 14:32:52": [],
        "22/03/2020 16:59:30": [],
        "22/03/2020 19:18:43": []
    },
    "6009": {
        "22/03/2020 14:32:53": [],
        "22/03/2020 16:59:30": [],
        "22/03/2020 19:18:44": []
    },
    "6171": {
        "22/03/2020 14:32:53": [],
        "22/03/2020 16:59:31": [],
        "22/03/2020 19:18:44": []
    },
    "7242": {
        "22/03/2020 14:32:53": [],
        "22/03/2020 16:59:31": [],
        "22/03/2020 19:18:45": []
    },
    "7298": {
        "22/03/2020 14:32:54": [],
        "22/03/2020 16:59:32": [],
        "22/03/2020 19:18:45": []
    },
    "1000": {
        "22/03/2020 14:32:54": [],
        "22/03/2020 16:59:32": [],
        "22/03/2020 19:18:46": []
    },
    "1001": {
        "22/03/2020 14:32:55": [],
        "22/03/2020 16:59:33": [],
        "22/03/2020 19:18:46": []
    },
    "1002": {
        "22/03/2020 14:32:55": [],
        "22/03/2020 16:59:33": [],
        "22/03/2020 19:18:46": []
    },
    "1003": {
        "22/03/2020 14:32:56": [],
        "22/03/2020 16:59:34": [],
        "22/03/2020 19:18:47": []
    },
    "1004": {
        "22/03/2020 14:32:56": [],
        "22/03/2020 16:59:35": [],
        "22/03/2020 19:18:47": []
    },
    "1005": {
        "22/03/2020 14:32:57": [],
        "22/03/2020 16:59:35": [],
        "22/03/2020 19:18:48": []
    },
    "1006": {
        "22/03/2020 14:32:57": [],
        "22/03/2020 16:59:36": [],
        "22/03/2020 19:18:48": []
    },
    "1816": {
        "22/03/2020 14:32:57": [],
        "22/03/2020 16:59:37": [],
        "22/03/2020 19:18:49": []
    },
    "2294": {
        "22/03/2020 14:32:58": [],
        "22/03/2020 16:59:38": [],
        "22/03/2020 19:18:49": []
    },
    "7224": {
        "22/03/2020 14:32:58": [],
        "22/03/2020 16:59:38": [],
        "22/03/2020 19:18:49": []
    },
    "7238": {
        "22/03/2020 14:32:59": [],
        "22/03/2020 16:59:38": [],
        "22/03/2020 19:18:50": []
    },
    "92": {
        "22/03/2020 14:32:59": [],
        "22/03/2020 16:59:39": [],
        "22/03/2020 19:18:50": []
    },
    "93": {
        "22/03/2020 14:33:00": [],
        "22/03/2020 16:59:39": [],
        "22/03/2020 19:18:51": []
    },
    "94": {
        "22/03/2020 14:33:00": [],
        "22/03/2020 16:59:40": [],
        "22/03/2020 19:18:51": []
    },
    "112": {
        "22/03/2020 14:33:01": [],
        "22/03/2020 16:59:40": [],
        "22/03/2020 19:18:51": []
    },
    "1228": {
        "22/03/2020 14:33:01": [],
        "22/03/2020 16:59:41": [],
        "22/03/2020 19:18:52": []
    },
    "1229": {
        "22/03/2020 14:33:01": [],
        "22/03/2020 16:59:41": [],
        "22/03/2020 19:18:52": []
    },
    "129": {
        "22/03/2020 14:33:02": [],
        "22/03/2020 16:59:42": [],
        "22/03/2020 19:18:53": []
    },
    "130": {
        "22/03/2020 14:33:02": [],
        "22/03/2020 16:59:42": [],
        "22/03/2020 19:18:53": []
    },
    "5055": {
        "22/03/2020 14:33:03": [],
        "22/03/2020 16:59:43": [],
        "22/03/2020 19:18:54": []
    },
    "7237": {
        "22/03/2020 14:33:03": [],
        "22/03/2020 16:59:43": [],
        "22/03/2020 19:18:54": []
    },
    "7389": {
        "22/03/2020 14:33:04": [],
        "22/03/2020 16:59:44": [],
        "22/03/2020 19:18:54": []
    },
    "981": {
        "22/03/2020 14:33:04": [],
        "22/03/2020 16:59:44": [],
        "22/03/2020 19:18:55": []
    },
    "128": {
        "22/03/2020 14:33:05": [],
        "22/03/2020 16:59:45": [],
        "22/03/2020 19:18:55": []
    },
    "131": {
        "22/03/2020 14:33:05": [],
        "22/03/2020 16:59:45": [],
        "22/03/2020 19:18:56": []
    },
    "132": {
        "22/03/2020 14:33:06": [],
        "22/03/2020 16:59:45": [],
        "22/03/2020 19:18:56": []
    },
    "1576": {
        "22/03/2020 14:33:06": [],
        "22/03/2020 16:59:46": [],
        "22/03/2020 19:18:57": []
    },
    "1577": {
        "22/03/2020 14:33:07": [],
        "22/03/2020 16:59:46": [],
        "22/03/2020 19:18:57": []
    },
    "1578": {
        "22/03/2020 14:33:07": [],
        "22/03/2020 16:59:47": [],
        "22/03/2020 19:18:57": []
    },
    "1579": {
        "22/03/2020 14:33:08": [],
        "22/03/2020 16:59:47": [],
        "22/03/2020 19:18:58": []
    },
    "1580": {
        "22/03/2020 14:33:08": [],
        "22/03/2020 16:59:48": [],
        "22/03/2020 19:18:58": []
    },
    "1838": {
        "22/03/2020 14:33:09": [],
        "22/03/2020 16:59:48": [],
        "22/03/2020 19:18:59": []
    },
    "2290": {
        "22/03/2020 14:33:09": [],
        "22/03/2020 16:59:49": [],
        "22/03/2020 19:18:59": []
    },
    "4364": {
        "22/03/2020 14:33:10": [],
        "22/03/2020 16:59:49": [],
        "22/03/2020 19:19:00": []
    },
    "7458": {
        "22/03/2020 14:33:10": [],
        "22/03/2020 16:59:50": [],
        "22/03/2020 19:19:00": []
    },
    "5174": {
        "22/03/2020 14:33:11": [],
        "22/03/2020 16:59:50": [],
        "22/03/2020 19:19:00": []
    },
    "6179": {
        "22/03/2020 14:33:11": [],
        "22/03/2020 16:59:50": [],
        "22/03/2020 19:19:01": []
    },
    "6180": {
        "22/03/2020 14:33:12": [],
        "22/03/2020 16:59:51": [],
        "22/03/2020 19:19:01": []
    },
    "7025": {
        "22/03/2020 14:33:12": [],
        "22/03/2020 16:59:51": [],
        "22/03/2020 19:19:02": []
    },
    "113": {
        "22/03/2020 14:33:13": [],
        "22/03/2020 16:59:52": [],
        "22/03/2020 19:19:02": []
    },
    "1244": {
        "22/03/2020 14:33:13": [],
        "22/03/2020 16:59:52": [],
        "22/03/2020 19:19:03": []
    },
    "1246": {
        "22/03/2020 14:33:18": [],
        "22/03/2020 16:59:53": [],
        "22/03/2020 19:19:03": []
    },
    "1252": {
        "22/03/2020 14:33:24": [],
        "22/03/2020 16:59:53": [],
        "22/03/2020 19:19:03": []
    },
    "127": {
        "22/03/2020 14:33:29": [],
        "22/03/2020 16:59:54": [],
        "22/03/2020 19:19:04": []
    },
    "2338": {
        "22/03/2020 14:33:33": [],
        "22/03/2020 16:59:54": [],
        "22/03/2020 19:19:04": []
    },
    "6078": {
        "22/03/2020 14:33:38": [],
        "22/03/2020 16:59:55": [],
        "22/03/2020 19:19:05": []
    },
    "6274": {
        "22/03/2020 14:33:44": [],
        "22/03/2020 16:59:55": [],
        "22/03/2020 19:19:05": []
    },
    "7112": {
        "22/03/2020 14:33:48": [],
        "22/03/2020 16:59:56": [],
        "22/03/2020 19:19:06": []
    },
    "7241": {
        "22/03/2020 14:33:54": [],
        "22/03/2020 16:59:56": [],
        "22/03/2020 19:19:06": []
    },
    "7243": {
        "22/03/2020 14:33:59": [],
        "22/03/2020 16:59:56": [],
        "22/03/2020 19:19:07": []
    },
    "7247": {
        "22/03/2020 14:34:03": [],
        "22/03/2020 16:59:57": [],
        "22/03/2020 19:19:07": []
    },
    "7297": {
        "22/03/2020 14:34:08": [],
        "22/03/2020 16:59:57": [],
        "22/03/2020 19:19:08": []
    },
    "7334": {
        "22/03/2020 14:34:13": [],
        "22/03/2020 16:59:58": [],
        "22/03/2020 19:19:08": []
    },
    "956": {
        "22/03/2020 14:34:18": [],
        "22/03/2020 16:59:58": [],
        "22/03/2020 19:19:08": []
    },
    "957": {
        "22/03/2020 14:34:22": [],
        "22/03/2020 16:59:59": [],
        "22/03/2020 19:19:09": []
    },
    "958": {
        "22/03/2020 14:34:27": [],
        "22/03/2020 16:59:59": [],
        "22/03/2020 19:19:09": []
    },
    "959": {
        "22/03/2020 14:34:32": [],
        "22/03/2020 17:00:00": [],
        "22/03/2020 19:19:10": []
    },
    "960": {
        "22/03/2020 14:34:38": [],
        "22/03/2020 17:00:00": [],
        "22/03/2020 19:19:10": []
    },
    "961": {
        "22/03/2020 14:34:43": [],
        "22/03/2020 17:00:01": [],
        "22/03/2020 19:19:10": []
    },
    "962": {
        "22/03/2020 14:34:48": [],
        "22/03/2020 17:00:01": [],
        "22/03/2020 19:19:11": []
    },
    "963": {
        "22/03/2020 14:34:53": [],
        "22/03/2020 17:00:02": [],
        "22/03/2020 19:19:11": []
    },
    "964": {
        "22/03/2020 14:34:56": [],
        "22/03/2020 17:00:03": [],
        "22/03/2020 19:19:12": []
    },
    "965": {
        "22/03/2020 14:35:02": [],
        "22/03/2020 17:00:03": [],
        "22/03/2020 19:19:12": []
    },
    "966": {
        "22/03/2020 14:35:06": [],
        "22/03/2020 17:00:04": [],
        "22/03/2020 19:19:12": []
    },
    "967": {
        "22/03/2020 14:35:11": [],
        "22/03/2020 17:00:04": [],
        "22/03/2020 19:19:13": []
    },
    "968": {
        "22/03/2020 14:35:18": [],
        "22/03/2020 17:00:05": [],
        "22/03/2020 19:19:13": []
    },
    "972": {
        "22/03/2020 14:35:21": [],
        "22/03/2020 17:00:05": [],
        "22/03/2020 19:19:14": []
    },
    "973": {
        "22/03/2020 14:35:21": [],
        "22/03/2020 17:00:06": [],
        "22/03/2020 19:19:14": []
    },
    "974": {
        "22/03/2020 14:35:22": [],
        "22/03/2020 17:00:06": [],
        "22/03/2020 19:19:15": []
    },
    "975": {
        "22/03/2020 14:35:22": [],
        "22/03/2020 17:00:07": [],
        "22/03/2020 19:19:15": []
    },
    "976": {
        "22/03/2020 14:35:23": [],
        "22/03/2020 17:00:07": [],
        "22/03/2020 19:19:15": []
    },
    "979": {
        "22/03/2020 14:35:23": [],
        "22/03/2020 17:00:07": [],
        "22/03/2020 19:19:16": []
    },
    "980": {
        "22/03/2020 14:35:24": [],
        "22/03/2020 17:00:08": [],
        "22/03/2020 19:19:16": []
    }
}