{
    "1172": {
        "27/03/2020 13:43:39": [],
        "27/03/2020 17:33:27": []
    },
    "7608": {
        "27/03/2020 13:43:40": [],
        "27/03/2020 17:33:28": []
    },
    "497": {
        "27/03/2020 13:43:40": [],
        "27/03/2020 17:33:28": []
    },
    "7590": {
        "27/03/2020 13:43:41": [],
        "27/03/2020 17:33:29": []
    },
    "707": {
        "27/03/2020 13:43:41": [],
        "27/03/2020 17:33:29": []
    },
    "708": {
        "27/03/2020 13:43:42": [],
        "27/03/2020 17:33:29": []
    },
    "731": {
        "27/03/2020 13:43:42": [],
        "27/03/2020 17:33:30": []
    },
    "710": {
        "27/03/2020 13:43:43": [],
        "27/03/2020 17:33:31": []
    },
    "711": {
        "27/03/2020 13:43:43": [],
        "27/03/2020 17:33:31": []
    },
    "712": {
        "27/03/2020 13:43:44": [],
        "27/03/2020 17:33:31": []
    },
    "713": {
        "27/03/2020 13:43:44": [],
        "27/03/2020 17:33:32": []
    },
    "714": {
        "27/03/2020 13:43:45": [],
        "27/03/2020 17:33:32": []
    },
    "715": {
        "27/03/2020 13:43:45": [],
        "27/03/2020 17:33:33": []
    },
    "716": {
        "27/03/2020 13:43:46": [],
        "27/03/2020 17:33:33": []
    },
    "717": {
        "27/03/2020 13:43:46": [],
        "27/03/2020 17:33:33": []
    },
    "718": {
        "27/03/2020 13:43:47": [],
        "27/03/2020 17:33:34": []
    },
    "719": {
        "27/03/2020 13:43:47": [],
        "27/03/2020 17:33:34": []
    },
    "720": {
        "27/03/2020 13:43:47": [],
        "27/03/2020 17:33:35": []
    },
    "721": {
        "27/03/2020 13:43:48": [],
        "27/03/2020 17:33:35": []
    },
    "693": {
        "27/03/2020 13:43:48": [],
        "27/03/2020 17:33:36": []
    },
    "621": {
        "27/03/2020 13:43:49": [
            0,
            0
        ],
        "27/03/2020 17:33:36": [
            0,
            0
        ]
    },
    "289": {
        "27/03/2020 13:43:49": [
            25,
            13
        ],
        "27/03/2020 17:33:37": [
            20,
            18
        ]
    },
    "496": {
        "27/03/2020 13:43:50": [
            13,
            -7
        ],
        "27/03/2020 17:33:37": [
            -11,
            0
        ]
    },
    "515": {
        "27/03/2020 13:43:50": [
            -7,
            -5
        ],
        "27/03/2020 17:33:38": [
            -10,
            -27
        ]
    },
    "516": {
        "27/03/2020 13:43:51": [
            -21,
            -5
        ],
        "27/03/2020 17:33:38": [
            -17,
            16
        ]
    },
    "4384": {
        "27/03/2020 13:43:51": [
            23,
            3
        ],
        "27/03/2020 17:33:39": [
            21,
            1
        ]
    },
    "519": {
        "27/03/2020 13:43:52": [
            17,
            27
        ],
        "27/03/2020 17:33:39": [
            9,
            -4
        ]
    },
    "521": {
        "27/03/2020 13:43:52": [
            -14,
            -3
        ],
        "27/03/2020 17:33:39": [
            -25
        ]
    },
    "522": {
        "27/03/2020 13:43:53": [
            27,
            -19
        ],
        "27/03/2020 17:33:40": [
            13
        ]
    },
    "523": {
        "27/03/2020 13:43:53": [
            12,
            -14
        ],
        "27/03/2020 17:33:40": [
            -2
        ]
    },
    "525": {
        "27/03/2020 13:43:54": [
            20
        ],
        "27/03/2020 17:33:41": [
            13
        ]
    },
    "526": {
        "27/03/2020 13:43:54": [
            151,
            0
        ],
        "27/03/2020 17:33:41": [
            -10
        ]
    },
    "527": {
        "27/03/2020 13:43:55": [
            151,
            0
        ],
        "27/03/2020 17:33:42": [
            -16
        ]
    },
    "528": {
        "27/03/2020 13:43:55": [
            123,
            -28
        ],
        "27/03/2020 17:33:42": [
            8
        ]
    },
    "529": {
        "27/03/2020 13:43:56": [
            153,
            2
        ],
        "27/03/2020 17:33:42": [
            -30
        ]
    },
    "530": {
        "27/03/2020 13:43:56": [
            129,
            -22
        ],
        "27/03/2020 17:33:43": [
            -3
        ]
    },
    "531": {
        "27/03/2020 13:43:57": [
            172,
            21
        ],
        "27/03/2020 17:33:43": [
            29
        ]
    },
    "709": {
        "27/03/2020 13:43:57": [
            190,
            20
        ],
        "27/03/2020 17:33:44": [
            6
        ]
    },
    "532": {
        "27/03/2020 13:43:57": [
            139,
            3
        ],
        "27/03/2020 17:33:44": [
            17
        ]
    },
    "533": {
        "27/03/2020 13:43:58": [
            132,
            -4
        ],
        "27/03/2020 17:33:44": [
            -1
        ]
    },
    "534": {
        "27/03/2020 13:43:58": [
            115,
            -21
        ],
        "27/03/2020 17:33:45": [
            -19
        ]
    },
    "535": {
        "27/03/2020 13:43:59": [
            221,
            19
        ],
        "27/03/2020 17:33:45": [
            21
        ]
    },
    "536": {
        "27/03/2020 13:43:59": [
            146,
            10
        ],
        "27/03/2020 17:33:46": [
            -6
        ]
    },
    "537": {
        "27/03/2020 13:44:00": [
            158,
            22
        ],
        "27/03/2020 17:33:46": [
            -20
        ]
    },
    "538": {
        "27/03/2020 13:44:00": [
            150
        ],
        "27/03/2020 17:33:47": [
            13
        ]
    },
    "539": {
        "27/03/2020 13:44:01": [
            156,
            20
        ],
        "27/03/2020 17:33:47": [
            -4
        ]
    },
    "540": {
        "27/03/2020 13:44:01": [
            121,
            -15
        ],
        "27/03/2020 17:33:48": [
            17
        ]
    },
    "541": {
        "27/03/2020 13:44:02": [
            140,
            4
        ],
        "27/03/2020 17:33:48": [
            -26
        ]
    },
    "542": {
        "27/03/2020 13:44:02": [],
        "27/03/2020 17:33:49": [
            -24
        ]
    },
    "543": {
        "27/03/2020 13:44:03": [
            164,
            28
        ],
        "27/03/2020 17:33:49": [
            18
        ]
    },
    "544": {
        "27/03/2020 13:44:03": [
            137,
            1
        ],
        "27/03/2020 17:33:50": [
            -109,
            -10
        ]
    },
    "545": {
        "27/03/2020 13:44:04": [
            112,
            -24
        ],
        "27/03/2020 17:33:50": [
            -75,
            24
        ]
    },
    "546": {
        "27/03/2020 13:44:04": [
            157,
            21
        ],
        "27/03/2020 17:33:51": [
            -119,
            -3
        ]
    },
    "547": {
        "27/03/2020 13:44:04": [
            134,
            -2
        ],
        "27/03/2020 17:33:51": [
            -142,
            -26
        ]
    },
    "548": {
        "27/03/2020 13:44:05": [
            110,
            -26
        ],
        "27/03/2020 17:33:52": [
            -86,
            10
        ]
    },
    "549": {
        "27/03/2020 13:44:05": [
            136,
            0
        ],
        "27/03/2020 17:33:52": [
            -120,
            -24
        ]
    },
    "550": {
        "27/03/2020 13:44:06": [
            107,
            -29
        ],
        "27/03/2020 17:33:53": [
            -120,
            5
        ]
    },
    "551": {
        "27/03/2020 13:44:07": [
            160,
            24
        ],
        "27/03/2020 17:33:53": [
            -129,
            -4
        ]
    },
    "552": {
        "27/03/2020 13:44:07": [
            119,
            -17
        ],
        "27/03/2020 17:33:54": [
            -112,
            13
        ]
    },
    "553": {
        "27/03/2020 13:44:08": [
            114,
            -22
        ],
        "27/03/2020 17:33:54": [
            -122,
            3
        ]
    },
    "554": {
        "27/03/2020 13:44:08": [
            131,
            -5
        ],
        "27/03/2020 17:33:55": [
            -107,
            18
        ]
    },
    "555": {
        "27/03/2020 13:44:08": [
            119,
            -17
        ],
        "27/03/2020 17:33:55": [
            -122,
            3
        ]
    },
    "557": {
        "27/03/2020 13:44:09": [
            159,
            23
        ],
        "27/03/2020 17:33:55": [
            -143,
            -18
        ]
    },
    "558": {
        "27/03/2020 13:44:09": [
            134,
            -2
        ],
        "27/03/2020 17:33:56": [
            -115,
            10
        ]
    },
    "559": {
        "27/03/2020 13:44:10": [
            148,
            12
        ],
        "27/03/2020 17:33:57": [
            -117,
            8
        ]
    },
    "560": {
        "27/03/2020 13:44:10": [
            144,
            8
        ],
        "27/03/2020 17:33:57": [
            -133,
            -8
        ]
    },
    "562": {
        "27/03/2020 13:44:11": [
            144,
            8
        ],
        "27/03/2020 17:33:57": [
            -130,
            -5
        ]
    },
    "563": {
        "27/03/2020 13:44:11": [
            163,
            27
        ],
        "27/03/2020 17:33:58": [
            -110,
            15
        ]
    },
    "564": {
        "27/03/2020 13:44:12": [
            123,
            -13
        ],
        "27/03/2020 17:33:58": [
            -148,
            -23
        ]
    },
    "565": {
        "27/03/2020 13:44:12": [
            157,
            21
        ],
        "27/03/2020 17:33:59": [
            -112,
            13
        ]
    },
    "566": {
        "27/03/2020 13:44:13": [
            116,
            -20
        ],
        "27/03/2020 17:33:59": [
            -152,
            -27
        ]
    },
    "567": {
        "27/03/2020 13:44:13": [
            0,
            0
        ],
        "27/03/2020 17:34:00": [
            0,
            0,
            0
        ]
    },
    "568": {
        "27/03/2020 13:44:14": [
            24,
            23
        ],
        "27/03/2020 17:34:00": [
            -24,
            -24,
            24
        ]
    },
    "569": {
        "27/03/2020 13:44:14": [
            -16,
            -19
        ],
        "27/03/2020 17:34:00": [
            5,
            5,
            -16
        ]
    },
    "570": {
        "27/03/2020 13:44:15": [
            3,
            -1
        ],
        "27/03/2020 17:34:01": [
            -26,
            -26,
            3
        ]
    },
    "571": {
        "27/03/2020 13:44:16": [
            17,
            12
        ],
        "27/03/2020 17:34:02": [
            -6,
            -6,
            16
        ]
    },
    "572": {
        "27/03/2020 13:44:16": [
            -24,
            -30
        ],
        "27/03/2020 17:34:02": [
            22,
            22,
            -25
        ]
    },
    "573": {
        "27/03/2020 13:44:16": [
            -2,
            -10
        ],
        "27/03/2020 17:34:03": [
            -6,
            -6,
            -3
        ]
    },
    "574": {
        "27/03/2020 13:44:17": [
            -24,
            26
        ],
        "27/03/2020 17:34:03": [
            -9,
            -9,
            -25
        ]
    },
    "575": {
        "27/03/2020 13:44:17": [
            1,
            -8
        ],
        "27/03/2020 17:34:04": [
            17,
            17,
            -6
        ]
    },
    "576": {
        "27/03/2020 13:44:18": [
            5,
            -2
        ],
        "27/03/2020 17:34:04": [
            22,
            22,
            -17
        ]
    },
    "577": {
        "27/03/2020 13:44:18": [
            -17,
            -22
        ],
        "27/03/2020 17:34:05": [
            2,
            2,
            13
        ]
    },
    "579": {
        "27/03/2020 13:44:19": [
            28,
            24
        ],
        "27/03/2020 17:34:05": [
            -12,
            -12,
            -13
        ]
    },
    "580": {
        "27/03/2020 13:44:19": [
            -3,
            -10
        ],
        "27/03/2020 17:34:06": [
            18,
            18,
            14
        ]
    },
    "581": {
        "27/03/2020 13:44:20": [
            24,
            14
        ],
        "27/03/2020 17:34:06": [
            -14,
            -14,
            -21
        ]
    },
    "582": {
        "27/03/2020 13:44:20": [
            4,
            -10
        ],
        "27/03/2020 17:34:07": [
            -30,
            -30,
            14
        ]
    },
    "583": {
        "27/03/2020 13:44:21": [
            -10,
            -13
        ],
        "27/03/2020 17:34:07": [
            15,
            15,
            -3
        ]
    },
    "584": {
        "27/03/2020 13:44:21": [
            21,
            25
        ],
        "27/03/2020 17:34:08": [
            -15,
            -15,
            26
        ]
    },
    "585": {
        "27/03/2020 13:44:22": [
            -14,
            -29
        ],
        "27/03/2020 17:34:08": [
            15,
            15,
            23
        ]
    },
    "586": {
        "27/03/2020 13:44:22": [
            22,
            11
        ],
        "27/03/2020 17:34:09": [
            2,
            2,
            0
        ]
    },
    "587": {
        "27/03/2020 13:44:23": [
            11,
            5
        ],
        "27/03/2020 17:34:09": [
            5,
            5,
            -11
        ]
    },
    "588": {
        "27/03/2020 13:44:23": [
            25,
            21
        ],
        "27/03/2020 17:34:10": [
            23,
            23,
            5
        ]
    },
    "589": {
        "27/03/2020 13:44:24": [
            -2
        ],
        "27/03/2020 17:34:10": [
            3,
            3,
            -17
        ]
    },
    "590": {
        "27/03/2020 13:44:24": [
            23
        ],
        "27/03/2020 17:34:11": [
            25,
            25,
            2
        ]
    },
    "591": {
        "27/03/2020 13:44:25": [
            119,
            25
        ],
        "27/03/2020 17:34:11": [
            21,
            21,
            -11
        ]
    },
    "592": {
        "27/03/2020 13:44:25": [
            100,
            6
        ],
        "27/03/2020 17:34:11": [
            -2,
            -2,
            20
        ]
    },
    "593": {
        "27/03/2020 13:44:26": [
            67,
            -27
        ],
        "27/03/2020 17:34:12": [
            23,
            23,
            -19
        ]
    },
    "594": {
        "27/03/2020 13:44:26": [
            92,
            -2
        ],
        "27/03/2020 17:34:12": [
            -14,
            -14,
            2
        ]
    },
    "595": {
        "27/03/2020 13:44:27": [
            113,
            19
        ],
        "27/03/2020 17:34:13": [
            5,
            5,
            21
        ]
    },
    "596": {
        "27/03/2020 13:44:27": [
            111,
            -27
        ],
        "27/03/2020 17:34:13": [
            18,
            18,
            -27
        ]
    },
    "597": {
        "27/03/2020 13:44:27": [
            140,
            2
        ],
        "27/03/2020 17:34:14": [
            -12,
            -12
        ]
    },
    "598": {
        "27/03/2020 13:44:28": [
            124,
            -14
        ],
        "27/03/2020 17:34:14": [
            -29,
            -29
        ]
    },
    "599": {
        "27/03/2020 13:44:28": [
            162,
            24
        ],
        "27/03/2020 17:34:15": [
            10,
            10
        ]
    },
    "600": {
        "27/03/2020 13:44:29": [
            90,
            -4
        ],
        "27/03/2020 17:34:15": [
            -18,
            -18
        ]
    },
    "601": {
        "27/03/2020 13:44:29": [
            112,
            18
        ],
        "27/03/2020 17:34:16": [
            7,
            7
        ]
    },
    "602": {
        "27/03/2020 13:44:30": [
            75,
            -19
        ],
        "27/03/2020 17:34:16": [
            -27,
            -27
        ]
    },
    "603": {
        "27/03/2020 13:44:30": [
            102,
            8
        ],
        "27/03/2020 17:34:17": [
            3,
            3
        ]
    },
    "604": {
        "27/03/2020 13:44:31": [
            64,
            -30
        ],
        "27/03/2020 17:34:17": [
            29,
            29
        ]
    },
    "605": {
        "27/03/2020 13:44:31": [
            81,
            -13
        ],
        "27/03/2020 17:34:17": [
            -11,
            -11
        ]
    },
    "606": {
        "27/03/2020 13:44:32": [
            66,
            -28
        ],
        "27/03/2020 17:34:18": [
            -24,
            -24
        ]
    },
    "607": {
        "27/03/2020 13:44:32": [
            66,
            18
        ],
        "27/03/2020 17:34:18": [
            17,
            17
        ]
    },
    "608": {
        "27/03/2020 13:44:33": [
            139,
            -15
        ],
        "27/03/2020 17:34:19": [
            -18,
            -18
        ]
    },
    "609": {
        "27/03/2020 13:44:34": [
            94,
            -27
        ],
        "27/03/2020 17:34:19": [
            20,
            20
        ]
    },
    "610": {
        "27/03/2020 13:44:34": [
            128,
            7
        ],
        "27/03/2020 17:34:20": [
            -13,
            -13
        ]
    },
    "611": {
        "27/03/2020 13:44:35": [
            119,
            -2
        ],
        "27/03/2020 17:34:20": [
            -17,
            -17
        ]
    },
    "612": {
        "27/03/2020 13:44:35": [
            93,
            -28
        ],
        "27/03/2020 17:34:21": [
            20,
            20
        ]
    },
    "613": {
        "27/03/2020 13:44:35": [
            137,
            16
        ],
        "27/03/2020 17:34:21": [
            0,
            0
        ]
    },
    "614": {
        "27/03/2020 13:44:36": [
            110,
            -11
        ],
        "27/03/2020 17:34:22": [
            23,
            23
        ]
    },
    "615": {
        "27/03/2020 13:44:36": [
            92,
            -29
        ],
        "27/03/2020 17:34:22": [
            15,
            15
        ]
    },
    "616": {
        "27/03/2020 13:44:37": [
            129,
            8
        ],
        "27/03/2020 17:34:23": [
            -1,
            -1
        ]
    },
    "617": {
        "27/03/2020 13:44:37": [
            111,
            -10
        ],
        "27/03/2020 17:34:23": [
            -20,
            -20
        ]
    },
    "618": {
        "27/03/2020 13:44:38": [
            94,
            -27
        ],
        "27/03/2020 17:34:24": [
            22,
            22
        ]
    },
    "619": {
        "27/03/2020 13:44:38": [
            137,
            16
        ],
        "27/03/2020 17:34:24": [
            14,
            14
        ]
    },
    "675": {
        "27/03/2020 13:44:39": [
            100,
            -21
        ],
        "27/03/2020 17:34:25": [
            -18,
            -18
        ]
    },
    "620": {
        "27/03/2020 13:44:39": [
            136,
            15
        ],
        "27/03/2020 17:34:25": [
            7
        ]
    },
    "7569": {
        "27/03/2020 13:44:40": [],
        "27/03/2020 17:34:26": []
    }
}