{
    "7569": {
        "21/03/2020 14:04:21": [],
        "21/03/2020 14:06:02": [],
        "21/03/2020 16:52:44": [],
        "21/03/2020 19:24:11": [],
        "21/03/2020 21:26:01": []
    },
    "1172": {
        "21/03/2020 14:04:21": [],
        "21/03/2020 16:52:07": [],
        "21/03/2020 19:23:17": [],
        "21/03/2020 21:25:06": []
    },
    "567": {
        "21/03/2020 14:04:21": [
            0,
            0
        ],
        "21/03/2020 14:04:39": [
            0,
            0
        ],
        "21/03/2020 14:05:46": [
            0,
            0
        ],
        "21/03/2020 16:52:28": [
            0,
            0,
            0,
            0
        ],
        "21/03/2020 19:23:48": [
            0,
            0
        ],
        "21/03/2020 21:25:37": [
            0
        ]
    },
    "568": {
        "21/03/2020 14:04:22": [
            29,
            28
        ],
        "21/03/2020 14:05:47": [
            29,
            28
        ],
        "21/03/2020 16:52:28": [
            26,
            26,
            26,
            26
        ],
        "21/03/2020 19:23:49": [
            27,
            24
        ],
        "21/03/2020 21:25:38": [
            24
        ]
    },
    "569": {
        "21/03/2020 14:04:22": [
            -7,
            -10
        ],
        "21/03/2020 14:05:47": [
            -7,
            -10
        ],
        "21/03/2020 16:52:29": [
            -13,
            -12,
            -12,
            -12
        ],
        "21/03/2020 19:23:49": [
            -11,
            -15
        ],
        "21/03/2020 21:25:38": [
            -15
        ]
    },
    "570": {
        "21/03/2020 14:04:22": [
            15,
            12
        ],
        "21/03/2020 14:05:47": [
            15,
            12
        ],
        "21/03/2020 16:52:29": [
            8,
            8,
            8,
            8
        ],
        "21/03/2020 19:23:49": [
            11,
            4
        ],
        "21/03/2020 21:25:39": [
            4
        ]
    },
    "571": {
        "21/03/2020 14:04:22": [
            -29,
            27
        ],
        "21/03/2020 14:05:48": [
            -29,
            27
        ],
        "21/03/2020 16:52:29": [
            22,
            23,
            23,
            23
        ],
        "21/03/2020 19:23:50": [
            26,
            18
        ],
        "21/03/2020 21:25:40": [
            18
        ]
    },
    "572": {
        "21/03/2020 14:04:23": [
            -6,
            -11
        ],
        "21/03/2020 14:05:48": [
            -6,
            -11
        ],
        "21/03/2020 16:52:30": [
            -17,
            -16,
            -16,
            -16
        ],
        "21/03/2020 19:23:50": [
            -12,
            -23
        ],
        "21/03/2020 21:25:40": [
            -23
        ]
    },
    "573": {
        "21/03/2020 14:04:23": [
            20,
            14
        ],
        "21/03/2020 14:05:48": [
            20,
            14
        ],
        "21/03/2020 16:52:30": [
            7,
            7,
            7,
            7
        ],
        "21/03/2020 19:23:51": [
            12,
            -1
        ],
        "21/03/2020 21:25:40": [
            -1
        ]
    },
    "574": {
        "21/03/2020 14:04:24": [
            6
        ],
        "21/03/2020 14:05:48": [
            6,
            -2
        ],
        "21/03/2020 16:52:30": [
            -12,
            -11,
            -11,
            -11
        ],
        "21/03/2020 19:23:51": [
            -5,
            -22
        ],
        "21/03/2020 21:25:41": [
            -22
        ]
    },
    "575": {
        "21/03/2020 14:04:24": [
            -14
        ],
        "21/03/2020 14:05:49": [
            -14,
            -20
        ],
        "21/03/2020 16:52:31": [
            27,
            23,
            23,
            23
        ],
        "21/03/2020 19:23:52": [
            28
        ],
        "21/03/2020 21:25:41": [
            5
        ]
    },
    "576": {
        "21/03/2020 14:04:25": [
            9,
            26
        ],
        "21/03/2020 14:05:49": [
            26
        ],
        "21/03/2020 16:52:31": [
            4,
            -11,
            -11,
            -11
        ],
        "21/03/2020 19:23:52": [
            -12,
            -12
        ],
        "21/03/2020 21:25:42": [
            11
        ]
    },
    "577": {
        "21/03/2020 14:04:25": [
            -1,
            27
        ],
        "21/03/2020 14:05:49": [
            -1,
            27
        ],
        "21/03/2020 16:52:31": [
            4,
            -19,
            -19,
            -19
        ],
        "21/03/2020 19:23:52": [
            -22,
            -22
        ],
        "21/03/2020 21:25:42": [
            -9
        ]
    },
    "579": {
        "21/03/2020 14:04:25": [
            -2,
            -23
        ],
        "21/03/2020 14:05:50": [
            -2,
            -23
        ],
        "21/03/2020 16:52:32": [
            12,
            -19,
            -19
        ],
        "21/03/2020 19:23:53": [
            -25,
            -25
        ],
        "21/03/2020 21:25:43": []
    },
    "580": {
        "21/03/2020 14:04:26": [
            28,
            11
        ],
        "21/03/2020 14:05:50": [
            28,
            11
        ],
        "21/03/2020 16:52:32": [
            -16,
            12,
            12
        ],
        "21/03/2020 19:23:53": [
            5,
            5
        ],
        "21/03/2020 21:25:43": []
    },
    "581": {
        "21/03/2020 14:04:26": [
            -3,
            -16
        ],
        "21/03/2020 14:05:50": [
            -3,
            -16
        ],
        "21/03/2020 16:52:32": [
            14,
            -19,
            -19
        ],
        "21/03/2020 19:23:54": [
            -26,
            -26
        ],
        "21/03/2020 21:25:43": [
            -65
        ]
    },
    "582": {
        "21/03/2020 14:04:26": [
            -18,
            -27
        ],
        "21/03/2020 14:05:50": [
            -18,
            -27
        ],
        "21/03/2020 16:52:32": [
            -2,
            20,
            20
        ],
        "21/03/2020 19:23:54": [
            17,
            17
        ],
        "21/03/2020 21:25:44": [
            -24
        ]
    },
    "583": {
        "21/03/2020 14:04:27": [
            -12,
            -27
        ],
        "21/03/2020 14:05:51": [
            -12,
            -27
        ],
        "21/03/2020 16:52:33": [
            -6,
            8,
            8
        ],
        "21/03/2020 19:23:54": [
            13,
            13
        ],
        "21/03/2020 21:25:44": [
            -36
        ]
    },
    "584": {
        "21/03/2020 14:04:27": [
            -29,
            13
        ],
        "21/03/2020 14:05:51": [
            -29,
            13
        ],
        "21/03/2020 16:52:33": [
            -30,
            -20,
            -20
        ],
        "21/03/2020 19:23:55": [
            -10,
            -10
        ],
        "21/03/2020 21:25:45": [
            -64
        ]
    },
    "585": {
        "21/03/2020 14:04:27": [
            12,
            25
        ],
        "21/03/2020 14:04:49": [
            12,
            25
        ],
        "21/03/2020 14:05:31": [
            12,
            25
        ],
        "21/03/2020 14:05:51": [
            12,
            25
        ],
        "21/03/2020 16:52:33": [
            -7,
            2,
            2
        ],
        "21/03/2020 19:23:55": [
            -1,
            -1
        ],
        "21/03/2020 21:25:45": [
            -67
        ]
    },
    "586": {
        "21/03/2020 14:04:28": [
            -2,
            9
        ],
        "21/03/2020 14:05:52": [
            -2,
            9
        ],
        "21/03/2020 16:52:33": [
            -20,
            -13,
            -13
        ],
        "21/03/2020 19:23:56": [
            -19,
            -19
        ],
        "21/03/2020 21:25:46": [
            -29
        ]
    },
    "587": {
        "21/03/2020 14:04:28": [
            -2,
            8
        ],
        "21/03/2020 14:05:52": [
            -2,
            8
        ],
        "21/03/2020 16:52:34": [
            -18,
            -14,
            -14
        ],
        "21/03/2020 19:23:56": [
            -22,
            -22
        ],
        "21/03/2020 21:25:46": [
            -57
        ]
    },
    "588": {
        "21/03/2020 14:04:28": [
            19,
            27
        ],
        "21/03/2020 14:05:52": [
            19,
            27
        ],
        "21/03/2020 16:52:34": [
            -1,
            5,
            5
        ],
        "21/03/2020 19:23:56": [
            -5,
            -5
        ],
        "21/03/2020 21:25:46": [
            -40
        ]
    },
    "589": {
        "21/03/2020 14:04:28": [
            7,
            9
        ],
        "21/03/2020 14:05:53": [
            7,
            9
        ],
        "21/03/2020 16:52:34": [
            -23,
            -12,
            -12
        ],
        "21/03/2020 19:23:57": [
            -26,
            -26
        ],
        "21/03/2020 21:25:47": [
            -60
        ]
    },
    "590": {
        "21/03/2020 14:04:29": [
            -27,
            -27
        ],
        "21/03/2020 14:05:53": [
            -27,
            -27
        ],
        "21/03/2020 16:52:35": [
            5,
            11,
            11
        ],
        "21/03/2020 19:23:57": [
            -3,
            -3
        ],
        "21/03/2020 21:25:47": [
            -38
        ]
    },
    "591": {
        "21/03/2020 14:04:29": [
            -20,
            -25
        ],
        "21/03/2020 14:05:53": [
            -20,
            -25
        ],
        "21/03/2020 16:52:35": [
            424,
            15,
            8,
            8
        ],
        "21/03/2020 19:23:58": [
            -4,
            -4
        ],
        "21/03/2020 21:25:48": [
            -41
        ]
    },
    "592": {
        "21/03/2020 14:04:29": [
            -30,
            26
        ],
        "21/03/2020 14:05:53": [
            -30,
            26
        ],
        "21/03/2020 16:52:35": [
            413,
            4,
            -7,
            -7
        ],
        "21/03/2020 19:23:58": [
            -19,
            -19
        ],
        "21/03/2020 21:25:48": [
            -65
        ]
    },
    "593": {
        "21/03/2020 14:04:30": [
            2,
            0
        ],
        "21/03/2020 14:05:54": [
            2,
            0
        ],
        "21/03/2020 16:52:36": [
            385,
            -24,
            22,
            22
        ],
        "21/03/2020 19:23:58": [
            10,
            10
        ],
        "21/03/2020 21:25:49": [
            -41
        ]
    },
    "594": {
        "21/03/2020 14:04:30": [
            -21,
            -30
        ],
        "21/03/2020 14:05:54": [
            -21,
            -30
        ],
        "21/03/2020 16:52:36": [
            417,
            8,
            -8,
            -8
        ],
        "21/03/2020 19:23:59": [
            -18,
            -18
        ],
        "21/03/2020 21:25:49": [
            -74
        ]
    },
    "595": {
        "21/03/2020 14:04:30": [
            11,
            -5
        ],
        "21/03/2020 14:05:54": [
            11,
            -5
        ],
        "21/03/2020 16:52:36": [
            385,
            -24,
            18,
            18
        ],
        "21/03/2020 19:23:59": [
            10,
            10
        ],
        "21/03/2020 21:25:49": [
            -51
        ]
    },
    "596": {
        "21/03/2020 14:04:30": [
            -28,
            12
        ],
        "21/03/2020 14:05:55": [
            -28,
            12
        ],
        "21/03/2020 16:52:37": [
            403,
            -6,
            -25,
            -25
        ],
        "21/03/2020 19:24:00": [
            28,
            28
        ],
        "21/03/2020 21:25:50": [
            -36
        ]
    },
    "597": {
        "21/03/2020 14:04:31": [
            18,
            -13
        ],
        "21/03/2020 14:05:55": [
            18,
            -13
        ],
        "21/03/2020 16:52:37": [
            437,
            28,
            7,
            7
        ],
        "21/03/2020 19:24:00": [
            2,
            2
        ],
        "21/03/2020 21:25:50": [
            -10
        ]
    },
    "598": {
        "21/03/2020 14:04:31": [
            25,
            -21
        ],
        "21/03/2020 14:05:55": [
            25,
            -21
        ],
        "21/03/2020 16:52:37": [
            428,
            19,
            -5,
            -5
        ],
        "21/03/2020 19:24:01": [
            -8,
            -8
        ],
        "21/03/2020 21:25:51": [
            -29
        ]
    },
    "607": {
        "21/03/2020 14:04:31": [
            -20,
            16
        ],
        "21/03/2020 14:05:58": [
            -20,
            16
        ],
        "21/03/2020 16:52:40": [
            354,
            2,
            21
        ],
        "21/03/2020 19:24:05": [
            15,
            15,
            15
        ],
        "21/03/2020 21:25:54": [
            8
        ]
    },
    "608": {
        "21/03/2020 14:04:31": [
            -40,
            -4
        ],
        "21/03/2020 14:05:58": [
            -40,
            -4
        ],
        "21/03/2020 16:52:40": [
            328,
            -24,
            -7
        ],
        "21/03/2020 19:24:05": [
            -15,
            -15,
            -15
        ],
        "21/03/2020 21:25:55": [
            -27
        ]
    },
    "610": {
        "21/03/2020 14:04:32": [
            -65,
            -29
        ],
        "21/03/2020 14:05:59": [
            -65,
            -29
        ],
        "21/03/2020 16:52:41": [
            360,
            8,
            9
        ],
        "21/03/2020 19:24:06": [
            12,
            12,
            12
        ],
        "21/03/2020 21:25:56": [
            -21
        ]
    },
    "611": {
        "21/03/2020 14:04:32": [
            -51,
            -15
        ],
        "21/03/2020 14:05:59": [
            -51,
            -15
        ],
        "21/03/2020 16:52:41": [
            351,
            16,
            6
        ],
        "21/03/2020 19:24:07": [
            13,
            13,
            13
        ],
        "21/03/2020 21:25:56": [
            29
        ]
    },
    "612": {
        "21/03/2020 14:04:32": [
            -62,
            -26
        ],
        "21/03/2020 14:05:59": [
            -62,
            -26
        ],
        "21/03/2020 16:52:42": [
            336,
            1,
            -16
        ],
        "21/03/2020 19:24:07": [
            -6,
            -6,
            -6
        ],
        "21/03/2020 21:25:56": [
            2
        ]
    },
    "599": {
        "21/03/2020 14:04:33": [
            24,
            25
        ],
        "21/03/2020 14:05:55": [
            24,
            25
        ],
        "21/03/2020 16:52:38": [
            413,
            4,
            -23,
            -23
        ],
        "21/03/2020 19:24:01": [
            -24,
            -24
        ],
        "21/03/2020 21:25:51": [
            7
        ]
    },
    "600": {
        "21/03/2020 14:04:33": [
            13,
            3
        ],
        "21/03/2020 14:05:56": [
            13,
            3
        ],
        "21/03/2020 16:52:38": [
            390,
            -19,
            12,
            12
        ],
        "21/03/2020 19:24:02": [
            13,
            13
        ],
        "21/03/2020 21:25:52": [
            -22
        ]
    },
    "601": {
        "21/03/2020 14:04:33": [
            -12
        ],
        "21/03/2020 14:05:56": [
            -12
        ],
        "21/03/2020 16:52:38": [
            421,
            12,
            -18,
            -18
        ],
        "21/03/2020 19:24:02": [
            -20,
            -20
        ],
        "21/03/2020 21:25:52": [
            1
        ]
    },
    "615": {
        "21/03/2020 14:04:33": [
            8,
            8
        ],
        "21/03/2020 14:06:00": [
            8,
            8
        ],
        "21/03/2020 16:52:42": [
            1290,
            413,
            24,
            -22
        ],
        "21/03/2020 19:24:08": [
            -8,
            -8,
            -8
        ],
        "21/03/2020 21:25:58": [
            -25
        ]
    },
    "616": {
        "21/03/2020 14:04:34": [
            -4,
            -4
        ],
        "21/03/2020 14:06:01": [
            -4,
            -4
        ],
        "21/03/2020 16:52:43": [
            1280,
            407,
            18,
            21
        ],
        "21/03/2020 19:24:09": [
            -27,
            -27,
            -27
        ],
        "21/03/2020 21:25:58": [
            10
        ]
    },
    "617": {
        "21/03/2020 14:04:34": [
            -14,
            -14
        ],
        "21/03/2020 14:06:01": [
            -14,
            -14
        ],
        "21/03/2020 16:52:43": [
            1272,
            394,
            5,
            6
        ],
        "21/03/2020 19:24:09": [
            11,
            11,
            11
        ],
        "21/03/2020 21:25:59": [
            -15
        ]
    },
    "618": {
        "21/03/2020 14:04:34": [
            -24,
            -24
        ],
        "21/03/2020 14:06:01": [
            -24,
            -24
        ],
        "21/03/2020 16:52:43": [
            1264,
            382,
            -7,
            -9
        ],
        "21/03/2020 19:24:10": [
            -11,
            -11,
            -11
        ],
        "21/03/2020 21:25:59": [
            20
        ]
    },
    "619": {
        "21/03/2020 14:04:35": [
            -29,
            -29
        ],
        "21/03/2020 14:06:01": [
            -29,
            -29
        ],
        "21/03/2020 16:52:44": [
            1258,
            374,
            -15,
            -16
        ],
        "21/03/2020 19:24:10": [
            -22,
            -22
        ],
        "21/03/2020 21:26:00": [
            -1
        ]
    },
    "675": {
        "21/03/2020 14:04:35": [
            1,
            1
        ],
        "21/03/2020 14:06:02": [
            1,
            1
        ],
        "21/03/2020 16:52:44": [
            1226,
            403,
            14,
            13
        ],
        "21/03/2020 19:24:11": [
            5,
            5
        ],
        "21/03/2020 21:26:00": [
            20
        ]
    },
    "613": {
        "21/03/2020 14:04:35": [
            -38,
            25
        ],
        "21/03/2020 14:06:00": [
            -38,
            25
        ],
        "21/03/2020 16:52:42": [
            1328,
            321,
            -14,
            24
        ],
        "21/03/2020 19:24:07": [
            -24,
            -24,
            -24
        ],
        "21/03/2020 21:25:57": [
            -22
        ]
    },
    "614": {
        "21/03/2020 14:04:36": [
            -64,
            12
        ],
        "21/03/2020 14:06:00": [
            -64,
            12
        ],
        "21/03/2020 16:52:42": [
            1292,
            409,
            20,
            -12
        ],
        "21/03/2020 19:24:08": [
            5,
            5,
            5
        ],
        "21/03/2020 21:25:57": [
            -6
        ]
    },
    "620": {
        "21/03/2020 14:04:36": [
            -9,
            -9
        ],
        "21/03/2020 14:06:02": [
            -9,
            -9
        ],
        "21/03/2020 16:52:44": [
            1282,
            401,
            12
        ],
        "21/03/2020 19:24:11": [
            -13,
            -13
        ],
        "21/03/2020 21:26:00": [
            -17
        ]
    },
    "609": {
        "21/03/2020 14:04:36": [
            -45,
            -9
        ],
        "21/03/2020 14:05:58": [
            -45,
            -9
        ],
        "21/03/2020 16:52:41": [
            -23
        ],
        "21/03/2020 19:24:06": [
            -25,
            -25,
            -25
        ],
        "21/03/2020 21:25:55": [
            11
        ]
    },
    "602": {
        "21/03/2020 14:04:36": [
            24,
            -4
        ],
        "21/03/2020 14:05:56": [
            24,
            -4
        ],
        "21/03/2020 16:52:38": [
            392,
            -17,
            12
        ],
        "21/03/2020 19:24:03": [
            8,
            8
        ],
        "21/03/2020 21:25:52": [
            25
        ]
    },
    "603": {
        "21/03/2020 14:04:37": [
            6,
            28
        ],
        "21/03/2020 14:05:57": [
            6,
            28
        ],
        "21/03/2020 16:52:39": [
            429,
            20,
            -12
        ],
        "21/03/2020 19:24:03": [
            -19,
            -19
        ],
        "21/03/2020 21:25:53": [
            -6
        ]
    },
    "604": {
        "21/03/2020 14:04:37": [
            -57,
            -21,
            -4
        ],
        "21/03/2020 14:05:57": [
            -21,
            -4
        ],
        "21/03/2020 16:52:39": [
            397,
            -12,
            15
        ],
        "21/03/2020 19:24:04": [
            9,
            9
        ],
        "21/03/2020 21:25:53": [
            19
        ]
    },
    "605": {
        "21/03/2020 14:04:37": [
            -31,
            5,
            18
        ],
        "21/03/2020 14:05:57": [
            5,
            18
        ],
        "21/03/2020 16:52:39": [
            419,
            10,
            -24
        ],
        "21/03/2020 19:24:04": [
            -28,
            -28
        ],
        "21/03/2020 21:25:54": [
            -21
        ]
    },
    "606": {
        "21/03/2020 14:04:38": [
            -28,
            8
        ],
        "21/03/2020 14:05:58": [
            -28,
            8
        ],
        "21/03/2020 16:52:40": [
            414,
            5,
            29
        ],
        "21/03/2020 19:24:05": [
            26,
            26
        ],
        "21/03/2020 21:25:54": [
            26
        ]
    },
    "7608": {
        "21/03/2020 14:04:38": [],
        "21/03/2020 16:52:07": [],
        "21/03/2020 19:23:17": [],
        "21/03/2020 21:25:07": []
    },
    "621": {
        "21/03/2020 14:04:38": [
            0,
            0,
            0
        ],
        "21/03/2020 14:04:59": [
            0,
            0,
            0
        ],
        "21/03/2020 14:05:11": [
            0,
            0,
            0
        ],
        "21/03/2020 14:05:32": [
            0,
            0,
            0
        ],
        "21/03/2020 16:52:13": [
            0,
            0,
            0
        ],
        "21/03/2020 19:23:26": [
            0,
            0
        ],
        "21/03/2020 21:25:15": [
            0,
            0
        ]
    },
    "496": {
        "21/03/2020 14:04:39": [
            -2,
            -2,
            -2
        ],
        "21/03/2020 14:05:00": [
            -2,
            -2,
            -2
        ],
        "21/03/2020 14:05:12": [
            -2,
            -2,
            -2
        ],
        "21/03/2020 14:05:32": [
            -2,
            -2,
            -2
        ],
        "21/03/2020 16:52:13": [
            20,
            20,
            20
        ],
        "21/03/2020 19:23:27": [
            -12,
            -12
        ],
        "21/03/2020 21:25:16": [
            -4,
            -4
        ]
    },
    "497": {
        "21/03/2020 14:04:39": [],
        "21/03/2020 16:52:08": [],
        "21/03/2020 19:23:18": [],
        "21/03/2020 21:25:07": []
    },
    "521": {
        "21/03/2020 14:04:39": [
            -8,
            -8,
            -8
        ],
        "21/03/2020 14:05:01": [
            -8,
            -8,
            -8
        ],
        "21/03/2020 14:05:14": [
            -8,
            -8,
            -8
        ],
        "21/03/2020 14:05:34": [
            -8,
            -8,
            -8
        ],
        "21/03/2020 16:52:15": [
            26,
            -25,
            -25
        ],
        "21/03/2020 19:23:29": [
            -12,
            -12
        ],
        "21/03/2020 21:25:18": [
            -201,
            -17
        ]
    },
    "522": {
        "21/03/2020 14:04:40": [
            -23,
            -23,
            -23
        ],
        "21/03/2020 14:05:01": [
            -23,
            -23,
            -23
        ],
        "21/03/2020 14:05:14": [
            -23,
            -23,
            -23
        ],
        "21/03/2020 14:05:34": [
            -23,
            -23,
            -23
        ],
        "21/03/2020 16:52:15": [
            73,
            26,
            26
        ],
        "21/03/2020 19:23:29": [
            -28,
            -28
        ],
        "21/03/2020 21:25:19": [
            -161,
            23
        ]
    },
    "523": {
        "21/03/2020 14:04:40": [
            -29,
            -29,
            -29
        ],
        "21/03/2020 14:05:02": [
            -29,
            -29,
            -29
        ],
        "21/03/2020 14:05:14": [
            -29,
            -29,
            -29
        ],
        "21/03/2020 14:05:34": [
            -29,
            -29,
            -29
        ],
        "21/03/2020 16:52:16": [
            65,
            21,
            21
        ],
        "21/03/2020 19:23:30": [
            23,
            23
        ],
        "21/03/2020 21:25:19": [
            -160,
            7
        ]
    },
    "525": {
        "21/03/2020 14:04:40": [
            -5,
            -5,
            -5
        ],
        "21/03/2020 14:05:02": [
            -5,
            -5,
            -5
        ],
        "21/03/2020 14:05:14": [
            -5,
            -5,
            -5
        ],
        "21/03/2020 14:05:34": [
            -5,
            -5,
            -5
        ],
        "21/03/2020 16:52:16": [
            9,
            -22,
            -22
        ],
        "21/03/2020 19:23:30": [
            -18,
            -18
        ],
        "21/03/2020 21:25:19": [
            -170,
            14
        ]
    },
    "555": {
        "21/03/2020 14:04:41": [
            -286,
            -379,
            -19
        ],
        "21/03/2020 14:05:11": [
            -286,
            -379,
            -19
        ],
        "21/03/2020 14:05:23": [
            -286,
            -379,
            -19
        ],
        "21/03/2020 14:05:44": [
            -286,
            -379,
            -19
        ],
        "21/03/2020 16:52:25": [
            -126,
            16
        ],
        "21/03/2020 19:23:44": [
            -310,
            -28,
            -28
        ],
        "21/03/2020 21:25:33": [
            -118,
            13
        ]
    },
    "557": {
        "21/03/2020 14:04:41": [
            -291,
            -384,
            27
        ],
        "21/03/2020 14:05:11": [
            -291,
            -384,
            27
        ],
        "21/03/2020 14:05:23": [
            -291,
            -384,
            27
        ],
        "21/03/2020 14:05:44": [
            -291,
            -384,
            27
        ],
        "21/03/2020 16:52:26": [
            -147,
            -5
        ],
        "21/03/2020 19:23:44": [
            -269,
            13,
            13
        ],
        "21/03/2020 21:25:34": [
            -135,
            -4
        ]
    },
    "558": {
        "21/03/2020 14:04:41": [
            -311,
            -404,
            4
        ],
        "21/03/2020 14:05:24": [
            -311,
            -404,
            4
        ],
        "21/03/2020 14:05:44": [
            -311,
            -404,
            4
        ],
        "21/03/2020 16:52:26": [
            -115,
            27
        ],
        "21/03/2020 19:23:45": [
            -298,
            -16,
            -16
        ],
        "21/03/2020 21:25:34": [
            -104,
            27
        ]
    },
    "559": {
        "21/03/2020 14:04:41": [
            -281,
            -380,
            21
        ],
        "21/03/2020 14:05:24": [
            -281,
            -380,
            21
        ],
        "21/03/2020 14:05:44": [
            -281,
            -380,
            21
        ],
        "21/03/2020 16:52:26": [
            -154,
            -169,
            -27
        ],
        "21/03/2020 19:23:45": [
            -293,
            -11
        ],
        "21/03/2020 21:25:34": [
            -159,
            -28
        ]
    },
    "560": {
        "21/03/2020 14:04:42": [
            -278,
            -377,
            19
        ],
        "21/03/2020 14:05:24": [
            -278,
            -377,
            19
        ],
        "21/03/2020 14:05:45": [
            -278,
            -377,
            19
        ],
        "21/03/2020 16:52:27": [
            -103,
            -118,
            24
        ],
        "21/03/2020 19:23:46": [
            -303,
            -21
        ],
        "21/03/2020 21:25:35": [
            -110,
            21
        ]
    },
    "562": {
        "21/03/2020 14:04:42": [
            -271,
            -410,
            -26
        ],
        "21/03/2020 14:05:25": [
            -271,
            -410,
            -26
        ],
        "21/03/2020 14:05:45": [
            -271,
            -410,
            -26
        ],
        "21/03/2020 16:52:27": [
            -146,
            -161,
            -19
        ],
        "21/03/2020 19:23:46": [
            -281,
            1
        ],
        "21/03/2020 21:25:35": [
            -150,
            -19
        ]
    },
    "563": {
        "21/03/2020 14:04:42": [
            -243,
            -382,
            -2
        ],
        "21/03/2020 14:05:25": [
            -243,
            -382,
            -2
        ],
        "21/03/2020 14:05:45": [
            -243,
            -382,
            -2
        ],
        "21/03/2020 16:52:27": [
            -122,
            -137,
            5
        ],
        "21/03/2020 19:23:46": [
            -254,
            28
        ],
        "21/03/2020 21:25:36": [
            -124,
            7
        ]
    },
    "564": {
        "21/03/2020 14:04:43": [
            -273,
            -412,
            24
        ],
        "21/03/2020 14:05:25": [
            -273,
            -412,
            24
        ],
        "21/03/2020 14:05:46": [
            -273,
            -412,
            24
        ],
        "21/03/2020 16:52:27": [
            -155,
            -170,
            -28
        ],
        "21/03/2020 19:23:47": [
            -286,
            -4
        ],
        "21/03/2020 21:25:36": [
            -157,
            -26
        ]
    },
    "565": {
        "21/03/2020 14:04:43": [
            -284,
            -423,
            6
        ],
        "21/03/2020 14:05:25": [
            -284,
            -423,
            6
        ],
        "21/03/2020 14:05:46": [
            -284,
            -423,
            6
        ],
        "21/03/2020 16:52:28": [
            -112,
            -127,
            15
        ],
        "21/03/2020 19:23:47": [
            -299,
            -17
        ],
        "21/03/2020 21:25:36": [
            -111,
            20
        ]
    },
    "715": {
        "21/03/2020 14:04:43": [],
        "21/03/2020 14:05:28": [],
        "21/03/2020 16:52:11": [],
        "21/03/2020 19:23:22": [],
        "21/03/2020 21:25:12": []
    },
    "716": {
        "21/03/2020 14:04:43": [],
        "21/03/2020 14:05:28": [],
        "21/03/2020 16:52:11": [],
        "21/03/2020 19:23:23": [],
        "21/03/2020 21:25:12": []
    },
    "717": {
        "21/03/2020 14:04:44": [],
        "21/03/2020 14:05:29": [],
        "21/03/2020 16:52:11": [],
        "21/03/2020 19:23:23": [],
        "21/03/2020 21:25:12": []
    },
    "718": {
        "21/03/2020 14:04:44": [],
        "21/03/2020 14:05:30": [],
        "21/03/2020 16:52:11": [],
        "21/03/2020 19:23:24": [],
        "21/03/2020 21:25:13": []
    },
    "719": {
        "21/03/2020 14:04:44": [],
        "21/03/2020 14:05:30": [],
        "21/03/2020 16:52:12": [],
        "21/03/2020 19:23:24": [],
        "21/03/2020 21:25:13": []
    },
    "720": {
        "21/03/2020 14:04:45": [],
        "21/03/2020 14:05:30": [],
        "21/03/2020 16:52:12": [],
        "21/03/2020 19:23:25": [],
        "21/03/2020 21:25:14": []
    },
    "721": {
        "21/03/2020 14:04:45": [],
        "21/03/2020 14:05:31": [],
        "21/03/2020 16:52:12": [],
        "21/03/2020 19:23:25": [],
        "21/03/2020 21:25:14": []
    },
    "289": {
        "21/03/2020 14:04:45": [
            -9,
            -9,
            -9
        ],
        "21/03/2020 14:04:59": [
            -9,
            -9,
            -9
        ],
        "21/03/2020 14:05:12": [
            -9,
            -9,
            -9
        ],
        "21/03/2020 14:05:32": [
            -9,
            -9,
            -9
        ],
        "21/03/2020 16:52:13": [
            4,
            4,
            4
        ],
        "21/03/2020 19:23:27": [
            -15,
            16
        ],
        "21/03/2020 21:25:16": [
            16,
            16
        ]
    },
    "515": {
        "21/03/2020 14:04:45": [
            -11,
            -11,
            -11
        ],
        "21/03/2020 14:05:00": [
            -11,
            -11,
            -11
        ],
        "21/03/2020 14:05:12": [
            -11,
            -11,
            -11
        ],
        "21/03/2020 14:05:32": [
            -11,
            -11,
            -11
        ],
        "21/03/2020 16:52:14": [
            12,
            16,
            16
        ],
        "21/03/2020 19:23:27": [
            -17,
            -17
        ],
        "21/03/2020 21:25:16": [
            -14
        ]
    },
    "516": {
        "21/03/2020 14:04:46": [
            -20,
            -20,
            -20
        ],
        "21/03/2020 14:05:00": [
            -20,
            -20,
            -20
        ],
        "21/03/2020 14:05:13": [
            -20,
            -20,
            -20
        ],
        "21/03/2020 14:05:33": [
            -20,
            -20,
            -20
        ],
        "21/03/2020 16:52:14": [
            10,
            8,
            8
        ],
        "21/03/2020 19:23:28": [
            -23,
            -23
        ],
        "21/03/2020 21:25:17": [
            -22
        ]
    },
    "519": {
        "21/03/2020 14:04:46": [
            20,
            20,
            20
        ],
        "21/03/2020 14:05:01": [
            20,
            20,
            20
        ],
        "21/03/2020 14:05:13": [
            20,
            20,
            20
        ],
        "21/03/2020 14:05:33": [
            20,
            20,
            20
        ],
        "21/03/2020 16:52:15": [
            -10,
            -1,
            -1
        ],
        "21/03/2020 19:23:29": [
            17,
            17
        ],
        "21/03/2020 21:25:18": [
            16
        ]
    },
    "527": {
        "21/03/2020 14:04:46": [
            17,
            17
        ],
        "21/03/2020 14:05:02": [
            17,
            17
        ],
        "21/03/2020 14:05:15": [
            17,
            17
        ],
        "21/03/2020 14:05:35": [
            17,
            17
        ],
        "21/03/2020 16:52:16": [
            15,
            -16,
            -16
        ],
        "21/03/2020 19:23:31": [
            -16,
            -16
        ],
        "21/03/2020 21:25:20": [
            -149,
            2
        ]
    },
    "528": {
        "21/03/2020 14:04:47": [
            -6,
            -6
        ],
        "21/03/2020 14:05:03": [
            -6,
            -6
        ],
        "21/03/2020 14:05:15": [
            -6,
            -6
        ],
        "21/03/2020 14:05:35": [
            -6,
            -6
        ],
        "21/03/2020 16:52:17": [
            -9,
            22,
            22
        ],
        "21/03/2020 19:23:32": [
            20,
            20
        ],
        "21/03/2020 21:25:21": [
            -177,
            -26
        ]
    },
    "529": {
        "21/03/2020 14:04:47": [
            -30,
            -30
        ],
        "21/03/2020 14:05:03": [
            -30,
            -30
        ],
        "21/03/2020 14:05:16": [
            -30,
            -30
        ],
        "21/03/2020 14:05:36": [
            -30,
            -30
        ],
        "21/03/2020 16:52:17": [
            26,
            -2,
            -2
        ],
        "21/03/2020 19:23:32": [
            -6,
            -6
        ],
        "21/03/2020 21:25:21": [
            -146,
            5
        ]
    },
    "530": {
        "21/03/2020 14:04:47": [
            12,
            12
        ],
        "21/03/2020 14:05:03": [
            12,
            12
        ],
        "21/03/2020 14:05:16": [
            12,
            12
        ],
        "21/03/2020 14:05:36": [
            12,
            12
        ],
        "21/03/2020 16:52:17": [
            6,
            -19,
            -19
        ],
        "21/03/2020 19:23:32": [
            -26,
            -26
        ],
        "21/03/2020 21:25:22": [
            -186,
            -19
        ]
    },
    "531": {
        "21/03/2020 14:04:47": [
            2,
            2
        ],
        "21/03/2020 14:05:03": [
            2,
            2
        ],
        "21/03/2020 14:05:16": [
            2,
            2
        ],
        "21/03/2020 14:05:36": [
            2,
            2
        ],
        "21/03/2020 16:52:18": [
            -5,
            -28,
            -28
        ],
        "21/03/2020 19:23:33": [
            23,
            23
        ],
        "21/03/2020 21:25:22": [
            -106,
            25
        ]
    },
    "532": {
        "21/03/2020 14:04:48": [
            -1,
            -1
        ],
        "21/03/2020 14:05:04": [
            -1,
            -1
        ],
        "21/03/2020 14:05:17": [
            -1,
            -1
        ],
        "21/03/2020 14:05:37": [
            -1,
            -1
        ],
        "21/03/2020 16:52:18": [
            -14,
            19,
            19
        ],
        "21/03/2020 19:23:34": [
            4,
            4
        ],
        "21/03/2020 21:25:23": [
            -132,
            -1
        ]
    },
    "533": {
        "21/03/2020 14:04:48": [
            -442,
            -18,
            -18
        ],
        "21/03/2020 14:05:04": [
            -442,
            -18,
            -18
        ],
        "21/03/2020 14:05:17": [
            -442,
            -18,
            -18
        ],
        "21/03/2020 14:05:37": [
            -442,
            -18,
            -18
        ],
        "21/03/2020 16:52:19": [
            -14,
            5
        ],
        "21/03/2020 19:23:34": [
            -6,
            -6
        ],
        "21/03/2020 21:25:24": [
            -144,
            -13
        ]
    },
    "534": {
        "21/03/2020 14:04:48": [
            -448,
            27,
            27
        ],
        "21/03/2020 14:05:05": [
            -448,
            27,
            27
        ],
        "21/03/2020 14:05:17": [
            -448,
            27,
            27
        ],
        "21/03/2020 14:05:37": [
            -448,
            27,
            27
        ],
        "21/03/2020 16:52:19": [
            -18,
            -6
        ],
        "21/03/2020 19:23:35": [
            -15,
            -15
        ],
        "21/03/2020 21:25:24": [
            -103,
            28
        ]
    },
    "535": {
        "21/03/2020 14:04:49": [
            -456,
            9,
            9
        ],
        "21/03/2020 14:05:05": [
            -456,
            9,
            9
        ],
        "21/03/2020 14:05:17": [
            -456,
            9,
            9
        ],
        "21/03/2020 14:05:38": [
            -456,
            9,
            9
        ],
        "21/03/2020 16:52:19": [
            -98,
            -25,
            -20
        ],
        "21/03/2020 19:23:35": [
            -27,
            -27
        ],
        "21/03/2020 21:25:24": [
            -123,
            8
        ]
    },
    "566": {
        "21/03/2020 14:04:49": [
            -256,
            -395,
            -30
        ],
        "21/03/2020 14:05:26": [
            -256,
            -395,
            -30
        ],
        "21/03/2020 14:05:46": [
            -256,
            -395,
            -30
        ],
        "21/03/2020 16:52:28": [
            -147,
            -162,
            -20
        ],
        "21/03/2020 19:23:48": [
            -272,
            10
        ],
        "21/03/2020 21:25:37": [
            -145,
            -14
        ]
    },
    "693": {
        "21/03/2020 14:04:50": [],
        "21/03/2020 14:05:31": [],
        "21/03/2020 16:52:13": [],
        "21/03/2020 19:23:26": [],
        "21/03/2020 21:25:15": []
    },
    "731": {
        "21/03/2020 14:04:50": [],
        "21/03/2020 14:05:27": [],
        "21/03/2020 16:52:09": [],
        "21/03/2020 19:23:19": [],
        "21/03/2020 21:25:09": []
    },
    "7590": {
        "21/03/2020 14:04:50": [],
        "21/03/2020 16:52:08": [],
        "21/03/2020 19:23:18": [],
        "21/03/2020 21:25:08": []
    },
    "526": {
        "21/03/2020 14:04:51": [
            -8,
            -8,
            -8
        ],
        "21/03/2020 14:05:02": [
            -8,
            -8,
            -8
        ],
        "21/03/2020 14:05:15": [
            -8,
            -8,
            -8
        ],
        "21/03/2020 14:05:35": [
            -8,
            -8,
            -8
        ],
        "21/03/2020 16:52:16": [
            0,
            29,
            29
        ],
        "21/03/2020 19:23:31": [
            -29,
            -29
        ],
        "21/03/2020 21:25:20": [
            -187,
            -3
        ]
    },
    "4384": {
        "21/03/2020 14:04:51": [
            25,
            25,
            25
        ],
        "21/03/2020 14:05:00": [
            25,
            25,
            25
        ],
        "21/03/2020 14:05:13": [
            25,
            25,
            25
        ],
        "21/03/2020 14:05:33": [
            25,
            25,
            25
        ],
        "21/03/2020 16:52:14": [
            -5,
            -3,
            -3
        ],
        "21/03/2020 19:23:28": [
            22,
            22
        ],
        "21/03/2020 21:25:17": [
            22
        ]
    },
    "536": {
        "21/03/2020 14:04:51": [
            -466,
            0,
            0
        ],
        "21/03/2020 14:05:05": [
            -466,
            0,
            0
        ],
        "21/03/2020 14:05:18": [
            -466,
            0,
            0
        ],
        "21/03/2020 14:05:38": [
            -466,
            0,
            0
        ],
        "21/03/2020 16:52:20": [
            -51,
            22,
            21
        ],
        "21/03/2020 19:23:36": [
            21,
            21
        ],
        "21/03/2020 21:25:25": [
            -145,
            -14
        ]
    },
    "537": {
        "21/03/2020 14:04:51": [
            -455,
            13,
            13
        ],
        "21/03/2020 14:05:06": [
            -455,
            13,
            13
        ],
        "21/03/2020 14:05:18": [
            -455,
            13,
            13
        ],
        "21/03/2020 14:05:38": [
            -455,
            13,
            13
        ],
        "21/03/2020 16:52:20": [
            -44,
            29,
            19
        ],
        "21/03/2020 19:23:36": [
            28,
            28
        ],
        "21/03/2020 21:25:25": [
            -152,
            -21
        ]
    },
    "538": {
        "21/03/2020 14:04:52": [
            -420,
            4,
            4
        ],
        "21/03/2020 14:05:06": [
            -420,
            4,
            4
        ],
        "21/03/2020 14:05:18": [
            -420,
            4,
            4
        ],
        "21/03/2020 14:05:38": [
            -420,
            4,
            4
        ],
        "21/03/2020 16:52:20": [
            -57,
            16,
            0
        ],
        "21/03/2020 19:23:36": [
            16,
            16
        ],
        "21/03/2020 21:25:26": [
            -114,
            17
        ]
    },
    "539": {
        "21/03/2020 14:04:52": [
            -460,
            11,
            11
        ],
        "21/03/2020 14:05:06": [
            -460,
            11,
            11
        ],
        "21/03/2020 14:05:19": [
            -460,
            11,
            11
        ],
        "21/03/2020 14:05:39": [
            -460,
            11,
            11
        ],
        "21/03/2020 16:52:20": [
            -56,
            17,
            -7
        ],
        "21/03/2020 19:23:37": [
            18,
            18
        ],
        "21/03/2020 21:25:26": [
            -125,
            6
        ]
    },
    "540": {
        "21/03/2020 14:04:52": [
            -433,
            -14,
            -14
        ],
        "21/03/2020 14:05:06": [
            -433,
            -14,
            -14
        ],
        "21/03/2020 14:05:19": [
            -433,
            -14,
            -14
        ],
        "21/03/2020 14:05:39": [
            -433,
            -14,
            -14
        ],
        "21/03/2020 16:52:21": [
            -87,
            -14,
            21
        ],
        "21/03/2020 19:23:37": [
            -6,
            -6
        ],
        "21/03/2020 21:25:27": [
            -158,
            -27
        ]
    },
    "541": {
        "21/03/2020 14:04:53": [
            -442,
            13,
            13
        ],
        "21/03/2020 14:05:07": [
            -442,
            13,
            13
        ],
        "21/03/2020 14:05:19": [
            -442,
            13,
            13
        ],
        "21/03/2020 14:05:39": [
            -442,
            13,
            13
        ],
        "21/03/2020 16:52:21": [
            -64,
            9,
            -18
        ],
        "21/03/2020 19:23:38": [
            21,
            21
        ],
        "21/03/2020 21:25:27": [
            -137,
            -6
        ]
    },
    "542": {
        "21/03/2020 14:04:53": [
            -423,
            17,
            17
        ],
        "21/03/2020 14:05:07": [
            -423,
            17,
            17
        ],
        "21/03/2020 14:05:20": [
            -423,
            17,
            17
        ],
        "21/03/2020 14:05:40": [
            -423,
            17,
            17
        ],
        "21/03/2020 16:52:21": [
            -61,
            12,
            -14
        ],
        "21/03/2020 19:23:38": [
            19,
            19
        ],
        "21/03/2020 21:25:27": [
            -144,
            -13
        ]
    },
    "543": {
        "21/03/2020 14:04:53": [
            -378,
            1,
            1
        ],
        "21/03/2020 14:05:07": [
            -378,
            1,
            1
        ],
        "21/03/2020 14:05:20": [
            -378,
            1,
            1
        ],
        "21/03/2020 14:05:40": [
            -378,
            1,
            1
        ],
        "21/03/2020 16:52:22": [
            -77,
            -4,
            -30
        ],
        "21/03/2020 19:23:39": [
            -1,
            -1
        ],
        "21/03/2020 21:25:28": [
            -107,
            24
        ]
    },
    "544": {
        "21/03/2020 14:04:53": [
            -404,
            -28,
            -28
        ],
        "21/03/2020 14:05:08": [
            -404,
            -28,
            -28
        ],
        "21/03/2020 14:05:20": [
            -404,
            -28,
            -28
        ],
        "21/03/2020 14:05:40": [
            -404,
            -28,
            -28
        ],
        "21/03/2020 16:52:22": [
            -102,
            -29,
            4
        ],
        "21/03/2020 19:23:39": [
            -297,
            -23,
            -23
        ],
        "21/03/2020 21:25:28": [
            -135,
            -4
        ]
    },
    "545": {
        "21/03/2020 14:04:54": [
            -428,
            6,
            6
        ],
        "21/03/2020 14:05:08": [
            -428,
            6,
            6
        ],
        "21/03/2020 14:05:20": [
            -428,
            6,
            6
        ],
        "21/03/2020 14:05:41": [
            -428,
            6,
            6
        ],
        "21/03/2020 16:52:22": [
            -65,
            8,
            -19
        ],
        "21/03/2020 19:23:39": [
            -257,
            17,
            17
        ],
        "21/03/2020 21:25:29": [
            -161,
            -30
        ]
    },
    "546": {
        "21/03/2020 14:04:54": [
            -388,
            -10,
            -10
        ],
        "21/03/2020 14:05:08": [
            -388,
            -10,
            -10
        ],
        "21/03/2020 14:05:21": [
            -388,
            -10,
            -10
        ],
        "21/03/2020 14:05:41": [
            -388,
            -10,
            -10
        ],
        "21/03/2020 16:52:23": [
            -92,
            -19,
            21
        ],
        "21/03/2020 19:23:40": [
            -276,
            -2,
            -2
        ],
        "21/03/2020 21:25:29": [
            -122,
            9
        ]
    },
    "547": {
        "21/03/2020 14:04:54": [
            -395,
            -22,
            -22
        ],
        "21/03/2020 14:05:09": [
            -395,
            -22,
            -22
        ],
        "21/03/2020 14:05:21": [
            -395,
            -22,
            -22
        ],
        "21/03/2020 14:05:41": [
            -395,
            -22,
            -22
        ],
        "21/03/2020 16:52:23": [
            -47,
            26,
            2
        ],
        "21/03/2020 19:23:40": [
            -291,
            -17,
            -17
        ],
        "21/03/2020 21:25:30": [
            -143,
            -12
        ]
    },
    "548": {
        "21/03/2020 14:04:55": [
            -404,
            26,
            26
        ],
        "21/03/2020 14:05:09": [
            -404,
            26,
            26
        ],
        "21/03/2020 14:05:21": [
            -404,
            26,
            26
        ],
        "21/03/2020 14:05:41": [
            -404,
            26,
            26
        ],
        "21/03/2020 16:52:23": [
            -62,
            11,
            -17
        ],
        "21/03/2020 19:23:41": [
            -246,
            28,
            28
        ],
        "21/03/2020 21:25:30": [
            -104,
            27
        ]
    },
    "549": {
        "21/03/2020 14:04:55": [
            -427,
            0,
            0
        ],
        "21/03/2020 14:05:09": [
            -427,
            0,
            0
        ],
        "21/03/2020 14:05:22": [
            -427,
            0,
            0
        ],
        "21/03/2020 14:05:42": [
            -427,
            0,
            0
        ],
        "21/03/2020 16:52:23": [
            -91,
            -18,
            12
        ],
        "21/03/2020 19:23:41": [
            -275,
            -1,
            -1
        ],
        "21/03/2020 21:25:31": [
            -137,
            -6
        ]
    },
    "550": {
        "21/03/2020 14:04:55": [
            -386,
            -18
        ],
        "21/03/2020 14:05:09": [
            -386,
            -18
        ],
        "21/03/2020 14:05:22": [
            -386,
            -18
        ],
        "21/03/2020 14:05:42": [
            -386,
            -18
        ],
        "21/03/2020 16:52:24": [
            -148,
            -6
        ],
        "21/03/2020 19:23:41": [
            -275,
            7,
            7
        ],
        "21/03/2020 21:25:31": [
            -139,
            -8
        ]
    },
    "551": {
        "21/03/2020 14:04:55": [
            -388,
            -20
        ],
        "21/03/2020 14:05:10": [
            -388,
            -20
        ],
        "21/03/2020 14:05:22": [
            -388,
            -20
        ],
        "21/03/2020 14:05:42": [
            -388,
            -20
        ],
        "21/03/2020 16:52:24": [
            -166,
            -24,
            14
        ],
        "21/03/2020 19:23:42": [
            -296,
            -14,
            -14
        ],
        "21/03/2020 21:25:31": [
            -105,
            26
        ]
    },
    "552": {
        "21/03/2020 14:04:56": [
            -422,
            6
        ],
        "21/03/2020 14:05:10": [
            -422,
            6
        ],
        "21/03/2020 14:05:22": [
            -422,
            6
        ],
        "21/03/2020 14:05:43": [
            -422,
            6
        ],
        "21/03/2020 16:52:24": [
            -142,
            0,
            -21
        ],
        "21/03/2020 19:23:42": [
            -271,
            11,
            11
        ],
        "21/03/2020 21:25:32": [
            -141,
            -10
        ]
    },
    "553": {
        "21/03/2020 14:04:56": [
            -408,
            20
        ],
        "21/03/2020 14:05:10": [
            -408,
            20
        ],
        "21/03/2020 14:05:23": [
            -408,
            20
        ],
        "21/03/2020 14:05:43": [
            -408,
            20
        ],
        "21/03/2020 16:52:25": [
            -134,
            8,
            -12
        ],
        "21/03/2020 19:23:43": [
            -260,
            22,
            22
        ],
        "21/03/2020 21:25:32": [
            -133,
            -2
        ]
    },
    "554": {
        "21/03/2020 14:04:56": [
            -292,
            -385,
            -13
        ],
        "21/03/2020 14:05:11": [
            -385,
            -13
        ],
        "21/03/2020 14:05:23": [
            -385,
            -13
        ],
        "21/03/2020 14:05:43": [
            -385,
            -13
        ],
        "21/03/2020 16:52:25": [
            -113,
            29
        ],
        "21/03/2020 19:23:43": [
            -298,
            -16,
            -16
        ],
        "21/03/2020 21:25:33": [
            -108,
            23
        ]
    },
    "707": {
        "21/03/2020 14:04:57": [],
        "21/03/2020 14:05:26": [],
        "21/03/2020 16:52:08": [],
        "21/03/2020 19:23:19": [],
        "21/03/2020 21:25:08": []
    },
    "708": {
        "21/03/2020 14:04:57": [],
        "21/03/2020 14:05:26": [],
        "21/03/2020 16:52:08": [],
        "21/03/2020 19:23:19": [],
        "21/03/2020 21:25:09": []
    },
    "709": {
        "21/03/2020 14:04:57": [
            -16,
            -16
        ],
        "21/03/2020 14:05:04": [
            -16,
            -16
        ],
        "21/03/2020 14:05:16": [
            -16,
            -16
        ],
        "21/03/2020 14:05:36": [
            -16,
            -16
        ],
        "21/03/2020 16:52:18": [
            -26,
            13,
            13
        ],
        "21/03/2020 19:23:33": [
            3,
            3
        ],
        "21/03/2020 21:25:23": [
            -128,
            3
        ]
    },
    "710": {
        "21/03/2020 14:04:57": [],
        "21/03/2020 14:05:27": [],
        "21/03/2020 16:52:09": [],
        "21/03/2020 19:23:20": [],
        "21/03/2020 21:25:09": []
    },
    "711": {
        "21/03/2020 14:04:58": [],
        "21/03/2020 14:05:27": [],
        "21/03/2020 16:52:09": [],
        "21/03/2020 19:23:20": [],
        "21/03/2020 21:25:10": []
    },
    "712": {
        "21/03/2020 14:04:58": [],
        "21/03/2020 14:05:27": [],
        "21/03/2020 16:52:10": [],
        "21/03/2020 19:23:21": [],
        "21/03/2020 21:25:10": []
    },
    "713": {
        "21/03/2020 14:04:58": [],
        "21/03/2020 14:05:28": [],
        "21/03/2020 16:52:10": [],
        "21/03/2020 19:23:21": [],
        "21/03/2020 21:25:11": []
    },
    "714": {
        "21/03/2020 14:04:59": [],
        "21/03/2020 14:05:28": [],
        "21/03/2020 16:52:10": [],
        "21/03/2020 19:23:22": [],
        "21/03/2020 21:25:11": []
    }
}