{
    "448": {
        "23/03/2020 12:06:48": [],
        "23/03/2020 14:39:48": [],
        "23/03/2020 17:36:23": []
    },
    "4457": {
        "23/03/2020 12:06:49": [],
        "23/03/2020 14:39:48": [],
        "23/03/2020 17:36:24": []
    },
    "3182": {
        "23/03/2020 12:06:50": [],
        "23/03/2020 14:39:48": [],
        "23/03/2020 17:36:24": []
    },
    "3183": {
        "23/03/2020 12:06:50": [],
        "23/03/2020 14:39:49": [],
        "23/03/2020 17:36:25": []
    },
    "5142": {
        "23/03/2020 12:06:51": [],
        "23/03/2020 14:39:49": [],
        "23/03/2020 17:36:25": []
    },
    "848": {
        "23/03/2020 12:06:51": [],
        "23/03/2020 14:39:49": [
            0
        ],
        "23/03/2020 17:36:26": []
    },
    "2795": {
        "23/03/2020 12:06:52": [],
        "23/03/2020 14:39:49": [
            -7
        ],
        "23/03/2020 17:36:27": []
    },
    "756": {
        "23/03/2020 12:06:52": [],
        "23/03/2020 14:39:50": [
            -29
        ],
        "23/03/2020 17:36:27": []
    },
    "757": {
        "23/03/2020 12:06:53": [],
        "23/03/2020 14:39:50": [
            8
        ],
        "23/03/2020 17:36:28": []
    },
    "758": {
        "23/03/2020 12:06:54": [],
        "23/03/2020 14:39:50": [
            -19
        ],
        "23/03/2020 17:36:28": []
    },
    "759": {
        "23/03/2020 12:06:54": [],
        "23/03/2020 14:39:51": [
            -4
        ],
        "23/03/2020 17:36:29": []
    },
    "760": {
        "23/03/2020 12:06:55": [],
        "23/03/2020 14:39:51": [
            -8
        ],
        "23/03/2020 17:36:30": []
    },
    "761": {
        "23/03/2020 12:06:55": [],
        "23/03/2020 14:39:51": [
            22
        ],
        "23/03/2020 17:36:31": []
    },
    "762": {
        "23/03/2020 12:06:56": [],
        "23/03/2020 14:39:52": [
            -12
        ],
        "23/03/2020 17:36:31": []
    },
    "763": {
        "23/03/2020 12:06:57": [],
        "23/03/2020 14:39:52": [
            -20
        ],
        "23/03/2020 17:36:32": []
    },
    "2007": {
        "23/03/2020 12:06:57": [],
        "23/03/2020 14:39:52": [
            6
        ],
        "23/03/2020 17:36:33": []
    },
    "2008": {
        "23/03/2020 12:06:58": [],
        "23/03/2020 14:39:53": [],
        "23/03/2020 17:36:33": []
    },
    "2009": {
        "23/03/2020 12:06:58": [],
        "23/03/2020 14:39:53": [],
        "23/03/2020 17:36:34": []
    },
    "2010": {
        "23/03/2020 12:06:59": [],
        "23/03/2020 14:39:54": [],
        "23/03/2020 17:36:35": []
    },
    "435": {
        "23/03/2020 12:07:00": [],
        "23/03/2020 14:39:54": [],
        "23/03/2020 17:36:36": []
    },
    "2011": {
        "23/03/2020 12:07:00": [],
        "23/03/2020 14:39:54": [],
        "23/03/2020 17:36:36": []
    },
    "2012": {
        "23/03/2020 12:07:01": [],
        "23/03/2020 14:39:55": [],
        "23/03/2020 17:36:37": []
    },
    "3322": {
        "23/03/2020 12:07:02": [],
        "23/03/2020 14:39:55": [],
        "23/03/2020 17:36:38": []
    },
    "3563": {
        "23/03/2020 12:07:02": [],
        "23/03/2020 14:39:55": [],
        "23/03/2020 17:36:38": []
    },
    "444": {
        "23/03/2020 12:07:03": [],
        "23/03/2020 14:39:55": [],
        "23/03/2020 17:36:39": []
    },
    "445": {
        "23/03/2020 12:07:03": [],
        "23/03/2020 14:39:56": [],
        "23/03/2020 17:36:40": []
    },
    "4779": {
        "23/03/2020 12:07:04": [],
        "23/03/2020 14:39:56": [],
        "23/03/2020 17:36:40": []
    },
    "7057": {
        "23/03/2020 12:07:04": [],
        "23/03/2020 14:39:56": [],
        "23/03/2020 17:36:41": []
    },
    "4847": {
        "23/03/2020 12:07:05": [],
        "23/03/2020 14:39:57": [],
        "23/03/2020 17:36:42": []
    },
    "4848": {
        "23/03/2020 12:07:06": [],
        "23/03/2020 14:39:57": [],
        "23/03/2020 17:36:43": []
    },
    "4350": {
        "23/03/2020 12:07:06": [],
        "23/03/2020 14:39:57": [],
        "23/03/2020 17:36:44": []
    },
    "5143": {
        "23/03/2020 12:07:07": [],
        "23/03/2020 14:39:58": [],
        "23/03/2020 17:36:44": []
    },
    "2837": {
        "23/03/2020 12:07:08": [],
        "23/03/2020 14:39:58": [],
        "23/03/2020 17:36:45": []
    },
    "2838": {
        "23/03/2020 12:07:08": [],
        "23/03/2020 14:39:58": [],
        "23/03/2020 17:36:46": []
    },
    "2839": {
        "23/03/2020 12:07:09": [],
        "23/03/2020 14:39:59": [],
        "23/03/2020 17:36:46": []
    },
    "2840": {
        "23/03/2020 12:07:10": [],
        "23/03/2020 14:39:59": [],
        "23/03/2020 17:36:47": []
    },
    "2845": {
        "23/03/2020 12:07:11": [],
        "23/03/2020 14:39:59": [],
        "23/03/2020 17:36:47": []
    },
    "2846": {
        "23/03/2020 12:07:11": [],
        "23/03/2020 14:40:00": [],
        "23/03/2020 17:36:48": []
    },
    "2847": {
        "23/03/2020 12:07:12": [],
        "23/03/2020 14:40:00": [],
        "23/03/2020 17:36:48": []
    },
    "4397": {
        "23/03/2020 12:07:12": [],
        "23/03/2020 14:40:00": [],
        "23/03/2020 17:36:49": []
    },
    "2848": {
        "23/03/2020 12:07:13": [],
        "23/03/2020 14:40:01": [],
        "23/03/2020 17:36:57": []
    },
    "2849": {
        "23/03/2020 12:07:13": [],
        "23/03/2020 14:40:01": [],
        "23/03/2020 17:37:07": []
    },
    "2850": {
        "23/03/2020 12:07:14": [],
        "23/03/2020 14:40:01": [],
        "23/03/2020 17:37:18": []
    },
    "2851": {
        "23/03/2020 12:07:15": [],
        "23/03/2020 14:40:02": [],
        "23/03/2020 17:37:28": []
    },
    "2852": {
        "23/03/2020 12:07:15": [],
        "23/03/2020 14:40:02": [],
        "23/03/2020 17:37:39": []
    },
    "4987": {
        "23/03/2020 12:07:17": [],
        "23/03/2020 14:40:02": [],
        "23/03/2020 17:37:48": []
    },
    "2978": {
        "23/03/2020 12:07:17": [],
        "23/03/2020 14:40:03": [],
        "23/03/2020 17:38:01": []
    },
    "2979": {
        "23/03/2020 12:07:18": [],
        "23/03/2020 14:40:03": [],
        "23/03/2020 17:38:10": []
    },
    "2980": {
        "23/03/2020 12:07:19": [],
        "23/03/2020 14:40:03": [],
        "23/03/2020 17:38:20": []
    },
    "2981": {
        "23/03/2020 12:07:19": [],
        "23/03/2020 14:40:04": [],
        "23/03/2020 17:38:30": []
    },
    "2954": {
        "23/03/2020 12:07:20": [],
        "23/03/2020 14:40:04": [],
        "23/03/2020 17:38:38": []
    },
    "320": {
        "23/03/2020 12:07:21": [],
        "23/03/2020 14:40:05": [],
        "23/03/2020 17:38:48": []
    },
    "345": {
        "23/03/2020 12:07:22": [],
        "23/03/2020 14:40:05": [],
        "23/03/2020 17:39:04": []
    },
    "2955": {
        "23/03/2020 12:07:22": [],
        "23/03/2020 14:40:05": [],
        "23/03/2020 17:39:07": []
    },
    "7067": {
        "23/03/2020 12:07:23": [],
        "23/03/2020 14:40:06": [],
        "23/03/2020 17:39:08": []
    },
    "2956": {
        "23/03/2020 12:07:23": [],
        "23/03/2020 14:40:06": [],
        "23/03/2020 17:39:09": []
    },
    "2965": {
        "23/03/2020 12:07:24": [],
        "23/03/2020 14:40:06": [],
        "23/03/2020 17:39:10": []
    },
    "2967": {
        "23/03/2020 12:07:24": [],
        "23/03/2020 14:40:07": [],
        "23/03/2020 17:39:10": []
    },
    "2968": {
        "23/03/2020 12:07:25": [],
        "23/03/2020 14:40:07": [],
        "23/03/2020 17:39:11": []
    },
    "2969": {
        "23/03/2020 12:07:26": [],
        "23/03/2020 14:40:07": [],
        "23/03/2020 17:39:12": []
    },
    "2970": {
        "23/03/2020 12:07:26": [],
        "23/03/2020 14:40:08": [],
        "23/03/2020 17:39:13": []
    },
    "4988": {
        "23/03/2020 12:07:27": [],
        "23/03/2020 14:40:08": [],
        "23/03/2020 17:39:13": []
    },
    "2853": {
        "23/03/2020 12:07:27": [],
        "23/03/2020 14:40:08": [],
        "23/03/2020 17:39:14": []
    },
    "2854": {
        "23/03/2020 12:07:28": [],
        "23/03/2020 14:40:09": [],
        "23/03/2020 17:39:14": []
    },
    "2855": {
        "23/03/2020 12:07:29": [],
        "23/03/2020 14:40:09": [],
        "23/03/2020 17:39:15": []
    },
    "2856": {
        "23/03/2020 12:07:29": [],
        "23/03/2020 14:40:09": [],
        "23/03/2020 17:39:16": []
    },
    "2857": {
        "23/03/2020 12:07:30": [],
        "23/03/2020 14:40:10": [],
        "23/03/2020 17:39:16": []
    },
    "2858": {
        "23/03/2020 12:07:30": [],
        "23/03/2020 14:40:10": [],
        "23/03/2020 17:39:17": []
    },
    "2859": {
        "23/03/2020 12:07:31": [],
        "23/03/2020 14:40:10": [],
        "23/03/2020 17:39:18": []
    },
    "2860": {
        "23/03/2020 12:07:31": [],
        "23/03/2020 14:40:11": [],
        "23/03/2020 17:39:18": []
    },
    "2861": {
        "23/03/2020 12:07:32": [],
        "23/03/2020 14:40:11": [],
        "23/03/2020 17:39:19": []
    },
    "2829": {
        "23/03/2020 12:07:32": [],
        "23/03/2020 14:40:11": [],
        "23/03/2020 17:39:19": []
    },
    "2830": {
        "23/03/2020 12:07:33": [],
        "23/03/2020 14:40:12": [],
        "23/03/2020 17:39:20": []
    },
    "2831": {
        "23/03/2020 12:07:34": [],
        "23/03/2020 14:40:12": [],
        "23/03/2020 17:39:21": []
    },
    "2832": {
        "23/03/2020 12:07:34": [],
        "23/03/2020 14:40:12": [],
        "23/03/2020 17:39:21": []
    },
    "4349": {
        "23/03/2020 12:07:35": [],
        "23/03/2020 14:40:13": [],
        "23/03/2020 17:39:22": []
    },
    "3184": {
        "23/03/2020 12:07:35": [],
        "23/03/2020 14:40:13": [],
        "23/03/2020 17:39:22": []
    },
    "449": {
        "23/03/2020 12:07:36": [],
        "23/03/2020 14:40:13": [],
        "23/03/2020 17:39:23": []
    },
    "450": {
        "23/03/2020 12:07:36": [],
        "23/03/2020 14:40:14": [],
        "23/03/2020 17:39:23": []
    },
    "3181": {
        "23/03/2020 12:07:37": [],
        "23/03/2020 14:40:14": [],
        "23/03/2020 17:39:24": []
    },
    "451": {
        "23/03/2020 12:07:37": [],
        "23/03/2020 14:40:14": [],
        "23/03/2020 17:39:25": []
    },
    "447": {
        "23/03/2020 12:07:38": [],
        "23/03/2020 14:40:15": [],
        "23/03/2020 17:39:25": []
    },
    "5045": {
        "23/03/2020 12:07:39": [],
        "23/03/2020 14:40:15": [],
        "23/03/2020 17:39:26": []
    },
    "4460": {
        "23/03/2020 12:07:39": [],
        "23/03/2020 14:40:16": [],
        "23/03/2020 17:39:26": []
    },
    "453": {
        "23/03/2020 12:07:40": [],
        "23/03/2020 14:40:16": [],
        "23/03/2020 17:39:27": []
    },
    "4477": {
        "23/03/2020 12:07:41": [],
        "23/03/2020 14:40:16": [],
        "23/03/2020 17:39:28": []
    },
    "3321": {
        "23/03/2020 12:07:41": [],
        "23/03/2020 14:40:17": [],
        "23/03/2020 17:39:28": []
    },
    "4727": {
        "23/03/2020 12:07:42": [],
        "23/03/2020 14:40:17": [],
        "23/03/2020 17:39:29": []
    },
    "4728": {
        "23/03/2020 12:07:42": [],
        "23/03/2020 14:40:18": [],
        "23/03/2020 17:39:29": []
    },
    "461": {
        "23/03/2020 12:07:43": [],
        "23/03/2020 14:40:18": [],
        "23/03/2020 17:39:30": []
    },
    "2068": {
        "23/03/2020 12:07:44": [],
        "23/03/2020 14:40:19": [],
        "23/03/2020 17:39:31": []
    },
    "2069": {
        "23/03/2020 12:07:44": [],
        "23/03/2020 14:40:19": [],
        "23/03/2020 17:39:31": []
    },
    "2070": {
        "23/03/2020 12:07:45": [],
        "23/03/2020 14:40:19": [],
        "23/03/2020 17:39:32": []
    },
    "2084": {
        "23/03/2020 12:07:45": [],
        "23/03/2020 14:40:19": [],
        "23/03/2020 17:39:33": []
    },
    "768": {
        "23/03/2020 12:07:46": [],
        "23/03/2020 14:40:20": [],
        "23/03/2020 17:39:33": []
    },
    "769": {
        "23/03/2020 12:07:47": [],
        "23/03/2020 14:40:20": [],
        "23/03/2020 17:39:34": []
    },
    "770": {
        "23/03/2020 12:07:47": [],
        "23/03/2020 14:40:20": [],
        "23/03/2020 17:39:35": []
    },
    "771": {
        "23/03/2020 12:07:48": [],
        "23/03/2020 14:40:21": [],
        "23/03/2020 17:39:36": []
    },
    "772": {
        "23/03/2020 12:07:48": [],
        "23/03/2020 14:40:21": [],
        "23/03/2020 17:39:37": []
    },
    "773": {
        "23/03/2020 12:07:49": [],
        "23/03/2020 14:40:21": [],
        "23/03/2020 17:39:37": []
    },
    "774": {
        "23/03/2020 12:07:50": [],
        "23/03/2020 14:40:22": [],
        "23/03/2020 17:39:38": []
    },
    "775": {
        "23/03/2020 12:07:50": [],
        "23/03/2020 14:40:22": [],
        "23/03/2020 17:39:39": []
    },
    "776": {
        "23/03/2020 12:07:51": [],
        "23/03/2020 14:40:22": [],
        "23/03/2020 17:39:39": []
    },
    "777": {
        "23/03/2020 12:07:51": [],
        "23/03/2020 14:40:23": [],
        "23/03/2020 17:39:40": []
    },
    "906": {
        "23/03/2020 12:07:52": [],
        "23/03/2020 14:40:23": [],
        "23/03/2020 17:39:40": []
    },
    "907": {
        "23/03/2020 12:07:53": [],
        "23/03/2020 14:40:23": [],
        "23/03/2020 17:39:41": []
    },
    "908": {
        "23/03/2020 12:07:53": [],
        "23/03/2020 14:40:24": [],
        "23/03/2020 17:39:42": []
    },
    "909": {
        "23/03/2020 12:07:54": [],
        "23/03/2020 14:40:24": [],
        "23/03/2020 17:39:43": []
    },
    "786": {
        "23/03/2020 12:07:54": [],
        "23/03/2020 14:40:24": [],
        "23/03/2020 17:39:43": []
    },
    "792": {
        "23/03/2020 12:07:55": [],
        "23/03/2020 14:40:25": [],
        "23/03/2020 17:39:44": []
    },
    "7586": {
        "23/03/2020 12:07:55": [],
        "23/03/2020 14:40:25": [],
        "23/03/2020 17:39:44": []
    },
    "7587": {
        "23/03/2020 12:07:56": [],
        "23/03/2020 14:40:25": [],
        "23/03/2020 17:39:45": []
    },
    "7588": {
        "23/03/2020 12:07:57": [],
        "23/03/2020 14:40:26": [],
        "23/03/2020 17:39:46": []
    },
    "281": {
        "23/03/2020 12:07:57": [],
        "23/03/2020 14:40:26": [],
        "23/03/2020 17:39:46": []
    },
    "261": {
        "23/03/2020 12:07:58": [],
        "23/03/2020 14:40:26": [],
        "23/03/2020 17:39:47": []
    }
}