{
    "3310": {
        "23/03/2020 12:07:58": [],
        "23/03/2020 14:40:27": [],
        "23/03/2020 17:39:48": []
    },
    "7325": {
        "23/03/2020 12:07:59": [],
        "23/03/2020 14:40:27": [],
        "23/03/2020 17:39:49": []
    },
    "303": {
        "23/03/2020 12:08:00": [],
        "23/03/2020 14:40:27": [],
        "23/03/2020 17:39:49": []
    },
    "334": {
        "23/03/2020 12:08:00": [],
        "23/03/2020 14:40:28": [],
        "23/03/2020 17:39:50": []
    },
    "2064": {
        "23/03/2020 12:08:01": [],
        "23/03/2020 14:40:28": [],
        "23/03/2020 17:39:50": []
    },
    "2065": {
        "23/03/2020 12:08:01": [],
        "23/03/2020 14:40:28": [],
        "23/03/2020 17:39:51": []
    },
    "2068": {
        "23/03/2020 12:08:02": [],
        "23/03/2020 14:40:28": [],
        "23/03/2020 17:39:52": []
    },
    "2069": {
        "23/03/2020 12:08:03": [],
        "23/03/2020 14:40:29": [],
        "23/03/2020 17:39:52": []
    },
    "2070": {
        "23/03/2020 12:08:03": [],
        "23/03/2020 14:40:29": [],
        "23/03/2020 17:39:53": []
    },
    "2084": {
        "23/03/2020 12:08:04": [],
        "23/03/2020 14:40:30": [],
        "23/03/2020 17:39:53": []
    },
    "3283": {
        "23/03/2020 12:08:05": [],
        "23/03/2020 14:40:30": [],
        "23/03/2020 17:39:54": []
    },
    "3284": {
        "23/03/2020 12:08:05": [],
        "23/03/2020 14:40:31": [],
        "23/03/2020 17:39:54": []
    },
    "3317": {
        "23/03/2020 12:08:06": [],
        "23/03/2020 14:40:31": [],
        "23/03/2020 17:39:55": []
    },
    "3318": {
        "23/03/2020 12:08:07": [],
        "23/03/2020 14:40:31": [],
        "23/03/2020 17:39:56": []
    },
    "3320": {
        "23/03/2020 12:08:07": [],
        "23/03/2020 14:40:32": [],
        "23/03/2020 17:39:56": []
    },
    "4727": {
        "23/03/2020 12:08:08": [],
        "23/03/2020 14:40:32": [],
        "23/03/2020 17:39:57": []
    },
    "4728": {
        "23/03/2020 12:08:09": [],
        "23/03/2020 14:40:32": [],
        "23/03/2020 17:39:57": []
    },
    "7415": {
        "23/03/2020 12:08:09": [],
        "23/03/2020 14:40:33": [],
        "23/03/2020 17:39:58": []
    },
    "7416": {
        "23/03/2020 12:08:10": [],
        "23/03/2020 14:40:33": [],
        "23/03/2020 17:39:58": []
    },
    "7586": {
        "23/03/2020 12:08:10": [],
        "23/03/2020 14:40:33": [],
        "23/03/2020 17:39:59": []
    },
    "7587": {
        "23/03/2020 12:08:11": [],
        "23/03/2020 14:40:34": [],
        "23/03/2020 17:40:00": []
    },
    "906": {
        "23/03/2020 12:08:12": [],
        "23/03/2020 14:40:34": [],
        "23/03/2020 17:40:00": []
    },
    "907": {
        "23/03/2020 12:08:13": [],
        "23/03/2020 14:40:34": [],
        "23/03/2020 17:40:01": []
    },
    "345": {
        "23/03/2020 12:08:13": [],
        "23/03/2020 14:40:35": [],
        "23/03/2020 17:40:01": []
    },
    "3481": {
        "23/03/2020 12:08:14": [],
        "23/03/2020 14:40:35": [],
        "23/03/2020 17:40:03": []
    },
    "3482": {
        "23/03/2020 12:08:14": [],
        "23/03/2020 14:40:35": [],
        "23/03/2020 17:40:03": []
    },
    "3483": {
        "23/03/2020 12:08:15": [],
        "23/03/2020 14:40:36": [],
        "23/03/2020 17:40:04": []
    },
    "3484": {
        "23/03/2020 12:08:15": [],
        "23/03/2020 14:40:36": [],
        "23/03/2020 17:40:05": []
    },
    "3485": {
        "23/03/2020 12:08:16": [],
        "23/03/2020 14:40:36": [],
        "23/03/2020 17:40:06": []
    },
    "3486": {
        "23/03/2020 12:08:17": [],
        "23/03/2020 14:40:37": [],
        "23/03/2020 17:40:07": []
    },
    "3487": {
        "23/03/2020 12:08:17": [],
        "23/03/2020 14:40:37": [],
        "23/03/2020 17:40:07": []
    },
    "768": {
        "23/03/2020 12:08:18": [],
        "23/03/2020 14:40:38": [],
        "23/03/2020 17:40:08": []
    },
    "769": {
        "23/03/2020 12:08:19": [],
        "23/03/2020 14:40:38": [],
        "23/03/2020 17:40:09": []
    },
    "770": {
        "23/03/2020 12:08:19": [],
        "23/03/2020 14:40:38": [],
        "23/03/2020 17:40:09": []
    },
    "771": {
        "23/03/2020 12:08:20": [],
        "23/03/2020 14:40:39": [],
        "23/03/2020 17:40:10": []
    },
    "772": {
        "23/03/2020 12:08:21": [],
        "23/03/2020 14:40:39": [],
        "23/03/2020 17:40:10": []
    },
    "773": {
        "23/03/2020 12:08:21": [],
        "23/03/2020 14:40:39": [],
        "23/03/2020 17:40:11": []
    },
    "774": {
        "23/03/2020 12:08:22": [],
        "23/03/2020 14:40:40": [],
        "23/03/2020 17:40:12": []
    },
    "775": {
        "23/03/2020 12:08:23": [],
        "23/03/2020 14:40:40": [],
        "23/03/2020 17:40:12": []
    },
    "776": {
        "23/03/2020 12:08:24": [],
        "23/03/2020 14:40:40": [],
        "23/03/2020 17:40:13": []
    },
    "777": {
        "23/03/2020 12:08:24": [],
        "23/03/2020 14:40:41": [],
        "23/03/2020 17:40:14": []
    },
    "908": {
        "23/03/2020 12:08:25": [],
        "23/03/2020 14:40:41": [],
        "23/03/2020 17:40:14": []
    },
    "909": {
        "23/03/2020 12:08:26": [],
        "23/03/2020 14:40:41": [],
        "23/03/2020 17:40:15": []
    },
    "461": {
        "23/03/2020 12:08:26": [],
        "23/03/2020 14:40:42": [],
        "23/03/2020 17:40:16": []
    },
    "786": {
        "23/03/2020 12:08:27": [],
        "23/03/2020 14:40:42": [],
        "23/03/2020 17:40:16": []
    },
    "792": {
        "23/03/2020 12:08:28": [],
        "23/03/2020 14:40:42": [],
        "23/03/2020 17:40:17": []
    }
}