{
    "overall_punctuality": -35331,
    "overall_num": 166,
    "overall_avg": -212,
    "daily_punctuality": {
        "Sunday": {
            "num_results": 0,
            "total": 0,
            "avg:": 0
        },
        "Monday": {
            "num_results": 0,
            "total": 0,
            "avg:": 0
        },
        "Tuesday": {
            "num_results": 76,
            "total": -36160,
            "avg:": 0,
            "avg": -475
        },
        "Wednesday": {
            "num_results": 14,
            "total": 1107,
            "avg:": 0,
            "avg": 80
        },
        "Thursday": {
            "num_results": 76,
            "total": -278,
            "avg:": 0,
            "avg": -3
        },
        "Friday": {
            "num_results": 0,
            "total": 0,
            "avg:": 0
        },
        "Saturday": {
            "num_results": 0,
            "total": 0,
            "avg:": 0
        }
    }
}