{
    "2037": {
        "25/03/2020 15:17:18": [],
        "25/03/2020 18:02:57": [],
        "25/03/2020 20:20:09": [],
        "25/03/2020 21:47:02": []
    },
    "3044": {
        "25/03/2020 15:17:18": [],
        "25/03/2020 18:02:57": [],
        "25/03/2020 20:20:10": [],
        "25/03/2020 21:47:03": []
    },
    "3046": {
        "25/03/2020 15:17:19": [],
        "25/03/2020 18:02:57": [],
        "25/03/2020 20:20:10": [],
        "25/03/2020 21:47:03": []
    },
    "3047": {
        "25/03/2020 15:17:19": [],
        "25/03/2020 18:02:58": [],
        "25/03/2020 20:20:10": [],
        "25/03/2020 21:47:03": []
    },
    "3048": {
        "25/03/2020 15:17:19": [],
        "25/03/2020 18:02:58": [],
        "25/03/2020 20:20:11": [],
        "25/03/2020 21:47:03": []
    },
    "3049": {
        "25/03/2020 15:17:20": [],
        "25/03/2020 18:02:58": [],
        "25/03/2020 20:20:11": [],
        "25/03/2020 21:47:04": []
    },
    "3050": {
        "25/03/2020 15:17:20": [],
        "25/03/2020 18:02:59": [],
        "25/03/2020 20:20:11": [],
        "25/03/2020 21:47:04": []
    },
    "3091": {
        "25/03/2020 15:17:21": [],
        "25/03/2020 18:02:59": [],
        "25/03/2020 20:20:12": [],
        "25/03/2020 21:47:04": []
    },
    "3092": {
        "25/03/2020 15:17:22": [],
        "25/03/2020 18:02:59": [],
        "25/03/2020 20:20:12": [],
        "25/03/2020 21:47:05": []
    },
    "3093": {
        "25/03/2020 15:17:22": [],
        "25/03/2020 18:02:59": [],
        "25/03/2020 20:20:12": [],
        "25/03/2020 21:47:05": []
    },
    "3094": {
        "25/03/2020 15:17:22": [],
        "25/03/2020 18:03:00": [],
        "25/03/2020 20:20:12": [],
        "25/03/2020 21:47:05": []
    },
    "3051": {
        "25/03/2020 15:17:23": [],
        "25/03/2020 18:03:00": [],
        "25/03/2020 20:20:13": [],
        "25/03/2020 21:47:05": []
    },
    "3052": {
        "25/03/2020 15:17:23": [],
        "25/03/2020 18:03:00": [],
        "25/03/2020 20:20:13": [],
        "25/03/2020 21:47:06": []
    },
    "3053": {
        "25/03/2020 15:17:24": [],
        "25/03/2020 18:03:01": [],
        "25/03/2020 20:20:13": [],
        "25/03/2020 21:47:06": []
    },
    "3054": {
        "25/03/2020 15:17:25": [],
        "25/03/2020 18:03:01": [],
        "25/03/2020 20:20:14": [],
        "25/03/2020 21:47:06": []
    },
    "3055": {
        "25/03/2020 15:17:25": [],
        "25/03/2020 18:03:01": [],
        "25/03/2020 20:20:14": [],
        "25/03/2020 21:47:06": []
    },
    "3056": {
        "25/03/2020 15:17:25": [],
        "25/03/2020 18:03:02": [],
        "25/03/2020 20:20:14": [],
        "25/03/2020 21:47:07": []
    },
    "3057": {
        "25/03/2020 15:17:30": [],
        "25/03/2020 18:03:02": [],
        "25/03/2020 20:20:15": [],
        "25/03/2020 21:47:07": []
    },
    "4830": {
        "25/03/2020 15:17:31": [],
        "25/03/2020 18:03:02": [],
        "25/03/2020 20:20:15": [],
        "25/03/2020 21:47:07": []
    },
    "3104": {
        "25/03/2020 15:17:31": [],
        "25/03/2020 18:03:03": [],
        "25/03/2020 20:20:15": [],
        "25/03/2020 21:47:08": []
    },
    "7056": {
        "25/03/2020 15:17:32": [],
        "25/03/2020 18:03:03": [],
        "25/03/2020 20:20:16": [],
        "25/03/2020 21:47:08": []
    },
    "7472": {
        "25/03/2020 15:17:32": [],
        "25/03/2020 18:03:03": [],
        "25/03/2020 20:20:16": [],
        "25/03/2020 21:47:08": []
    },
    "4831": {
        "25/03/2020 15:17:32": [],
        "25/03/2020 18:03:04": [],
        "25/03/2020 20:20:16": [],
        "25/03/2020 21:47:08": []
    },
    "4832": {
        "25/03/2020 15:17:32": [],
        "25/03/2020 18:03:04": [],
        "25/03/2020 20:20:17": [],
        "25/03/2020 21:47:09": []
    },
    "3230": {
        "25/03/2020 15:17:33": [],
        "25/03/2020 18:03:04": [],
        "25/03/2020 20:20:17": [],
        "25/03/2020 21:47:09": []
    },
    "3231": {
        "25/03/2020 15:17:33": [],
        "25/03/2020 18:03:05": [],
        "25/03/2020 20:20:17": [],
        "25/03/2020 21:47:09": []
    },
    "3246": {
        "25/03/2020 15:17:33": [],
        "25/03/2020 18:03:05": [],
        "25/03/2020 20:20:18": [],
        "25/03/2020 21:47:10": []
    },
    "3247": {
        "25/03/2020 15:17:34": [],
        "25/03/2020 18:03:05": [],
        "25/03/2020 20:20:18": [],
        "25/03/2020 21:47:10": []
    },
    "4731": {
        "25/03/2020 15:17:34": [],
        "25/03/2020 18:03:05": [],
        "25/03/2020 20:20:18": [],
        "25/03/2020 21:47:10": []
    },
    "3095": {
        "25/03/2020 15:17:34": [],
        "25/03/2020 18:03:06": [],
        "25/03/2020 20:20:18": [],
        "25/03/2020 21:47:11": []
    },
    "3096": {
        "25/03/2020 15:17:35": [],
        "25/03/2020 18:03:06": [],
        "25/03/2020 20:20:19": [],
        "25/03/2020 21:47:11": []
    },
    "3097": {
        "25/03/2020 15:17:35": [],
        "25/03/2020 18:03:06": [],
        "25/03/2020 20:20:19": [],
        "25/03/2020 21:47:11": []
    },
    "3098": {
        "25/03/2020 15:17:35": [],
        "25/03/2020 18:03:06": [],
        "25/03/2020 20:20:19": [],
        "25/03/2020 21:47:11": []
    },
    "3099": {
        "25/03/2020 15:17:36": [],
        "25/03/2020 18:03:07": [],
        "25/03/2020 20:20:20": [],
        "25/03/2020 21:47:12": []
    },
    "3100": {
        "25/03/2020 15:17:36": [],
        "25/03/2020 18:03:07": [],
        "25/03/2020 20:20:20": [],
        "25/03/2020 21:47:12": []
    },
    "3101": {
        "25/03/2020 15:17:36": [],
        "25/03/2020 18:03:07": [],
        "25/03/2020 20:20:20": [],
        "25/03/2020 21:47:12": []
    },
    "3102": {
        "25/03/2020 15:17:36": [],
        "25/03/2020 18:03:08": [],
        "25/03/2020 20:20:21": [],
        "25/03/2020 21:47:12": []
    },
    "3058": {
        "25/03/2020 15:17:37": [],
        "25/03/2020 18:03:08": [],
        "25/03/2020 20:20:21": [],
        "25/03/2020 21:47:13": []
    },
    "3059": {
        "25/03/2020 15:17:37": [],
        "25/03/2020 18:03:09": [],
        "25/03/2020 20:20:21": [],
        "25/03/2020 21:47:13": []
    },
    "3060": {
        "25/03/2020 15:17:38": [],
        "25/03/2020 18:03:09": [],
        "25/03/2020 20:20:22": [],
        "25/03/2020 21:47:13": []
    },
    "3061": {
        "25/03/2020 15:17:38": [],
        "25/03/2020 18:03:09": [],
        "25/03/2020 20:20:22": [],
        "25/03/2020 21:47:13": []
    },
    "3062": {
        "25/03/2020 15:17:38": [],
        "25/03/2020 18:03:10": [],
        "25/03/2020 20:20:22": [],
        "25/03/2020 21:47:14": []
    },
    "3063": {
        "25/03/2020 15:17:38": [],
        "25/03/2020 18:03:10": [],
        "25/03/2020 20:20:23": [],
        "25/03/2020 21:47:14": []
    },
    "3064": {
        "25/03/2020 15:17:39": [],
        "25/03/2020 18:03:10": [],
        "25/03/2020 20:20:23": [],
        "25/03/2020 21:47:14": []
    },
    "3065": {
        "25/03/2020 15:17:39": [],
        "25/03/2020 18:03:10": [],
        "25/03/2020 20:20:23": [],
        "25/03/2020 21:47:14": []
    },
    "3245": {
        "25/03/2020 15:17:39": [],
        "25/03/2020 18:03:11": [],
        "25/03/2020 20:20:24": [],
        "25/03/2020 21:47:15": []
    },
    "3249": {
        "25/03/2020 15:17:40": [],
        "25/03/2020 18:03:11": [],
        "25/03/2020 20:20:24": [],
        "25/03/2020 21:47:15": []
    },
    "3250": {
        "25/03/2020 15:17:40": [],
        "25/03/2020 18:03:11": [],
        "25/03/2020 20:20:24": [],
        "25/03/2020 21:47:15": []
    },
    "3263": {
        "25/03/2020 15:17:41": [],
        "25/03/2020 18:03:12": [],
        "25/03/2020 20:20:25": [],
        "25/03/2020 21:47:15": []
    },
    "4833": {
        "25/03/2020 15:17:41": [],
        "25/03/2020 18:03:12": [],
        "25/03/2020 20:20:25": [],
        "25/03/2020 21:47:16": []
    },
    "4834": {
        "25/03/2020 15:17:41": [],
        "25/03/2020 18:03:12": [],
        "25/03/2020 20:20:25": [],
        "25/03/2020 21:47:16": []
    },
    "4983": {
        "25/03/2020 15:17:42": [],
        "25/03/2020 18:03:13": [],
        "25/03/2020 20:20:25": [],
        "25/03/2020 21:47:16": []
    },
    "5048": {
        "25/03/2020 15:17:42": [],
        "25/03/2020 18:03:13": [],
        "25/03/2020 20:20:26": [],
        "25/03/2020 21:47:17": []
    },
    "3103": {
        "25/03/2020 15:17:43": [],
        "25/03/2020 18:03:13": [],
        "25/03/2020 20:20:26": [],
        "25/03/2020 21:47:17": []
    },
    "3105": {
        "25/03/2020 15:17:43": [],
        "25/03/2020 18:03:14": [],
        "25/03/2020 20:20:26": [],
        "25/03/2020 21:47:17": []
    },
    "3106": {
        "25/03/2020 15:17:43": [],
        "25/03/2020 18:03:14": [],
        "25/03/2020 20:20:26": [],
        "25/03/2020 21:47:17": []
    },
    "3107": {
        "25/03/2020 15:17:44": [],
        "25/03/2020 18:03:14": [],
        "25/03/2020 20:20:27": [],
        "25/03/2020 21:47:18": []
    },
    "3108": {
        "25/03/2020 15:17:44": [],
        "25/03/2020 18:03:14": [],
        "25/03/2020 20:20:27": [],
        "25/03/2020 21:47:18": []
    },
    "3109": {
        "25/03/2020 15:17:45": [],
        "25/03/2020 18:03:15": [],
        "25/03/2020 20:20:27": [],
        "25/03/2020 21:47:18": []
    },
    "3110": {
        "25/03/2020 15:17:45": [],
        "25/03/2020 18:03:15": [],
        "25/03/2020 20:20:28": [],
        "25/03/2020 21:47:19": []
    },
    "3111": {
        "25/03/2020 15:17:46": [],
        "25/03/2020 18:03:15": [],
        "25/03/2020 20:20:28": [],
        "25/03/2020 21:47:19": []
    },
    "3066": {
        "25/03/2020 15:17:46": [],
        "25/03/2020 18:03:16": [],
        "25/03/2020 20:20:28": [],
        "25/03/2020 21:47:19": []
    },
    "3067": {
        "25/03/2020 15:17:46": [],
        "25/03/2020 18:03:16": [],
        "25/03/2020 20:20:29": [],
        "25/03/2020 21:47:20": []
    },
    "3068": {
        "25/03/2020 15:17:47": [],
        "25/03/2020 18:03:16": [],
        "25/03/2020 20:20:29": [],
        "25/03/2020 21:47:20": []
    },
    "3069": {
        "25/03/2020 15:17:47": [],
        "25/03/2020 18:03:17": [],
        "25/03/2020 20:20:29": [],
        "25/03/2020 21:47:20": []
    },
    "3070": {
        "25/03/2020 15:17:47": [],
        "25/03/2020 18:03:17": [],
        "25/03/2020 20:20:29": [],
        "25/03/2020 21:47:20": []
    },
    "3264": {
        "25/03/2020 15:17:48": [],
        "25/03/2020 18:03:17": [],
        "25/03/2020 20:20:30": [],
        "25/03/2020 21:47:21": []
    },
    "3212": {
        "25/03/2020 15:17:48": [],
        "25/03/2020 18:03:17": [],
        "25/03/2020 20:20:30": [],
        "25/03/2020 21:47:21": []
    },
    "3213": {
        "25/03/2020 15:17:49": [],
        "25/03/2020 18:03:18": [],
        "25/03/2020 20:20:30": [],
        "25/03/2020 21:47:21": []
    },
    "5105": {
        "25/03/2020 15:17:49": [],
        "25/03/2020 18:03:18": [],
        "25/03/2020 20:20:31": [],
        "25/03/2020 21:47:21": []
    }
}