{
    "4170": {
        "27/03/2020 10:59:29": [
            22,
            22,
            -15
        ],
        "27/03/2020 13:15:28": [
            -15,
            -15,
            -15
        ],
        "27/03/2020 17:08:15": [
            -28,
            28,
            28
        ]
    },
    "4153": {
        "27/03/2020 10:59:29": [
            22,
            22,
            1
        ],
        "27/03/2020 13:15:28": [
            1,
            1,
            1
        ],
        "27/03/2020 17:08:16": [
            -22,
            -28,
            -28
        ]
    },
    "4154": {
        "27/03/2020 10:59:29": [
            17,
            17,
            11
        ],
        "27/03/2020 13:15:29": [
            11,
            11,
            11
        ],
        "27/03/2020 17:08:16": [
            276,
            -21,
            -30,
            -30
        ]
    },
    "4416": {
        "27/03/2020 10:59:30": [
            2,
            2,
            9
        ],
        "27/03/2020 13:15:30": [
            9,
            9,
            9
        ],
        "27/03/2020 17:08:17": [
            267,
            -30,
            19,
            19
        ]
    },
    "4201": {
        "27/03/2020 10:59:30": [
            -14,
            -14,
            4
        ],
        "27/03/2020 13:15:30": [
            4,
            4,
            4
        ],
        "27/03/2020 17:08:17": [
            326,
            29,
            3,
            3
        ]
    },
    "4202": {
        "27/03/2020 10:59:31": [
            -23,
            -23,
            -9
        ],
        "27/03/2020 13:15:31": [
            -9,
            -9,
            -9
        ],
        "27/03/2020 17:08:18": [
            267,
            23,
            -5,
            -5
        ]
    },
    "4203": {
        "27/03/2020 10:59:31": [
            6,
            6,
            18
        ],
        "27/03/2020 13:15:32": [
            18,
            18,
            18
        ],
        "27/03/2020 17:08:18": [
            239,
            -5,
            22,
            22
        ]
    },
    "5090": {
        "27/03/2020 10:59:31": [
            20,
            20,
            -27
        ],
        "27/03/2020 13:15:32": [
            -27,
            -27,
            -27
        ],
        "27/03/2020 17:08:19": [
            254,
            10,
            -24,
            -24
        ]
    },
    "4204": {
        "27/03/2020 10:59:32": [
            -25,
            -25,
            -11
        ],
        "27/03/2020 13:15:33": [
            -11,
            -11,
            -11
        ],
        "27/03/2020 17:08:19": [
            270,
            26,
            -9,
            -9
        ]
    },
    "4205": {
        "27/03/2020 10:59:32": [
            -15,
            -15,
            -1
        ],
        "27/03/2020 13:15:34": [
            -1,
            -1,
            -1
        ],
        "27/03/2020 17:08:20": [
            220,
            -24,
            1
        ]
    },
    "4206": {
        "27/03/2020 10:59:33": [
            24,
            24,
            -19
        ],
        "27/03/2020 13:15:34": [
            -19,
            -19,
            -19
        ],
        "27/03/2020 17:08:20": [
            263,
            19,
            -15
        ]
    },
    "3140": {
        "27/03/2020 10:59:33": [
            -5,
            -5,
            15
        ],
        "27/03/2020 13:15:35": [
            15,
            15,
            15
        ],
        "27/03/2020 17:08:21": [
            237,
            -7,
            20
        ]
    },
    "3141": {
        "27/03/2020 10:59:34": [
            13,
            13,
            22
        ],
        "27/03/2020 13:15:36": [
            22,
            22,
            22
        ],
        "27/03/2020 17:08:21": [
            249,
            5,
            28
        ]
    },
    "3142": {
        "27/03/2020 10:59:34": [
            -6,
            -6,
            0
        ],
        "27/03/2020 13:15:36": [
            0,
            0,
            0
        ],
        "27/03/2020 17:08:22": [
            237,
            -7,
            13
        ]
    },
    "3143": {
        "27/03/2020 10:59:35": [
            -7,
            -7,
            -4
        ],
        "27/03/2020 13:15:37": [
            -4,
            -4,
            -4
        ],
        "27/03/2020 17:08:22": [
            246,
            2,
            18
        ]
    },
    "3144": {
        "27/03/2020 10:59:35": [
            -25,
            -25,
            -26
        ],
        "27/03/2020 13:15:38": [
            -26,
            -26,
            -26
        ],
        "27/03/2020 17:08:22": [
            229,
            -15,
            6
        ]
    },
    "3145": {
        "27/03/2020 10:59:36": [
            3,
            3,
            0
        ],
        "27/03/2020 13:15:38": [
            0,
            0,
            0
        ],
        "27/03/2020 17:08:23": [
            259,
            15,
            -21
        ]
    },
    "3146": {
        "27/03/2020 10:59:36": [
            -24,
            -24,
            -20
        ],
        "27/03/2020 13:15:39": [
            -20,
            -20,
            -20
        ],
        "27/03/2020 17:08:23": [
            234,
            -10,
            21
        ]
    },
    "3147": {
        "27/03/2020 10:59:37": [
            15,
            15,
            16
        ],
        "27/03/2020 13:15:39": [
            16,
            16,
            16
        ],
        "27/03/2020 17:08:24": [
            268,
            24,
            8
        ]
    },
    "3148": {
        "27/03/2020 10:59:37": [
            -17,
            -17,
            -17
        ],
        "27/03/2020 13:15:40": [
            -17,
            -17
        ],
        "27/03/2020 17:08:24": [
            234,
            -10,
            -17
        ]
    },
    "5127": {
        "27/03/2020 10:59:38": [
            26,
            26,
            -21
        ],
        "27/03/2020 13:15:40": [
            -21,
            -21
        ],
        "27/03/2020 17:08:25": [
            236,
            -8,
            -25
        ]
    },
    "5128": {
        "27/03/2020 10:59:38": [
            27,
            27,
            -30
        ],
        "27/03/2020 13:15:41": [
            19,
            -30,
            -30
        ],
        "27/03/2020 17:08:25": [
            233,
            -11,
            -25
        ]
    },
    "2996": {
        "27/03/2020 10:59:39": [
            -11,
            -11,
            3
        ],
        "27/03/2020 13:15:42": [
            52,
            3,
            3
        ],
        "27/03/2020 17:08:26": [
            237,
            -7,
            26
        ]
    },
    "3258": {
        "27/03/2020 10:59:39": [
            24,
            24,
            -18
        ],
        "27/03/2020 13:15:42": [
            31,
            -18,
            -18
        ],
        "27/03/2020 17:08:26": [
            229,
            -15,
            13
        ]
    },
    "2060": {
        "27/03/2020 10:59:40": [
            121,
            -2,
            -2,
            7
        ],
        "27/03/2020 13:15:43": [
            56,
            7,
            7
        ],
        "27/03/2020 17:08:27": [
            263,
            19,
            -18
        ]
    },
    "2061": {
        "27/03/2020 10:59:40": [
            71,
            -16,
            -16
        ],
        "27/03/2020 13:15:44": [
            34,
            -15,
            -15
        ],
        "27/03/2020 17:08:27": [
            241,
            -3,
            -30
        ]
    },
    "2062": {
        "27/03/2020 10:59:41": [
            82,
            -5,
            -5
        ],
        "27/03/2020 13:15:44": [
            -15,
            -15,
            -15
        ],
        "27/03/2020 17:08:27": [
            239,
            -5,
            -16
        ]
    },
    "2063": {
        "27/03/2020 10:59:41": [
            101,
            14,
            14
        ],
        "27/03/2020 13:15:45": [
            10,
            10,
            10
        ],
        "27/03/2020 17:08:28": [
            260,
            16,
            9
        ]
    },
    "2064": {
        "27/03/2020 10:59:42": [
            70,
            -17,
            -17
        ],
        "27/03/2020 13:15:46": [
            -11,
            -11,
            -11
        ],
        "27/03/2020 17:08:28": [
            233,
            -11,
            -12
        ]
    },
    "2065": {
        "27/03/2020 10:59:42": [
            89,
            2,
            2
        ],
        "27/03/2020 13:15:46": [
            5,
            5,
            5
        ],
        "27/03/2020 17:08:29": [
            249,
            5,
            6
        ]
    },
    "4727": {
        "27/03/2020 10:59:43": [
            97,
            10,
            10
        ],
        "27/03/2020 13:15:47": [
            8,
            8,
            8
        ],
        "27/03/2020 17:08:29": [
            270,
            262,
            18,
            -28
        ]
    },
    "4728": {
        "27/03/2020 10:59:43": [
            81,
            -6,
            -6
        ],
        "27/03/2020 13:15:48": [
            -12,
            -12,
            -12
        ],
        "27/03/2020 17:08:30": [
            258,
            250,
            6,
            27
        ]
    },
    "461": {
        "27/03/2020 10:59:44": [
            100,
            13,
            13
        ],
        "27/03/2020 13:15:48": [
            6,
            6,
            6
        ],
        "27/03/2020 17:08:30": [
            278,
            270,
            26,
            -9
        ]
    },
    "2068": {
        "27/03/2020 10:59:44": [
            78,
            -9,
            -9
        ],
        "27/03/2020 13:15:49": [
            -16,
            -16,
            -16
        ],
        "27/03/2020 17:08:31": [
            260,
            252,
            8,
            -28
        ]
    },
    "2069": {
        "27/03/2020 10:59:45": [
            101,
            14,
            14
        ],
        "27/03/2020 13:15:50": [
            18,
            18,
            18
        ],
        "27/03/2020 17:08:32": [
            245,
            225,
            -19,
            12
        ]
    },
    "2070": {
        "27/03/2020 10:59:45": [
            93,
            6,
            6
        ],
        "27/03/2020 13:15:50": [
            7,
            7,
            7
        ],
        "27/03/2020 17:08:32": [
            238,
            218,
            -26
        ]
    },
    "2084": {
        "27/03/2020 10:59:46": [
            61,
            -26,
            -26
        ],
        "27/03/2020 13:15:51": [
            -15,
            -15,
            -15
        ],
        "27/03/2020 17:08:32": [
            273,
            253,
            9
        ]
    },
    "768": {
        "27/03/2020 10:59:46": [
            113,
            26,
            26
        ],
        "27/03/2020 13:15:52": [
            -3,
            -3,
            -3
        ],
        "27/03/2020 17:08:33": [
            280,
            260,
            16
        ]
    },
    "769": {
        "27/03/2020 10:59:47": [
            72,
            -15,
            -15
        ],
        "27/03/2020 13:15:52": [
            19,
            19,
            19
        ],
        "27/03/2020 17:08:33": [
            241,
            221,
            -23
        ]
    },
    "770": {
        "27/03/2020 10:59:47": [
            58,
            -29,
            -29
        ],
        "27/03/2020 13:15:53": [
            436,
            1,
            1,
            1
        ],
        "27/03/2020 17:08:34": [
            287,
            267,
            23
        ]
    },
    "771": {
        "27/03/2020 10:59:48": [
            76,
            -11,
            -11
        ],
        "27/03/2020 13:15:53": [
            454,
            19,
            19,
            19
        ],
        "27/03/2020 17:08:34": [
            245,
            225,
            -19
        ]
    },
    "772": {
        "27/03/2020 10:59:48": [
            115,
            28,
            28
        ],
        "27/03/2020 13:15:54": [
            430,
            -5,
            -5,
            -5
        ],
        "27/03/2020 17:08:35": [
            284,
            264,
            20
        ]
    },
    "773": {
        "27/03/2020 10:59:49": [
            61,
            -26,
            -26
        ],
        "27/03/2020 13:15:55": [
            443,
            2,
            2,
            2
        ],
        "27/03/2020 17:08:35": [
            281,
            261,
            17
        ]
    },
    "774": {
        "27/03/2020 10:59:49": [
            79,
            -8,
            -8
        ],
        "27/03/2020 13:15:55": [
            463,
            22,
            22,
            22
        ],
        "27/03/2020 17:08:36": [
            290,
            270,
            26
        ]
    },
    "775": {
        "27/03/2020 10:59:50": [
            102,
            -21,
            -21
        ],
        "27/03/2020 13:15:56": [
            452,
            11,
            11,
            11
        ],
        "27/03/2020 17:08:36": [
            240,
            243,
            -1
        ]
    },
    "776": {
        "27/03/2020 10:59:50": [
            152,
            29,
            29
        ],
        "27/03/2020 13:15:56": [
            449,
            8,
            8
        ],
        "27/03/2020 17:08:37": [
            221,
            224,
            -20
        ]
    },
    "777": {
        "27/03/2020 10:59:51": [
            120,
            -3,
            -3
        ],
        "27/03/2020 13:15:57": [
            420,
            -21,
            -21
        ],
        "27/03/2020 17:08:37": [
            260,
            263,
            19
        ]
    },
    "906": {
        "27/03/2020 10:59:51": [
            108,
            -15,
            -15
        ],
        "27/03/2020 13:15:57": [
            412,
            -29,
            -29
        ],
        "27/03/2020 17:08:38": [
            267,
            270,
            26
        ]
    },
    "907": {
        "27/03/2020 10:59:52": [
            147,
            24,
            24
        ],
        "27/03/2020 13:15:58": [
            453,
            12,
            12
        ],
        "27/03/2020 17:08:38": [
            251,
            254,
            10
        ]
    },
    "908": {
        "27/03/2020 10:59:52": [
            119,
            -4,
            -4
        ],
        "27/03/2020 13:15:59": [
            428,
            -13,
            -13,
            -13
        ],
        "27/03/2020 17:08:38": [
            228,
            231,
            -13
        ]
    },
    "909": {
        "27/03/2020 10:59:53": [
            101,
            -22,
            -22
        ],
        "27/03/2020 13:15:59": [
            413,
            -28,
            -28,
            -28
        ],
        "27/03/2020 17:08:39": [
            216,
            219,
            -25
        ]
    },
    "786": {
        "27/03/2020 10:59:53": [
            146,
            23,
            23
        ],
        "27/03/2020 13:16:00": [
            461,
            20,
            20
        ],
        "27/03/2020 17:08:39": [
            267,
            270
        ]
    },
    "792": {
        "27/03/2020 10:59:54": [
            127,
            4
        ],
        "27/03/2020 13:16:00": [
            371,
            -9,
            -9
        ],
        "27/03/2020 17:08:40": [
            129,
            226,
            -18
        ]
    },
    "319": {
        "27/03/2020 10:59:54": [
            -36,
            147,
            24
        ],
        "27/03/2020 13:16:01": [
            390,
            10,
            10
        ],
        "27/03/2020 17:08:40": [
            121,
            218
        ]
    },
    "281": {
        "27/03/2020 10:59:54": [
            -118,
            109,
            -14
        ],
        "27/03/2020 13:16:02": [
            408,
            28,
            28
        ],
        "27/03/2020 17:08:41": [
            285,
            125,
            222
        ]
    },
    "6": {
        "27/03/2020 10:59:55": [
            -7,
            116,
            -7
        ],
        "27/03/2020 13:16:02": [
            358,
            -22,
            -22
        ],
        "27/03/2020 17:08:41": [
            288,
            135,
            232
        ]
    },
    "194": {
        "27/03/2020 10:59:55": [
            -95,
            132,
            9
        ],
        "27/03/2020 13:16:03": [
            193,
            375,
            -5,
            -5
        ],
        "27/03/2020 17:08:42": [
            241,
            166,
            263
        ]
    },
    "195": {
        "27/03/2020 10:59:56": [
            -116,
            133,
            10
        ],
        "27/03/2020 13:16:04": [
            217,
            380,
            0,
            0
        ],
        "27/03/2020 17:08:42": [
            284
        ]
    },
    "196": {
        "27/03/2020 10:59:56": [
            -137,
            112,
            -11
        ],
        "27/03/2020 13:16:04": [
            198,
            361,
            -19,
            -19
        ],
        "27/03/2020 17:08:43": [
            251,
            160,
            257
        ]
    },
    "197": {
        "27/03/2020 10:59:57": [
            -98,
            151,
            28
        ],
        "27/03/2020 13:16:05": [
            221,
            403,
            23
        ],
        "27/03/2020 17:08:43": [
            288,
            147,
            244
        ]
    },
    "198": {
        "27/03/2020 10:59:57": [
            -104,
            145,
            22
        ],
        "27/03/2020 13:16:06": [
            217,
            399,
            19
        ],
        "27/03/2020 17:08:44": [
            279,
            150,
            247
        ]
    },
    "199": {
        "27/03/2020 10:59:58": [
            -114,
            135,
            12
        ],
        "27/03/2020 13:16:06": [
            200,
            382,
            2
        ],
        "27/03/2020 17:08:44": [
            252,
            135,
            232
        ]
    },
    "200": {
        "27/03/2020 10:59:58": [
            -118,
            131,
            8
        ],
        "27/03/2020 13:16:07": [
            178,
            362,
            -18
        ],
        "27/03/2020 17:08:45": [
            270,
            118,
            215
        ]
    },
    "201": {
        "27/03/2020 10:59:59": [
            -98,
            151,
            28
        ],
        "27/03/2020 13:16:07": [
            204,
            388,
            8
        ],
        "27/03/2020 17:08:45": [
            237,
            140,
            237
        ]
    },
    "148": {
        "27/03/2020 10:59:59": [
            -120,
            129,
            6
        ],
        "27/03/2020 13:16:08": [
            181,
            365,
            -15
        ],
        "27/03/2020 17:08:46": [
            281,
            123,
            220
        ]
    },
    "149": {
        "27/03/2020 11:00:00": [
            121,
            -139,
            110,
            -13
        ],
        "27/03/2020 13:16:09": [
            222,
            406,
            26
        ],
        "27/03/2020 17:08:46": [
            270,
            170
        ]
    },
    "150": {
        "27/03/2020 11:00:00": [
            138,
            -102,
            147,
            24
        ],
        "27/03/2020 13:16:09": [
            198,
            382,
            2
        ],
        "27/03/2020 17:08:46": [
            587,
            253,
            152
        ]
    },
    "27": {
        "27/03/2020 11:00:01": [
            167,
            27,
            150
        ],
        "27/03/2020 13:16:10": [
            201,
            385,
            5
        ],
        "27/03/2020 17:08:47": [
            581,
            267,
            164
        ]
    },
    "28": {
        "27/03/2020 11:00:02": [
            139,
            -1,
            122
        ],
        "27/03/2020 13:16:10": [
            173,
            357,
            -23
        ],
        "27/03/2020 17:08:47": [
            559,
            245,
            141
        ]
    },
    "29": {
        "27/03/2020 11:00:02": [
            166,
            26,
            149
        ],
        "27/03/2020 13:16:11": [
            199,
            383,
            3
        ],
        "27/03/2020 17:08:48": [
            585,
            271,
            168
        ]
    },
    "4680": {
        "27/03/2020 11:00:03": [
            128,
            -12,
            111
        ],
        "27/03/2020 13:16:12": [
            220,
            404,
            24
        ],
        "27/03/2020 17:08:48": [
            546,
            232,
            129
        ]
    },
    "90": {
        "27/03/2020 11:00:03": [
            149,
            9,
            132
        ],
        "27/03/2020 13:16:12": [
            180,
            364,
            -16
        ],
        "27/03/2020 17:08:49": [
            567,
            253,
            150
        ]
    },
    "91": {
        "27/03/2020 11:00:03": [
            125,
            -15,
            108
        ],
        "27/03/2020 13:16:13": [
            221,
            405,
            25
        ],
        "27/03/2020 17:08:49": [
            549,
            235,
            130
        ]
    },
    "92": {
        "27/03/2020 11:00:04": [
            151,
            11,
            134
        ],
        "27/03/2020 13:16:14": [
            190,
            374,
            -6
        ],
        "27/03/2020 17:08:50": [
            578,
            264,
            159
        ]
    },
    "93": {
        "27/03/2020 11:00:04": [
            136,
            -4,
            119
        ],
        "27/03/2020 13:16:14": [
            180,
            364,
            -16
        ],
        "27/03/2020 17:08:50": [
            590,
            256,
            150
        ]
    },
    "94": {
        "27/03/2020 11:00:05": [
            143,
            3,
            126
        ],
        "27/03/2020 13:16:15": [
            132,
            380,
            0
        ],
        "27/03/2020 17:08:51": [
            588,
            274,
            165
        ]
    },
    "126": {
        "27/03/2020 11:00:05": [
            138,
            -128,
            121
        ],
        "27/03/2020 13:16:15": [
            497,
            135,
            383,
            3
        ],
        "27/03/2020 17:08:51": [
            592,
            278,
            167
        ]
    },
    "6182": {
        "27/03/2020 11:00:06": [
            132,
            -128,
            121
        ],
        "27/03/2020 13:16:16": [
            504,
            142,
            390,
            10
        ],
        "27/03/2020 17:08:52": [
            601,
            287,
            174
        ]
    },
    "322": {
        "27/03/2020 11:00:06": [
            235,
            22,
            145
        ],
        "27/03/2020 13:16:17": [
            469,
            107,
            355,
            -25
        ],
        "27/03/2020 17:08:52": [
            566,
            252,
            139
        ]
    },
    "7697": {
        "27/03/2020 11:00:07": [],
        "27/03/2020 13:16:17": [],
        "27/03/2020 17:08:52": []
    },
    "334": {
        "27/03/2020 11:00:07": [
            236,
            -20
        ],
        "27/03/2020 13:16:18": [
            180,
            -30
        ],
        "27/03/2020 17:08:53": [
            437,
            192,
            -8,
            26
        ]
    },
    "406": {
        "27/03/2020 11:00:08": [
            268,
            12
        ],
        "27/03/2020 13:16:18": [
            222,
            12
        ],
        "27/03/2020 17:08:54": [
            433,
            188,
            -12,
            0
        ]
    },
    "747": {
        "27/03/2020 11:00:08": [
            232,
            -24
        ],
        "27/03/2020 13:16:19": [
            192,
            -18
        ],
        "27/03/2020 17:08:54": [
            403,
            26
        ]
    },
    "842": {
        "27/03/2020 11:00:09": [
            250,
            -6
        ],
        "27/03/2020 13:16:20": [
            201,
            -9
        ],
        "27/03/2020 17:08:54": [
            373,
            196,
            -4
        ]
    },
    "845": {
        "27/03/2020 11:00:09": [
            241,
            -15
        ],
        "27/03/2020 13:16:20": [
            187,
            -23
        ],
        "27/03/2020 17:08:55": [
            373,
            196,
            -4
        ]
    },
    "846": {
        "27/03/2020 11:00:09": [
            262,
            6
        ],
        "27/03/2020 13:16:21": [
            262,
            217,
            7
        ],
        "27/03/2020 17:08:55": [
            386,
            209,
            9
        ]
    },
    "847": {
        "27/03/2020 11:00:10": [
            277,
            21
        ],
        "27/03/2020 13:16:22": [
            217,
            181,
            -29
        ],
        "27/03/2020 17:08:56": [
            394,
            217,
            17
        ]
    },
    "848": {
        "27/03/2020 11:00:10": [
            263,
            7
        ],
        "27/03/2020 13:16:22": [
            235,
            227,
            17
        ],
        "27/03/2020 17:08:56": [
            384,
            207,
            7
        ]
    },
    "2795": {
        "27/03/2020 11:00:11": [
            239,
            -17
        ],
        "27/03/2020 13:16:23": [
            210,
            202,
            -8
        ],
        "27/03/2020 17:08:57": [
            362,
            185,
            -15
        ]
    },
    "756": {
        "27/03/2020 11:00:11": [
            228,
            -28
        ],
        "27/03/2020 13:16:24": [
            201,
            193
        ],
        "27/03/2020 17:08:57": [
            372,
            -5
        ]
    },
    "757": {
        "27/03/2020 11:00:12": [
            275,
            19
        ],
        "27/03/2020 13:16:24": [
            191,
            183
        ],
        "27/03/2020 17:08:58": [
            654,
            380,
            3
        ]
    },
    "758": {
        "27/03/2020 11:00:12": [
            241,
            -15
        ],
        "27/03/2020 13:16:25": [
            227,
            219
        ],
        "27/03/2020 17:08:58": [
            619,
            357,
            -20
        ]
    },
    "759": {
        "27/03/2020 11:00:13": [
            263
        ],
        "27/03/2020 13:16:25": [
            218,
            194
        ],
        "27/03/2020 17:08:59": [
            598,
            409,
            16
        ]
    },
    "760": {
        "27/03/2020 11:00:13": [
            248
        ],
        "27/03/2020 13:16:26": [
            176,
            190
        ],
        "27/03/2020 17:08:59": [
            601,
            405,
            12
        ]
    },
    "761": {
        "27/03/2020 11:00:14": [
            273
        ],
        "27/03/2020 13:16:26": [
            320,
            219
        ],
        "27/03/2020 17:08:59": [
            568,
            368,
            -25
        ]
    },
    "762": {
        "27/03/2020 11:00:14": [
            -157,
            235
        ],
        "27/03/2020 13:16:27": [
            286,
            185
        ],
        "27/03/2020 17:09:00": [
            592,
            389,
            -4
        ]
    },
    "763": {
        "27/03/2020 11:00:15": [
            -164,
            228
        ],
        "27/03/2020 13:16:28": [
            329,
            228
        ],
        "27/03/2020 17:09:00": [
            576,
            363,
            -30
        ]
    },
    "2007": {
        "27/03/2020 11:00:15": [
            -120,
            272
        ],
        "27/03/2020 13:16:28": [
            312,
            211
        ],
        "27/03/2020 17:09:01": [
            562,
            411,
            18
        ]
    },
    "2008": {
        "27/03/2020 11:00:16": [
            -139,
            253
        ],
        "27/03/2020 13:16:29": [
            293,
            192
        ],
        "27/03/2020 17:09:01": [
            606,
            396,
            3
        ]
    },
    "2009": {
        "27/03/2020 11:00:16": [
            -107,
            285
        ],
        "27/03/2020 13:16:29": [
            327,
            226
        ],
        "27/03/2020 17:09:02": [
            583,
            367,
            -26
        ]
    },
    "2010": {
        "27/03/2020 11:00:17": [
            -115,
            277
        ],
        "27/03/2020 13:16:30": [
            324,
            223
        ],
        "27/03/2020 17:09:02": [
            584,
            417,
            24
        ]
    },
    "435": {
        "27/03/2020 11:00:17": [
            -67,
            266
        ],
        "27/03/2020 13:16:31": [
            304,
            203
        ],
        "27/03/2020 17:09:03": [
            601,
            363,
            170,
            -30
        ]
    },
    "7353": {
        "27/03/2020 11:00:18": [
            -89,
            244
        ],
        "27/03/2020 13:16:31": [
            334,
            233
        ],
        "27/03/2020 17:09:03": [
            574,
            384,
            191,
            -9
        ]
    },
    "4571": {
        "27/03/2020 11:00:18": [
            -59,
            274
        ],
        "27/03/2020 13:16:32": [
            290,
            189
        ],
        "27/03/2020 17:09:04": [
            597,
            368,
            175,
            -25
        ]
    },
    "2013": {
        "27/03/2020 11:00:18": [
            -82,
            251
        ],
        "27/03/2020 13:16:32": [
            323,
            222
        ],
        "27/03/2020 17:09:04": [
            574,
            393,
            0
        ]
    },
    "2014": {
        "27/03/2020 11:00:19": [
            -94,
            239
        ],
        "27/03/2020 13:16:33": [
            314,
            213
        ],
        "27/03/2020 17:09:05": [
            578,
            381
        ]
    },
    "4636": {
        "27/03/2020 11:00:19": [
            -63,
            270
        ],
        "27/03/2020 13:16:33": [
            287,
            186
        ],
        "27/03/2020 17:09:05": [
            610,
            415,
            222,
            22
        ]
    },
    "2016": {
        "27/03/2020 11:00:20": [
            -62,
            271
        ],
        "27/03/2020 13:16:34": [
            290,
            189
        ],
        "27/03/2020 17:09:06": [
            612,
            421
        ]
    },
    "2015": {
        "27/03/2020 11:00:20": [
            -88,
            245
        ],
        "27/03/2020 13:16:34": [
            184,
            218
        ],
        "27/03/2020 17:09:06": [
            591,
            393
        ]
    },
    "2017": {
        "27/03/2020 11:00:21": [
            -63,
            270
        ],
        "27/03/2020 13:16:35": [
            146,
            180
        ],
        "27/03/2020 17:09:07": [
            560,
            417
        ]
    },
    "3259": {
        "27/03/2020 11:00:21": [
            -89,
            244
        ],
        "27/03/2020 13:16:36": [
            317,
            216
        ],
        "27/03/2020 17:09:07": [
            593,
            378,
            185
        ]
    },
    "7361": {
        "27/03/2020 11:00:21": [
            -50,
            283
        ],
        "27/03/2020 13:16:36": [
            302,
            201
        ],
        "27/03/2020 17:09:08": [
            587,
            412
        ]
    },
    "7362": {
        "27/03/2020 11:00:22": [
            -48,
            285
        ],
        "27/03/2020 13:16:37": [
            111,
            315,
            214
        ],
        "27/03/2020 17:09:08": [
            612,
            407
        ]
    },
    "3129": {
        "27/03/2020 11:00:23": [],
        "27/03/2020 13:16:38": [
            116,
            320,
            219
        ],
        "27/03/2020 17:09:09": [
            610,
            389,
            196
        ]
    },
    "3130": {
        "27/03/2020 11:00:24": [
            -69,
            264
        ],
        "27/03/2020 13:16:38": [
            100,
            304,
            203
        ],
        "27/03/2020 17:09:09": [
            198,
            590,
            372,
            179
        ]
    },
    "3131": {
        "27/03/2020 11:00:24": [
            -107,
            226
        ],
        "27/03/2020 13:16:39": [
            123,
            327,
            226
        ],
        "27/03/2020 17:09:10": [
            221,
            613,
            397,
            204
        ]
    },
    "3132": {
        "27/03/2020 11:00:25": [
            -76,
            257
        ],
        "27/03/2020 13:16:40": [
            94,
            298,
            197
        ],
        "27/03/2020 17:09:10": [
            238,
            590,
            364,
            171
        ]
    },
    "3133": {
        "27/03/2020 11:00:26": [
            -49,
            284
        ],
        "27/03/2020 13:16:40": [
            121,
            325,
            224
        ],
        "27/03/2020 17:09:11": [
            211,
            563,
            387,
            194
        ]
    },
    "3134": {
        "27/03/2020 11:00:27": [
            101,
            -63,
            270
        ],
        "27/03/2020 13:16:41": [
            107,
            311,
            210
        ],
        "27/03/2020 17:09:11": [
            251,
            619,
            367,
            174
        ]
    },
    "3135": {
        "27/03/2020 11:00:27": [
            81,
            -83,
            250
        ],
        "27/03/2020 13:16:41": [
            90,
            294,
            193
        ],
        "27/03/2020 17:09:12": [
            193,
            561,
            400,
            207
        ]
    },
    "3136": {
        "27/03/2020 11:00:28": [
            81,
            -83,
            250
        ],
        "27/03/2020 13:16:42": [
            113,
            296,
            195
        ],
        "27/03/2020 17:09:12": [
            206,
            574,
            395,
            202
        ]
    },
    "3138": {
        "27/03/2020 11:00:28": [
            61,
            -103,
            230
        ],
        "27/03/2020 13:16:43": [
            154,
            337,
            236
        ],
        "27/03/2020 17:09:13": [
            195,
            563,
            371,
            178
        ]
    },
    "3139": {
        "27/03/2020 11:00:29": [
            74,
            -90,
            243
        ],
        "27/03/2020 13:16:43": [
            114,
            297,
            196
        ],
        "27/03/2020 17:09:13": [
            215,
            583,
            379,
            186
        ]
    },
    "4124": {
        "27/03/2020 11:00:29": [
            98,
            -66,
            267
        ],
        "27/03/2020 13:16:44": [
            140,
            188,
            222
        ],
        "27/03/2020 17:09:13": [
            242,
            733,
            403,
            210
        ]
    },
    "4125": {
        "27/03/2020 11:00:29": [
            88,
            -76,
            257
        ],
        "27/03/2020 13:16:45": [
            136,
            184,
            218
        ],
        "27/03/2020 17:09:14": [
            239,
            730,
            393,
            200
        ]
    },
    "4126": {
        "27/03/2020 11:00:30": [
            100,
            -64,
            269
        ],
        "27/03/2020 13:16:45": [
            148,
            196,
            230
        ],
        "27/03/2020 17:09:14": [
            194,
            685,
            404,
            211
        ]
    },
    "4127": {
        "27/03/2020 11:00:30": [
            69,
            -95,
            238
        ],
        "27/03/2020 13:16:46": [
            118,
            166,
            200
        ],
        "27/03/2020 17:09:15": [
            228,
            719,
            370,
            177
        ]
    },
    "4128": {
        "27/03/2020 11:00:31": [
            89,
            -75,
            258
        ],
        "27/03/2020 13:16:46": [
            139,
            187,
            221
        ],
        "27/03/2020 17:09:15": [
            250,
            741,
            390,
            197
        ]
    },
    "4129": {
        "27/03/2020 11:00:31": [
            875,
            104,
            -60,
            273
        ],
        "27/03/2020 13:16:47": [
            100,
            148,
            182
        ],
        "27/03/2020 17:09:16": [
            216,
            707,
            412,
            219
        ]
    },
    "4130": {
        "27/03/2020 11:00:32": [
            862,
            111,
            -53,
            280
        ],
        "27/03/2020 13:16:48": [
            52,
            182,
            216
        ],
        "27/03/2020 17:09:16": [
            248,
            414,
            739,
            221
        ]
    },
    "4131": {
        "27/03/2020 11:00:32": [
            834,
            83,
            -81,
            252
        ],
        "27/03/2020 13:16:48": [
            24,
            154,
            188
        ],
        "27/03/2020 17:09:17": [
            216,
            377,
            707,
            184
        ]
    },
    "7294": {
        "27/03/2020 11:00:33": [
            825,
            74,
            -90,
            243
        ],
        "27/03/2020 13:16:49": [
            75,
            205,
            239
        ],
        "27/03/2020 17:09:17": [
            201,
            569,
            415
        ]
    },
    "4156": {
        "27/03/2020 11:00:33": [
            848,
            97,
            -67,
            266
        ],
        "27/03/2020 13:16:49": [
            38,
            168,
            202
        ],
        "27/03/2020 17:09:18": [
            215,
            417,
            706,
            224
        ]
    },
    "4168": {
        "27/03/2020 11:00:33": [
            0,
            0
        ],
        "27/03/2020 13:16:50": [
            0,
            0,
            0
        ],
        "27/03/2020 17:09:18": [
            0,
            0,
            0
        ]
    },
    "7698": {
        "27/03/2020 11:00:34": [],
        "27/03/2020 13:16:51": [],
        "27/03/2020 17:09:18": []
    },
    "7113": {
        "27/03/2020 11:00:34": [
            4,
            6
        ],
        "27/03/2020 13:16:51": [
            6,
            6
        ],
        "27/03/2020 17:09:19": [
            8,
            8,
            8
        ]
    },
    "127": {
        "27/03/2020 11:00:35": [
            -26,
            -24
        ],
        "27/03/2020 13:16:52": [
            -24,
            -24
        ],
        "27/03/2020 17:09:19": [
            24,
            22,
            22
        ]
    },
    "112": {
        "27/03/2020 11:00:35": [
            -9,
            -8
        ],
        "27/03/2020 13:16:53": [
            -8,
            -8
        ],
        "27/03/2020 17:09:20": [
            28,
            25,
            25
        ]
    },
    "113": {
        "27/03/2020 11:00:36": [
            -8,
            -9
        ],
        "27/03/2020 13:16:53": [
            -9,
            -9
        ],
        "27/03/2020 17:09:20": [
            14,
            -20,
            -20
        ]
    },
    "114": {
        "27/03/2020 11:00:36": [
            7,
            5
        ],
        "27/03/2020 13:16:54": [
            5,
            5
        ],
        "27/03/2020 17:09:21": [
            25,
            -1,
            -1
        ]
    },
    "115": {
        "27/03/2020 11:00:37": [
            2,
            -2
        ],
        "27/03/2020 13:16:55": [
            -2,
            -2
        ],
        "27/03/2020 17:09:21": [
            244,
            7,
            7,
            7
        ]
    },
    "37": {
        "27/03/2020 11:00:37": [
            -17,
            -23
        ],
        "27/03/2020 13:16:55": [
            -23,
            -23
        ],
        "27/03/2020 17:09:22": [
            178,
            -22,
            -3,
            -3
        ]
    },
    "38": {
        "27/03/2020 11:00:38": [
            -27,
            25
        ],
        "27/03/2020 13:16:56": [
            25,
            25
        ],
        "27/03/2020 17:09:22": [
            216,
            16,
            -1
        ]
    },
    "39": {
        "27/03/2020 11:00:38": [
            2,
            -7
        ],
        "27/03/2020 13:16:57": [
            -7,
            -7
        ],
        "27/03/2020 17:09:23": [
            178,
            -22,
            -25
        ]
    },
    "40": {
        "27/03/2020 11:00:38": [
            -9,
            -15
        ],
        "27/03/2020 13:16:57": [
            -15,
            -15
        ],
        "27/03/2020 17:09:23": [
            227,
            27,
            20
        ]
    },
    "146": {
        "27/03/2020 11:00:39": [
            10,
            6
        ],
        "27/03/2020 13:16:58": [
            6,
            6
        ],
        "27/03/2020 17:09:24": [
            186,
            -14,
            -22
        ]
    },
    "147": {
        "27/03/2020 11:00:39": [
            -15,
            -17
        ],
        "27/03/2020 13:16:59": [
            -17,
            -17
        ],
        "27/03/2020 17:09:24": [
            221,
            21,
            10
        ]
    },
    "184": {
        "27/03/2020 11:00:40": [
            29,
            -30
        ],
        "27/03/2020 13:16:59": [
            -30,
            -30
        ],
        "27/03/2020 17:09:25": [
            205,
            5,
            -10
        ]
    },
    "185": {
        "27/03/2020 11:00:40": [
            -4,
            -4
        ],
        "27/03/2020 13:17:00": [
            -4,
            -4
        ],
        "27/03/2020 17:09:25": [
            226,
            26,
            17
        ]
    },
    "186": {
        "27/03/2020 11:00:41": [
            -16,
            -17
        ],
        "27/03/2020 13:17:01": [
            248,
            -17,
            -17
        ],
        "27/03/2020 17:09:26": [
            204,
            4,
            5
        ]
    },
    "187": {
        "27/03/2020 11:00:41": [
            -14,
            -9
        ],
        "27/03/2020 13:17:01": [
            257,
            -9,
            -9
        ],
        "27/03/2020 17:09:26": [
            206,
            6,
            -27
        ]
    },
    "188": {
        "27/03/2020 11:00:42": [
            -17,
            -20
        ],
        "27/03/2020 13:17:02": [
            280,
            -20,
            -20
        ],
        "27/03/2020 17:09:27": [
            193,
            -7,
            17
        ]
    },
    "189": {
        "27/03/2020 11:00:42": [
            -11,
            -23
        ],
        "27/03/2020 13:17:02": [
            277,
            -23,
            -23
        ],
        "27/03/2020 17:09:27": [
            186,
            -14,
            8
        ]
    },
    "190": {
        "27/03/2020 11:00:43": [
            305,
            29,
            17
        ],
        "27/03/2020 13:17:03": [
            317,
            17,
            17
        ],
        "27/03/2020 17:09:28": [
            226,
            26,
            -10
        ]
    },
    "191": {
        "27/03/2020 11:00:43": [
            234,
            -22,
            27
        ],
        "27/03/2020 13:17:03": [
            327,
            27
        ],
        "27/03/2020 17:09:28": [
            175,
            -25,
            2
        ]
    },
    "819": {
        "27/03/2020 11:00:44": [
            244,
            -12,
            -22
        ],
        "27/03/2020 13:17:04": [
            278,
            -22
        ],
        "27/03/2020 17:09:29": [
            186,
            -14,
            16
        ]
    },
    "264": {
        "27/03/2020 11:00:44": [
            250,
            -26
        ],
        "27/03/2020 13:17:04": [
            223,
            13
        ],
        "27/03/2020 17:09:29": [
            211,
            11,
            -18
        ]
    },
    "6059": {
        "27/03/2020 11:00:45": [
            295,
            19
        ],
        "27/03/2020 13:17:05": [
            197,
            -13
        ],
        "27/03/2020 17:09:30": [
            176,
            -24,
            7
        ]
    }
}