{
    "337": {
        "24/03/2020 15:33:02": [],
        "24/03/2020 17:43:35": [],
        "24/03/2020 20:25:44": [],
        "24/03/2020 22:41:15": []
    },
    "4495": {
        "24/03/2020 15:33:03": [
            0
        ],
        "24/03/2020 17:43:35": [
            0
        ],
        "24/03/2020 20:25:45": [
            0
        ],
        "24/03/2020 22:41:16": [
            0
        ]
    },
    "4720": {
        "24/03/2020 15:33:03": [
            -17
        ],
        "24/03/2020 17:43:36": [
            6
        ],
        "24/03/2020 20:25:45": [],
        "24/03/2020 22:41:16": [
            3
        ]
    },
    "1443": {
        "24/03/2020 15:33:04": [
            24
        ],
        "24/03/2020 17:43:37": [
            16
        ],
        "24/03/2020 20:25:46": [],
        "24/03/2020 22:41:17": [
            -11
        ]
    },
    "1444": {
        "24/03/2020 15:33:04": [
            -25
        ],
        "24/03/2020 17:43:37": [
            28
        ],
        "24/03/2020 20:25:46": [],
        "24/03/2020 22:41:17": [
            -27
        ]
    },
    "1445": {
        "24/03/2020 15:33:05": [
            -6
        ],
        "24/03/2020 17:43:38": [
            -12
        ],
        "24/03/2020 20:25:47": [],
        "24/03/2020 22:41:17": [
            23
        ]
    },
    "7078": {
        "24/03/2020 15:33:05": [
            26
        ],
        "24/03/2020 17:43:38": [
            4
        ],
        "24/03/2020 20:25:47": [
            -7
        ],
        "24/03/2020 22:41:18": [
            -7
        ]
    },
    "1449": {
        "24/03/2020 15:33:06": [
            16
        ],
        "24/03/2020 17:43:39": [
            1
        ],
        "24/03/2020 20:25:47": [],
        "24/03/2020 22:41:19": [
            27
        ]
    },
    "1450": {
        "24/03/2020 15:33:06": [
            -14
        ],
        "24/03/2020 17:43:39": [
            28
        ],
        "24/03/2020 20:25:48": [],
        "24/03/2020 22:41:19": [
            -13
        ]
    },
    "1451": {
        "24/03/2020 15:33:07": [
            13
        ],
        "24/03/2020 17:43:40": [
            -8
        ],
        "24/03/2020 20:25:48": [],
        "24/03/2020 22:41:19": [
            6
        ]
    },
    "1452": {
        "24/03/2020 15:33:07": [
            -9
        ],
        "24/03/2020 17:43:40": [
            7
        ],
        "24/03/2020 20:25:49": [],
        "24/03/2020 22:41:20": [
            16
        ]
    },
    "2640": {
        "24/03/2020 15:33:07": [
            -17
        ],
        "24/03/2020 17:43:41": [
            -19
        ],
        "24/03/2020 20:25:49": [],
        "24/03/2020 22:41:20": [
            -24
        ]
    },
    "2641": {
        "24/03/2020 15:33:08": [
            -16
        ],
        "24/03/2020 17:43:41": [
            -11
        ],
        "24/03/2020 20:25:50": [],
        "24/03/2020 22:41:21": [
            23
        ]
    },
    "1948": {
        "24/03/2020 15:33:08": [
            11
        ],
        "24/03/2020 17:43:42": [
            -15
        ],
        "24/03/2020 20:25:50": [
            -16
        ],
        "24/03/2020 22:41:21": [
            -16
        ]
    },
    "1949": {
        "24/03/2020 15:33:09": [
            9
        ],
        "24/03/2020 17:43:42": [
            -30
        ],
        "24/03/2020 20:25:51": [
            2
        ],
        "24/03/2020 22:41:22": [
            2
        ]
    },
    "1950": {
        "24/03/2020 15:33:09": [
            -23
        ],
        "24/03/2020 17:43:43": [
            -22
        ],
        "24/03/2020 20:25:51": [
            -30
        ],
        "24/03/2020 22:41:22": [
            -30
        ]
    },
    "1951": {
        "24/03/2020 15:33:10": [
            0
        ],
        "24/03/2020 17:43:43": [
            -30
        ],
        "24/03/2020 20:25:52": [
            15
        ],
        "24/03/2020 22:41:23": [
            15
        ]
    },
    "1952": {
        "24/03/2020 15:33:10": [
            -28
        ],
        "24/03/2020 17:43:44": [
            -7
        ],
        "24/03/2020 20:25:52": [],
        "24/03/2020 22:41:23": []
    },
    "1953": {
        "24/03/2020 15:33:11": [
            8
        ],
        "24/03/2020 17:43:44": [
            19
        ],
        "24/03/2020 20:25:52": [
            -15
        ],
        "24/03/2020 22:41:24": [
            -15
        ]
    },
    "1954": {
        "24/03/2020 15:33:11": [
            -13
        ],
        "24/03/2020 17:43:45": [
            -13
        ],
        "24/03/2020 20:25:53": [
            3
        ],
        "24/03/2020 22:41:24": [
            3
        ]
    },
    "1955": {
        "24/03/2020 15:33:12": [
            -27
        ],
        "24/03/2020 17:43:45": [
            21
        ],
        "24/03/2020 20:25:53": [
            -28
        ],
        "24/03/2020 22:41:24": [
            -28
        ]
    },
    "1956": {
        "24/03/2020 15:33:12": [
            1
        ],
        "24/03/2020 17:43:46": [
            27
        ],
        "24/03/2020 20:25:54": [
            28
        ],
        "24/03/2020 22:41:25": [
            28
        ]
    },
    "1957": {
        "24/03/2020 15:33:13": [],
        "24/03/2020 17:43:46": [
            -16
        ],
        "24/03/2020 20:25:54": [
            -13
        ],
        "24/03/2020 22:41:25": [
            -13
        ]
    },
    "1958": {
        "24/03/2020 15:33:13": [],
        "24/03/2020 17:43:47": [
            -1
        ],
        "24/03/2020 20:25:55": [
            2
        ],
        "24/03/2020 22:41:26": [
            2
        ]
    },
    "1959": {
        "24/03/2020 15:33:13": [],
        "24/03/2020 17:43:47": [
            23
        ],
        "24/03/2020 20:25:55": [
            -2
        ],
        "24/03/2020 22:41:26": [
            -2
        ]
    },
    "1960": {
        "24/03/2020 15:33:14": [],
        "24/03/2020 17:43:47": [
            5
        ],
        "24/03/2020 20:25:56": [
            -27
        ],
        "24/03/2020 22:41:27": [
            -27
        ]
    },
    "4379": {
        "24/03/2020 15:33:14": [],
        "24/03/2020 17:43:48": [
            -11
        ],
        "24/03/2020 20:25:56": [],
        "24/03/2020 22:41:27": [
            -4
        ]
    },
    "1968": {
        "24/03/2020 15:33:15": [],
        "24/03/2020 17:43:48": [
            -4
        ],
        "24/03/2020 20:25:56": [
            -27
        ],
        "24/03/2020 22:41:28": [
            -27
        ]
    },
    "1969": {
        "24/03/2020 15:33:15": [],
        "24/03/2020 17:43:49": [
            17
        ],
        "24/03/2020 20:25:57": [
            -11
        ],
        "24/03/2020 22:41:28": [
            -11
        ]
    },
    "1970": {
        "24/03/2020 15:33:16": [],
        "24/03/2020 17:43:49": [
            12
        ],
        "24/03/2020 20:25:57": [],
        "24/03/2020 22:41:29": [
            -27
        ]
    },
    "1971": {
        "24/03/2020 15:33:16": [],
        "24/03/2020 17:43:50": [
            -12
        ],
        "24/03/2020 20:25:58": [],
        "24/03/2020 22:41:29": [
            -7
        ]
    },
    "2160": {
        "24/03/2020 15:33:17": [],
        "24/03/2020 17:43:50": [
            -30
        ],
        "24/03/2020 20:25:58": [
            -407
        ],
        "24/03/2020 22:41:30": []
    },
    "2161": {
        "24/03/2020 15:33:17": [
            -383
        ],
        "24/03/2020 17:43:51": [
            16
        ],
        "24/03/2020 20:25:59": [
            -433
        ],
        "24/03/2020 22:41:30": []
    },
    "4665": {
        "24/03/2020 15:33:18": [
            -327
        ],
        "24/03/2020 17:43:51": [
            0
        ],
        "24/03/2020 20:25:59": [
            -347
        ],
        "24/03/2020 22:41:31": []
    },
    "4666": {
        "24/03/2020 15:33:18": [
            -337
        ],
        "24/03/2020 17:43:52": [
            -526,
            -25
        ],
        "24/03/2020 20:26:00": [
            -329
        ],
        "24/03/2020 22:41:32": []
    },
    "4667": {
        "24/03/2020 15:33:19": [
            -356
        ],
        "24/03/2020 17:43:52": [
            -483
        ],
        "24/03/2020 20:26:00": [
            -352
        ],
        "24/03/2020 22:41:32": []
    },
    "2162": {
        "24/03/2020 15:33:19": [
            -337
        ],
        "24/03/2020 17:43:52": [
            -506
        ],
        "24/03/2020 20:26:00": [
            -381
        ],
        "24/03/2020 22:41:32": []
    },
    "2163": {
        "24/03/2020 15:33:20": [
            -362
        ],
        "24/03/2020 17:43:53": [
            -469
        ],
        "24/03/2020 20:26:01": [
            -409
        ],
        "24/03/2020 22:41:33": []
    },
    "2168": {
        "24/03/2020 15:33:20": [
            -336
        ],
        "24/03/2020 17:43:53": [
            -499
        ],
        "24/03/2020 20:26:02": [
            -394
        ],
        "24/03/2020 22:41:33": []
    },
    "4536": {
        "24/03/2020 15:33:20": [
            -262
        ],
        "24/03/2020 17:43:54": [
            -494
        ],
        "24/03/2020 20:26:02": [
            -353
        ],
        "24/03/2020 22:41:34": []
    },
    "6003": {
        "24/03/2020 15:33:21": [
            -324
        ],
        "24/03/2020 17:43:54": [
            -481
        ],
        "24/03/2020 20:26:02": [
            -372
        ],
        "24/03/2020 22:41:34": []
    },
    "5123": {
        "24/03/2020 15:33:21": [
            -347
        ],
        "24/03/2020 17:43:55": [
            -478
        ],
        "24/03/2020 20:26:03": [
            -397
        ],
        "24/03/2020 22:41:35": []
    },
    "5124": {
        "24/03/2020 15:33:22": [
            -266
        ],
        "24/03/2020 17:43:55": [
            -489
        ],
        "24/03/2020 20:26:03": [
            -413
        ],
        "24/03/2020 22:41:35": []
    },
    "5125": {
        "24/03/2020 15:33:22": [
            -293
        ],
        "24/03/2020 17:43:56": [
            -497
        ],
        "24/03/2020 20:26:04": [
            -390
        ],
        "24/03/2020 22:41:36": []
    },
    "6001": {
        "24/03/2020 15:33:23": [
            -290
        ],
        "24/03/2020 17:43:56": [
            -487
        ],
        "24/03/2020 20:26:04": [
            -392
        ],
        "24/03/2020 22:41:36": []
    },
    "4438": {
        "24/03/2020 15:33:23": [
            -303
        ],
        "24/03/2020 17:43:57": [
            -500
        ],
        "24/03/2020 20:26:05": [
            -415
        ],
        "24/03/2020 22:41:36": []
    },
    "3432": {
        "24/03/2020 15:33:24": [
            -277
        ],
        "24/03/2020 17:43:57": [
            -474
        ],
        "24/03/2020 20:26:05": [
            -407
        ],
        "24/03/2020 22:41:37": []
    },
    "3426": {
        "24/03/2020 15:33:24": [
            -259
        ],
        "24/03/2020 17:43:58": [
            -491
        ],
        "24/03/2020 20:26:06": [
            -396
        ],
        "24/03/2020 22:41:37": []
    },
    "3434": {
        "24/03/2020 15:33:25": [
            -257
        ],
        "24/03/2020 17:43:58": [
            -516
        ],
        "24/03/2020 20:26:06": [
            -388
        ],
        "24/03/2020 22:41:38": []
    },
    "3435": {
        "24/03/2020 15:33:26": [
            -298
        ],
        "24/03/2020 17:43:59": [
            -514
        ],
        "24/03/2020 20:26:07": [
            -429
        ],
        "24/03/2020 22:41:38": []
    },
    "3453": {
        "24/03/2020 15:33:26": [
            -273
        ],
        "24/03/2020 17:43:59": [
            -509
        ],
        "24/03/2020 20:26:07": [
            -431
        ],
        "24/03/2020 22:41:39": [
            -58
        ]
    },
    "3437": {
        "24/03/2020 15:33:27": [
            -268
        ],
        "24/03/2020 17:43:59": [
            -467
        ],
        "24/03/2020 20:26:08": [
            -299
        ],
        "24/03/2020 22:41:39": [
            -57
        ]
    },
    "3439": {
        "24/03/2020 15:33:27": [
            -301
        ],
        "24/03/2020 17:44:00": [
            -490
        ],
        "24/03/2020 20:26:08": [
            -269
        ],
        "24/03/2020 22:41:40": [
            -34
        ]
    },
    "3440": {
        "24/03/2020 15:33:28": [
            -271
        ],
        "24/03/2020 17:44:00": [
            -513
        ],
        "24/03/2020 20:26:08": [
            -423
        ],
        "24/03/2020 22:41:40": [
            -70
        ]
    },
    "4557": {
        "24/03/2020 15:33:28": [
            -285
        ],
        "24/03/2020 17:44:01": [
            -515
        ],
        "24/03/2020 20:26:09": [
            -311
        ],
        "24/03/2020 22:41:40": [
            -31
        ]
    },
    "3441": {
        "24/03/2020 15:33:28": [
            -250
        ],
        "24/03/2020 17:44:01": [
            -480
        ],
        "24/03/2020 20:26:09": [
            -404
        ],
        "24/03/2020 22:41:41": [
            -63
        ]
    },
    "4560": {
        "24/03/2020 15:33:29": [
            -299
        ],
        "24/03/2020 17:44:02": [
            -469
        ],
        "24/03/2020 20:26:10": [
            -278
        ],
        "24/03/2020 22:41:41": [
            -86
        ]
    },
    "5126": {
        "24/03/2020 15:33:29": [],
        "24/03/2020 17:44:02": [],
        "24/03/2020 20:26:10": [],
        "24/03/2020 22:41:42": []
    },
    "1982": {
        "24/03/2020 15:33:30": [],
        "24/03/2020 17:44:03": [],
        "24/03/2020 20:26:11": [],
        "24/03/2020 22:41:42": []
    },
    "339": {
        "24/03/2020 15:33:30": [],
        "24/03/2020 17:44:03": [],
        "24/03/2020 20:26:11": [],
        "24/03/2020 22:41:43": []
    },
    "5192": {
        "24/03/2020 15:33:31": [],
        "24/03/2020 17:44:04": [],
        "24/03/2020 20:26:12": [],
        "24/03/2020 22:41:43": []
    },
    "4564": {
        "24/03/2020 15:33:31": [
            0
        ],
        "24/03/2020 17:44:04": [
            0
        ],
        "24/03/2020 20:26:12": [
            0
        ],
        "24/03/2020 22:41:44": [
            0
        ]
    },
    "3443": {
        "24/03/2020 15:33:32": [
            10
        ],
        "24/03/2020 17:44:05": [
            7
        ],
        "24/03/2020 20:26:12": [
            6
        ],
        "24/03/2020 22:41:44": [
            6
        ]
    },
    "3444": {
        "24/03/2020 15:33:32": [
            -19
        ],
        "24/03/2020 17:44:05": [
            -24
        ],
        "24/03/2020 20:26:13": [
            -25
        ],
        "24/03/2020 22:41:45": [
            -25
        ]
    },
    "3445": {
        "24/03/2020 15:33:32": [
            24
        ],
        "24/03/2020 17:44:05": [
            7
        ],
        "24/03/2020 20:26:13": [
            2
        ],
        "24/03/2020 22:41:45": [
            2
        ]
    },
    "3446": {
        "24/03/2020 15:33:33": [
            59
        ],
        "24/03/2020 17:44:06": [
            -10
        ],
        "24/03/2020 20:26:14": [
            -21
        ],
        "24/03/2020 22:41:45": [
            -21
        ]
    },
    "3447": {
        "24/03/2020 15:33:33": [
            34
        ],
        "24/03/2020 17:44:06": [
            18
        ],
        "24/03/2020 20:26:14": [
            4
        ],
        "24/03/2020 22:41:46": [
            4
        ]
    },
    "3448": {
        "24/03/2020 15:33:34": [
            53
        ],
        "24/03/2020 17:44:07": [
            -22
        ],
        "24/03/2020 20:26:15": [
            -23
        ],
        "24/03/2020 22:41:46": [
            -23
        ]
    },
    "3449": {
        "24/03/2020 15:33:34": [
            22
        ],
        "24/03/2020 17:44:07": [
            8
        ],
        "24/03/2020 20:26:15": [
            27
        ],
        "24/03/2020 22:41:47": [
            27
        ]
    },
    "3436": {
        "24/03/2020 15:33:35": [
            20
        ],
        "24/03/2020 17:44:08": [
            6
        ],
        "24/03/2020 20:26:16": [
            -30
        ],
        "24/03/2020 22:41:47": [
            -30
        ]
    },
    "7432": {
        "24/03/2020 15:33:35": [],
        "24/03/2020 17:44:08": [
            -22
        ],
        "24/03/2020 20:26:16": [
            1
        ],
        "24/03/2020 22:41:48": [
            1
        ]
    },
    "3454": {
        "24/03/2020 15:33:36": [
            67
        ],
        "24/03/2020 17:44:09": [
            -3
        ],
        "24/03/2020 20:26:17": [
            20
        ],
        "24/03/2020 22:41:48": [
            20
        ]
    },
    "3455": {
        "24/03/2020 15:33:36": [
            -17
        ],
        "24/03/2020 17:44:09": [
            28
        ],
        "24/03/2020 20:26:17": [
            9
        ],
        "24/03/2020 22:41:48": [
            9
        ]
    },
    "3456": {
        "24/03/2020 15:33:37": [
            -3
        ],
        "24/03/2020 17:44:09": [
            -29
        ],
        "24/03/2020 20:26:18": [
            9
        ],
        "24/03/2020 22:41:49": [
            9
        ]
    },
    "3457": {
        "24/03/2020 15:33:37": [
            3
        ],
        "24/03/2020 17:44:10": [
            -22
        ],
        "24/03/2020 20:26:18": [
            8
        ],
        "24/03/2020 22:41:49": [
            8
        ]
    },
    "3438": {
        "24/03/2020 15:33:38": [
            24
        ],
        "24/03/2020 17:44:10": [
            -4
        ],
        "24/03/2020 20:26:19": [
            43
        ],
        "24/03/2020 22:41:50": [
            21
        ]
    },
    "5022": {
        "24/03/2020 15:33:38": [
            -25
        ],
        "24/03/2020 17:44:11": [
            3
        ],
        "24/03/2020 20:26:19": [
            29
        ],
        "24/03/2020 22:41:50": [
            24
        ]
    },
    "6002": {
        "24/03/2020 15:33:39": [
            13
        ],
        "24/03/2020 17:44:11": [
            -20
        ],
        "24/03/2020 20:26:19": [
            6
        ],
        "24/03/2020 22:41:51": [
            -2
        ]
    },
    "5119": {
        "24/03/2020 15:33:39": [
            -1
        ],
        "24/03/2020 17:44:12": [
            -171
        ],
        "24/03/2020 20:26:20": [
            50
        ],
        "24/03/2020 22:41:51": [
            -20
        ]
    },
    "5120": {
        "24/03/2020 15:33:40": [
            -25
        ],
        "24/03/2020 17:44:12": [
            -203
        ],
        "24/03/2020 20:26:20": [
            25
        ],
        "24/03/2020 22:41:52": [
            12
        ]
    },
    "5121": {
        "24/03/2020 15:33:40": [
            -22
        ],
        "24/03/2020 17:44:13": [
            -178
        ],
        "24/03/2020 20:26:21": [
            66
        ],
        "24/03/2020 22:41:52": [
            3
        ]
    },
    "5122": {
        "24/03/2020 15:33:41": [
            15
        ],
        "24/03/2020 17:44:13": [
            -223
        ],
        "24/03/2020 20:26:21": [
            43
        ],
        "24/03/2020 22:41:52": [
            -21
        ]
    },
    "3461": {
        "24/03/2020 15:33:41": [
            -1
        ],
        "24/03/2020 17:44:19": [
            -217
        ],
        "24/03/2020 20:26:22": [
            89
        ],
        "24/03/2020 22:41:53": [
            20
        ]
    },
    "4532": {
        "24/03/2020 15:33:42": [],
        "24/03/2020 17:44:24": [
            -210
        ],
        "24/03/2020 20:26:22": [
            83
        ],
        "24/03/2020 22:41:53": [
            6
        ]
    },
    "4534": {
        "24/03/2020 15:33:42": [],
        "24/03/2020 17:44:31": [
            -226
        ],
        "24/03/2020 20:26:23": [
            58
        ],
        "24/03/2020 22:41:54": [
            -25
        ]
    },
    "4535": {
        "24/03/2020 15:33:43": [],
        "24/03/2020 17:44:36": [
            -150
        ],
        "24/03/2020 20:26:23": [
            45
        ],
        "24/03/2020 22:41:54": [
            15
        ]
    },
    "2169": {
        "24/03/2020 15:33:43": [
            -22
        ],
        "24/03/2020 17:44:42": [
            -154
        ],
        "24/03/2020 20:26:24": [
            90
        ],
        "24/03/2020 22:41:55": [
            -7
        ]
    },
    "2170": {
        "24/03/2020 15:33:44": [
            -4
        ],
        "24/03/2020 17:44:47": [
            -128
        ],
        "24/03/2020 20:26:24": [
            51
        ],
        "24/03/2020 22:41:55": [
            11
        ]
    },
    "4672": {
        "24/03/2020 15:33:44": [
            19
        ],
        "24/03/2020 17:44:53": [
            -156
        ],
        "24/03/2020 20:26:25": [
            77
        ],
        "24/03/2020 22:41:56": [
            -27
        ]
    },
    "3465": {
        "24/03/2020 15:33:45": [
            -14
        ],
        "24/03/2020 17:44:58": [
            -163
        ],
        "24/03/2020 20:26:25": [
            18
        ],
        "24/03/2020 22:41:56": [
            -30
        ]
    },
    "4673": {
        "24/03/2020 15:33:45": [
            19
        ],
        "24/03/2020 17:45:04": [
            -121
        ],
        "24/03/2020 20:26:26": [
            -15
        ],
        "24/03/2020 22:41:56": [
            -9
        ]
    },
    "2172": {
        "24/03/2020 15:33:46": [
            -3
        ],
        "24/03/2020 17:45:09": [
            -131
        ],
        "24/03/2020 20:26:26": [
            15
        ],
        "24/03/2020 22:41:57": [
            16
        ]
    },
    "2159": {
        "24/03/2020 15:33:46": [
            -19
        ],
        "24/03/2020 17:45:15": [
            -117
        ],
        "24/03/2020 20:26:26": [
            -20
        ],
        "24/03/2020 22:41:58": [
            23
        ]
    },
    "4409": {
        "24/03/2020 15:33:47": [
            5
        ],
        "24/03/2020 17:45:20": [
            -146
        ],
        "24/03/2020 20:26:27": [
            -1
        ],
        "24/03/2020 22:41:58": [
            -21
        ]
    },
    "1972": {
        "24/03/2020 15:33:47": [
            -18
        ],
        "24/03/2020 17:45:26": [
            -153
        ],
        "24/03/2020 20:26:27": [
            -3
        ],
        "24/03/2020 22:41:58": [
            26
        ]
    },
    "1973": {
        "24/03/2020 15:33:48": [],
        "24/03/2020 17:45:32": [
            -163
        ],
        "24/03/2020 20:26:28": [
            -26
        ],
        "24/03/2020 22:41:59": [
            -2
        ]
    },
    "1974": {
        "24/03/2020 15:33:48": [
            8
        ],
        "24/03/2020 17:45:37": [
            -122
        ],
        "24/03/2020 20:26:28": [
            5
        ],
        "24/03/2020 22:41:59": [
            25
        ]
    },
    "1975": {
        "24/03/2020 15:33:49": [],
        "24/03/2020 17:45:43": [
            -130
        ],
        "24/03/2020 20:26:29": [
            25
        ],
        "24/03/2020 22:42:00": [
            -22
        ]
    },
    "1977": {
        "24/03/2020 15:33:49": [],
        "24/03/2020 17:45:49": [
            -119
        ],
        "24/03/2020 20:26:29": [
            21
        ],
        "24/03/2020 22:42:00": [
            28
        ]
    },
    "1978": {
        "24/03/2020 15:33:50": [],
        "24/03/2020 17:45:54": [
            -153
        ],
        "24/03/2020 20:26:30": [
            -20
        ],
        "24/03/2020 22:42:01": []
    },
    "1980": {
        "24/03/2020 15:33:50": [
            27
        ],
        "24/03/2020 17:46:00": [
            -121
        ],
        "24/03/2020 20:26:30": [
            -14
        ],
        "24/03/2020 22:42:01": [
            -14
        ]
    },
    "1981": {
        "24/03/2020 15:33:51": [
            19
        ],
        "24/03/2020 17:46:06": [
            -124
        ],
        "24/03/2020 20:26:31": [
            18
        ],
        "24/03/2020 22:42:02": [
            26
        ]
    },
    "4406": {
        "24/03/2020 15:33:51": [
            -27
        ],
        "24/03/2020 17:46:12": [
            -160
        ],
        "24/03/2020 20:26:31": [
            6
        ],
        "24/03/2020 22:42:02": [
            11
        ]
    },
    "1984": {
        "24/03/2020 15:33:52": [
            -24
        ],
        "24/03/2020 17:46:23": [
            -147
        ],
        "24/03/2020 20:26:32": [
            -12
        ],
        "24/03/2020 22:42:03": [
            -19
        ]
    },
    "1985": {
        "24/03/2020 15:33:52": [
            6
        ],
        "24/03/2020 17:46:24": [
            -134
        ],
        "24/03/2020 20:26:32": [
            -21
        ],
        "24/03/2020 22:42:03": [
            20
        ]
    },
    "1986": {
        "24/03/2020 15:33:52": [
            11
        ],
        "24/03/2020 17:46:25": [
            -131
        ],
        "24/03/2020 20:26:33": [
            -26
        ],
        "24/03/2020 22:42:04": [
            -4
        ]
    },
    "1987": {
        "24/03/2020 15:33:53": [
            -18
        ],
        "24/03/2020 17:46:26": [
            -161
        ],
        "24/03/2020 20:26:33": [
            0
        ],
        "24/03/2020 22:42:04": [
            13
        ]
    },
    "1988": {
        "24/03/2020 15:33:53": [
            -16
        ],
        "24/03/2020 17:46:26": [
            -161
        ],
        "24/03/2020 20:26:33": [
            -7
        ],
        "24/03/2020 22:42:05": [
            -12
        ]
    },
    "2642": {
        "24/03/2020 15:33:54": [
            -17
        ],
        "24/03/2020 17:46:27": [
            -157
        ],
        "24/03/2020 20:26:34": [
            -4
        ],
        "24/03/2020 22:42:05": [
            -22
        ]
    },
    "7435": {
        "24/03/2020 15:33:54": [],
        "24/03/2020 17:46:27": [
            -147
        ],
        "24/03/2020 20:26:34": [
            5
        ],
        "24/03/2020 22:42:06": [
            -28
        ]
    },
    "2722": {
        "24/03/2020 15:33:55": [
            13
        ],
        "24/03/2020 17:46:28": [
            -164
        ],
        "24/03/2020 20:26:35": [
            -12
        ],
        "24/03/2020 22:42:06": [
            6
        ]
    },
    "1471": {
        "24/03/2020 15:33:55": [
            5
        ],
        "24/03/2020 17:46:28": [
            -160
        ],
        "24/03/2020 20:26:35": [
            -14
        ],
        "24/03/2020 22:42:07": [
            -14
        ]
    },
    "1472": {
        "24/03/2020 15:33:56": [
            10
        ],
        "24/03/2020 17:46:28": [
            -142
        ],
        "24/03/2020 20:26:36": [
            -9
        ],
        "24/03/2020 22:42:07": [
            -29
        ]
    },
    "4408": {
        "24/03/2020 15:33:56": [
            5
        ],
        "24/03/2020 17:46:29": [
            -160
        ],
        "24/03/2020 20:26:36": [
            18
        ],
        "24/03/2020 22:42:08": [
            8
        ]
    },
    "1473": {
        "24/03/2020 15:33:57": [
            -23
        ],
        "24/03/2020 17:46:29": [
            -135
        ],
        "24/03/2020 20:26:37": [
            -25
        ],
        "24/03/2020 22:42:08": [
            -30
        ]
    },
    "1474": {
        "24/03/2020 15:33:57": [
            -24
        ],
        "24/03/2020 17:46:30": [
            -166
        ],
        "24/03/2020 20:26:37": [
            -22
        ],
        "24/03/2020 22:42:08": [
            17
        ]
    },
    "1476": {
        "24/03/2020 15:33:58": [
            4
        ],
        "24/03/2020 17:46:30": [
            -140
        ],
        "24/03/2020 20:26:38": [
            -26
        ],
        "24/03/2020 22:42:09": [
            12
        ]
    },
    "7453": {
        "24/03/2020 15:33:58": [],
        "24/03/2020 17:46:31": [
            -137
        ],
        "24/03/2020 20:26:38": [
            0
        ],
        "24/03/2020 22:42:09": [
            28
        ]
    },
    "1480": {
        "24/03/2020 15:33:59": [
            8
        ],
        "24/03/2020 17:46:31": [
            -109
        ],
        "24/03/2020 20:26:39": [
            -16
        ],
        "24/03/2020 22:42:10": [
            0
        ]
    },
    "2912": {
        "24/03/2020 15:33:59": [
            24
        ],
        "24/03/2020 17:46:32": [
            -151
        ],
        "24/03/2020 20:26:39": [
            0
        ],
        "24/03/2020 22:42:10": [
            14
        ]
    },
    "1358": {
        "24/03/2020 15:34:00": [
            -20
        ],
        "24/03/2020 17:46:32": [
            -133
        ],
        "24/03/2020 20:26:39": [
            16
        ],
        "24/03/2020 22:42:11": [
            28
        ]
    },
    "7665": {
        "24/03/2020 15:34:00": [],
        "24/03/2020 17:46:33": [],
        "24/03/2020 20:26:40": [],
        "24/03/2020 22:42:11": []
    }
}