{
    "4145": {
        "25/03/2020 15:12:09": [],
        "25/03/2020 17:56:10": [],
        "25/03/2020 20:15:24": [],
        "25/03/2020 21:42:38": []
    },
    "4146": {
        "25/03/2020 15:12:09": [],
        "25/03/2020 17:56:11": [],
        "25/03/2020 20:15:24": [],
        "25/03/2020 21:42:38": []
    },
    "4148": {
        "25/03/2020 15:12:09": [],
        "25/03/2020 17:56:12": [],
        "25/03/2020 20:15:25": [],
        "25/03/2020 21:42:39": []
    },
    "4304": {
        "25/03/2020 15:12:10": [],
        "25/03/2020 17:56:13": [],
        "25/03/2020 20:15:25": [],
        "25/03/2020 21:42:39": []
    },
    "3140": {
        "25/03/2020 15:12:10": [],
        "25/03/2020 17:56:14": [],
        "25/03/2020 20:15:25": [],
        "25/03/2020 21:42:39": []
    },
    "3343": {
        "25/03/2020 15:12:11": [],
        "25/03/2020 17:56:14": [],
        "25/03/2020 20:15:26": [],
        "25/03/2020 21:42:39": []
    },
    "4533": {
        "25/03/2020 15:12:11": [],
        "25/03/2020 17:56:15": [],
        "25/03/2020 20:15:26": [],
        "25/03/2020 21:42:40": []
    },
    "4844": {
        "25/03/2020 15:12:11": [],
        "25/03/2020 17:56:16": [],
        "25/03/2020 20:15:26": [],
        "25/03/2020 21:42:40": []
    },
    "5088": {
        "25/03/2020 15:12:11": [],
        "25/03/2020 17:56:16": [],
        "25/03/2020 20:15:27": [],
        "25/03/2020 21:42:40": []
    },
    "5089": {
        "25/03/2020 15:12:12": [],
        "25/03/2020 17:56:17": [],
        "25/03/2020 20:15:27": [],
        "25/03/2020 21:42:41": []
    },
    "5090": {
        "25/03/2020 15:12:12": [],
        "25/03/2020 17:56:17": [],
        "25/03/2020 20:15:27": [],
        "25/03/2020 21:42:41": []
    },
    "7056": {
        "25/03/2020 15:12:12": [],
        "25/03/2020 17:56:18": [],
        "25/03/2020 20:15:28": [],
        "25/03/2020 21:42:41": []
    },
    "7472": {
        "25/03/2020 15:12:12": [],
        "25/03/2020 17:56:19": [],
        "25/03/2020 20:15:28": [],
        "25/03/2020 21:42:41": []
    },
    "3045": {
        "25/03/2020 15:12:13": [],
        "25/03/2020 17:56:19": [],
        "25/03/2020 20:15:28": [],
        "25/03/2020 21:42:42": []
    },
    "3068": {
        "25/03/2020 15:12:13": [],
        "25/03/2020 17:56:20": [],
        "25/03/2020 20:15:29": [],
        "25/03/2020 21:42:42": []
    },
    "3069": {
        "25/03/2020 15:12:13": [],
        "25/03/2020 17:56:21": [],
        "25/03/2020 20:15:29": [],
        "25/03/2020 21:42:42": []
    },
    "3070": {
        "25/03/2020 15:12:14": [],
        "25/03/2020 17:56:22": [],
        "25/03/2020 20:15:29": [],
        "25/03/2020 21:42:42": []
    },
    "3552": {
        "25/03/2020 15:12:14": [],
        "25/03/2020 17:56:23": [],
        "25/03/2020 20:15:29": [],
        "25/03/2020 21:42:43": []
    },
    "3553": {
        "25/03/2020 15:12:14": [],
        "25/03/2020 17:56:24": [],
        "25/03/2020 20:15:30": [],
        "25/03/2020 21:42:43": []
    },
    "3554": {
        "25/03/2020 15:12:15": [],
        "25/03/2020 17:56:24": [],
        "25/03/2020 20:15:30": [],
        "25/03/2020 21:42:43": []
    },
    "3555": {
        "25/03/2020 15:12:15": [],
        "25/03/2020 17:56:25": [],
        "25/03/2020 20:15:30": [],
        "25/03/2020 21:42:44": []
    },
    "3556": {
        "25/03/2020 15:12:15": [],
        "25/03/2020 17:56:26": [],
        "25/03/2020 20:15:30": [],
        "25/03/2020 21:42:44": []
    },
    "3557": {
        "25/03/2020 15:12:15": [],
        "25/03/2020 17:56:26": [],
        "25/03/2020 20:15:31": [],
        "25/03/2020 21:42:44": []
    },
    "3560": {
        "25/03/2020 15:12:16": [],
        "25/03/2020 17:56:27": [],
        "25/03/2020 20:15:31": [],
        "25/03/2020 21:42:45": []
    },
    "3561": {
        "25/03/2020 15:12:16": [],
        "25/03/2020 17:56:28": [],
        "25/03/2020 20:15:31": [],
        "25/03/2020 21:42:45": []
    },
    "4176": {
        "25/03/2020 15:12:16": [],
        "25/03/2020 17:56:29": [],
        "25/03/2020 20:15:32": [],
        "25/03/2020 21:42:45": []
    },
    "4177": {
        "25/03/2020 15:12:17": [],
        "25/03/2020 17:56:30": [],
        "25/03/2020 20:15:32": [],
        "25/03/2020 21:42:46": []
    },
    "4178": {
        "25/03/2020 15:12:17": [],
        "25/03/2020 17:56:30": [],
        "25/03/2020 20:15:32": [],
        "25/03/2020 21:42:46": []
    },
    "4201": {
        "25/03/2020 15:12:17": [],
        "25/03/2020 17:56:31": [],
        "25/03/2020 20:15:33": [],
        "25/03/2020 21:42:46": []
    },
    "4202": {
        "25/03/2020 15:12:17": [],
        "25/03/2020 17:56:32": [],
        "25/03/2020 20:15:33": [],
        "25/03/2020 21:42:46": []
    },
    "4203": {
        "25/03/2020 15:12:18": [],
        "25/03/2020 17:56:32": [],
        "25/03/2020 20:15:33": [],
        "25/03/2020 21:42:47": []
    },
    "4204": {
        "25/03/2020 15:12:18": [],
        "25/03/2020 17:56:33": [],
        "25/03/2020 20:15:34": [],
        "25/03/2020 21:42:47": []
    },
    "4205": {
        "25/03/2020 15:12:18": [],
        "25/03/2020 17:56:33": [],
        "25/03/2020 20:15:34": [],
        "25/03/2020 21:42:47": []
    },
    "4206": {
        "25/03/2020 15:12:19": [],
        "25/03/2020 17:56:34": [],
        "25/03/2020 20:15:34": [],
        "25/03/2020 21:42:47": []
    },
    "2997": {
        "25/03/2020 15:12:19": [],
        "25/03/2020 17:56:34": [],
        "25/03/2020 20:15:35": [],
        "25/03/2020 21:42:48": []
    },
    "3225": {
        "25/03/2020 15:12:19": [],
        "25/03/2020 17:56:35": [],
        "25/03/2020 20:15:35": [],
        "25/03/2020 21:42:48": []
    },
    "3226": {
        "25/03/2020 15:12:20": [],
        "25/03/2020 17:56:36": [],
        "25/03/2020 20:15:35": [],
        "25/03/2020 21:42:48": []
    },
    "3227": {
        "25/03/2020 15:12:20": [],
        "25/03/2020 17:56:37": [],
        "25/03/2020 20:15:36": [],
        "25/03/2020 21:42:49": []
    },
    "3228": {
        "25/03/2020 15:12:20": [],
        "25/03/2020 17:56:37": [],
        "25/03/2020 20:15:36": [],
        "25/03/2020 21:42:49": []
    },
    "3229": {
        "25/03/2020 15:12:21": [],
        "25/03/2020 17:56:38": [],
        "25/03/2020 20:15:36": [],
        "25/03/2020 21:42:49": []
    },
    "3230": {
        "25/03/2020 15:12:21": [],
        "25/03/2020 17:56:38": [],
        "25/03/2020 20:15:36": [],
        "25/03/2020 21:42:50": []
    },
    "3231": {
        "25/03/2020 15:12:21": [],
        "25/03/2020 17:56:39": [],
        "25/03/2020 20:15:37": [],
        "25/03/2020 21:42:50": []
    },
    "3236": {
        "25/03/2020 15:12:22": [],
        "25/03/2020 17:56:39": [],
        "25/03/2020 20:15:37": [],
        "25/03/2020 21:42:50": []
    },
    "3237": {
        "25/03/2020 15:12:22": [],
        "25/03/2020 17:56:40": [],
        "25/03/2020 20:15:37": [],
        "25/03/2020 21:42:50": []
    },
    "3238": {
        "25/03/2020 15:12:22": [],
        "25/03/2020 17:56:41": [],
        "25/03/2020 20:15:38": [],
        "25/03/2020 21:42:51": []
    },
    "3239": {
        "25/03/2020 15:12:23": [],
        "25/03/2020 17:56:41": [],
        "25/03/2020 20:15:38": [],
        "25/03/2020 21:42:51": []
    },
    "3240": {
        "25/03/2020 15:12:23": [],
        "25/03/2020 17:56:42": [],
        "25/03/2020 20:15:38": [],
        "25/03/2020 21:42:51": []
    },
    "3246": {
        "25/03/2020 15:12:24": [],
        "25/03/2020 17:56:42": [],
        "25/03/2020 20:15:39": [],
        "25/03/2020 21:42:52": []
    },
    "3247": {
        "25/03/2020 15:12:24": [],
        "25/03/2020 17:56:43": [],
        "25/03/2020 20:15:39": [],
        "25/03/2020 21:42:52": []
    },
    "3248": {
        "25/03/2020 15:12:24": [],
        "25/03/2020 17:56:43": [],
        "25/03/2020 20:15:39": [],
        "25/03/2020 21:42:52": []
    },
    "3545": {
        "25/03/2020 15:12:24": [],
        "25/03/2020 17:56:44": [],
        "25/03/2020 20:15:40": [],
        "25/03/2020 21:42:53": []
    },
    "4142": {
        "25/03/2020 15:12:25": [],
        "25/03/2020 17:56:44": [],
        "25/03/2020 20:15:40": [],
        "25/03/2020 21:42:53": []
    },
    "4143": {
        "25/03/2020 15:12:25": [],
        "25/03/2020 17:56:45": [],
        "25/03/2020 20:15:40": [],
        "25/03/2020 21:42:53": []
    },
    "4144": {
        "25/03/2020 15:12:25": [],
        "25/03/2020 17:56:45": [],
        "25/03/2020 20:15:41": [],
        "25/03/2020 21:42:54": []
    },
    "4149": {
        "25/03/2020 15:12:26": [],
        "25/03/2020 17:56:46": [],
        "25/03/2020 20:15:41": [],
        "25/03/2020 21:42:54": []
    },
    "4150": {
        "25/03/2020 15:12:26": [],
        "25/03/2020 17:56:47": [],
        "25/03/2020 20:15:41": [],
        "25/03/2020 21:42:54": []
    },
    "4151": {
        "25/03/2020 15:12:26": [],
        "25/03/2020 17:56:47": [],
        "25/03/2020 20:15:42": [],
        "25/03/2020 21:42:54": []
    },
    "4153": {
        "25/03/2020 15:12:27": [],
        "25/03/2020 17:56:48": [],
        "25/03/2020 20:15:42": [],
        "25/03/2020 21:42:55": []
    },
    "4154": {
        "25/03/2020 15:12:27": [],
        "25/03/2020 17:56:49": [],
        "25/03/2020 20:15:42": [],
        "25/03/2020 21:42:55": []
    },
    "4416": {
        "25/03/2020 15:12:27": [],
        "25/03/2020 17:56:49": [],
        "25/03/2020 20:15:43": [],
        "25/03/2020 21:42:55": []
    },
    "4983": {
        "25/03/2020 15:12:28": [],
        "25/03/2020 17:56:50": [],
        "25/03/2020 20:15:43": [],
        "25/03/2020 21:42:56": []
    },
    "7323": {
        "25/03/2020 15:12:28": [],
        "25/03/2020 17:56:50": [],
        "25/03/2020 20:15:43": [],
        "25/03/2020 21:42:56": []
    },
    "4137": {
        "25/03/2020 15:12:28": [],
        "25/03/2020 17:56:51": [],
        "25/03/2020 20:15:44": [],
        "25/03/2020 21:42:56": []
    },
    "4138": {
        "25/03/2020 15:12:29": [],
        "25/03/2020 17:56:51": [],
        "25/03/2020 20:15:44": [],
        "25/03/2020 21:42:56": []
    },
    "3047": {
        "25/03/2020 15:12:29": [],
        "25/03/2020 17:56:52": [],
        "25/03/2020 20:15:44": [],
        "25/03/2020 21:42:57": []
    },
    "3551": {
        "25/03/2020 15:12:30": [],
        "25/03/2020 17:56:52": [],
        "25/03/2020 20:15:45": [],
        "25/03/2020 21:42:57": []
    },
    "4175": {
        "25/03/2020 15:12:30": [],
        "25/03/2020 17:56:53": [],
        "25/03/2020 20:15:45": [],
        "25/03/2020 21:42:57": []
    },
    "7294": {
        "25/03/2020 15:12:30": [],
        "25/03/2020 17:56:53": [],
        "25/03/2020 20:15:45": [],
        "25/03/2020 21:42:58": []
    },
    "2037": {
        "25/03/2020 15:12:31": [],
        "25/03/2020 17:56:54": [],
        "25/03/2020 20:15:46": [],
        "25/03/2020 21:42:58": []
    },
    "2040": {
        "25/03/2020 15:12:31": [],
        "25/03/2020 17:56:54": [],
        "25/03/2020 20:15:46": [],
        "25/03/2020 21:42:58": []
    },
    "3214": {
        "25/03/2020 15:12:31": [],
        "25/03/2020 17:56:55": [],
        "25/03/2020 20:15:46": [],
        "25/03/2020 21:42:58": []
    },
    "3215": {
        "25/03/2020 15:12:31": [],
        "25/03/2020 17:56:55": [],
        "25/03/2020 20:15:47": [],
        "25/03/2020 21:42:59": []
    },
    "3216": {
        "25/03/2020 15:12:32": [],
        "25/03/2020 17:56:56": [],
        "25/03/2020 20:15:47": [],
        "25/03/2020 21:42:59": []
    },
    "3217": {
        "25/03/2020 15:12:32": [],
        "25/03/2020 17:56:56": [],
        "25/03/2020 20:15:47": [],
        "25/03/2020 21:42:59": []
    },
    "3218": {
        "25/03/2020 15:12:32": [],
        "25/03/2020 17:56:57": [],
        "25/03/2020 20:15:47": [],
        "25/03/2020 21:42:59": []
    },
    "3241": {
        "25/03/2020 15:12:33": [],
        "25/03/2020 17:56:57": [],
        "25/03/2020 20:15:48": [],
        "25/03/2020 21:43:00": []
    },
    "3242": {
        "25/03/2020 15:12:33": [],
        "25/03/2020 17:56:58": [],
        "25/03/2020 20:15:48": [],
        "25/03/2020 21:43:00": []
    },
    "3243": {
        "25/03/2020 15:12:33": [],
        "25/03/2020 17:56:58": [],
        "25/03/2020 20:15:48": [],
        "25/03/2020 21:43:00": []
    },
    "3244": {
        "25/03/2020 15:12:33": [],
        "25/03/2020 17:56:59": [],
        "25/03/2020 20:15:49": [],
        "25/03/2020 21:43:01": []
    },
    "3245": {
        "25/03/2020 15:12:34": [],
        "25/03/2020 17:56:59": [],
        "25/03/2020 20:15:49": [],
        "25/03/2020 21:43:01": []
    },
    "5167": {
        "25/03/2020 15:12:34": [],
        "25/03/2020 17:57:00": [],
        "25/03/2020 20:15:49": [],
        "25/03/2020 21:43:01": []
    },
    "6000": {
        "25/03/2020 15:12:34": [],
        "25/03/2020 17:57:00": [],
        "25/03/2020 20:15:50": [],
        "25/03/2020 21:43:01": []
    },
    "3202": {
        "25/03/2020 15:12:35": [],
        "25/03/2020 17:57:01": [],
        "25/03/2020 20:15:50": [],
        "25/03/2020 21:43:02": []
    },
    "3203": {
        "25/03/2020 15:12:35": [],
        "25/03/2020 17:57:01": [],
        "25/03/2020 20:15:50": [],
        "25/03/2020 21:43:02": []
    },
    "3204": {
        "25/03/2020 15:12:35": [],
        "25/03/2020 17:57:02": [],
        "25/03/2020 20:15:51": [],
        "25/03/2020 21:43:02": []
    },
    "3205": {
        "25/03/2020 15:12:36": [],
        "25/03/2020 17:57:02": [],
        "25/03/2020 20:15:51": [],
        "25/03/2020 21:43:03": []
    },
    "3206": {
        "25/03/2020 15:12:36": [],
        "25/03/2020 17:57:03": [],
        "25/03/2020 20:15:51": [],
        "25/03/2020 21:43:03": []
    },
    "3212": {
        "25/03/2020 15:12:36": [],
        "25/03/2020 17:57:03": [],
        "25/03/2020 20:15:51": [],
        "25/03/2020 21:43:03": []
    },
    "3213": {
        "25/03/2020 15:12:37": [],
        "25/03/2020 17:57:04": [],
        "25/03/2020 20:15:52": [],
        "25/03/2020 21:43:04": []
    },
    "3534": {
        "25/03/2020 15:12:37": [],
        "25/03/2020 17:57:05": [],
        "25/03/2020 20:15:52": [],
        "25/03/2020 21:43:04": []
    },
    "3535": {
        "25/03/2020 15:12:37": [],
        "25/03/2020 17:57:06": [],
        "25/03/2020 20:15:52": [],
        "25/03/2020 21:43:04": []
    },
    "3536": {
        "25/03/2020 15:12:38": [],
        "25/03/2020 17:57:06": [],
        "25/03/2020 20:15:53": [],
        "25/03/2020 21:43:04": []
    },
    "3537": {
        "25/03/2020 15:12:38": [],
        "25/03/2020 17:57:07": [],
        "25/03/2020 20:15:53": [],
        "25/03/2020 21:43:05": []
    },
    "3538": {
        "25/03/2020 15:12:38": [],
        "25/03/2020 17:57:07": [],
        "25/03/2020 20:15:53": [],
        "25/03/2020 21:43:05": []
    },
    "3539": {
        "25/03/2020 15:12:39": [],
        "25/03/2020 17:57:08": [],
        "25/03/2020 20:15:54": [],
        "25/03/2020 21:43:05": []
    },
    "3540": {
        "25/03/2020 15:12:39": [],
        "25/03/2020 17:57:08": [],
        "25/03/2020 20:15:54": [],
        "25/03/2020 21:43:05": []
    },
    "3541": {
        "25/03/2020 15:12:39": [],
        "25/03/2020 17:57:09": [],
        "25/03/2020 20:15:54": [],
        "25/03/2020 21:43:06": []
    },
    "3542": {
        "25/03/2020 15:12:40": [],
        "25/03/2020 17:57:10": [],
        "25/03/2020 20:15:55": [],
        "25/03/2020 21:43:06": []
    },
    "3543": {
        "25/03/2020 15:12:40": [],
        "25/03/2020 17:57:10": [],
        "25/03/2020 20:15:55": [],
        "25/03/2020 21:43:06": []
    },
    "3546": {
        "25/03/2020 15:12:40": [],
        "25/03/2020 17:57:11": [],
        "25/03/2020 20:15:55": [],
        "25/03/2020 21:43:07": []
    },
    "3547": {
        "25/03/2020 15:12:41": [],
        "25/03/2020 17:57:11": [],
        "25/03/2020 20:15:55": [],
        "25/03/2020 21:43:07": []
    },
    "3548": {
        "25/03/2020 15:12:41": [],
        "25/03/2020 17:57:12": [],
        "25/03/2020 20:15:56": [],
        "25/03/2020 21:43:07": []
    },
    "5091": {
        "25/03/2020 15:12:41": [],
        "25/03/2020 17:57:12": [],
        "25/03/2020 20:15:56": [],
        "25/03/2020 21:43:08": []
    },
    "5092": {
        "25/03/2020 15:12:41": [],
        "25/03/2020 17:57:13": [],
        "25/03/2020 20:15:56": [],
        "25/03/2020 21:43:08": []
    },
    "3139": {
        "25/03/2020 15:12:42": [],
        "25/03/2020 17:57:13": [],
        "25/03/2020 20:15:57": [],
        "25/03/2020 21:43:08": []
    },
    "4124": {
        "25/03/2020 15:12:42": [],
        "25/03/2020 17:57:14": [],
        "25/03/2020 20:15:57": [],
        "25/03/2020 21:43:08": []
    },
    "4125": {
        "25/03/2020 15:12:42": [],
        "25/03/2020 17:57:14": [],
        "25/03/2020 20:15:57": [],
        "25/03/2020 21:43:09": []
    },
    "4126": {
        "25/03/2020 15:12:43": [],
        "25/03/2020 17:57:15": [],
        "25/03/2020 20:15:58": [],
        "25/03/2020 21:43:09": []
    },
    "4127": {
        "25/03/2020 15:12:43": [],
        "25/03/2020 17:57:15": [],
        "25/03/2020 20:15:58": [],
        "25/03/2020 21:43:09": []
    },
    "4128": {
        "25/03/2020 15:12:43": [],
        "25/03/2020 17:57:16": [],
        "25/03/2020 20:15:58": [],
        "25/03/2020 21:43:10": []
    },
    "4129": {
        "25/03/2020 15:12:43": [],
        "25/03/2020 17:57:16": [],
        "25/03/2020 20:15:59": [],
        "25/03/2020 21:43:10": []
    },
    "4130": {
        "25/03/2020 15:12:44": [],
        "25/03/2020 17:57:17": [],
        "25/03/2020 20:15:59": [],
        "25/03/2020 21:43:10": []
    },
    "4131": {
        "25/03/2020 15:12:44": [],
        "25/03/2020 17:57:17": [],
        "25/03/2020 20:15:59": [],
        "25/03/2020 21:43:10": []
    },
    "4132": {
        "25/03/2020 15:12:44": [],
        "25/03/2020 17:57:18": [],
        "25/03/2020 20:16:00": [],
        "25/03/2020 21:43:11": []
    },
    "4134": {
        "25/03/2020 15:12:45": [],
        "25/03/2020 17:57:18": [],
        "25/03/2020 20:16:00": [],
        "25/03/2020 21:43:11": []
    },
    "4135": {
        "25/03/2020 15:12:45": [],
        "25/03/2020 17:57:19": [],
        "25/03/2020 20:16:00": [],
        "25/03/2020 21:43:11": []
    },
    "4136": {
        "25/03/2020 15:12:45": [],
        "25/03/2020 17:57:20": [],
        "25/03/2020 20:16:01": [],
        "25/03/2020 21:43:12": []
    },
    "4139": {
        "25/03/2020 15:12:46": [],
        "25/03/2020 17:57:20": [],
        "25/03/2020 20:16:01": [],
        "25/03/2020 21:43:12": []
    },
    "4140": {
        "25/03/2020 15:12:46": [],
        "25/03/2020 17:57:21": [],
        "25/03/2020 20:16:01": [],
        "25/03/2020 21:43:12": []
    },
    "4147": {
        "25/03/2020 15:12:46": [],
        "25/03/2020 17:57:21": [],
        "25/03/2020 20:16:01": [],
        "25/03/2020 21:43:12": []
    },
    "4156": {
        "25/03/2020 15:12:46": [],
        "25/03/2020 17:57:22": [],
        "25/03/2020 20:16:02": [],
        "25/03/2020 21:43:13": []
    },
    "4169": {
        "25/03/2020 15:12:47": [],
        "25/03/2020 17:57:22": [],
        "25/03/2020 20:16:02": [],
        "25/03/2020 21:43:13": []
    },
    "4170": {
        "25/03/2020 15:12:47": [],
        "25/03/2020 17:57:23": [],
        "25/03/2020 20:16:02": [],
        "25/03/2020 21:43:13": []
    },
    "7522": {
        "25/03/2020 15:12:47": [],
        "25/03/2020 17:57:23": [],
        "25/03/2020 20:16:03": [],
        "25/03/2020 21:43:13": []
    },
    "7556": {
        "25/03/2020 15:12:47": [],
        "25/03/2020 17:57:24": [],
        "25/03/2020 20:16:03": [],
        "25/03/2020 21:43:14": []
    }
}