{
    "7576": {
        "23/03/2020 13:21:45": [],
        "23/03/2020 15:28:29": [],
        "23/03/2020 18:36:37": []
    },
    "7586": {
        "23/03/2020 13:21:45": [],
        "23/03/2020 15:28:29": [],
        "23/03/2020 18:36:37": []
    },
    "7587": {
        "23/03/2020 13:21:46": [],
        "23/03/2020 15:28:30": [],
        "23/03/2020 18:36:38": []
    },
    "7588": {
        "23/03/2020 13:21:46": [],
        "23/03/2020 15:28:31": [],
        "23/03/2020 18:36:39": []
    },
    "7333": {
        "23/03/2020 13:21:47": [],
        "23/03/2020 15:28:31": [],
        "23/03/2020 18:36:39": []
    },
    "783": {
        "23/03/2020 13:21:48": [],
        "23/03/2020 15:28:32": [],
        "23/03/2020 18:36:40": []
    },
    "784": {
        "23/03/2020 13:21:48": [],
        "23/03/2020 15:28:32": [],
        "23/03/2020 18:36:41": []
    },
    "785": {
        "23/03/2020 13:21:49": [],
        "23/03/2020 15:28:33": [],
        "23/03/2020 18:36:41": []
    },
    "786": {
        "23/03/2020 13:21:49": [],
        "23/03/2020 15:28:34": [],
        "23/03/2020 18:36:42": []
    },
    "793": {
        "23/03/2020 13:21:50": [],
        "23/03/2020 15:28:34": [],
        "23/03/2020 18:36:43": []
    },
    "274": {
        "23/03/2020 13:21:51": [],
        "23/03/2020 15:28:35": [],
        "23/03/2020 18:36:44": []
    },
    "2": {
        "23/03/2020 13:21:51": [],
        "23/03/2020 15:28:36": [],
        "23/03/2020 18:36:44": []
    },
    "192": {
        "23/03/2020 13:21:52": [],
        "23/03/2020 15:28:36": [],
        "23/03/2020 18:36:45": []
    },
    "795": {
        "23/03/2020 13:21:52": [],
        "23/03/2020 15:28:37": [],
        "23/03/2020 18:36:46": []
    },
    "796": {
        "23/03/2020 13:21:53": [],
        "23/03/2020 15:28:37": [],
        "23/03/2020 18:36:47": []
    },
    "57": {
        "23/03/2020 13:21:53": [],
        "23/03/2020 15:28:38": [],
        "23/03/2020 18:36:47": []
    },
    "58": {
        "23/03/2020 13:21:54": [],
        "23/03/2020 15:28:39": [],
        "23/03/2020 18:36:48": []
    },
    "59": {
        "23/03/2020 13:21:55": [],
        "23/03/2020 15:28:39": [],
        "23/03/2020 18:36:48": []
    },
    "60": {
        "23/03/2020 13:21:55": [],
        "23/03/2020 15:28:40": [],
        "23/03/2020 18:36:49": []
    },
    "1802": {
        "23/03/2020 13:21:56": [],
        "23/03/2020 15:28:40": [],
        "23/03/2020 18:36:50": []
    },
    "1795": {
        "23/03/2020 13:21:57": [],
        "23/03/2020 15:28:41": [],
        "23/03/2020 18:36:51": []
    },
    "1806": {
        "23/03/2020 13:21:57": [],
        "23/03/2020 15:28:42": [],
        "23/03/2020 18:36:51": []
    },
    "1660": {
        "23/03/2020 13:21:58": [],
        "23/03/2020 15:28:42": [],
        "23/03/2020 18:36:52": []
    },
    "1661": {
        "23/03/2020 13:21:58": [],
        "23/03/2020 15:28:43": [],
        "23/03/2020 18:36:52": []
    },
    "1662": {
        "23/03/2020 13:21:59": [],
        "23/03/2020 15:28:43": [],
        "23/03/2020 18:36:53": []
    },
    "1664": {
        "23/03/2020 13:21:59": [],
        "23/03/2020 15:28:44": [],
        "23/03/2020 18:36:54": []
    },
    "1665": {
        "23/03/2020 13:22:00": [],
        "23/03/2020 15:28:45": [],
        "23/03/2020 18:36:54": []
    },
    "1666": {
        "23/03/2020 13:22:01": [],
        "23/03/2020 15:28:45": [],
        "23/03/2020 18:36:55": []
    },
    "1807": {
        "23/03/2020 13:22:01": [],
        "23/03/2020 15:28:46": [],
        "23/03/2020 18:36:56": []
    },
    "7167": {
        "23/03/2020 13:22:02": [],
        "23/03/2020 15:28:47": [],
        "23/03/2020 18:36:56": []
    },
    "1808": {
        "23/03/2020 13:22:02": [],
        "23/03/2020 15:28:47": [],
        "23/03/2020 18:36:57": []
    },
    "4744": {
        "23/03/2020 13:22:03": [],
        "23/03/2020 15:28:48": [],
        "23/03/2020 18:36:57": []
    },
    "404": {
        "23/03/2020 13:22:04": [],
        "23/03/2020 15:28:49": [],
        "23/03/2020 18:36:58": []
    },
    "7370": {
        "23/03/2020 13:22:04": [],
        "23/03/2020 15:28:49": [],
        "23/03/2020 18:36:58": []
    },
    "1696": {
        "23/03/2020 13:22:05": [],
        "23/03/2020 15:28:50": [],
        "23/03/2020 18:36:59": []
    },
    "1697": {
        "23/03/2020 13:22:05": [],
        "23/03/2020 15:28:50": [],
        "23/03/2020 18:37:00": []
    },
    "265": {
        "23/03/2020 13:22:06": [],
        "23/03/2020 15:28:51": [],
        "23/03/2020 18:37:01": []
    },
    "349": {
        "23/03/2020 13:22:06": [],
        "23/03/2020 15:28:52": [],
        "23/03/2020 18:37:01": []
    },
    "7166": {
        "23/03/2020 13:22:07": [],
        "23/03/2020 15:28:52": [],
        "23/03/2020 18:37:02": []
    },
    "751": {
        "23/03/2020 13:22:08": [],
        "23/03/2020 15:28:53": [],
        "23/03/2020 18:37:02": []
    },
    "752": {
        "23/03/2020 13:22:08": [],
        "23/03/2020 15:28:53": [],
        "23/03/2020 18:37:03": []
    },
    "753": {
        "23/03/2020 13:22:09": [],
        "23/03/2020 15:28:54": [],
        "23/03/2020 18:37:04": []
    },
    "78": {
        "23/03/2020 13:22:09": [],
        "23/03/2020 15:28:55": [],
        "23/03/2020 18:37:04": []
    },
    "79": {
        "23/03/2020 13:22:10": [],
        "23/03/2020 15:28:55": [],
        "23/03/2020 18:37:06": []
    },
    "80": {
        "23/03/2020 13:22:10": [],
        "23/03/2020 15:28:56": [],
        "23/03/2020 18:37:06": []
    },
    "4989": {
        "23/03/2020 13:22:11": [],
        "23/03/2020 15:28:56": [],
        "23/03/2020 18:37:07": []
    },
    "7339": {
        "23/03/2020 13:22:11": [],
        "23/03/2020 15:28:57": [],
        "23/03/2020 18:37:08": []
    },
    "1698": {
        "23/03/2020 13:22:12": [],
        "23/03/2020 15:28:57": [],
        "23/03/2020 18:37:09": []
    },
    "1699": {
        "23/03/2020 13:22:12": [],
        "23/03/2020 15:28:58": [],
        "23/03/2020 18:37:09": []
    },
    "1700": {
        "23/03/2020 13:22:13": [],
        "23/03/2020 15:28:59": [],
        "23/03/2020 18:37:10": []
    },
    "1701": {
        "23/03/2020 13:22:13": [],
        "23/03/2020 15:28:59": [],
        "23/03/2020 18:37:11": []
    },
    "1702": {
        "23/03/2020 13:22:14": [],
        "23/03/2020 15:29:00": [],
        "23/03/2020 18:37:11": []
    },
    "1703": {
        "23/03/2020 13:22:15": [],
        "23/03/2020 15:29:00": [],
        "23/03/2020 18:37:12": []
    },
    "1803": {
        "23/03/2020 13:22:15": [],
        "23/03/2020 15:29:01": [],
        "23/03/2020 18:37:13": []
    },
    "1804": {
        "23/03/2020 13:22:16": [],
        "23/03/2020 15:29:02": [],
        "23/03/2020 18:37:13": []
    },
    "1845": {
        "23/03/2020 13:22:16": [],
        "23/03/2020 15:29:02": [],
        "23/03/2020 18:37:14": []
    },
    "1847": {
        "23/03/2020 13:22:17": [],
        "23/03/2020 15:29:03": [],
        "23/03/2020 18:37:15": []
    },
    "1905": {
        "23/03/2020 13:22:17": [],
        "23/03/2020 15:29:04": [],
        "23/03/2020 18:37:15": []
    },
    "4745": {
        "23/03/2020 13:22:18": [],
        "23/03/2020 15:29:04": [],
        "23/03/2020 18:37:16": []
    },
    "6059": {
        "23/03/2020 13:22:19": [],
        "23/03/2020 15:29:05": [],
        "23/03/2020 18:37:17": []
    },
    "747": {
        "23/03/2020 13:22:20": [],
        "23/03/2020 15:29:06": [],
        "23/03/2020 18:37:17": []
    },
    "748": {
        "23/03/2020 13:22:20": [],
        "23/03/2020 15:29:06": [],
        "23/03/2020 18:37:18": []
    },
    "749": {
        "23/03/2020 13:22:21": [],
        "23/03/2020 15:29:07": [],
        "23/03/2020 18:37:18": []
    },
    "750": {
        "23/03/2020 13:22:21": [],
        "23/03/2020 15:29:08": [],
        "23/03/2020 18:37:19": []
    },
    "77": {
        "23/03/2020 13:22:22": [],
        "23/03/2020 15:29:09": [],
        "23/03/2020 18:37:20": []
    },
    "817": {
        "23/03/2020 13:22:23": [],
        "23/03/2020 15:29:09": [],
        "23/03/2020 18:37:20": []
    },
    "818": {
        "23/03/2020 13:22:23": [],
        "23/03/2020 15:29:10": [],
        "23/03/2020 18:37:21": []
    },
    "819": {
        "23/03/2020 13:22:24": [],
        "23/03/2020 15:29:10": [],
        "23/03/2020 18:37:22": []
    },
    "82": {
        "23/03/2020 13:22:24": [],
        "23/03/2020 15:29:10": [],
        "23/03/2020 18:37:22": []
    }
}