{
    "4495": {
        "23/03/2020 14:11:09": [],
        "23/03/2020 16:14:08": [
            0,
            0,
            0
        ],
        "23/03/2020 19:25:13": []
    },
    "317": {
        "23/03/2020 14:11:09": [],
        "23/03/2020 16:14:08": [],
        "23/03/2020 19:25:14": []
    },
    "786": {
        "23/03/2020 14:11:10": [],
        "23/03/2020 16:14:09": [],
        "23/03/2020 19:25:14": []
    },
    "791": {
        "23/03/2020 14:11:10": [],
        "23/03/2020 16:14:09": [],
        "23/03/2020 19:25:14": []
    },
    "4260": {
        "23/03/2020 14:11:11": [],
        "23/03/2020 16:14:09": [],
        "23/03/2020 19:25:14": []
    },
    "7296": {
        "23/03/2020 14:11:11": [],
        "23/03/2020 16:14:10": [],
        "23/03/2020 19:25:15": []
    },
    "4266": {
        "23/03/2020 14:11:12": [],
        "23/03/2020 16:14:10": [],
        "23/03/2020 19:25:15": []
    },
    "4308": {
        "23/03/2020 14:11:12": [],
        "23/03/2020 16:14:10": [],
        "23/03/2020 19:25:15": []
    },
    "4253": {
        "23/03/2020 14:11:13": [],
        "23/03/2020 16:14:11": [],
        "23/03/2020 19:25:16": []
    },
    "4268": {
        "23/03/2020 14:11:13": [],
        "23/03/2020 16:14:11": [],
        "23/03/2020 19:25:16": []
    },
    "4273": {
        "23/03/2020 14:11:14": [],
        "23/03/2020 16:14:11": [],
        "23/03/2020 19:25:16": []
    },
    "4277": {
        "23/03/2020 14:11:14": [],
        "23/03/2020 16:14:12": [],
        "23/03/2020 19:25:17": []
    },
    "4281": {
        "23/03/2020 14:11:15": [],
        "23/03/2020 16:14:12": [],
        "23/03/2020 19:25:17": []
    },
    "4282": {
        "23/03/2020 14:11:15": [],
        "23/03/2020 16:14:12": [],
        "23/03/2020 19:25:17": []
    },
    "4283": {
        "23/03/2020 14:11:16": [],
        "23/03/2020 16:14:12": [],
        "23/03/2020 19:25:18": []
    },
    "4284": {
        "23/03/2020 14:11:16": [],
        "23/03/2020 16:14:13": [],
        "23/03/2020 19:25:18": []
    },
    "4295": {
        "23/03/2020 14:11:17": [],
        "23/03/2020 16:14:13": [],
        "23/03/2020 19:25:19": []
    },
    "4296": {
        "23/03/2020 14:11:17": [],
        "23/03/2020 16:14:13": [],
        "23/03/2020 19:25:19": []
    },
    "4301": {
        "23/03/2020 14:11:18": [],
        "23/03/2020 16:14:14": [],
        "23/03/2020 19:25:20": []
    },
    "4302": {
        "23/03/2020 14:11:18": [],
        "23/03/2020 16:14:14": [],
        "23/03/2020 19:25:20": []
    },
    "4591": {
        "23/03/2020 14:11:19": [],
        "23/03/2020 16:14:14": [],
        "23/03/2020 19:25:20": []
    },
    "4590": {
        "23/03/2020 14:11:20": [],
        "23/03/2020 16:14:15": [],
        "23/03/2020 19:25:20": []
    },
    "7366": {
        "23/03/2020 14:11:20": [],
        "23/03/2020 16:14:15": [],
        "23/03/2020 19:25:21": []
    },
    "7367": {
        "23/03/2020 14:11:21": [],
        "23/03/2020 16:14:15": [],
        "23/03/2020 19:25:21": []
    },
    "7368": {
        "23/03/2020 14:11:21": [],
        "23/03/2020 16:14:16": [],
        "23/03/2020 19:25:21": []
    },
    "3143": {
        "23/03/2020 14:11:22": [],
        "23/03/2020 16:14:16": [],
        "23/03/2020 19:25:22": []
    },
    "3144": {
        "23/03/2020 14:11:22": [],
        "23/03/2020 16:14:16": [],
        "23/03/2020 19:25:22": []
    },
    "3145": {
        "23/03/2020 14:11:23": [],
        "23/03/2020 16:14:17": [],
        "23/03/2020 19:25:22": []
    },
    "5128": {
        "23/03/2020 14:11:23": [],
        "23/03/2020 16:14:17": [],
        "23/03/2020 19:25:23": []
    },
    "2060": {
        "23/03/2020 14:11:24": [],
        "23/03/2020 16:14:17": [],
        "23/03/2020 19:25:23": []
    },
    "2062": {
        "23/03/2020 14:11:25": [],
        "23/03/2020 16:14:18": [],
        "23/03/2020 19:25:23": []
    },
    "2064": {
        "23/03/2020 14:11:26": [
            -116
        ],
        "23/03/2020 16:14:18": [],
        "23/03/2020 19:25:24": []
    },
    "4727": {
        "23/03/2020 14:11:26": [
            -55
        ],
        "23/03/2020 16:14:19": [],
        "23/03/2020 19:25:24": []
    },
    "768": {
        "23/03/2020 14:11:27": [
            -62
        ],
        "23/03/2020 16:14:19": [],
        "23/03/2020 19:25:24": []
    },
    "772": {
        "23/03/2020 14:11:28": [
            -1
        ],
        "23/03/2020 16:14:19": [],
        "23/03/2020 19:25:25": []
    },
    "775": {
        "23/03/2020 14:11:28": [
            4
        ],
        "23/03/2020 16:14:19": [],
        "23/03/2020 19:25:25": []
    },
    "906": {
        "23/03/2020 14:11:29": [
            -27
        ],
        "23/03/2020 16:14:20": [],
        "23/03/2020 19:25:25": []
    },
    "909": {
        "23/03/2020 14:11:29": [
            -23
        ],
        "23/03/2020 16:14:20": [],
        "23/03/2020 19:25:26": []
    },
    "792": {
        "23/03/2020 14:11:30": [
            1
        ],
        "23/03/2020 16:14:20": [],
        "23/03/2020 19:25:26": []
    },
    "7586": {
        "23/03/2020 14:11:31": [
            -10
        ],
        "23/03/2020 16:14:21": [],
        "23/03/2020 19:25:26": []
    },
    "7587": {
        "23/03/2020 14:11:31": [
            -21
        ],
        "23/03/2020 16:14:21": [],
        "23/03/2020 19:25:27": []
    },
    "303": {
        "23/03/2020 14:11:31": [],
        "23/03/2020 16:14:21": [],
        "23/03/2020 19:25:28": []
    },
    "342": {
        "23/03/2020 14:11:32": [],
        "23/03/2020 16:14:22": [],
        "23/03/2020 19:25:29": []
    },
    "758": {
        "23/03/2020 14:11:33": [],
        "23/03/2020 16:14:22": [
            0,
            0
        ],
        "23/03/2020 19:25:29": []
    },
    "844": {
        "23/03/2020 14:11:33": [],
        "23/03/2020 16:14:22": [
            17,
            -23,
            -14
        ],
        "23/03/2020 19:25:29": []
    },
    "760": {
        "23/03/2020 14:11:34": [],
        "23/03/2020 16:14:23": [
            0,
            2
        ],
        "23/03/2020 19:25:30": []
    },
    "4956": {
        "23/03/2020 14:11:34": [],
        "23/03/2020 16:14:23": [],
        "23/03/2020 19:25:30": []
    },
    "846": {
        "23/03/2020 14:11:35": [],
        "23/03/2020 16:14:23": [
            5,
            18
        ],
        "23/03/2020 19:25:30": []
    },
    "848": {
        "23/03/2020 14:11:35": [],
        "23/03/2020 16:14:24": [
            -6,
            0
        ],
        "23/03/2020 19:25:31": []
    },
    "4187": {
        "23/03/2020 14:11:36": [],
        "23/03/2020 16:14:24": [],
        "23/03/2020 19:25:31": []
    },
    "4188": {
        "23/03/2020 14:11:36": [],
        "23/03/2020 16:14:24": [],
        "23/03/2020 19:25:31": []
    },
    "6137": {
        "23/03/2020 14:11:37": [],
        "23/03/2020 16:14:25": [
            -699
        ],
        "23/03/2020 19:25:32": []
    },
    "746": {
        "23/03/2020 14:11:37": [],
        "23/03/2020 16:14:25": [
            -25,
            0,
            0
        ],
        "23/03/2020 19:25:32": []
    },
    "4952": {
        "23/03/2020 14:11:38": [],
        "23/03/2020 16:14:25": [
            0
        ],
        "23/03/2020 19:25:32": []
    },
    "2007": {
        "23/03/2020 14:11:38": [],
        "23/03/2020 16:14:25": [
            28,
            18,
            23
        ],
        "23/03/2020 19:25:33": []
    },
    "4571": {
        "23/03/2020 14:11:39": [],
        "23/03/2020 16:14:26": [
            14,
            -24
        ],
        "23/03/2020 19:25:33": []
    },
    "2014": {
        "23/03/2020 14:11:40": [],
        "23/03/2020 16:14:26": [
            -24,
            17
        ],
        "23/03/2020 19:25:33": []
    },
    "2016": {
        "23/03/2020 14:11:40": [],
        "23/03/2020 16:14:26": [
            -12,
            15
        ],
        "23/03/2020 19:25:33": []
    },
    "2017": {
        "23/03/2020 14:11:41": [],
        "23/03/2020 16:14:27": [
            6,
            26
        ],
        "23/03/2020 19:25:34": []
    },
    "7362": {
        "23/03/2020 14:11:41": [],
        "23/03/2020 16:14:27": [
            -827,
            27
        ],
        "23/03/2020 19:25:34": []
    },
    "3134": {
        "23/03/2020 14:11:42": [],
        "23/03/2020 16:14:27": [
            -794,
            -19
        ],
        "23/03/2020 19:25:34": []
    },
    "3135": {
        "23/03/2020 14:11:42": [],
        "23/03/2020 16:14:28": [
            -795,
            -23
        ],
        "23/03/2020 19:25:35": []
    },
    "7363": {
        "23/03/2020 14:11:43": [],
        "23/03/2020 16:14:29": [
            -696
        ],
        "23/03/2020 19:25:35": []
    },
    "4588": {
        "23/03/2020 14:11:43": [],
        "23/03/2020 16:14:29": [
            -728
        ],
        "23/03/2020 19:25:35": []
    },
    "4589": {
        "23/03/2020 14:11:44": [],
        "23/03/2020 16:14:29": [
            -679
        ],
        "23/03/2020 19:25:36": []
    },
    "7364": {
        "23/03/2020 14:11:44": [],
        "23/03/2020 16:14:30": [
            -674
        ],
        "23/03/2020 19:25:36": []
    },
    "7365": {
        "23/03/2020 14:11:45": [],
        "23/03/2020 16:14:30": [
            -699
        ],
        "23/03/2020 19:25:36": []
    },
    "4210": {
        "23/03/2020 14:11:45": [],
        "23/03/2020 16:14:30": [
            -687
        ],
        "23/03/2020 19:25:36": []
    },
    "4211": {
        "23/03/2020 14:11:46": [],
        "23/03/2020 16:14:30": [
            -723
        ],
        "23/03/2020 19:25:37": []
    },
    "4215": {
        "23/03/2020 14:11:46": [],
        "23/03/2020 16:14:31": [
            -707
        ],
        "23/03/2020 19:25:37": []
    },
    "4216": {
        "23/03/2020 14:11:47": [],
        "23/03/2020 16:14:31": [
            -722
        ],
        "23/03/2020 19:25:37": []
    },
    "4222": {
        "23/03/2020 14:11:47": [],
        "23/03/2020 16:14:31": [
            -707
        ],
        "23/03/2020 19:25:38": []
    },
    "4224": {
        "23/03/2020 14:11:48": [],
        "23/03/2020 16:14:32": [
            -670
        ],
        "23/03/2020 19:25:38": []
    },
    "4225": {
        "23/03/2020 14:11:48": [],
        "23/03/2020 16:14:32": [
            -675
        ],
        "23/03/2020 19:25:38": []
    },
    "7462": {
        "23/03/2020 14:11:49": [],
        "23/03/2020 16:14:32": [
            -712
        ],
        "23/03/2020 19:25:38": []
    },
    "7461": {
        "23/03/2020 14:11:49": [],
        "23/03/2020 16:14:33": [
            -680
        ],
        "23/03/2020 19:25:39": []
    },
    "4230": {
        "23/03/2020 14:11:50": [],
        "23/03/2020 16:14:33": [
            -702
        ],
        "23/03/2020 19:25:39": []
    },
    "4248": {
        "23/03/2020 14:11:51": [],
        "23/03/2020 16:14:33": [
            -725
        ],
        "23/03/2020 19:25:39": []
    },
    "4252": {
        "23/03/2020 14:11:52": [],
        "23/03/2020 16:14:34": [
            -719
        ],
        "23/03/2020 19:25:40": []
    },
    "4305": {
        "23/03/2020 14:11:52": [],
        "23/03/2020 16:14:34": [],
        "23/03/2020 19:25:40": []
    },
    "4306": {
        "23/03/2020 14:11:53": [],
        "23/03/2020 16:14:35": [],
        "23/03/2020 19:25:40": []
    },
    "4307": {
        "23/03/2020 14:11:53": [],
        "23/03/2020 16:14:36": [],
        "23/03/2020 19:25:40": []
    }
}