{
    "1852": {
        "20/03/2020 17:08:13": [],
        "20/03/2020 21:34:13": []
    },
    "1853": {
        "20/03/2020 17:08:13": [],
        "20/03/2020 21:34:13": []
    },
    "1854": {
        "20/03/2020 17:08:13": [],
        "20/03/2020 21:34:13": []
    },
    "1844": {
        "20/03/2020 17:08:13": [],
        "20/03/2020 21:34:14": []
    },
    "6172": {
        "20/03/2020 17:08:14": [],
        "20/03/2020 21:34:14": []
    },
    "104": {
        "20/03/2020 17:08:14": [],
        "20/03/2020 21:34:14": []
    },
    "136": {
        "20/03/2020 17:08:14": [],
        "20/03/2020 21:34:15": []
    },
    "137": {
        "20/03/2020 17:08:15": [],
        "20/03/2020 21:34:15": []
    },
    "1573": {
        "20/03/2020 17:08:15": [],
        "20/03/2020 21:34:15": []
    },
    "1574": {
        "20/03/2020 17:08:15": [],
        "20/03/2020 21:34:15": []
    },
    "1575": {
        "20/03/2020 17:08:16": [],
        "20/03/2020 21:34:16": []
    },
    "1576": {
        "20/03/2020 17:08:16": [],
        "20/03/2020 21:34:16": []
    },
    "1577": {
        "20/03/2020 17:08:16": [],
        "20/03/2020 21:34:16": []
    },
    "1578": {
        "20/03/2020 17:08:16": [],
        "20/03/2020 21:34:16": []
    },
    "1580": {
        "20/03/2020 17:08:17": [],
        "20/03/2020 21:34:17": []
    },
    "1592": {
        "20/03/2020 17:08:17": [],
        "20/03/2020 21:34:17": []
    },
    "1593": {
        "20/03/2020 17:08:17": [],
        "20/03/2020 21:34:17": []
    },
    "1594": {
        "20/03/2020 17:08:18": [],
        "20/03/2020 21:34:18": []
    },
    "1850": {
        "20/03/2020 17:08:18": [],
        "20/03/2020 21:34:18": []
    },
    "1856": {
        "20/03/2020 17:08:18": [],
        "20/03/2020 21:34:18": []
    },
    "1857": {
        "20/03/2020 17:08:19": [],
        "20/03/2020 21:34:18": []
    },
    "1858": {
        "20/03/2020 17:08:19": [],
        "20/03/2020 21:34:19": []
    },
    "1859": {
        "20/03/2020 17:08:19": [],
        "20/03/2020 21:34:19": []
    },
    "1860": {
        "20/03/2020 17:08:19": [],
        "20/03/2020 21:34:19": []
    },
    "1861": {
        "20/03/2020 17:08:20": [],
        "20/03/2020 21:34:20": []
    },
    "1862": {
        "20/03/2020 17:08:20": [],
        "20/03/2020 21:34:20": []
    },
    "1863": {
        "20/03/2020 17:08:20": [],
        "20/03/2020 21:34:20": []
    },
    "1529": {
        "20/03/2020 17:08:21": [],
        "20/03/2020 21:34:20": []
    },
    "1530": {
        "20/03/2020 17:08:21": [],
        "20/03/2020 21:34:21": []
    },
    "1531": {
        "20/03/2020 17:08:21": [],
        "20/03/2020 21:34:21": []
    },
    "1532": {
        "20/03/2020 17:08:22": [],
        "20/03/2020 21:34:21": []
    },
    "1813": {
        "20/03/2020 17:08:22": [],
        "20/03/2020 21:34:21": []
    },
    "1814": {
        "20/03/2020 17:08:22": [],
        "20/03/2020 21:34:22": []
    },
    "1824": {
        "20/03/2020 17:08:22": [],
        "20/03/2020 21:34:22": []
    },
    "1825": {
        "20/03/2020 17:08:23": [],
        "20/03/2020 21:34:22": []
    },
    "1826": {
        "20/03/2020 17:08:23": [],
        "20/03/2020 21:34:23": []
    },
    "1827": {
        "20/03/2020 17:08:23": [],
        "20/03/2020 21:34:23": []
    },
    "1835": {
        "20/03/2020 17:08:24": [],
        "20/03/2020 21:34:23": []
    },
    "1836": {
        "20/03/2020 17:08:24": [],
        "20/03/2020 21:34:24": []
    },
    "1837": {
        "20/03/2020 17:08:24": [],
        "20/03/2020 21:34:24": []
    },
    "2338": {
        "20/03/2020 17:08:25": [],
        "20/03/2020 21:34:24": []
    },
    "4363": {
        "20/03/2020 17:08:26": [],
        "20/03/2020 21:34:24": []
    },
    "4364": {
        "20/03/2020 17:08:26": [],
        "20/03/2020 21:34:25": []
    },
    "4365": {
        "20/03/2020 17:08:26": [],
        "20/03/2020 21:34:25": []
    },
    "4367": {
        "20/03/2020 17:08:27": [],
        "20/03/2020 21:34:25": []
    },
    "4788": {
        "20/03/2020 17:08:27": [],
        "20/03/2020 21:34:26": []
    },
    "4980": {
        "20/03/2020 17:08:27": [],
        "20/03/2020 21:34:26": []
    },
    "6239": {
        "20/03/2020 17:08:28": [],
        "20/03/2020 21:34:26": []
    },
    "6241": {
        "20/03/2020 17:08:28": [],
        "20/03/2020 21:34:26": []
    },
    "102": {
        "20/03/2020 17:08:28": [],
        "20/03/2020 21:34:27": []
    },
    "105": {
        "20/03/2020 17:08:28": [],
        "20/03/2020 21:34:27": []
    },
    "1596": {
        "20/03/2020 17:08:29": [],
        "20/03/2020 21:34:27": []
    },
    "1597": {
        "20/03/2020 17:08:29": [],
        "20/03/2020 21:34:27": []
    },
    "1598": {
        "20/03/2020 17:08:29": [],
        "20/03/2020 21:34:28": []
    },
    "1599": {
        "20/03/2020 17:08:30": [],
        "20/03/2020 21:34:28": []
    },
    "1600": {
        "20/03/2020 17:08:54": [],
        "20/03/2020 21:34:28": [],
        "20/03/2020 21:34:51": []
    },
    "1601": {
        "20/03/2020 17:08:55": [],
        "20/03/2020 21:34:29": [],
        "20/03/2020 21:34:51": []
    },
    "1602": {
        "20/03/2020 17:08:55": [],
        "20/03/2020 21:34:29": [],
        "20/03/2020 21:34:52": []
    },
    "1603": {
        "20/03/2020 17:08:55": [],
        "20/03/2020 21:34:29": [],
        "20/03/2020 21:34:52": []
    },
    "1604": {
        "20/03/2020 17:08:55": [],
        "20/03/2020 21:34:29": [],
        "20/03/2020 21:34:52": []
    },
    "193": {
        "20/03/2020 17:08:31": [],
        "20/03/2020 21:34:30": []
    },
    "6179": {
        "20/03/2020 17:08:32": [],
        "20/03/2020 21:34:30": []
    },
    "6180": {
        "20/03/2020 17:08:32": [],
        "20/03/2020 21:34:30": []
    },
    "7026": {
        "20/03/2020 17:08:32": [],
        "20/03/2020 21:34:31": []
    },
    "7241": {
        "20/03/2020 17:08:33": [],
        "20/03/2020 21:34:31": []
    },
    "7243": {
        "20/03/2020 17:08:33": [],
        "20/03/2020 21:34:31": []
    },
    "7247": {
        "20/03/2020 17:08:33": [],
        "20/03/2020 21:34:32": []
    },
    "7297": {
        "20/03/2020 17:08:33": [],
        "20/03/2020 21:34:32": []
    },
    "7318": {
        "20/03/2020 17:08:34": [],
        "20/03/2020 21:34:32": []
    },
    "7343": {
        "20/03/2020 17:08:34": [],
        "20/03/2020 21:34:32": []
    },
    "6273": {
        "20/03/2020 17:08:34": [],
        "20/03/2020 21:34:33": []
    },
    "7237": {
        "20/03/2020 17:08:35": [],
        "20/03/2020 21:34:33": []
    },
    "1864": {
        "20/03/2020 17:08:35": [],
        "20/03/2020 21:34:33": []
    },
    "1865": {
        "20/03/2020 17:08:35": [],
        "20/03/2020 21:34:34": []
    },
    "1866": {
        "20/03/2020 17:08:36": [],
        "20/03/2020 21:34:34": []
    },
    "1867": {
        "20/03/2020 17:08:36": [],
        "20/03/2020 21:34:34": []
    },
    "1882": {
        "20/03/2020 17:08:36": [],
        "20/03/2020 21:34:35": []
    },
    "2289": {
        "20/03/2020 17:08:37": [],
        "20/03/2020 21:34:35": []
    },
    "2290": {
        "20/03/2020 17:08:37": [],
        "20/03/2020 21:34:35": []
    },
    "4323": {
        "20/03/2020 17:08:37": [],
        "20/03/2020 21:34:35": []
    },
    "4686": {
        "20/03/2020 17:08:58": [],
        "20/03/2020 21:34:36": [],
        "20/03/2020 21:34:55": []
    },
    "4687": {
        "20/03/2020 17:08:38": [],
        "20/03/2020 21:34:36": []
    },
    "661": {
        "20/03/2020 17:08:38": [],
        "20/03/2020 21:34:36": []
    },
    "979": {
        "20/03/2020 17:08:38": [],
        "20/03/2020 21:34:36": []
    },
    "4489": {
        "20/03/2020 17:08:39": [],
        "20/03/2020 21:34:37": []
    },
    "4492": {
        "20/03/2020 17:08:39": [],
        "20/03/2020 21:34:37": []
    },
    "4583": {
        "20/03/2020 17:08:39": [],
        "20/03/2020 21:34:37": []
    },
    "7124": {
        "20/03/2020 17:08:40": [],
        "20/03/2020 21:34:37": []
    },
    "7126": {
        "20/03/2020 17:08:40": [],
        "20/03/2020 21:34:38": []
    },
    "7379": {
        "20/03/2020 17:08:40": [],
        "20/03/2020 21:34:38": []
    },
    "1883": {
        "20/03/2020 17:08:40": [],
        "20/03/2020 21:34:38": []
    },
    "1884": {
        "20/03/2020 17:08:41": [],
        "20/03/2020 21:34:38": []
    },
    "1902": {
        "20/03/2020 17:08:41": [],
        "20/03/2020 21:34:39": []
    },
    "1903": {
        "20/03/2020 17:08:41": [],
        "20/03/2020 21:34:39": []
    },
    "1904": {
        "20/03/2020 17:08:42": [],
        "20/03/2020 21:34:39": []
    },
    "4903": {
        "20/03/2020 17:08:42": [],
        "20/03/2020 21:34:39": []
    },
    "124": {
        "20/03/2020 17:08:42": [],
        "20/03/2020 21:34:40": []
    },
    "1512": {
        "20/03/2020 17:08:43": [],
        "20/03/2020 21:34:40": []
    },
    "1513": {
        "20/03/2020 17:08:43": [],
        "20/03/2020 21:34:40": []
    },
    "1581": {
        "20/03/2020 17:08:43": [],
        "20/03/2020 21:34:40": []
    },
    "1584": {
        "20/03/2020 17:08:43": [],
        "20/03/2020 21:34:41": []
    },
    "1585": {
        "20/03/2020 17:08:44": [],
        "20/03/2020 21:34:41": []
    },
    "1586": {
        "20/03/2020 17:08:44": [],
        "20/03/2020 21:34:41": []
    },
    "1587": {
        "20/03/2020 17:08:44": [],
        "20/03/2020 21:34:42": []
    },
    "1816": {
        "20/03/2020 17:08:45": [],
        "20/03/2020 21:34:42": []
    },
    "1817": {
        "20/03/2020 17:08:45": [],
        "20/03/2020 21:34:42": []
    },
    "1818": {
        "20/03/2020 17:08:45": [],
        "20/03/2020 21:34:43": []
    },
    "1819": {
        "20/03/2020 17:08:45": [],
        "20/03/2020 21:34:43": []
    },
    "1820": {
        "20/03/2020 17:08:46": [],
        "20/03/2020 21:34:43": []
    },
    "1828": {
        "20/03/2020 17:08:46": [],
        "20/03/2020 21:34:43": []
    },
    "1829": {
        "20/03/2020 17:08:46": [],
        "20/03/2020 21:34:44": []
    },
    "1830": {
        "20/03/2020 17:08:47": [],
        "20/03/2020 21:34:44": []
    },
    "1831": {
        "20/03/2020 17:08:47": [],
        "20/03/2020 21:34:44": []
    },
    "1840": {
        "20/03/2020 17:08:47": [],
        "20/03/2020 21:34:45": []
    },
    "1841": {
        "20/03/2020 17:08:48": [],
        "20/03/2020 21:34:45": []
    },
    "1869": {
        "20/03/2020 17:08:48": [],
        "20/03/2020 21:34:45": []
    },
    "1870": {
        "20/03/2020 17:08:48": [],
        "20/03/2020 21:34:45": []
    },
    "1871": {
        "20/03/2020 17:08:49": [],
        "20/03/2020 21:34:46": []
    },
    "1872": {
        "20/03/2020 17:08:49": [],
        "20/03/2020 21:34:46": []
    },
    "1873": {
        "20/03/2020 17:08:49": [],
        "20/03/2020 21:34:46": []
    },
    "1874": {
        "20/03/2020 17:08:49": [],
        "20/03/2020 21:34:47": []
    },
    "1875": {
        "20/03/2020 17:08:50": [],
        "20/03/2020 21:34:47": []
    },
    "1876": {
        "20/03/2020 17:08:50": [],
        "20/03/2020 21:34:47": []
    },
    "1877": {
        "20/03/2020 17:08:50": [],
        "20/03/2020 21:34:47": []
    },
    "1878": {
        "20/03/2020 17:08:51": [],
        "20/03/2020 21:34:48": []
    },
    "1879": {
        "20/03/2020 17:08:51": [],
        "20/03/2020 21:34:48": []
    },
    "1880": {
        "20/03/2020 17:08:51": [],
        "20/03/2020 21:34:48": []
    },
    "1881": {
        "20/03/2020 17:08:52": [],
        "20/03/2020 21:34:49": []
    },
    "2468": {
        "20/03/2020 17:08:52": [],
        "20/03/2020 21:34:49": []
    },
    "4362": {
        "20/03/2020 17:08:52": [],
        "20/03/2020 21:34:49": []
    },
    "4366": {
        "20/03/2020 17:08:52": [],
        "20/03/2020 21:34:49": []
    },
    "4368": {
        "20/03/2020 17:08:53": [],
        "20/03/2020 21:34:50": []
    },
    "4369": {
        "20/03/2020 17:08:53": [],
        "20/03/2020 21:34:50": []
    },
    "4375": {
        "20/03/2020 17:08:53": [],
        "20/03/2020 21:34:50": []
    },
    "4376": {
        "20/03/2020 17:08:54": [],
        "20/03/2020 21:34:51": []
    },
    "107": {
        "20/03/2020 17:08:54": [],
        "20/03/2020 21:34:51": []
    },
    "1606": {
        "20/03/2020 17:08:56": [],
        "20/03/2020 21:34:53": []
    },
    "1607": {
        "20/03/2020 17:08:56": [],
        "20/03/2020 21:34:53": []
    },
    "1608": {
        "20/03/2020 17:08:56": [],
        "20/03/2020 21:34:53": []
    },
    "1609": {
        "20/03/2020 17:08:57": [],
        "20/03/2020 21:34:54": []
    },
    "1610": {
        "20/03/2020 17:08:57": [],
        "20/03/2020 21:34:54": []
    },
    "2960": {
        "20/03/2020 17:08:57": [],
        "20/03/2020 21:34:54": []
    },
    "4464": {
        "20/03/2020 17:08:58": [],
        "20/03/2020 21:34:54": []
    },
    "4479": {
        "20/03/2020 17:08:58": [],
        "20/03/2020 21:34:55": []
    },
    "4493": {
        "20/03/2020 17:08:58": [],
        "20/03/2020 21:34:55": []
    },
    "7224": {
        "20/03/2020 17:08:59": [],
        "20/03/2020 21:34:56": []
    },
    "7238": {
        "20/03/2020 17:08:59": [],
        "20/03/2020 21:34:56": []
    },
    "7471": {
        "20/03/2020 17:08:59": [],
        "20/03/2020 21:34:56": []
    },
    "110": {
        "20/03/2020 17:09:00": [],
        "20/03/2020 21:34:57": []
    },
    "1538": {
        "20/03/2020 17:09:00": [],
        "20/03/2020 21:34:57": []
    },
    "1545": {
        "20/03/2020 17:09:00": [],
        "20/03/2020 21:34:57": []
    },
    "2294": {
        "20/03/2020 17:09:01": [],
        "20/03/2020 21:34:58": []
    },
    "4592": {
        "20/03/2020 17:09:01": [],
        "20/03/2020 21:34:58": []
    },
    "4890": {
        "20/03/2020 17:09:01": [],
        "20/03/2020 21:34:58": []
    },
    "1842": {
        "20/03/2020 17:09:01": [],
        "20/03/2020 21:34:58": []
    },
    "2510": {
        "20/03/2020 17:09:02": [],
        "20/03/2020 21:34:59": []
    },
    "4539": {
        "20/03/2020 17:09:02": [],
        "20/03/2020 21:34:59": []
    },
    "4747": {
        "20/03/2020 17:09:02": [],
        "20/03/2020 21:34:59": []
    },
    "6039": {
        "20/03/2020 17:09:03": [],
        "20/03/2020 21:35:00": []
    },
    "7092": {
        "20/03/2020 17:09:03": [],
        "20/03/2020 21:35:00": []
    },
    "7125": {
        "20/03/2020 17:09:03": [],
        "20/03/2020 21:35:00": []
    },
    "7242": {
        "20/03/2020 17:09:04": [],
        "20/03/2020 21:35:00": []
    },
    "7298": {
        "20/03/2020 17:09:04": [],
        "20/03/2020 21:35:01": []
    },
    "7319": {
        "20/03/2020 17:09:04": [],
        "20/03/2020 21:35:01": []
    },
    "7342": {
        "20/03/2020 17:09:04": [],
        "20/03/2020 21:35:01": []
    },
    "7344": {
        "20/03/2020 17:09:05": [],
        "20/03/2020 21:35:02": []
    },
    "4377": {
        "20/03/2020 17:09:05": [],
        "20/03/2020 21:35:02": []
    },
    "4781": {
        "20/03/2020 17:09:05": [],
        "20/03/2020 21:35:03": []
    },
    "4793": {
        "20/03/2020 17:09:06": [],
        "20/03/2020 21:35:03": []
    },
    "6068": {
        "20/03/2020 17:09:06": [],
        "20/03/2020 21:35:03": []
    }
}