{
    "1852": {
        "25/03/2020 14:11:55": [],
        "25/03/2020 16:55:28": [],
        "25/03/2020 19:42:59": [],
        "25/03/2020 21:11:49": []
    },
    "1853": {
        "25/03/2020 14:11:56": [],
        "25/03/2020 16:55:28": [],
        "25/03/2020 19:42:59": [],
        "25/03/2020 21:11:50": []
    },
    "1854": {
        "25/03/2020 14:11:56": [],
        "25/03/2020 16:55:29": [],
        "25/03/2020 19:43:00": [],
        "25/03/2020 21:11:50": []
    },
    "1844": {
        "25/03/2020 14:11:57": [],
        "25/03/2020 16:55:30": [],
        "25/03/2020 19:43:00": [],
        "25/03/2020 21:11:50": []
    },
    "6172": {
        "25/03/2020 14:11:57": [],
        "25/03/2020 16:55:30": [],
        "25/03/2020 19:43:00": [],
        "25/03/2020 21:11:51": []
    },
    "104": {
        "25/03/2020 14:11:58": [],
        "25/03/2020 16:55:31": [],
        "25/03/2020 19:43:00": [],
        "25/03/2020 21:11:51": []
    },
    "136": {
        "25/03/2020 14:11:59": [],
        "25/03/2020 16:55:31": [],
        "25/03/2020 19:43:01": [],
        "25/03/2020 21:11:51": []
    },
    "137": {
        "25/03/2020 14:11:59": [],
        "25/03/2020 16:55:32": [],
        "25/03/2020 19:43:01": [],
        "25/03/2020 21:11:51": []
    },
    "1573": {
        "25/03/2020 14:12:00": [],
        "25/03/2020 16:55:32": [],
        "25/03/2020 19:43:01": [],
        "25/03/2020 21:11:52": []
    },
    "1574": {
        "25/03/2020 14:12:01": [],
        "25/03/2020 16:55:33": [],
        "25/03/2020 19:43:02": [],
        "25/03/2020 21:11:52": []
    },
    "1575": {
        "25/03/2020 14:12:01": [],
        "25/03/2020 16:55:33": [],
        "25/03/2020 19:43:02": [],
        "25/03/2020 21:11:52": []
    },
    "1576": {
        "25/03/2020 14:12:02": [],
        "25/03/2020 16:55:34": [],
        "25/03/2020 19:43:02": [],
        "25/03/2020 21:11:53": []
    },
    "1577": {
        "25/03/2020 14:12:03": [],
        "25/03/2020 16:55:34": [],
        "25/03/2020 19:43:03": [],
        "25/03/2020 21:11:53": []
    },
    "1578": {
        "25/03/2020 14:12:04": [],
        "25/03/2020 16:55:35": [],
        "25/03/2020 19:43:03": [],
        "25/03/2020 21:11:53": []
    },
    "1580": {
        "25/03/2020 14:12:04": [],
        "25/03/2020 16:55:35": [],
        "25/03/2020 19:43:03": [],
        "25/03/2020 21:11:53": []
    },
    "1592": {
        "25/03/2020 14:12:06": [],
        "25/03/2020 16:55:36": [],
        "25/03/2020 19:43:04": [],
        "25/03/2020 21:11:54": []
    },
    "1593": {
        "25/03/2020 14:12:06": [],
        "25/03/2020 16:55:36": [],
        "25/03/2020 19:43:04": [],
        "25/03/2020 21:11:54": []
    },
    "1594": {
        "25/03/2020 14:12:07": [],
        "25/03/2020 16:55:37": [],
        "25/03/2020 19:43:04": [],
        "25/03/2020 21:11:54": []
    },
    "1850": {
        "25/03/2020 14:12:07": [],
        "25/03/2020 16:55:38": [],
        "25/03/2020 19:43:05": [],
        "25/03/2020 21:11:55": []
    },
    "1856": {
        "25/03/2020 14:12:08": [],
        "25/03/2020 16:55:38": [],
        "25/03/2020 19:43:05": [],
        "25/03/2020 21:11:55": []
    },
    "1857": {
        "25/03/2020 14:12:09": [],
        "25/03/2020 16:55:39": [],
        "25/03/2020 19:43:05": [],
        "25/03/2020 21:11:55": []
    },
    "1858": {
        "25/03/2020 14:12:10": [],
        "25/03/2020 16:55:39": [],
        "25/03/2020 19:43:05": [],
        "25/03/2020 21:11:55": []
    },
    "1859": {
        "25/03/2020 14:12:10": [],
        "25/03/2020 16:55:40": [],
        "25/03/2020 19:43:06": [],
        "25/03/2020 21:11:56": []
    },
    "1860": {
        "25/03/2020 14:12:11": [],
        "25/03/2020 16:55:40": [],
        "25/03/2020 19:43:06": [],
        "25/03/2020 21:11:56": []
    },
    "1861": {
        "25/03/2020 14:12:12": [],
        "25/03/2020 16:55:41": [],
        "25/03/2020 19:43:06": [],
        "25/03/2020 21:11:56": []
    },
    "1862": {
        "25/03/2020 14:12:13": [],
        "25/03/2020 16:55:41": [],
        "25/03/2020 19:43:07": [],
        "25/03/2020 21:11:57": []
    },
    "1863": {
        "25/03/2020 14:12:13": [],
        "25/03/2020 16:55:42": [],
        "25/03/2020 19:43:07": [],
        "25/03/2020 21:11:57": []
    },
    "1529": {
        "25/03/2020 14:12:14": [],
        "25/03/2020 16:55:42": [],
        "25/03/2020 19:43:07": [],
        "25/03/2020 21:11:57": []
    },
    "1530": {
        "25/03/2020 14:12:15": [],
        "25/03/2020 16:55:43": [],
        "25/03/2020 19:43:08": [],
        "25/03/2020 21:11:58": []
    },
    "1531": {
        "25/03/2020 14:12:16": [],
        "25/03/2020 16:55:43": [],
        "25/03/2020 19:43:08": [],
        "25/03/2020 21:11:58": []
    },
    "1532": {
        "25/03/2020 14:12:16": [],
        "25/03/2020 16:55:44": [],
        "25/03/2020 19:43:08": [],
        "25/03/2020 21:11:58": []
    },
    "1813": {
        "25/03/2020 14:12:17": [],
        "25/03/2020 16:55:45": [],
        "25/03/2020 19:43:09": [],
        "25/03/2020 21:11:59": []
    },
    "1814": {
        "25/03/2020 14:12:18": [],
        "25/03/2020 16:55:45": [],
        "25/03/2020 19:43:09": [],
        "25/03/2020 21:11:59": []
    },
    "1824": {
        "25/03/2020 14:12:18": [],
        "25/03/2020 16:55:46": [],
        "25/03/2020 19:43:09": [],
        "25/03/2020 21:11:59": []
    },
    "1825": {
        "25/03/2020 14:12:19": [],
        "25/03/2020 16:55:46": [],
        "25/03/2020 19:43:10": [],
        "25/03/2020 21:12:00": []
    },
    "1826": {
        "25/03/2020 14:12:20": [],
        "25/03/2020 16:55:47": [],
        "25/03/2020 19:43:10": [],
        "25/03/2020 21:12:00": []
    },
    "1827": {
        "25/03/2020 14:12:20": [],
        "25/03/2020 16:55:47": [],
        "25/03/2020 19:43:10": [],
        "25/03/2020 21:12:00": []
    },
    "1835": {
        "25/03/2020 14:12:21": [],
        "25/03/2020 16:55:48": [],
        "25/03/2020 19:43:10": [],
        "25/03/2020 21:12:00": []
    },
    "1836": {
        "25/03/2020 14:12:21": [],
        "25/03/2020 16:55:48": [],
        "25/03/2020 19:43:11": [],
        "25/03/2020 21:12:01": []
    },
    "1837": {
        "25/03/2020 14:12:22": [],
        "25/03/2020 16:55:49": [],
        "25/03/2020 19:43:11": [],
        "25/03/2020 21:12:01": []
    },
    "2338": {
        "25/03/2020 14:12:23": [],
        "25/03/2020 16:55:49": [],
        "25/03/2020 19:43:11": [],
        "25/03/2020 21:12:01": []
    },
    "4363": {
        "25/03/2020 14:12:23": [],
        "25/03/2020 16:55:50": [],
        "25/03/2020 19:43:12": [],
        "25/03/2020 21:12:01": []
    },
    "4364": {
        "25/03/2020 14:12:24": [],
        "25/03/2020 16:55:50": [],
        "25/03/2020 19:43:12": [],
        "25/03/2020 21:12:02": []
    },
    "4365": {
        "25/03/2020 14:12:24": [],
        "25/03/2020 16:55:51": [],
        "25/03/2020 19:43:12": [],
        "25/03/2020 21:12:02": []
    },
    "4367": {
        "25/03/2020 14:12:25": [],
        "25/03/2020 16:55:51": [],
        "25/03/2020 19:43:13": [],
        "25/03/2020 21:12:02": []
    },
    "4788": {
        "25/03/2020 14:12:26": [],
        "25/03/2020 16:55:52": [],
        "25/03/2020 19:43:13": [],
        "25/03/2020 21:12:02": []
    },
    "4980": {
        "25/03/2020 14:12:26": [],
        "25/03/2020 16:55:53": [],
        "25/03/2020 19:43:13": [],
        "25/03/2020 21:12:03": []
    },
    "6239": {
        "25/03/2020 14:12:27": [],
        "25/03/2020 16:55:53": [],
        "25/03/2020 19:43:13": [],
        "25/03/2020 21:12:03": []
    },
    "6241": {
        "25/03/2020 14:12:28": [],
        "25/03/2020 16:55:54": [],
        "25/03/2020 19:43:14": [],
        "25/03/2020 21:12:04": []
    },
    "102": {
        "25/03/2020 14:12:28": [],
        "25/03/2020 16:55:54": [],
        "25/03/2020 19:43:14": [],
        "25/03/2020 21:12:04": []
    },
    "105": {
        "25/03/2020 14:12:29": [],
        "25/03/2020 16:55:55": [],
        "25/03/2020 19:43:14": [],
        "25/03/2020 21:12:04": []
    },
    "1596": {
        "25/03/2020 14:12:30": [],
        "25/03/2020 16:55:55": [],
        "25/03/2020 19:43:15": [],
        "25/03/2020 21:12:04": []
    },
    "1597": {
        "25/03/2020 14:12:31": [],
        "25/03/2020 16:55:56": [],
        "25/03/2020 19:43:15": [],
        "25/03/2020 21:12:05": []
    },
    "1598": {
        "25/03/2020 14:12:31": [],
        "25/03/2020 16:55:56": [],
        "25/03/2020 19:43:15": [],
        "25/03/2020 21:12:05": []
    },
    "1599": {
        "25/03/2020 14:12:32": [],
        "25/03/2020 16:55:57": [],
        "25/03/2020 19:43:16": [],
        "25/03/2020 21:12:05": []
    },
    "193": {
        "25/03/2020 14:12:32": [],
        "25/03/2020 16:55:57": [],
        "25/03/2020 19:43:16": [],
        "25/03/2020 21:12:06": []
    },
    "6179": {
        "25/03/2020 14:12:33": [],
        "25/03/2020 16:55:58": [],
        "25/03/2020 19:43:16": [],
        "25/03/2020 21:12:06": []
    },
    "6180": {
        "25/03/2020 14:12:34": [],
        "25/03/2020 16:55:58": [],
        "25/03/2020 19:43:17": [],
        "25/03/2020 21:12:06": []
    },
    "7026": {
        "25/03/2020 14:12:34": [],
        "25/03/2020 16:55:59": [],
        "25/03/2020 19:43:17": [],
        "25/03/2020 21:12:06": []
    },
    "7241": {
        "25/03/2020 14:12:35": [],
        "25/03/2020 16:55:59": [],
        "25/03/2020 19:43:17": [],
        "25/03/2020 21:12:07": []
    },
    "7243": {
        "25/03/2020 14:12:36": [],
        "25/03/2020 16:56:00": [],
        "25/03/2020 19:43:18": [],
        "25/03/2020 21:12:07": []
    },
    "7247": {
        "25/03/2020 14:12:36": [],
        "25/03/2020 16:56:00": [],
        "25/03/2020 19:43:18": [],
        "25/03/2020 21:12:07": []
    },
    "7297": {
        "25/03/2020 14:12:37": [],
        "25/03/2020 16:56:01": [],
        "25/03/2020 19:43:18": [],
        "25/03/2020 21:12:08": []
    },
    "7318": {
        "25/03/2020 14:12:38": [],
        "25/03/2020 16:56:01": [],
        "25/03/2020 19:43:19": [],
        "25/03/2020 21:12:08": []
    },
    "7343": {
        "25/03/2020 14:12:38": [],
        "25/03/2020 16:56:02": [],
        "25/03/2020 19:43:19": [],
        "25/03/2020 21:12:08": []
    },
    "6273": {
        "25/03/2020 14:12:39": [],
        "25/03/2020 16:56:02": [],
        "25/03/2020 19:43:19": [],
        "25/03/2020 21:12:09": []
    },
    "7237": {
        "25/03/2020 14:12:40": [],
        "25/03/2020 16:56:03": [],
        "25/03/2020 19:43:20": [],
        "25/03/2020 21:12:09": []
    },
    "1864": {
        "25/03/2020 14:12:40": [],
        "25/03/2020 16:56:03": [],
        "25/03/2020 19:43:20": [],
        "25/03/2020 21:12:09": []
    },
    "1865": {
        "25/03/2020 14:12:41": [],
        "25/03/2020 16:56:04": [],
        "25/03/2020 19:43:20": [],
        "25/03/2020 21:12:09": []
    },
    "1866": {
        "25/03/2020 14:12:41": [],
        "25/03/2020 16:56:05": [],
        "25/03/2020 19:43:20": [],
        "25/03/2020 21:12:10": []
    },
    "1867": {
        "25/03/2020 14:12:42": [],
        "25/03/2020 16:56:06": [],
        "25/03/2020 19:43:21": [],
        "25/03/2020 21:12:10": []
    },
    "1882": {
        "25/03/2020 14:12:43": [],
        "25/03/2020 16:56:06": [],
        "25/03/2020 19:43:21": [],
        "25/03/2020 21:12:10": []
    },
    "2289": {
        "25/03/2020 14:12:43": [],
        "25/03/2020 16:56:07": [],
        "25/03/2020 19:43:21": [],
        "25/03/2020 21:12:11": []
    },
    "2290": {
        "25/03/2020 14:12:44": [],
        "25/03/2020 16:56:07": [],
        "25/03/2020 19:43:21": [],
        "25/03/2020 21:12:11": []
    },
    "4323": {
        "25/03/2020 14:12:44": [],
        "25/03/2020 16:56:08": [],
        "25/03/2020 19:43:22": [],
        "25/03/2020 21:12:11": []
    },
    "4687": {
        "25/03/2020 14:12:45": [],
        "25/03/2020 16:56:09": [],
        "25/03/2020 19:43:22": [],
        "25/03/2020 21:12:11": []
    },
    "661": {
        "25/03/2020 14:12:46": [],
        "25/03/2020 16:56:09": [],
        "25/03/2020 19:43:22": [],
        "25/03/2020 21:12:12": []
    },
    "979": {
        "25/03/2020 14:12:46": [],
        "25/03/2020 16:56:10": [],
        "25/03/2020 19:43:22": [],
        "25/03/2020 21:12:12": []
    },
    "4489": {
        "25/03/2020 14:12:47": [],
        "25/03/2020 16:56:10": [],
        "25/03/2020 19:43:23": [],
        "25/03/2020 21:12:12": []
    },
    "4492": {
        "25/03/2020 14:12:47": [],
        "25/03/2020 16:56:11": [],
        "25/03/2020 19:43:23": [],
        "25/03/2020 21:12:13": []
    },
    "4583": {
        "25/03/2020 14:12:48": [],
        "25/03/2020 16:56:11": [],
        "25/03/2020 19:43:23": [],
        "25/03/2020 21:12:13": []
    },
    "7124": {
        "25/03/2020 14:12:49": [],
        "25/03/2020 16:56:12": [],
        "25/03/2020 19:43:23": [],
        "25/03/2020 21:12:13": []
    },
    "7126": {
        "25/03/2020 14:12:49": [],
        "25/03/2020 16:56:12": [],
        "25/03/2020 19:43:24": [],
        "25/03/2020 21:12:14": []
    },
    "7379": {
        "25/03/2020 14:12:50": [],
        "25/03/2020 16:56:13": [],
        "25/03/2020 19:43:24": [],
        "25/03/2020 21:12:14": []
    },
    "1883": {
        "25/03/2020 14:12:50": [],
        "25/03/2020 16:56:13": [],
        "25/03/2020 19:43:24": [],
        "25/03/2020 21:12:14": []
    },
    "1884": {
        "25/03/2020 14:12:51": [],
        "25/03/2020 16:56:14": [],
        "25/03/2020 19:43:24": [],
        "25/03/2020 21:12:14": []
    },
    "1902": {
        "25/03/2020 14:12:52": [],
        "25/03/2020 16:56:14": [],
        "25/03/2020 19:43:25": [],
        "25/03/2020 21:12:15": []
    },
    "1903": {
        "25/03/2020 14:12:52": [],
        "25/03/2020 16:56:15": [],
        "25/03/2020 19:43:25": [],
        "25/03/2020 21:12:15": []
    },
    "1904": {
        "25/03/2020 14:12:53": [],
        "25/03/2020 16:56:15": [],
        "25/03/2020 19:43:25": [],
        "25/03/2020 21:12:15": []
    },
    "4903": {
        "25/03/2020 14:12:54": [],
        "25/03/2020 16:56:16": [],
        "25/03/2020 19:43:26": [],
        "25/03/2020 21:12:16": []
    },
    "124": {
        "25/03/2020 14:12:54": [],
        "25/03/2020 16:56:16": [],
        "25/03/2020 19:43:26": [],
        "25/03/2020 21:12:16": []
    },
    "1512": {
        "25/03/2020 14:12:55": [],
        "25/03/2020 16:56:17": [],
        "25/03/2020 19:43:26": [],
        "25/03/2020 21:12:16": []
    },
    "1513": {
        "25/03/2020 14:12:56": [],
        "25/03/2020 16:56:17": [],
        "25/03/2020 19:43:27": [],
        "25/03/2020 21:12:17": []
    },
    "1581": {
        "25/03/2020 14:12:56": [],
        "25/03/2020 16:56:18": [],
        "25/03/2020 19:43:27": [],
        "25/03/2020 21:12:17": []
    },
    "1584": {
        "25/03/2020 14:12:57": [],
        "25/03/2020 16:56:18": [],
        "25/03/2020 19:43:27": [],
        "25/03/2020 21:12:17": []
    },
    "1585": {
        "25/03/2020 14:12:58": [],
        "25/03/2020 16:56:19": [],
        "25/03/2020 19:43:28": [],
        "25/03/2020 21:12:17": []
    },
    "1586": {
        "25/03/2020 14:12:59": [],
        "25/03/2020 16:56:19": [],
        "25/03/2020 19:43:28": [],
        "25/03/2020 21:12:18": []
    },
    "1587": {
        "25/03/2020 14:12:59": [],
        "25/03/2020 16:56:20": [],
        "25/03/2020 19:43:28": [],
        "25/03/2020 21:12:18": []
    },
    "1816": {
        "25/03/2020 14:13:00": [],
        "25/03/2020 16:56:20": [],
        "25/03/2020 19:43:29": [],
        "25/03/2020 21:12:18": []
    },
    "1817": {
        "25/03/2020 14:13:00": [],
        "25/03/2020 16:56:21": [],
        "25/03/2020 19:43:29": [],
        "25/03/2020 21:12:18": []
    },
    "1818": {
        "25/03/2020 14:13:01": [],
        "25/03/2020 16:56:21": [],
        "25/03/2020 19:43:29": [],
        "25/03/2020 21:12:19": []
    },
    "1819": {
        "25/03/2020 14:13:01": [],
        "25/03/2020 16:56:22": [],
        "25/03/2020 19:43:30": [],
        "25/03/2020 21:12:19": []
    },
    "1820": {
        "25/03/2020 14:13:02": [],
        "25/03/2020 16:56:23": [],
        "25/03/2020 19:43:30": [],
        "25/03/2020 21:12:19": []
    },
    "1828": {
        "25/03/2020 14:13:02": [],
        "25/03/2020 16:56:23": [],
        "25/03/2020 19:43:30": [],
        "25/03/2020 21:12:20": []
    },
    "1829": {
        "25/03/2020 14:13:03": [],
        "25/03/2020 16:56:24": [],
        "25/03/2020 19:43:30": [],
        "25/03/2020 21:12:20": []
    },
    "1830": {
        "25/03/2020 14:13:03": [],
        "25/03/2020 16:56:24": [],
        "25/03/2020 19:43:31": [],
        "25/03/2020 21:12:20": []
    },
    "1831": {
        "25/03/2020 14:13:04": [],
        "25/03/2020 16:56:25": [],
        "25/03/2020 19:43:31": [],
        "25/03/2020 21:12:20": []
    },
    "1840": {
        "25/03/2020 14:13:04": [],
        "25/03/2020 16:56:25": [],
        "25/03/2020 19:43:31": [],
        "25/03/2020 21:12:21": []
    },
    "1841": {
        "25/03/2020 14:13:05": [],
        "25/03/2020 16:56:26": [],
        "25/03/2020 19:43:32": [],
        "25/03/2020 21:12:21": []
    },
    "1869": {
        "25/03/2020 14:13:05": [],
        "25/03/2020 16:56:27": [],
        "25/03/2020 19:43:32": [],
        "25/03/2020 21:12:21": []
    },
    "1870": {
        "25/03/2020 14:13:06": [],
        "25/03/2020 16:56:27": [],
        "25/03/2020 19:43:32": [],
        "25/03/2020 21:12:22": []
    },
    "1871": {
        "25/03/2020 14:13:06": [],
        "25/03/2020 16:56:28": [],
        "25/03/2020 19:43:33": [],
        "25/03/2020 21:12:22": []
    },
    "1872": {
        "25/03/2020 14:13:07": [],
        "25/03/2020 16:56:28": [],
        "25/03/2020 19:43:33": [],
        "25/03/2020 21:12:22": []
    },
    "1873": {
        "25/03/2020 14:13:08": [],
        "25/03/2020 16:56:29": [],
        "25/03/2020 19:43:33": [],
        "25/03/2020 21:12:22": []
    },
    "1874": {
        "25/03/2020 14:13:08": [],
        "25/03/2020 16:56:29": [],
        "25/03/2020 19:43:34": [],
        "25/03/2020 21:12:23": []
    },
    "1875": {
        "25/03/2020 14:13:09": [],
        "25/03/2020 16:56:30": [],
        "25/03/2020 19:43:34": [],
        "25/03/2020 21:12:23": []
    },
    "1876": {
        "25/03/2020 14:13:09": [],
        "25/03/2020 16:56:30": [],
        "25/03/2020 19:43:34": [],
        "25/03/2020 21:12:23": []
    },
    "1877": {
        "25/03/2020 14:13:10": [],
        "25/03/2020 16:56:31": [],
        "25/03/2020 19:43:35": [],
        "25/03/2020 21:12:24": []
    },
    "1878": {
        "25/03/2020 14:13:10": [],
        "25/03/2020 16:56:31": [],
        "25/03/2020 19:43:35": [],
        "25/03/2020 21:12:24": []
    },
    "1879": {
        "25/03/2020 14:13:11": [],
        "25/03/2020 16:56:32": [],
        "25/03/2020 19:43:35": [],
        "25/03/2020 21:12:24": []
    },
    "1880": {
        "25/03/2020 14:13:11": [],
        "25/03/2020 16:56:32": [],
        "25/03/2020 19:43:36": [],
        "25/03/2020 21:12:25": []
    },
    "1881": {
        "25/03/2020 14:13:12": [],
        "25/03/2020 16:56:33": [],
        "25/03/2020 19:43:36": [],
        "25/03/2020 21:12:25": []
    },
    "2468": {
        "25/03/2020 14:13:12": [],
        "25/03/2020 16:56:33": [],
        "25/03/2020 19:43:36": [],
        "25/03/2020 21:12:25": []
    },
    "4362": {
        "25/03/2020 14:13:13": [],
        "25/03/2020 16:56:34": [],
        "25/03/2020 19:43:37": [],
        "25/03/2020 21:12:25": []
    },
    "4366": {
        "25/03/2020 14:13:13": [],
        "25/03/2020 16:56:34": [],
        "25/03/2020 19:43:37": [],
        "25/03/2020 21:12:26": []
    },
    "4368": {
        "25/03/2020 14:13:14": [],
        "25/03/2020 16:56:35": [],
        "25/03/2020 19:43:37": [],
        "25/03/2020 21:12:26": []
    },
    "4369": {
        "25/03/2020 14:13:14": [],
        "25/03/2020 16:56:36": [],
        "25/03/2020 19:43:38": [],
        "25/03/2020 21:12:26": []
    },
    "4375": {
        "25/03/2020 14:13:15": [],
        "25/03/2020 16:56:36": [],
        "25/03/2020 19:43:38": [],
        "25/03/2020 21:12:27": []
    },
    "4376": {
        "25/03/2020 14:13:16": [],
        "25/03/2020 16:56:37": [],
        "25/03/2020 19:43:38": [],
        "25/03/2020 21:12:27": []
    },
    "107": {
        "25/03/2020 14:13:16": [],
        "25/03/2020 16:56:38": [],
        "25/03/2020 19:43:39": [],
        "25/03/2020 21:12:27": []
    },
    "1600": {
        "25/03/2020 14:13:17": [],
        "25/03/2020 16:56:38": [],
        "25/03/2020 19:43:39": [],
        "25/03/2020 21:12:28": []
    },
    "1601": {
        "25/03/2020 14:13:17": [],
        "25/03/2020 16:56:39": [],
        "25/03/2020 19:43:39": [],
        "25/03/2020 21:12:28": []
    },
    "1602": {
        "25/03/2020 14:13:18": [],
        "25/03/2020 16:56:40": [],
        "25/03/2020 19:43:40": [],
        "25/03/2020 21:12:28": []
    },
    "1603": {
        "25/03/2020 14:13:18": [],
        "25/03/2020 16:56:40": [],
        "25/03/2020 19:43:40": [],
        "25/03/2020 21:12:29": []
    },
    "1604": {
        "25/03/2020 14:13:19": [],
        "25/03/2020 16:56:41": [],
        "25/03/2020 19:43:40": [],
        "25/03/2020 21:12:29": []
    },
    "1606": {
        "25/03/2020 14:13:20": [],
        "25/03/2020 16:56:41": [],
        "25/03/2020 19:43:41": [],
        "25/03/2020 21:12:29": []
    },
    "1607": {
        "25/03/2020 14:13:20": [],
        "25/03/2020 16:56:42": [],
        "25/03/2020 19:43:41": [],
        "25/03/2020 21:12:29": []
    },
    "1608": {
        "25/03/2020 14:13:21": [],
        "25/03/2020 16:56:42": [],
        "25/03/2020 19:43:41": [],
        "25/03/2020 21:12:30": []
    },
    "1609": {
        "25/03/2020 14:13:21": [],
        "25/03/2020 16:56:43": [],
        "25/03/2020 19:43:42": [],
        "25/03/2020 21:12:30": []
    },
    "1610": {
        "25/03/2020 14:13:21": [],
        "25/03/2020 16:56:43": [],
        "25/03/2020 19:43:42": [],
        "25/03/2020 21:12:30": []
    },
    "2960": {
        "25/03/2020 14:13:22": [],
        "25/03/2020 16:56:44": [],
        "25/03/2020 19:43:42": [],
        "25/03/2020 21:12:30": []
    },
    "4464": {
        "25/03/2020 14:13:23": [],
        "25/03/2020 16:56:44": [],
        "25/03/2020 19:43:43": [],
        "25/03/2020 21:12:31": []
    },
    "4479": {
        "25/03/2020 14:13:23": [],
        "25/03/2020 16:56:45": [],
        "25/03/2020 19:43:43": [],
        "25/03/2020 21:12:31": []
    },
    "4493": {
        "25/03/2020 14:13:24": [],
        "25/03/2020 16:56:46": [],
        "25/03/2020 19:43:43": [],
        "25/03/2020 21:12:31": []
    },
    "4686": {
        "25/03/2020 14:13:24": [],
        "25/03/2020 16:56:47": [],
        "25/03/2020 19:43:44": [],
        "25/03/2020 21:12:32": []
    },
    "7224": {
        "25/03/2020 14:13:25": [],
        "25/03/2020 16:56:47": [],
        "25/03/2020 19:43:44": [],
        "25/03/2020 21:12:32": []
    },
    "7238": {
        "25/03/2020 14:13:25": [],
        "25/03/2020 16:56:48": [],
        "25/03/2020 19:43:44": [],
        "25/03/2020 21:12:32": []
    },
    "7471": {
        "25/03/2020 14:13:26": [],
        "25/03/2020 16:56:48": [],
        "25/03/2020 19:43:45": [],
        "25/03/2020 21:12:33": []
    },
    "110": {
        "25/03/2020 14:13:26": [],
        "25/03/2020 16:56:49": [],
        "25/03/2020 19:43:45": [],
        "25/03/2020 21:12:33": []
    },
    "1538": {
        "25/03/2020 14:13:27": [],
        "25/03/2020 16:56:50": [],
        "25/03/2020 19:43:45": [],
        "25/03/2020 21:12:33": []
    },
    "1545": {
        "25/03/2020 14:13:28": [],
        "25/03/2020 16:56:50": [],
        "25/03/2020 19:43:46": [],
        "25/03/2020 21:12:33": []
    },
    "2294": {
        "25/03/2020 14:13:28": [],
        "25/03/2020 16:56:51": [],
        "25/03/2020 19:43:46": [],
        "25/03/2020 21:12:34": []
    },
    "4592": {
        "25/03/2020 14:13:29": [],
        "25/03/2020 16:56:51": [],
        "25/03/2020 19:43:46": [],
        "25/03/2020 21:12:34": []
    },
    "4890": {
        "25/03/2020 14:13:29": [],
        "25/03/2020 16:56:52": [],
        "25/03/2020 19:43:46": [],
        "25/03/2020 21:12:34": []
    },
    "1842": {
        "25/03/2020 14:13:30": [],
        "25/03/2020 16:56:52": [],
        "25/03/2020 19:43:47": [],
        "25/03/2020 21:12:35": []
    },
    "2510": {
        "25/03/2020 14:13:30": [],
        "25/03/2020 16:56:53": [],
        "25/03/2020 19:43:47": [],
        "25/03/2020 21:12:35": []
    },
    "4539": {
        "25/03/2020 14:13:31": [],
        "25/03/2020 16:56:53": [],
        "25/03/2020 19:43:47": [],
        "25/03/2020 21:12:35": []
    },
    "4747": {
        "25/03/2020 14:13:31": [],
        "25/03/2020 16:56:54": [],
        "25/03/2020 19:43:48": [],
        "25/03/2020 21:12:35": []
    },
    "6039": {
        "25/03/2020 14:13:32": [],
        "25/03/2020 16:56:54": [],
        "25/03/2020 19:43:48": [],
        "25/03/2020 21:12:36": []
    },
    "7092": {
        "25/03/2020 14:13:32": [],
        "25/03/2020 16:56:55": [],
        "25/03/2020 19:43:48": [],
        "25/03/2020 21:12:36": []
    },
    "7125": {
        "25/03/2020 14:13:33": [],
        "25/03/2020 16:56:56": [],
        "25/03/2020 19:43:49": [],
        "25/03/2020 21:12:36": []
    },
    "7242": {
        "25/03/2020 14:13:34": [],
        "25/03/2020 16:56:56": [],
        "25/03/2020 19:43:49": [],
        "25/03/2020 21:12:37": []
    },
    "7298": {
        "25/03/2020 14:13:34": [],
        "25/03/2020 16:56:57": [],
        "25/03/2020 19:43:49": [],
        "25/03/2020 21:12:37": []
    },
    "7319": {
        "25/03/2020 14:13:35": [],
        "25/03/2020 16:56:57": [],
        "25/03/2020 19:43:50": [],
        "25/03/2020 21:12:37": []
    },
    "7342": {
        "25/03/2020 14:13:35": [],
        "25/03/2020 16:56:58": [],
        "25/03/2020 19:43:50": [],
        "25/03/2020 21:12:37": []
    },
    "7344": {
        "25/03/2020 14:13:36": [],
        "25/03/2020 16:56:59": [],
        "25/03/2020 19:43:51": [],
        "25/03/2020 21:12:38": []
    },
    "4377": {
        "25/03/2020 14:13:36": [],
        "25/03/2020 16:56:59": [],
        "25/03/2020 19:43:51": [],
        "25/03/2020 21:12:38": []
    },
    "4781": {
        "25/03/2020 14:13:37": [],
        "25/03/2020 16:57:00": [],
        "25/03/2020 19:43:51": [],
        "25/03/2020 21:12:38": []
    },
    "4793": {
        "25/03/2020 14:13:37": [],
        "25/03/2020 16:57:00": [],
        "25/03/2020 19:43:51": [],
        "25/03/2020 21:12:38": []
    },
    "6068": {
        "25/03/2020 14:13:38": [],
        "25/03/2020 16:57:01": [],
        "25/03/2020 19:43:52": [],
        "25/03/2020 21:12:39": []
    }
}