{
    "7277": {
        "27/03/2020 10:52:21": [
            1,
            1,
            1,
            1
        ],
        "27/03/2020 13:06:10": [
            4,
            4,
            4,
            4
        ],
        "27/03/2020 17:02:13": [
            -15,
            -15,
            -10,
            -10,
            -10,
            -10
        ]
    },
    "6363": {
        "27/03/2020 10:52:28": [],
        "27/03/2020 13:06:11": [
            -23,
            -23,
            -23,
            -23
        ],
        "27/03/2020 17:02:14": [
            -11,
            -11,
            2,
            2,
            2
        ]
    },
    "6361": {
        "27/03/2020 10:52:34": [
            29,
            29,
            29,
            29
        ],
        "27/03/2020 13:06:12": [
            -20,
            -20,
            -20,
            -20
        ],
        "27/03/2020 17:02:14": [
            -27,
            -27,
            -27,
            -9,
            -9,
            -9
        ]
    },
    "6367": {
        "27/03/2020 10:52:42": [
            -4,
            -4,
            -4,
            -4
        ],
        "27/03/2020 13:06:13": [
            6,
            6,
            6,
            6
        ],
        "27/03/2020 17:02:15": [
            -5,
            -5,
            -5,
            17,
            17,
            17
        ]
    },
    "4985": {
        "27/03/2020 10:52:47": [
            17,
            17,
            17,
            17
        ],
        "27/03/2020 13:06:14": [
            26,
            26,
            26,
            26
        ],
        "27/03/2020 17:02:15": [
            12,
            12,
            12,
            -24,
            -24,
            -24
        ]
    },
    "6219": {
        "27/03/2020 10:52:53": [
            -29,
            -29,
            -29,
            -29
        ],
        "27/03/2020 13:06:14": [
            -23,
            -23,
            -23
        ],
        "27/03/2020 17:02:16": [
            13,
            13,
            13,
            -15,
            -15,
            -15
        ]
    },
    "6229": {
        "27/03/2020 10:52:58": [
            22,
            22,
            22
        ],
        "27/03/2020 13:06:15": [
            27,
            27,
            27,
            27
        ],
        "27/03/2020 17:02:16": [
            -4,
            -4,
            -4,
            -27,
            -27,
            -27
        ]
    },
    "6364": {
        "27/03/2020 10:53:04": [
            1,
            1,
            1
        ],
        "27/03/2020 13:06:15": [
            7,
            7,
            7,
            7
        ],
        "27/03/2020 17:02:17": [
            -15,
            -15,
            -15,
            11,
            11,
            11
        ]
    },
    "1558": {
        "27/03/2020 10:53:09": [
            17,
            28,
            28,
            28
        ],
        "27/03/2020 13:06:16": [
            -24,
            -24,
            -24,
            -24
        ],
        "27/03/2020 17:02:17": [
            -24,
            -24,
            -24,
            -23,
            -23,
            -23
        ]
    },
    "4542": {
        "27/03/2020 10:53:14": [
            -20,
            21,
            21,
            21
        ],
        "27/03/2020 13:06:16": [
            24,
            24,
            24,
            24
        ],
        "27/03/2020 17:02:18": [
            20,
            20,
            20,
            18,
            18,
            18
        ]
    },
    "1531": {
        "27/03/2020 10:53:20": [
            -13,
            28,
            28,
            28
        ],
        "27/03/2020 13:06:17": [
            14,
            14,
            14,
            14
        ],
        "27/03/2020 17:02:18": [
            82,
            21,
            21,
            21,
            20,
            20,
            20
        ]
    },
    "1532": {
        "27/03/2020 10:53:25": [
            -35,
            6,
            6,
            6
        ],
        "27/03/2020 13:06:18": [
            -15,
            -15,
            -15,
            -15
        ],
        "27/03/2020 17:02:19": [
            52,
            -9,
            -9,
            -9,
            -9,
            -9
        ]
    },
    "1533": {
        "27/03/2020 10:53:30": [
            -45,
            -4,
            -4,
            -4
        ],
        "27/03/2020 13:06:18": [
            28,
            28,
            28,
            28
        ],
        "27/03/2020 17:02:19": [
            31,
            -30,
            -30,
            -30,
            -7,
            -7
        ]
    },
    "1534": {
        "27/03/2020 10:53:36": [
            -46,
            -5,
            -5,
            -5
        ],
        "27/03/2020 13:06:19": [
            19,
            19,
            19,
            19
        ],
        "27/03/2020 17:02:20": [
            77,
            16,
            16,
            16,
            7,
            7
        ]
    },
    "1535": {
        "27/03/2020 10:53:43": [
            -57,
            -16,
            -16,
            -16
        ],
        "27/03/2020 13:06:19": [
            8,
            8,
            8,
            8
        ],
        "27/03/2020 17:02:20": [
            62,
            1,
            1,
            1,
            -17,
            -17
        ]
    },
    "1536": {
        "27/03/2020 10:53:44": [
            -12,
            29,
            29,
            29
        ],
        "27/03/2020 13:06:20": [
            -10,
            -10,
            -10,
            -10
        ],
        "27/03/2020 17:02:21": [
            39,
            -22,
            -22,
            -22,
            17,
            17
        ]
    },
    "1537": {
        "27/03/2020 10:53:44": [
            -24,
            17,
            17,
            17
        ],
        "27/03/2020 13:06:20": [
            -27,
            -27,
            -27,
            -27
        ],
        "27/03/2020 17:02:21": [
            33,
            -28,
            -28,
            -28,
            10,
            10
        ]
    },
    "186": {
        "27/03/2020 10:53:45": [
            -22,
            19,
            19,
            19
        ],
        "27/03/2020 13:06:21": [
            28,
            28,
            28,
            28
        ],
        "27/03/2020 17:02:22": [
            54,
            -18,
            -18,
            -18,
            18,
            18
        ]
    },
    "187": {
        "27/03/2020 10:53:45": [
            -25,
            16,
            16,
            16
        ],
        "27/03/2020 13:06:21": [
            -29,
            -29,
            -29,
            -29
        ],
        "27/03/2020 17:02:22": [
            51,
            -21,
            -21,
            -21,
            18,
            18
        ]
    },
    "188": {
        "27/03/2020 10:53:46": [
            -32,
            9,
            9,
            9
        ],
        "27/03/2020 13:06:22": [
            26,
            26,
            26,
            26
        ],
        "27/03/2020 17:02:23": [
            97,
            25,
            25,
            25,
            7,
            7
        ]
    },
    "189": {
        "27/03/2020 10:53:46": [
            -31,
            10,
            10,
            10
        ],
        "27/03/2020 13:06:22": [
            135,
            28,
            28,
            28
        ],
        "27/03/2020 17:02:23": [
            90,
            18,
            18,
            18,
            4,
            4
        ]
    },
    "190": {
        "27/03/2020 10:53:47": [
            -54,
            -13,
            -13,
            -13
        ],
        "27/03/2020 13:06:23": [
            117,
            10,
            10,
            10
        ],
        "27/03/2020 17:02:24": [
            70,
            -2,
            -2,
            -2,
            -18,
            -18
        ]
    },
    "191": {
        "27/03/2020 10:53:47": [
            -50,
            -9,
            -9,
            -9
        ],
        "27/03/2020 13:06:24": [
            111,
            23,
            23,
            23
        ],
        "27/03/2020 17:02:25": [
            80,
            8,
            8,
            8,
            -13
        ]
    },
    "819": {
        "27/03/2020 10:53:48": [
            -44,
            -3,
            -3
        ],
        "27/03/2020 13:06:24": [
            65,
            -23,
            -23,
            -23
        ],
        "27/03/2020 17:02:25": [
            91,
            19,
            19,
            19,
            -7
        ]
    },
    "264": {
        "27/03/2020 10:53:48": [
            -38,
            -95,
            26,
            26
        ],
        "27/03/2020 13:06:25": [
            104,
            19,
            19,
            19
        ],
        "27/03/2020 17:02:26": [
            7,
            7,
            7,
            7,
            13
        ]
    },
    "6059": {
        "27/03/2020 10:53:49": [
            -62,
            -119,
            2,
            2
        ],
        "27/03/2020 13:06:25": [
            89,
            4,
            4,
            4
        ],
        "27/03/2020 17:02:26": [
            -156,
            -25,
            -25,
            -25,
            -25,
            -13
        ]
    },
    "334": {
        "27/03/2020 10:53:49": [
            -69,
            -121,
            0,
            0
        ],
        "27/03/2020 13:06:26": [
            22,
            22,
            22,
            22
        ],
        "27/03/2020 17:02:27": [
            -159,
            -8,
            -8,
            -8,
            -8,
            -12
        ]
    },
    "7581": {
        "27/03/2020 10:53:50": [
            -23,
            -144,
            -23,
            -23
        ],
        "27/03/2020 13:06:27": [
            25,
            25,
            25,
            25
        ],
        "27/03/2020 17:02:27": [
            582,
            -157,
            -6,
            -6,
            -6,
            -6,
            28
        ]
    },
    "1283": {
        "27/03/2020 10:53:50": [
            10,
            -111,
            10,
            10
        ],
        "27/03/2020 13:06:27": [
            221,
            14,
            14,
            14,
            14
        ],
        "27/03/2020 17:02:28": [
            594,
            -169,
            -18,
            -18,
            -18,
            -18
        ]
    },
    "7579": {
        "27/03/2020 10:53:51": [
            -30,
            -151,
            -30,
            -30
        ],
        "27/03/2020 13:06:28": [
            233,
            26,
            26,
            26
        ],
        "27/03/2020 17:02:28": [
            -32,
            597,
            -157,
            -6,
            -6,
            -6,
            -6
        ]
    },
    "1285": {
        "27/03/2020 10:53:51": [
            0,
            -121,
            0,
            0
        ],
        "27/03/2020 13:06:29": [
            258,
            3,
            3,
            3
        ],
        "27/03/2020 17:02:29": [
            -66,
            633,
            -176,
            -25,
            -25,
            -25
        ]
    },
    "1016": {
        "27/03/2020 10:53:52": [
            19,
            -102,
            19
        ],
        "27/03/2020 13:06:29": [
            283,
            28,
            28,
            28
        ],
        "27/03/2020 17:02:29": [
            -44,
            591,
            -148,
            3,
            3,
            3,
            3
        ]
    },
    "1017": {
        "27/03/2020 10:53:52": [
            -11,
            -132,
            -11
        ],
        "27/03/2020 13:06:30": [
            260,
            5,
            5,
            5
        ],
        "27/03/2020 17:02:30": [
            -70,
            571,
            -174,
            -23,
            -23,
            -23,
            -23
        ]
    },
    "1018": {
        "27/03/2020 10:53:53": [
            20,
            -101,
            20
        ],
        "27/03/2020 13:06:30": [
            238,
            -17,
            -17,
            -17
        ],
        "27/03/2020 17:02:30": [
            -49,
            613,
            -138,
            13,
            13,
            13,
            13
        ]
    },
    "1019": {
        "27/03/2020 10:53:53": [
            -12,
            -133,
            -12
        ],
        "27/03/2020 13:06:30": [
            266,
            11,
            11,
            11
        ],
        "27/03/2020 17:02:31": [
            -84,
            582,
            -173,
            -22,
            -22,
            -22,
            -22
        ]
    },
    "1020": {
        "27/03/2020 10:53:54": [
            22,
            -99,
            22
        ],
        "27/03/2020 13:06:31": [
            240,
            -15,
            -15,
            -15
        ],
        "27/03/2020 17:02:31": [
            -69,
            619,
            -141,
            10,
            10,
            10,
            10
        ]
    },
    "1076": {
        "27/03/2020 10:53:54": [
            10,
            -111,
            10
        ],
        "27/03/2020 13:06:32": [
            228,
            -27,
            -27,
            -27
        ],
        "27/03/2020 17:02:32": [
            -85,
            610,
            -157,
            -6,
            -6,
            -6,
            -6
        ]
    },
    "1021": {
        "27/03/2020 10:53:55": [
            -3,
            -124,
            -3
        ],
        "27/03/2020 13:06:32": [
            275,
            20,
            20,
            20
        ],
        "27/03/2020 17:02:32": [
            -102,
            600,
            -174,
            -23,
            -23,
            -23,
            -23
        ]
    },
    "6042": {
        "27/03/2020 10:53:55": [
            23,
            -98,
            23
        ],
        "27/03/2020 13:06:33": [
            235,
            -20,
            -20,
            -20
        ],
        "27/03/2020 17:02:33": [
            1,
            559,
            -150,
            1,
            1,
            1,
            1
        ]
    },
    "1022": {
        "27/03/2020 10:53:55": [
            -23,
            -144,
            -23
        ],
        "27/03/2020 13:06:34": [
            245,
            -10,
            -10,
            -10
        ],
        "27/03/2020 17:02:34": [
            13,
            571,
            -138,
            13,
            13,
            13,
            13
        ]
    },
    "1023": {
        "27/03/2020 10:53:56": [],
        "27/03/2020 13:06:34": [
            284,
            29,
            29,
            29
        ],
        "27/03/2020 17:02:34": [
            0,
            612,
            -151,
            0,
            0,
            0,
            0
        ]
    },
    "1024": {
        "27/03/2020 10:53:56": [
            -5,
            -126,
            -5
        ],
        "27/03/2020 13:06:35": [
            244,
            -11,
            -11,
            -11
        ],
        "27/03/2020 17:02:35": [
            24,
            573,
            -127,
            24,
            24,
            24
        ]
    },
    "895": {
        "27/03/2020 10:53:57": [],
        "27/03/2020 13:06:35": [],
        "27/03/2020 17:02:35": []
    },
    "7589": {
        "27/03/2020 10:53:57": [],
        "27/03/2020 13:06:36": [],
        "27/03/2020 17:02:36": []
    },
    "274": {
        "27/03/2020 10:53:58": [
            -28,
            -28,
            -28,
            -28
        ],
        "27/03/2020 13:06:36": [
            14,
            14,
            14,
            14
        ],
        "27/03/2020 17:02:36": [
            -27,
            -27,
            -27,
            -27,
            -13,
            -13
        ]
    },
    "7": {
        "27/03/2020 10:53:58": [
            -11,
            -11,
            -11,
            -11
        ],
        "27/03/2020 13:06:37": [
            9,
            9,
            9
        ],
        "27/03/2020 17:02:37": [
            -86,
            -18,
            -18,
            -18,
            -18,
            10
        ]
    },
    "194": {
        "27/03/2020 10:53:59": [
            1,
            1,
            1,
            1
        ],
        "27/03/2020 13:06:38": [
            21,
            21,
            21
        ],
        "27/03/2020 17:02:37": [
            -76,
            -8,
            -8,
            -8,
            -8,
            16
        ]
    },
    "195": {
        "27/03/2020 10:53:59": [
            2,
            2
        ],
        "27/03/2020 13:06:38": [
            22,
            22,
            22
        ],
        "27/03/2020 17:02:38": [
            -92,
            -4,
            -4,
            -4,
            -4,
            25
        ]
    },
    "196": {
        "27/03/2020 10:53:59": [
            -19,
            -19
        ],
        "27/03/2020 13:06:39": [
            1,
            1,
            1
        ],
        "27/03/2020 17:02:38": [
            -112,
            -24,
            -24,
            -24,
            -24,
            8
        ]
    },
    "197": {
        "27/03/2020 10:54:00": [
            19,
            19,
            19
        ],
        "27/03/2020 13:06:39": [
            -185,
            -11,
            -11,
            -11
        ],
        "27/03/2020 17:02:39": [
            -68,
            20,
            20,
            20,
            20,
            -10
        ]
    },
    "198": {
        "27/03/2020 10:54:01": [
            -111,
            11,
            11,
            11
        ],
        "27/03/2020 13:06:40": [
            -180,
            -6,
            -6,
            -6
        ],
        "27/03/2020 17:02:39": [
            -68,
            20,
            20,
            20,
            20,
            -12
        ]
    },
    "199": {
        "27/03/2020 10:54:01": [
            -98,
            -13,
            -13,
            -13
        ],
        "27/03/2020 13:06:40": [
            -200,
            -26,
            -26,
            -26
        ],
        "27/03/2020 17:02:40": [
            -84,
            4,
            4,
            4,
            4,
            21
        ]
    },
    "1506": {
        "27/03/2020 10:54:01": [
            -98,
            -13,
            -13,
            -13
        ],
        "27/03/2020 13:06:41": [
            -194,
            -20,
            -20,
            -20
        ],
        "27/03/2020 17:02:40": [
            -114,
            16,
            16,
            16,
            16,
            16
        ]
    },
    "1507": {
        "27/03/2020 10:54:02": [
            -72,
            13,
            13,
            13
        ],
        "27/03/2020 13:06:42": [
            -170,
            4,
            4,
            4
        ],
        "27/03/2020 17:02:41": [
            -147,
            -17,
            -17,
            -17,
            -17,
            -23
        ]
    },
    "1508": {
        "27/03/2020 10:54:02": [
            -98,
            -13,
            -13,
            -13
        ],
        "27/03/2020 13:06:42": [
            -24,
            -24,
            -24,
            -24
        ],
        "27/03/2020 17:02:41": [
            -111,
            19,
            19,
            19,
            19,
            5
        ]
    },
    "1509": {
        "27/03/2020 10:54:03": [
            -101,
            -16,
            -16,
            -16
        ],
        "27/03/2020 13:06:43": [
            -191,
            -17,
            -17,
            -17
        ],
        "27/03/2020 17:02:42": [
            -116,
            14,
            14,
            14,
            14,
            4
        ]
    },
    "1510": {
        "27/03/2020 10:54:03": [
            -107,
            -22,
            -22,
            -22
        ],
        "27/03/2020 13:06:43": [
            -188,
            -14,
            -14,
            -14
        ],
        "27/03/2020 17:02:42": [
            -123,
            7,
            7,
            7,
            7
        ]
    },
    "1511": {
        "27/03/2020 10:54:04": [
            -89,
            -4,
            -4,
            -4
        ],
        "27/03/2020 13:06:44": [
            -168,
            6,
            6,
            6
        ],
        "27/03/2020 17:02:43": [
            -105,
            25,
            25,
            25,
            25
        ]
    },
    "1512": {
        "27/03/2020 10:54:04": [
            -121,
            1,
            1,
            1
        ],
        "27/03/2020 13:06:45": [
            -105,
            21,
            21,
            21
        ],
        "27/03/2020 17:02:43": [
            -225,
            -157,
            -27,
            -27,
            -27,
            -27
        ]
    },
    "1538": {
        "27/03/2020 10:54:05": [
            -133,
            -11,
            -11,
            -11
        ],
        "27/03/2020 13:06:45": [
            -116,
            10,
            10,
            10
        ],
        "27/03/2020 17:02:44": [
            -219,
            -151,
            -21,
            -21,
            -21,
            -21
        ]
    },
    "4543": {
        "27/03/2020 10:54:05": [
            -97,
            25,
            25,
            25
        ],
        "27/03/2020 13:06:46": [
            -139,
            -13,
            -13,
            -13
        ],
        "27/03/2020 17:02:44": [
            -170,
            -102,
            28,
            28,
            28,
            28
        ]
    },
    "1560": {
        "27/03/2020 10:54:05": [
            243,
            -133,
            -11,
            -11,
            -11
        ],
        "27/03/2020 13:06:46": [
            -106,
            20,
            20
        ],
        "27/03/2020 17:02:45": [
            -176,
            -127,
            3,
            3,
            3,
            3
        ]
    },
    "1280": {
        "27/03/2020 10:54:06": [
            198,
            -141,
            -19,
            -19,
            -19
        ],
        "27/03/2020 13:06:47": [
            -114,
            12,
            12
        ],
        "27/03/2020 17:02:45": [
            -187,
            -138,
            -8,
            -8,
            -8
        ]
    },
    "6366": {
        "27/03/2020 10:54:06": [
            196,
            -143,
            -21,
            -21,
            -21
        ],
        "27/03/2020 13:06:47": [
            -108,
            18,
            18
        ],
        "27/03/2020 17:02:46": [
            -175,
            -126,
            4,
            4,
            4
        ]
    },
    "6230": {
        "27/03/2020 10:54:07": [
            188,
            -151,
            -29,
            -29
        ],
        "27/03/2020 13:06:48": [
            -109,
            17,
            17
        ],
        "27/03/2020 17:02:46": [
            -170,
            -121,
            9,
            9,
            9
        ]
    },
    "6228": {
        "27/03/2020 10:54:07": [
            239,
            -100,
            22,
            22
        ],
        "27/03/2020 13:06:49": [
            -110,
            16,
            16
        ],
        "27/03/2020 17:02:47": [
            114,
            -166,
            -117,
            13,
            13,
            13
        ]
    },
    "7111": {
        "27/03/2020 10:54:08": [
            236,
            -103,
            19,
            19
        ],
        "27/03/2020 13:06:49": [
            -110,
            16,
            16
        ],
        "27/03/2020 17:02:47": [
            120,
            -160,
            -111,
            19,
            19,
            19
        ]
    },
    "6365": {
        "27/03/2020 10:54:08": [
            209,
            -130,
            -8,
            -8
        ],
        "27/03/2020 13:06:50": [
            -136,
            -10,
            -10
        ],
        "27/03/2020 17:02:48": [
            98,
            -181,
            -132,
            -2,
            -2,
            -2
        ]
    },
    "6276": {
        "27/03/2020 10:54:09": [
            233,
            -106,
            16,
            16
        ],
        "27/03/2020 13:06:50": [
            -111,
            15,
            15
        ],
        "27/03/2020 17:02:48": [
            125,
            -154,
            -105,
            25,
            25,
            25
        ]
    },
    "6362": {
        "27/03/2020 10:54:09": [
            210,
            -129,
            -7,
            -7
        ],
        "27/03/2020 13:06:51": [
            -131,
            -5,
            -5
        ],
        "27/03/2020 17:02:49": [
            97,
            -178,
            -129,
            1,
            1,
            1
        ]
    },
    "7276": {
        "27/03/2020 10:54:09": [
            123,
            -142,
            -20,
            -20
        ],
        "27/03/2020 13:06:51": [
            -137,
            -11,
            -11
        ],
        "27/03/2020 17:02:49": [
            78,
            -290,
            -144,
            -14,
            -14,
            -14
        ]
    },
    "7149": {
        "27/03/2020 10:54:10": [
            0,
            0,
            0,
            0
        ],
        "27/03/2020 13:06:52": [
            0,
            0,
            0,
            0
        ],
        "27/03/2020 17:02:50": [
            0,
            0,
            0,
            0,
            0,
            0
        ]
    },
    "896": {
        "27/03/2020 10:54:10": [
            0,
            0,
            0,
            0
        ],
        "27/03/2020 13:06:52": [
            0,
            0,
            0,
            0
        ],
        "27/03/2020 17:02:50": [
            0,
            0,
            0,
            0,
            0
        ]
    },
    "897": {
        "27/03/2020 10:54:11": [
            -21,
            -21,
            -21,
            -21
        ],
        "27/03/2020 13:06:53": [
            -20,
            -20,
            -20,
            -20
        ],
        "27/03/2020 17:02:51": [
            -18,
            -18,
            -26,
            -26,
            -26
        ]
    },
    "893": {
        "27/03/2020 10:54:11": [
            12,
            12,
            12,
            12
        ],
        "27/03/2020 13:06:53": [
            13,
            13,
            13,
            13
        ],
        "27/03/2020 17:02:52": [
            17,
            17,
            3,
            3,
            3
        ]
    },
    "894": {
        "27/03/2020 10:54:12": [
            -1,
            -1,
            -1,
            -1
        ],
        "27/03/2020 13:06:54": [
            0,
            0,
            0,
            0
        ],
        "27/03/2020 17:02:52": [
            6,
            6,
            -17,
            -17
        ]
    },
    "1067": {
        "27/03/2020 10:54:12": [
            -28,
            -28,
            -28,
            -28
        ],
        "27/03/2020 13:06:54": [
            -26,
            -26,
            -26,
            -26
        ],
        "27/03/2020 17:02:53": [
            15,
            -18,
            -18,
            12,
            12,
            12
        ]
    },
    "1068": {
        "27/03/2020 10:54:13": [
            26,
            26,
            26,
            26
        ],
        "27/03/2020 13:06:55": [
            29,
            29,
            29,
            29
        ],
        "27/03/2020 17:02:53": [
            12,
            -21,
            -21,
            -1,
            -1
        ]
    },
    "1069": {
        "27/03/2020 10:54:13": [
            -29,
            -29,
            -29,
            -29
        ],
        "27/03/2020 13:06:55": [
            -22,
            -22,
            -22,
            -22
        ],
        "27/03/2020 17:02:54": [
            -6,
            -6,
            -6,
            6,
            6
        ]
    },
    "1070": {
        "27/03/2020 10:54:14": [
            11,
            11,
            11,
            11
        ],
        "27/03/2020 13:06:56": [
            19,
            19,
            19,
            19
        ],
        "27/03/2020 17:02:54": [
            -22,
            -22,
            -22,
            -13,
            -13
        ]
    },
    "1071": {
        "27/03/2020 10:54:14": [
            6,
            6,
            6,
            6
        ],
        "27/03/2020 13:06:56": [
            111,
            17,
            17,
            17,
            17
        ],
        "27/03/2020 17:02:55": [
            -19,
            -19,
            -19,
            -17,
            -17
        ]
    },
    "4528": {
        "27/03/2020 10:54:15": [
            -18,
            -18,
            -18,
            -18
        ],
        "27/03/2020 13:06:57": [
            83,
            -11,
            -11,
            -11,
            -11
        ],
        "27/03/2020 17:02:55": [
            81,
            17,
            17,
            11,
            11
        ]
    },
    "1072": {
        "27/03/2020 10:54:15": [
            -26,
            -26,
            -26,
            -26
        ],
        "27/03/2020 13:06:57": [
            31,
            -25,
            -25,
            -25
        ],
        "27/03/2020 17:02:56": [
            7,
            7,
            7,
            -10,
            -10
        ]
    },
    "7577": {
        "27/03/2020 10:54:16": [
            -30,
            -30,
            -30
        ],
        "27/03/2020 13:06:58": [
            84,
            28,
            28,
            28
        ],
        "27/03/2020 17:02:56": [
            14,
            14,
            14,
            -20,
            -20
        ]
    },
    "1353": {
        "27/03/2020 10:54:16": [
            62,
            18,
            18,
            18
        ],
        "27/03/2020 13:06:58": [
            70,
            14,
            14,
            14
        ],
        "27/03/2020 17:02:57": [
            11,
            11,
            11,
            24,
            24
        ]
    },
    "1354": {
        "27/03/2020 10:54:16": [
            66,
            22,
            22,
            22
        ],
        "27/03/2020 13:06:59": [
            88,
            15,
            15,
            15
        ],
        "27/03/2020 17:02:57": [
            27,
            27,
            27,
            22,
            22
        ]
    },
    "7578": {
        "27/03/2020 10:54:17": [
            -10,
            -10,
            -10,
            -10
        ],
        "27/03/2020 13:06:59": [
            51,
            -22,
            -22,
            -22
        ],
        "27/03/2020 17:02:58": [
            91,
            -3,
            -3,
            -3,
            3,
            3
        ]
    },
    "7582": {
        "27/03/2020 10:54:17": [
            -27,
            -27,
            -27,
            -27
        ],
        "27/03/2020 13:07:00": [
            87,
            14,
            14,
            14
        ],
        "27/03/2020 17:02:58": [
            98,
            9,
            9,
            9,
            -3,
            -3
        ]
    },
    "319": {
        "27/03/2020 10:54:18": [
            -24,
            -24,
            -24,
            -24
        ],
        "27/03/2020 13:07:00": [
            9,
            9,
            9,
            9
        ],
        "27/03/2020 17:02:59": [
            60,
            -12,
            -12,
            -12,
            13,
            13
        ]
    }
}